temp_filter,internal,,
,filter_period_s,const,0.2
,time_constant_s,const,10
,warning.min_c,const,15
,warning.max_c,const,37
,invalid.min_c,const,5
,invalid.max_c,const,60
,max_delta_temp_c,const,1
,,,
temp_filter,dcct_a,,
,filter_period_s,const,0.2
,time_constant_s_p,const,&equipdev.device[device_index].dcct.tau_temp
,warning.min_c,const,15
,warning.max_c,const,45
,invalid.min_c,const,5
,invalid.max_c,const,60
,max_delta_temp_c,const,1
,,,
temp_filter,dcct_b,,
,filter_period_s,const,0.2
,time_constant_s_p,const,&equipdev.device[device_index].dcct.tau_temp
,warning.min_c,const,15
,warning.max_c,const,45
,invalid.min_c,const,5
,invalid.max_c,const,60
,max_delta_temp_c,const,1
,,,
cal_ref,internal,,
,temp_c,const,NULL
,,,
cal_ref,external,,
,temp_c,const,NULL
,,,
transducer,dcct_a,,
,primary_turns_p,const,&equipdev.device[device_index].dcct.primary_turns
,position,const,SIG_TRANSDUCER_POSITION_CONVERTER
,cal.cal_ref_index,cal_ref,external
,cal.temp_filter_index,temp_filter,dcct_a
,cal.cal_limit_index,cal_limit,dcct
,,,
transducer,dcct_b,,
,primary_turns_p,const,&equipdev.device[device_index].dcct.primary_turns
,position,const,SIG_TRANSDUCER_POSITION_CONVERTER
,cal.cal_ref_index,cal_ref,external
,cal.temp_filter_index,temp_filter,dcct_b
,cal.cal_limit_index,cal_limit,dcct
,,,
transducer,v_meas,,
,position,const,SIG_TRANSDUCER_POSITION_CONVERTER
,cal.cal_ref_index,const,SIG_NOT_IN_USE
,cal.temp_filter_index,const,SIG_NOT_IN_USE
,cal.cal_limit_index,const,SIG_NOT_IN_USE
,nominal_gain,const,0
,,,
adc,adc_a,,
,cal.cal_ref_index,cal_ref,internal
,cal.temp_filter_index,temp_filter,internal
,cal.cal_limit_index,cal_limit,fgclite
,max_invalid_samples,const,2
,cal_num_samples,const,1000
,transducer_index,transducer,dcct_a
,,,
adc,adc_b,,
,cal.cal_ref_index,cal_ref,internal
,cal.temp_filter_index,temp_filter,internal
,cal.cal_limit_index,cal_limit,fgclite
,max_invalid_samples,const,2
,cal_num_samples,const,1000
,transducer_index,transducer,dcct_b
,,,
adc,adc_c,,
,cal.cal_ref_index,cal_ref,internal
,cal.temp_filter_index,temp_filter,internal
,cal.cal_limit_index,cal_limit,fgclite
,max_invalid_samples,const,2
,cal_num_samples,const,1000
,transducer_index,transducer,v_meas
,,,
select,i_meas,,
,transducer_a_index,transducer,dcct_a
,transducer_b_index,transducer,dcct_b
,diff_warn_limit,const,1
,diff_fault_warn_ratio,const,10
,,,
#,EOF,,
