source:ccrt device:L3_Q1 epoch:1673450477 timeOrigin:10.900000000 firstSampleTime:0.600000000 period:0.010000000 name:ILC_FLAGS type:digital,ILC_CYCLING,ILC_ERR,ILC_L_CALC,ILC_Q_CALC,ILC_REF_RUN,ILC_REF_ARM
0.600000000,1,0,0,0,0,0
0.610000000,1,0,0,0,0,0
0.620000000,1,0,0,0,0,0
0.630000000,1,0,0,0,0,0
0.640000000,1,0,0,0,0,0
0.650000000,1,0,0,0,0,0
0.660000000,1,0,0,0,0,0
0.670000000,1,0,0,0,0,0
0.680000000,1,0,0,0,0,0
0.690000000,1,0,0,0,0,0
0.700000000,1,0,0,0,0,0
0.710000000,1,0,0,0,0,0
0.720000000,1,0,0,0,0,0
0.730000000,1,0,0,0,0,0
0.740000000,1,0,0,0,0,0
0.750000000,1,0,0,0,0,0
0.760000000,1,0,0,0,0,0
0.770000000,1,0,0,0,0,0
0.780000000,1,0,0,0,0,0
0.790000000,1,0,0,0,0,0
0.800000000,1,0,0,0,0,0
0.810000000,1,0,0,0,0,0
0.820000000,1,0,0,0,0,0
0.830000000,1,0,0,0,0,0
0.840000000,1,0,0,0,0,0
0.850000000,1,0,0,0,0,0
0.860000000,1,0,0,0,0,0
0.870000000,1,0,0,0,0,0
0.880000000,1,0,0,0,0,0
0.890000000,1,0,0,0,0,0
0.900000000,1,0,0,0,0,0
0.910000000,1,0,0,0,0,0
0.920000000,1,0,0,0,0,0
0.930000000,1,0,0,0,0,0
0.940000000,1,0,0,0,0,0
0.950000000,1,0,0,0,0,0
0.960000000,1,0,0,0,0,0
0.970000000,1,0,0,0,0,0
0.980000000,1,0,0,0,0,0
0.990000000,1,0,0,0,0,0
1.000000000,1,0,0,0,0,0
1.010000000,1,0,0,0,0,0
1.020000000,1,0,0,0,0,0
1.030000000,1,0,0,0,0,0
1.040000000,1,0,0,0,0,0
1.050000000,1,0,0,0,0,0
1.060000000,1,0,0,0,0,0
1.070000000,1,0,0,0,0,0
1.080000000,1,0,0,0,1,0
1.090000000,1,0,0,0,1,0
1.100000000,1,0,1,0,1,0
1.110000000,1,0,1,0,1,0
1.120000000,1,0,1,1,1,0
1.130000000,1,1,1,1,1,0
1.140000000,1,1,1,1,1,0
1.150000000,1,1,1,1,1,0
1.160000000,1,1,1,1,1,0
1.170000000,1,1,1,1,1,0
1.180000000,1,1,1,1,1,0
1.190000000,1,1,1,1,1,0
1.200000000,1,1,1,1,1,0
1.210000000,1,1,1,1,1,0
1.220000000,1,1,1,1,1,0
1.230000000,1,1,1,1,1,0
1.240000000,1,1,1,1,1,0
1.250000000,1,1,1,1,1,0
1.260000000,1,1,1,1,1,0
1.270000000,1,1,1,1,1,0
1.280000000,1,1,1,1,1,0
1.290000000,1,1,1,1,1,0
1.300000000,1,1,1,1,1,0
1.310000000,1,1,1,1,1,0
1.320000000,1,1,1,1,1,0
1.330000000,1,1,1,1,1,0
1.340000000,1,1,1,1,1,0
1.350000000,1,1,1,1,1,0
1.360000000,1,1,1,1,1,0
1.370000000,1,1,1,1,1,0
1.380000000,1,1,1,1,1,0
1.390000000,1,1,1,1,1,0
1.400000000,1,1,1,1,1,0
1.410000000,1,1,1,0,1,0
1.420000000,1,0,1,0,1,0
1.430000000,1,0,1,0,1,0
1.440000000,1,0,1,0,1,0
1.450000000,1,0,1,0,1,0
1.460000000,1,0,1,0,1,0
1.470000000,1,0,1,0,1,0
1.480000000,1,0,1,0,1,0
1.490000000,1,0,1,0,1,0
1.500000000,1,0,1,0,1,0
1.510000000,0,0,0,0,0,0
1.520000000,1,0,0,0,0,1
1.530000000,1,0,0,0,0,1
1.540000000,1,0,0,0,0,1
1.550000000,1,0,0,0,0,1
1.560000000,1,0,0,0,0,1
1.570000000,1,0,0,0,0,1
1.580000000,1,0,0,0,0,1
1.590000000,1,0,0,0,0,1
1.600000000,1,0,0,0,0,1
1.610000000,1,0,0,0,0,1
1.620000000,1,0,0,0,0,1
1.630000000,1,0,0,0,0,1
1.640000000,1,0,0,0,0,1
1.650000000,1,0,0,0,0,1
1.660000000,1,0,0,0,0,1
1.670000000,1,0,0,0,0,1
1.680000000,1,0,0,0,0,1
1.690000000,1,0,0,0,0,1
1.700000000,1,0,0,0,0,1
1.710000000,1,0,0,0,0,1
1.720000000,1,0,0,0,0,1
1.730000000,1,0,0,0,0,1
1.740000000,1,0,0,0,0,1
1.750000000,1,0,0,0,0,1
1.760000000,1,0,0,0,0,1
1.770000000,1,0,0,0,0,1
1.780000000,1,0,0,0,0,1
1.790000000,1,0,0,0,0,1
1.800000000,1,0,0,0,0,1
1.810000000,1,0,0,0,0,1
1.820000000,1,0,0,0,0,1
1.830000000,1,0,0,0,0,1
1.840000000,1,0,0,0,0,1
1.850000000,1,0,0,0,0,1
1.860000000,1,0,0,0,0,1
1.870000000,1,0,0,0,0,1
1.880000000,1,0,0,0,0,1
1.890000000,1,0,0,0,0,1
1.900000000,1,0,0,0,0,1
1.910000000,1,0,0,0,0,1
1.920000000,1,0,0,0,0,1
1.930000000,1,0,0,0,0,1
1.940000000,1,0,0,0,0,1
1.950000000,1,0,0,0,0,1
1.960000000,1,0,0,0,0,1
1.970000000,1,0,0,0,0,1
1.980000000,1,0,0,0,0,1
1.990000000,1,0,0,0,0,1
2.000000000,1,0,0,0,0,1
2.010000000,1,0,0,0,0,1
2.020000000,1,0,0,0,0,1
2.030000000,1,0,0,0,0,1
2.040000000,1,0,0,0,0,1
2.050000000,1,0,0,0,0,1
2.060000000,1,0,0,0,0,1
2.070000000,1,0,0,0,0,1
2.080000000,1,0,0,0,1,1
2.090000000,1,0,0,0,1,1
2.100000000,1,0,1,0,1,1
2.110000000,1,0,1,0,1,1
2.120000000,1,0,1,1,1,1
2.130000000,1,1,1,1,1,1
2.140000000,1,1,1,1,1,1
2.150000000,1,1,1,1,1,1
2.160000000,1,1,1,1,1,1
2.170000000,1,1,1,1,1,1
2.180000000,1,1,1,1,1,1
2.190000000,1,1,1,1,1,1
2.200000000,1,1,1,1,1,1
2.210000000,1,1,1,1,1,1
2.220000000,1,1,1,1,1,1
2.230000000,1,1,1,1,1,1
2.240000000,1,1,1,1,1,1
2.250000000,1,1,1,1,1,1
2.260000000,1,1,1,1,1,1
2.270000000,1,1,1,1,1,1
2.280000000,1,1,1,1,1,1
2.290000000,1,1,1,1,1,1
2.300000000,1,1,1,1,1,1
2.310000000,1,1,1,1,1,1
2.320000000,1,1,1,1,1,1
2.330000000,1,1,1,1,1,1
2.340000000,1,1,1,1,1,1
2.350000000,1,1,1,1,1,1
2.360000000,1,1,1,1,1,1
2.370000000,1,1,1,1,0,1
2.380000000,1,1,1,1,0,1
2.390000000,1,1,1,1,0,1
2.400000000,1,1,1,1,0,1
2.410000000,1,0,1,0,0,1
2.420000000,1,0,1,0,0,1
2.430000000,1,0,1,0,0,1
2.440000000,1,0,1,0,0,1
2.450000000,1,0,1,0,0,1
2.460000000,1,0,1,0,0,1
2.470000000,1,0,1,0,0,1
2.480000000,0,0,0,0,0,0
2.490000000,1,0,0,0,0,1
2.500000000,1,0,0,0,0,1
2.510000000,1,0,0,0,0,1
2.520000000,1,0,0,0,0,1
2.530000000,1,0,0,0,0,1
2.540000000,1,0,0,0,0,1
2.550000000,1,0,0,0,0,1
2.560000000,1,0,0,0,0,1
2.570000000,1,0,0,0,0,1
2.580000000,1,0,0,0,0,1
2.590000000,1,0,0,0,0,1
2.600000000,1,0,0,0,0,1
2.610000000,1,0,0,0,0,1
2.620000000,1,0,0,0,0,1
2.630000000,1,0,0,0,0,1
2.640000000,1,0,0,0,0,1
2.650000000,1,0,0,0,0,1
2.660000000,1,0,0,0,0,1
2.670000000,1,0,0,0,0,1
2.680000000,1,0,0,0,0,1
2.690000000,1,0,0,0,0,1
2.700000000,1,0,0,0,0,1
2.710000000,1,0,0,0,0,1
2.720000000,1,0,0,0,0,1
2.730000000,1,0,0,0,0,1
2.740000000,1,0,0,0,0,1
2.750000000,1,0,0,0,0,1
2.760000000,1,0,0,0,0,1
2.770000000,1,0,0,0,0,1
2.780000000,1,0,0,0,0,1
2.790000000,1,0,0,0,0,1
2.800000000,1,0,0,0,0,1
2.810000000,1,0,0,0,0,1
2.820000000,1,0,0,0,0,1
2.830000000,1,0,0,0,0,1
2.840000000,1,0,0,0,0,1
2.850000000,1,0,0,0,0,1
2.860000000,1,0,0,0,0,1
2.870000000,1,0,0,0,0,1
2.880000000,1,0,0,0,0,1
2.890000000,1,0,0,0,0,1
2.900000000,1,0,0,0,0,1
2.910000000,1,0,0,0,0,1
2.920000000,1,0,0,0,0,1
2.930000000,1,0,0,0,0,1
2.940000000,1,0,0,0,0,1
2.950000000,1,0,0,0,0,1
2.960000000,1,0,0,0,0,1
2.970000000,1,0,0,0,0,1
2.980000000,1,0,0,0,0,1
2.990000000,1,0,0,0,0,1
3.000000000,1,0,0,0,0,1
3.010000000,1,0,0,0,0,1
3.020000000,1,0,0,0,0,1
3.030000000,1,0,0,0,0,1
3.040000000,1,0,0,0,0,1
3.050000000,1,0,0,0,0,1
3.060000000,1,0,0,0,0,1
3.070000000,1,0,0,0,0,1
3.080000000,1,0,0,0,1,1
3.090000000,1,0,0,0,1,1
3.100000000,1,0,1,0,1,1
3.110000000,1,0,1,0,1,1
3.120000000,1,0,1,1,1,1
3.130000000,1,1,1,1,1,1
3.140000000,1,1,1,1,1,1
3.150000000,1,1,1,1,1,1
3.160000000,1,1,1,1,1,1
3.170000000,1,1,1,1,1,1
3.180000000,1,1,1,1,1,1
3.190000000,1,1,1,1,1,1
3.200000000,1,1,1,1,1,1
3.210000000,1,1,1,1,1,1
3.220000000,1,1,1,1,1,1
3.230000000,1,1,1,1,1,1
3.240000000,1,1,1,1,1,1
3.250000000,1,1,1,1,1,1
3.260000000,1,1,1,1,1,1
3.270000000,1,1,1,1,1,1
3.280000000,1,1,1,1,1,1
3.290000000,1,1,1,1,1,1
3.300000000,1,1,1,1,1,1
3.310000000,1,1,1,1,1,1
3.320000000,1,1,1,1,1,1
3.330000000,1,1,1,1,1,1
3.340000000,1,1,1,1,1,1
3.350000000,1,1,1,1,1,1
3.360000000,1,1,1,1,1,1
3.370000000,1,1,1,1,0,1
3.380000000,1,1,1,1,0,1
3.390000000,1,1,1,1,0,1
3.400000000,1,1,1,1,0,1
3.410000000,1,0,1,0,0,1
3.420000000,1,0,1,0,0,1
3.430000000,1,0,1,0,0,1
3.440000000,1,0,1,0,0,1
3.450000000,1,0,1,0,0,1
3.460000000,1,0,1,0,0,1
3.470000000,1,0,1,0,0,1
3.480000000,0,0,0,0,0,0
3.490000000,1,0,0,0,0,1
3.500000000,1,0,0,0,0,1
3.510000000,1,0,0,0,0,1
3.520000000,1,0,0,0,0,1
3.530000000,1,0,0,0,0,1
3.540000000,1,0,0,0,0,1
3.550000000,1,0,0,0,0,1
3.560000000,1,0,0,0,0,1
3.570000000,1,0,0,0,0,1
3.580000000,1,0,0,0,0,1
3.590000000,1,0,0,0,0,1
3.600000000,1,0,0,0,0,1
3.610000000,1,0,0,0,0,1
3.620000000,1,0,0,0,0,1
3.630000000,1,0,0,0,0,1
3.640000000,1,0,0,0,0,1
3.650000000,1,0,0,0,0,1
3.660000000,1,0,0,0,0,1
3.670000000,1,0,0,0,0,1
3.680000000,1,0,0,0,0,1
3.690000000,1,0,0,0,0,1
3.700000000,1,0,0,0,0,1
3.710000000,1,0,0,0,0,1
3.720000000,1,0,0,0,0,1
3.730000000,1,0,0,0,0,1
3.740000000,1,0,0,0,0,1
3.750000000,1,0,0,0,0,1
3.760000000,1,0,0,0,0,1
3.770000000,1,0,0,0,0,1
3.780000000,1,0,0,0,0,1
3.790000000,1,0,0,0,0,1
3.800000000,1,0,0,0,0,1
3.810000000,1,0,0,0,0,1
3.820000000,1,0,0,0,0,1
3.830000000,1,0,0,0,0,1
3.840000000,1,0,0,0,0,1
3.850000000,1,0,0,0,0,1
3.860000000,1,0,0,0,0,1
3.870000000,1,0,0,0,0,1
3.880000000,1,0,0,0,0,1
3.890000000,1,0,0,0,0,1
3.900000000,1,0,0,0,0,1
3.910000000,1,0,0,0,0,1
3.920000000,1,0,0,0,0,1
3.930000000,1,0,0,0,0,1
3.940000000,1,0,0,0,0,1
3.950000000,1,0,0,0,0,1
3.960000000,1,0,0,0,0,1
3.970000000,1,0,0,0,0,1
3.980000000,1,0,0,0,0,1
3.990000000,1,0,0,0,0,1
4.000000000,1,0,0,0,0,1
4.010000000,1,0,0,0,0,1
4.020000000,1,0,0,0,0,1
4.030000000,1,0,0,0,0,1
4.040000000,1,0,0,0,0,1
4.050000000,1,0,0,0,0,1
4.060000000,1,0,0,0,0,1
4.070000000,1,0,0,0,0,1
4.080000000,1,0,0,0,1,1
4.090000000,1,0,0,0,1,1
4.100000000,1,0,1,0,1,1
4.110000000,1,0,1,0,1,1
4.120000000,1,0,1,1,1,1
4.130000000,1,1,1,1,1,1
4.140000000,1,1,1,1,1,1
4.150000000,1,1,1,1,1,1
4.160000000,1,1,1,1,1,1
4.170000000,1,1,1,1,1,1
4.180000000,1,1,1,1,1,1
4.190000000,1,1,1,1,1,1
4.200000000,1,1,1,1,1,1
4.210000000,1,1,1,1,1,1
4.220000000,1,1,1,1,1,1
4.230000000,1,1,1,1,1,1
4.240000000,1,1,1,1,1,1
4.250000000,1,1,1,1,1,1
4.260000000,1,1,1,1,1,1
4.270000000,1,1,1,1,1,1
4.280000000,1,1,1,1,1,1
4.290000000,1,1,1,1,1,1
4.300000000,1,1,1,1,1,1
4.310000000,1,1,1,1,1,1
4.320000000,1,1,1,1,1,1
4.330000000,1,1,1,1,1,1
4.340000000,1,1,1,1,1,1
4.350000000,1,1,1,1,1,1
4.360000000,1,1,1,1,1,1
4.370000000,1,1,1,1,0,1
4.380000000,1,1,1,1,0,1
4.390000000,1,1,1,1,0,1
4.400000000,1,1,1,1,0,1
4.410000000,1,0,1,0,0,1
4.420000000,1,0,1,0,0,1
4.430000000,1,0,1,0,0,1
4.440000000,1,0,1,0,0,1
4.450000000,1,0,1,0,0,1
4.460000000,1,0,1,0,0,1
4.470000000,1,0,1,0,0,1
4.480000000,0,0,0,0,0,0
4.490000000,1,0,0,0,0,1
4.500000000,1,0,0,0,0,1
4.510000000,1,0,0,0,0,1
4.520000000,1,0,0,0,0,1
4.530000000,1,0,0,0,0,1
4.540000000,1,0,0,0,0,1
4.550000000,1,0,0,0,0,1
4.560000000,1,0,0,0,0,1
4.570000000,1,0,0,0,0,1
4.580000000,1,0,0,0,0,1
4.590000000,1,0,0,0,0,1
4.600000000,1,0,0,0,0,1
4.610000000,1,0,0,0,0,1
4.620000000,1,0,0,0,0,1
4.630000000,1,0,0,0,0,1
4.640000000,1,0,0,0,0,1
4.650000000,1,0,0,0,0,1
4.660000000,1,0,0,0,0,1
4.670000000,1,0,0,0,0,1
4.680000000,1,0,0,0,0,1
4.690000000,1,0,0,0,0,1
4.700000000,1,0,0,0,0,1
4.710000000,1,0,0,0,0,1
4.720000000,1,0,0,0,0,1
4.730000000,1,0,0,0,0,1
4.740000000,1,0,0,0,0,1
4.750000000,1,0,0,0,0,1
4.760000000,1,0,0,0,0,1
4.770000000,1,0,0,0,0,1
4.780000000,1,0,0,0,0,1
4.790000000,1,0,0,0,0,1
4.800000000,1,0,0,0,0,1
4.810000000,1,0,0,0,0,1
4.820000000,1,0,0,0,0,1
4.830000000,1,0,0,0,0,1
4.840000000,1,0,0,0,0,1
4.850000000,1,0,0,0,0,1
4.860000000,1,0,0,0,0,1
4.870000000,1,0,0,0,0,1
4.880000000,1,0,0,0,0,1
4.890000000,1,0,0,0,0,1
4.900000000,1,0,0,0,0,1
4.910000000,1,0,0,0,0,1
4.920000000,1,0,0,0,0,1
4.930000000,1,0,0,0,0,1
4.940000000,1,0,0,0,0,1
4.950000000,1,0,0,0,0,1
4.960000000,1,0,0,0,0,1
4.970000000,1,0,0,0,0,1
4.980000000,1,0,0,0,0,1
4.990000000,1,0,0,0,0,1
5.000000000,1,0,0,0,0,1
5.010000000,1,0,0,0,0,1
5.020000000,1,0,0,0,0,1
5.030000000,1,0,0,0,0,1
5.040000000,1,0,0,0,0,1
5.050000000,1,0,0,0,0,1
5.060000000,1,0,0,0,0,1
5.070000000,1,0,0,0,0,1
5.080000000,1,0,0,0,1,1
5.090000000,1,0,0,0,1,1
5.100000000,1,0,1,0,1,1
5.110000000,1,0,1,0,1,1
5.120000000,1,0,1,1,1,1
5.130000000,1,1,1,1,1,1
5.140000000,1,1,1,1,1,1
5.150000000,1,1,1,1,1,1
5.160000000,1,1,1,1,1,1
5.170000000,1,1,1,1,1,1
5.180000000,1,1,1,1,1,1
5.190000000,1,1,1,1,1,1
5.200000000,1,1,1,1,1,1
5.210000000,1,1,1,1,1,1
5.220000000,1,1,1,1,1,1
5.230000000,1,1,1,1,1,1
5.240000000,1,1,1,1,1,1
5.250000000,1,1,1,1,1,1
5.260000000,1,1,1,1,1,1
5.270000000,1,1,1,1,1,1
5.280000000,1,1,1,1,1,1
5.290000000,1,1,1,1,1,1
5.300000000,1,1,1,1,1,1
5.310000000,1,1,1,1,1,1
5.320000000,1,1,1,1,1,1
5.330000000,1,1,1,1,1,1
5.340000000,1,1,1,1,1,1
5.350000000,1,1,1,1,1,1
5.360000000,1,1,1,1,1,1
5.370000000,1,1,1,1,0,1
5.380000000,1,1,1,1,0,1
5.390000000,1,1,1,1,0,1
5.400000000,1,1,1,1,0,1
5.410000000,1,0,1,0,0,1
5.420000000,1,0,1,0,0,1
5.430000000,1,0,1,0,0,1
5.440000000,1,0,1,0,0,1
5.450000000,1,0,1,0,0,1
5.460000000,1,0,1,0,0,1
5.470000000,1,0,1,0,0,1
5.480000000,0,0,0,0,0,0
5.490000000,1,0,0,0,0,1
5.500000000,1,0,0,0,0,1
5.510000000,1,0,0,0,0,1
5.520000000,1,0,0,0,0,1
5.530000000,1,0,0,0,0,1
5.540000000,1,0,0,0,0,1
5.550000000,1,0,0,0,0,1
5.560000000,1,0,0,0,0,1
5.570000000,1,0,0,0,0,1
5.580000000,1,0,0,0,0,1
5.590000000,1,0,0,0,0,1
5.600000000,1,0,0,0,0,1
5.610000000,1,0,0,0,0,1
5.620000000,1,0,0,0,0,1
5.630000000,1,0,0,0,0,1
5.640000000,1,0,0,0,0,1
5.650000000,1,0,0,0,0,1
5.660000000,1,0,0,0,0,1
5.670000000,1,0,0,0,0,1
5.680000000,1,0,0,0,0,1
5.690000000,1,0,0,0,0,1
5.700000000,1,0,0,0,0,1
5.710000000,1,0,0,0,0,1
5.720000000,1,0,0,0,0,1
5.730000000,1,0,0,0,0,1
5.740000000,1,0,0,0,0,1
5.750000000,1,0,0,0,0,1
5.760000000,1,0,0,0,0,1
5.770000000,1,0,0,0,0,1
5.780000000,1,0,0,0,0,1
5.790000000,1,0,0,0,0,1
5.800000000,1,0,0,0,0,1
5.810000000,1,0,0,0,0,1
5.820000000,1,0,0,0,0,1
5.830000000,1,0,0,0,0,1
5.840000000,1,0,0,0,0,1
5.850000000,1,0,0,0,0,1
5.860000000,1,0,0,0,0,1
5.870000000,1,0,0,0,0,1
5.880000000,1,0,0,0,0,1
5.890000000,1,0,0,0,0,1
5.900000000,1,0,0,0,0,1
5.910000000,1,0,0,0,0,1
5.920000000,1,0,0,0,0,1
5.930000000,1,0,0,0,0,1
5.940000000,1,0,0,0,0,1
5.950000000,1,0,0,0,0,1
5.960000000,1,0,0,0,0,1
5.970000000,1,0,0,0,0,1
5.980000000,1,0,0,0,0,1
5.990000000,1,0,0,0,0,1
6.000000000,1,0,0,0,0,1
6.010000000,1,0,0,0,0,1
6.020000000,1,0,0,0,0,1
6.030000000,1,0,0,0,0,1
6.040000000,1,0,0,0,0,1
6.050000000,1,0,0,0,0,1
6.060000000,1,0,0,0,0,1
6.070000000,1,0,0,0,0,1
6.080000000,1,0,0,0,1,1
6.090000000,1,0,0,0,1,1
6.100000000,1,0,1,0,1,1
6.110000000,1,0,1,0,1,1
6.120000000,1,0,1,1,1,1
6.130000000,1,1,1,1,1,1
6.140000000,1,1,1,1,1,1
6.150000000,1,1,1,1,1,1
6.160000000,1,1,1,1,1,1
6.170000000,1,1,1,1,1,1
6.180000000,1,1,1,1,1,1
6.190000000,1,1,1,1,1,1
6.200000000,1,1,1,1,1,1
6.210000000,1,1,1,1,1,1
6.220000000,1,1,1,1,1,1
6.230000000,1,1,1,1,1,1
6.240000000,1,1,1,1,1,1
6.250000000,1,1,1,1,1,1
6.260000000,1,1,1,1,1,1
6.270000000,1,1,1,1,1,1
6.280000000,1,1,1,1,1,1
6.290000000,1,1,1,1,1,1
6.300000000,1,1,1,1,1,1
6.310000000,1,1,1,1,1,1
6.320000000,1,1,1,1,1,1
6.330000000,1,1,1,1,1,1
6.340000000,1,1,1,1,1,1
6.350000000,1,1,1,1,1,1
6.360000000,1,1,1,1,1,1
6.370000000,1,1,1,1,0,1
6.380000000,1,1,1,1,0,1
6.390000000,1,1,1,1,0,1
6.400000000,1,1,1,1,0,1
6.410000000,1,0,1,0,0,1
6.420000000,1,0,1,0,0,1
6.430000000,1,0,1,0,0,1
6.440000000,1,0,1,0,0,1
6.450000000,1,0,1,0,0,1
6.460000000,1,0,1,0,0,1
6.470000000,1,0,1,0,0,1
6.480000000,0,0,0,0,0,0
6.490000000,1,0,0,0,0,1
6.500000000,1,0,0,0,0,1
6.510000000,1,0,0,0,0,1
6.520000000,1,0,0,0,0,1
6.530000000,1,0,0,0,0,1
6.540000000,1,0,0,0,0,1
6.550000000,1,0,0,0,0,1
6.560000000,1,0,0,0,0,1
6.570000000,1,0,0,0,0,1
6.580000000,1,0,0,0,0,1
6.590000000,1,0,0,0,0,1
6.600000000,1,0,0,0,0,1
6.610000000,1,0,0,0,0,1
6.620000000,1,0,0,0,0,1
6.630000000,1,0,0,0,0,1
6.640000000,1,0,0,0,0,1
6.650000000,1,0,0,0,0,1
6.660000000,1,0,0,0,0,1
6.670000000,1,0,0,0,0,1
6.680000000,1,0,0,0,0,1
6.690000000,1,0,0,0,0,1
6.700000000,1,0,0,0,0,1
6.710000000,1,0,0,0,0,1
6.720000000,1,0,0,0,0,1
6.730000000,1,0,0,0,0,1
6.740000000,1,0,0,0,0,1
6.750000000,1,0,0,0,0,1
6.760000000,1,0,0,0,0,1
6.770000000,1,0,0,0,0,1
6.780000000,1,0,0,0,0,1
6.790000000,1,0,0,0,0,1
6.800000000,1,0,0,0,0,1
6.810000000,1,0,0,0,0,1
6.820000000,1,0,0,0,0,1
6.830000000,1,0,0,0,0,1
6.840000000,1,0,0,0,0,1
6.850000000,1,0,0,0,0,1
6.860000000,1,0,0,0,0,1
6.870000000,1,0,0,0,0,1
6.880000000,1,0,0,0,0,1
6.890000000,1,0,0,0,0,1
6.900000000,1,0,0,0,0,1
6.910000000,1,0,0,0,0,1
6.920000000,1,0,0,0,0,1
6.930000000,1,0,0,0,0,1
6.940000000,1,0,0,0,0,1
6.950000000,1,0,0,0,0,1
6.960000000,1,0,0,0,0,1
6.970000000,1,0,0,0,0,1
6.980000000,1,0,0,0,0,1
6.990000000,1,0,0,0,0,1
7.000000000,1,0,0,0,0,1
7.010000000,1,0,0,0,0,1
7.020000000,1,0,0,0,0,1
7.030000000,1,0,0,0,0,1
7.040000000,1,0,0,0,0,1
7.050000000,1,0,0,0,0,1
7.060000000,1,0,0,0,0,1
7.070000000,1,0,0,0,0,1
7.080000000,1,0,0,0,1,1
7.090000000,1,0,0,0,1,1
7.100000000,1,0,1,0,1,1
7.110000000,1,0,1,0,1,1
7.120000000,1,0,1,1,1,1
7.130000000,1,1,1,1,1,1
7.140000000,1,1,1,1,1,1
7.150000000,1,1,1,1,1,1
7.160000000,1,1,1,1,1,1
7.170000000,1,1,1,1,1,1
7.180000000,1,1,1,1,1,1
7.190000000,1,1,1,1,1,1
7.200000000,1,1,1,1,1,1
7.210000000,1,1,1,1,1,1
7.220000000,1,1,1,1,1,1
7.230000000,1,1,1,1,1,1
7.240000000,1,1,1,1,1,1
7.250000000,1,1,1,1,1,1
7.260000000,1,1,1,1,1,1
7.270000000,1,1,1,1,1,1
7.280000000,1,1,1,1,1,1
7.290000000,1,1,1,1,1,1
7.300000000,1,1,1,1,1,1
7.310000000,1,1,1,1,1,1
7.320000000,1,1,1,1,1,1
7.330000000,1,1,1,1,1,1
7.340000000,1,1,1,1,1,1
7.350000000,1,1,1,1,1,1
7.360000000,1,1,1,1,1,1
7.370000000,1,1,1,1,0,1
7.380000000,1,1,1,1,0,1
7.390000000,1,1,1,1,0,1
7.400000000,1,1,1,1,0,1
7.410000000,1,0,1,0,0,1
7.420000000,1,0,1,0,0,1
7.430000000,1,0,1,0,0,1
7.440000000,1,0,1,0,0,1
7.450000000,1,0,1,0,0,1
7.460000000,1,0,1,0,0,1
7.470000000,1,0,1,0,0,1
7.480000000,0,0,0,0,0,0
7.490000000,1,0,0,0,0,1
7.500000000,1,0,0,0,0,1
7.510000000,1,0,0,0,0,1
7.520000000,1,0,0,0,0,1
7.530000000,1,0,0,0,0,1
7.540000000,1,0,0,0,0,1
7.550000000,1,0,0,0,0,1
7.560000000,1,0,0,0,0,1
7.570000000,1,0,0,0,0,1
7.580000000,1,0,0,0,0,1
7.590000000,1,0,0,0,0,1
7.600000000,1,0,0,0,0,1
7.610000000,1,0,0,0,0,1
7.620000000,1,0,0,0,0,1
7.630000000,1,0,0,0,0,1
7.640000000,1,0,0,0,0,1
7.650000000,1,0,0,0,0,1
7.660000000,1,0,0,0,0,1
7.670000000,1,0,0,0,0,1
7.680000000,1,0,0,0,0,1
7.690000000,1,0,0,0,0,1
7.700000000,1,0,0,0,0,1
7.710000000,1,0,0,0,0,1
7.720000000,1,0,0,0,0,1
7.730000000,1,0,0,0,0,1
7.740000000,1,0,0,0,0,1
7.750000000,1,0,0,0,0,1
7.760000000,1,0,0,0,0,1
7.770000000,1,0,0,0,0,1
7.780000000,1,0,0,0,0,1
7.790000000,1,0,0,0,0,1
7.800000000,1,0,0,0,0,1
7.810000000,1,0,0,0,0,1
7.820000000,1,0,0,0,0,1
7.830000000,1,0,0,0,0,1
7.840000000,1,0,0,0,0,1
7.850000000,1,0,0,0,0,1
7.860000000,1,0,0,0,0,1
7.870000000,1,0,0,0,0,1
7.880000000,1,0,0,0,0,1
7.890000000,1,0,0,0,0,1
7.900000000,1,0,0,0,0,1
7.910000000,1,0,0,0,0,1
7.920000000,1,0,0,0,0,1
7.930000000,1,0,0,0,0,1
7.940000000,1,0,0,0,0,1
7.950000000,1,0,0,0,0,1
7.960000000,1,0,0,0,0,1
7.970000000,1,0,0,0,0,1
7.980000000,1,0,0,0,0,1
7.990000000,1,0,0,0,0,1
8.000000000,1,0,0,0,0,1
8.010000000,1,0,0,0,0,1
8.020000000,1,0,0,0,0,1
8.030000000,1,0,0,0,0,1
8.040000000,1,0,0,0,0,1
8.050000000,1,0,0,0,0,1
8.060000000,1,0,0,0,0,1
8.070000000,1,0,0,0,0,1
8.080000000,1,0,0,0,1,1
8.090000000,1,0,0,0,1,1
8.100000000,1,0,1,0,1,1
8.110000000,1,0,1,0,1,1
8.120000000,1,0,1,1,1,1
8.130000000,1,1,1,1,1,1
8.140000000,1,1,1,1,1,1
8.150000000,1,1,1,1,1,1
8.160000000,1,1,1,1,1,1
8.170000000,1,1,1,1,1,1
8.180000000,1,1,1,1,1,1
8.190000000,1,1,1,1,1,1
8.200000000,1,1,1,1,1,1
8.210000000,1,1,1,1,1,1
8.220000000,1,1,1,1,1,1
8.230000000,1,1,1,1,1,1
8.240000000,1,1,1,1,1,1
8.250000000,1,1,1,1,1,1
8.260000000,1,1,1,1,1,1
8.270000000,1,1,1,1,1,1
8.280000000,1,1,1,1,1,1
8.290000000,1,1,1,1,1,1
8.300000000,1,1,1,1,1,1
8.310000000,1,1,1,1,1,1
8.320000000,1,1,1,1,1,1
8.330000000,1,1,1,1,1,1
8.340000000,1,1,1,1,1,1
8.350000000,1,1,1,1,1,1
8.360000000,1,1,1,1,1,1
8.370000000,1,1,1,1,0,1
8.380000000,1,1,1,1,0,1
8.390000000,1,1,1,1,0,1
8.400000000,1,1,1,1,0,1
8.410000000,1,0,1,0,0,1
8.420000000,1,0,1,0,0,1
8.430000000,1,0,1,0,0,1
8.440000000,1,0,1,0,0,1
8.450000000,1,0,1,0,0,1
8.460000000,1,0,1,0,0,1
8.470000000,1,0,1,0,0,1
8.480000000,0,0,0,0,0,0
8.490000000,1,0,0,0,0,1
8.500000000,1,0,0,0,0,1
8.510000000,1,0,0,0,0,1
8.520000000,1,0,0,0,0,1
8.530000000,1,0,0,0,0,1
8.540000000,1,0,0,0,0,1
8.550000000,1,0,0,0,0,1
8.560000000,1,0,0,0,0,1
8.570000000,1,0,0,0,0,1
8.580000000,1,0,0,0,0,1
8.590000000,1,0,0,0,0,1
8.600000000,1,0,0,0,0,1
8.610000000,1,0,0,0,0,1
8.620000000,1,0,0,0,0,1
8.630000000,1,0,0,0,0,1
8.640000000,1,0,0,0,0,1
8.650000000,1,0,0,0,0,1
8.660000000,1,0,0,0,0,1
8.670000000,1,0,0,0,0,1
8.680000000,1,0,0,0,0,1
8.690000000,1,0,0,0,0,1
8.700000000,1,0,0,0,0,1
8.710000000,1,0,0,0,0,1
8.720000000,1,0,0,0,0,1
8.730000000,1,0,0,0,0,1
8.740000000,1,0,0,0,0,1
8.750000000,1,0,0,0,0,1
8.760000000,1,0,0,0,0,1
8.770000000,1,0,0,0,0,1
8.780000000,1,0,0,0,0,1
8.790000000,1,0,0,0,0,1
8.800000000,1,0,0,0,0,1
8.810000000,1,0,0,0,0,1
8.820000000,1,0,0,0,0,1
8.830000000,1,0,0,0,0,1
8.840000000,1,0,0,0,0,1
8.850000000,1,0,0,0,0,1
8.860000000,1,0,0,0,0,1
8.870000000,1,0,0,0,0,1
8.880000000,1,0,0,0,0,1
8.890000000,1,0,0,0,0,1
8.900000000,1,0,0,0,0,1
8.910000000,1,0,0,0,0,1
8.920000000,1,0,0,0,0,1
8.930000000,1,0,0,0,0,1
8.940000000,1,0,0,0,0,1
8.950000000,1,0,0,0,0,1
8.960000000,1,0,0,0,0,1
8.970000000,1,0,0,0,0,1
8.980000000,1,0,0,0,0,1
8.990000000,1,0,0,0,0,1
9.000000000,1,0,0,0,0,1
9.010000000,1,0,0,0,0,1
9.020000000,1,0,0,0,0,1
9.030000000,1,0,0,0,0,1
9.040000000,1,0,0,0,0,1
9.050000000,1,0,0,0,0,1
9.060000000,1,0,0,0,0,1
9.070000000,1,0,0,0,0,1
9.080000000,1,0,0,0,1,1
9.090000000,1,0,0,0,1,1
9.100000000,1,0,1,0,1,1
9.110000000,1,0,1,0,1,1
9.120000000,1,0,1,1,1,1
9.130000000,1,1,1,1,1,1
9.140000000,1,1,1,1,1,1
9.150000000,1,1,1,1,1,1
9.160000000,1,1,1,1,1,1
9.170000000,1,1,1,1,1,1
9.180000000,1,1,1,1,1,1
9.190000000,1,1,1,1,1,1
9.200000000,1,1,1,1,1,1
9.210000000,1,1,1,1,1,1
9.220000000,1,1,1,1,1,1
9.230000000,1,1,1,1,1,1
9.240000000,1,1,1,1,1,1
9.250000000,1,1,1,1,1,1
9.260000000,1,1,1,1,1,1
9.270000000,1,1,1,1,1,1
9.280000000,1,1,1,1,1,1
9.290000000,1,1,1,1,1,1
9.300000000,1,1,1,1,1,1
9.310000000,1,1,1,1,1,1
9.320000000,1,1,1,1,1,1
9.330000000,1,1,1,1,1,1
9.340000000,1,1,1,1,1,1
9.350000000,1,1,1,1,1,1
9.360000000,1,1,1,1,1,1
9.370000000,1,1,1,1,0,1
9.380000000,1,1,1,1,0,1
9.390000000,1,1,1,1,0,1
9.400000000,1,1,1,1,0,1
9.410000000,1,0,1,0,0,1
9.420000000,1,0,1,0,0,1
9.430000000,1,0,1,0,0,1
9.440000000,1,0,1,0,0,1
9.450000000,1,0,1,0,0,1
9.460000000,1,0,1,0,0,1
9.470000000,1,0,1,0,0,1
9.480000000,0,0,0,0,0,0
9.490000000,1,0,0,0,0,1
9.500000000,1,0,0,0,0,1
9.510000000,1,0,0,0,0,1
9.520000000,1,0,0,0,0,1
9.530000000,1,0,0,0,0,1
9.540000000,1,0,0,0,0,1
9.550000000,1,0,0,0,0,1
9.560000000,1,0,0,0,0,1
9.570000000,1,0,0,0,0,1
9.580000000,1,0,0,0,0,1
9.590000000,1,0,0,0,0,1
9.600000000,1,0,0,0,0,1
9.610000000,1,0,0,0,0,1
9.620000000,1,0,0,0,0,1
9.630000000,1,0,0,0,0,1
9.640000000,1,0,0,0,0,1
9.650000000,1,0,0,0,0,1
9.660000000,1,0,0,0,0,1
9.670000000,1,0,0,0,0,1
9.680000000,1,0,0,0,0,1
9.690000000,1,0,0,0,0,1
9.700000000,1,0,0,0,0,1
9.710000000,1,0,0,0,0,1
9.720000000,1,0,0,0,0,1
9.730000000,1,0,0,0,0,1
9.740000000,1,0,0,0,0,1
9.750000000,1,0,0,0,0,1
9.760000000,1,0,0,0,0,1
9.770000000,1,0,0,0,0,1
9.780000000,1,0,0,0,0,1
9.790000000,1,0,0,0,0,1
9.800000000,1,0,0,0,0,1
9.810000000,1,0,0,0,0,1
9.820000000,1,0,0,0,0,1
9.830000000,1,0,0,0,0,1
9.840000000,1,0,0,0,0,1
9.850000000,1,0,0,0,0,1
9.860000000,1,0,0,0,0,1
9.870000000,1,0,0,0,0,1
9.880000000,1,0,0,0,0,1
9.890000000,1,0,0,0,0,1
9.900000000,1,0,0,0,0,1
9.910000000,1,0,0,0,0,1
9.920000000,1,0,0,0,0,1
9.930000000,1,0,0,0,0,1
9.940000000,1,0,0,0,0,1
9.950000000,1,0,0,0,0,1
9.960000000,1,0,0,0,0,1
9.970000000,1,0,0,0,0,1
9.980000000,1,0,0,0,0,1
9.990000000,1,0,0,0,0,1
10.000000000,1,0,0,0,0,1
10.010000000,1,0,0,0,0,1
10.020000000,1,0,0,0,0,1
10.030000000,1,0,0,0,0,1
10.040000000,1,0,0,0,0,1
10.050000000,1,0,0,0,0,1
10.060000000,1,0,0,0,0,1
10.070000000,1,0,0,0,0,1
10.080000000,1,0,0,0,1,1
10.090000000,1,0,0,0,1,1
10.100000000,1,0,1,0,1,1
10.110000000,1,0,1,0,1,1
10.120000000,1,0,1,1,1,1
10.130000000,1,1,1,1,1,1
10.140000000,1,1,1,1,1,1
10.150000000,1,1,1,1,1,1
10.160000000,1,1,1,1,1,1
10.170000000,1,1,1,1,1,1
10.180000000,1,1,1,1,1,1
10.190000000,1,1,1,1,1,1
10.200000000,1,1,1,1,1,1
10.210000000,1,1,1,1,1,1
10.220000000,1,1,1,1,1,1
10.230000000,1,1,1,1,1,1
10.240000000,1,1,1,1,1,1
10.250000000,1,1,1,1,1,1
10.260000000,1,1,1,1,1,1
10.270000000,1,1,1,1,1,1
10.280000000,1,1,1,1,1,1
10.290000000,1,1,1,1,1,1
10.300000000,1,1,1,1,1,1
10.310000000,1,1,1,1,1,1
10.320000000,1,1,1,1,1,1
10.330000000,1,1,1,1,1,1
10.340000000,1,1,1,1,1,1
10.350000000,1,1,1,1,1,1
10.360000000,1,1,1,1,1,1
10.370000000,1,1,1,1,0,1
10.380000000,1,1,1,1,0,1
10.390000000,1,1,1,1,0,1
10.400000000,1,1,1,1,0,1
10.410000000,1,0,1,0,0,1
10.420000000,1,0,1,0,0,1
10.430000000,1,0,1,0,0,1
10.440000000,1,0,1,0,0,1
10.450000000,1,0,1,0,0,1
10.460000000,1,0,1,0,0,1
10.470000000,1,0,1,0,0,1
10.480000000,0,0,0,0,0,0
10.490000000,1,0,0,0,0,1
10.500000000,1,0,0,0,0,1
10.510000000,1,0,0,0,0,1
10.520000000,1,0,0,0,0,1
10.530000000,1,0,0,0,0,1
10.540000000,1,0,0,0,0,1
10.550000000,1,0,0,0,0,1
10.560000000,1,0,0,0,0,1
10.570000000,1,0,0,0,0,1
10.580000000,1,0,0,0,0,1
10.590000000,1,0,0,0,0,1
10.600000000,1,0,0,0,0,1
10.610000000,1,0,0,0,0,1
10.620000000,1,0,0,0,0,1
10.630000000,1,0,0,0,0,1
10.640000000,1,0,0,0,0,1
10.650000000,1,0,0,0,0,1
10.660000000,1,0,0,0,0,1
10.670000000,1,0,0,0,0,1
10.680000000,1,0,0,0,0,1
10.690000000,1,0,0,0,0,1
10.700000000,1,0,0,0,0,1
10.710000000,1,0,0,0,0,1
10.720000000,1,0,0,0,0,1
10.730000000,1,0,0,0,0,1
10.740000000,1,0,0,0,0,1
10.750000000,1,0,0,0,0,1
10.760000000,1,0,0,0,0,1
10.770000000,1,0,0,0,0,1
10.780000000,1,0,0,0,0,1
10.790000000,1,0,0,0,0,1
10.800000000,1,0,0,0,0,1
10.810000000,1,0,0,0,0,1
10.820000000,1,0,0,0,0,1
10.830000000,1,0,0,0,0,1
10.840000000,1,0,0,0,0,1
10.850000000,1,0,0,0,0,1
10.860000000,1,0,0,0,0,1
10.870000000,1,0,0,0,0,1
10.880000000,1,0,0,0,0,1
10.890000000,1,0,0,0,0,1
10.900000000,1,0,0,0,0,1
