source:ccrt device:rst-1 epoch:1673450433 timeOrigin:2.180000000 firstSampleTime:0.980000000 period:0.001000000 name:I_MEAS type:analog,I_MEAS_(A),I_MEAS_FLTR_(A),I_MEAS_EXTR_(A),I_ERR_(A) STEP
0.980000000,2.0012829e-05,2.0012829e-05,2.50128e-05,2.0012829e-05
0.981000000,1.0012382e-05,1.0012382e-05,1.3012349e-05,2.0012829e-05
0.982000000,1.1932928e-08,1.1932928e-08,1.1932928e-08,2.0012829e-05
0.983000000,1.1932928e-08,1.1932928e-08,-9.8811199e-07,2.0012829e-05
0.984000000,1.1932928e-08,1.1932928e-08,-1.9881566e-06,2.0012829e-05
0.985000000,1.1932928e-08,1.1932928e-08,-1.9881566e-06,2.0012829e-05
0.986000000,1.1932928e-08,1.1932928e-08,-1.9881566e-06,2.0012829e-05
0.987000000,1.1932928e-08,1.1932928e-08,-1.9881566e-06,2.0012829e-05
0.988000000,1.1932928e-08,1.1932928e-08,-1.9881566e-06,2.0012829e-05
0.989000000,1.1932928e-08,1.1932928e-08,-1.9881566e-06,2.0012829e-05
0.990000000,1.1932928e-08,1.1932928e-08,-1.9881566e-06,1.1932928e-08
0.991000000,1.1932928e-08,1.1932928e-08,-9.8811199e-07,1.1932928e-08
0.992000000,1.1932928e-08,1.1932928e-08,1.1932928e-08,1.1932928e-08
0.993000000,1.1932928e-08,1.1932928e-08,1.1932928e-08,1.1932928e-08
0.994000000,1.1932928e-08,1.1932928e-08,1.1932928e-08,1.1932928e-08
0.995000000,1.1932928e-08,1.1932928e-08,1.1932928e-08,1.1932928e-08
0.996000000,1.1932928e-08,1.1932928e-08,1.1932928e-08,1.1932928e-08
0.997000000,1.1932928e-08,1.1932928e-08,1.1932928e-08,1.1932928e-08
0.998000000,1.1932928e-08,1.1932928e-08,1.1932928e-08,1.1932928e-08
0.999000000,1.1932928e-08,1.1932928e-08,1.1932928e-08,1.1932928e-08
1.000000000,1.1932928e-08,1.1932928e-08,1.1932928e-08,1.1932928e-08
1.001000000,1.1932928e-08,1.1932928e-08,1.1932928e-08,1.1932928e-08
1.002000000,1.1932928e-08,1.1932928e-08,1.1932928e-08,1.1932928e-08
1.003000000,1.1932928e-08,1.1932928e-08,1.1932928e-08,1.1932928e-08
1.004000000,1.1932928e-08,1.1932928e-08,1.1932928e-08,1.1932928e-08
1.005000000,1.1932928e-08,1.1932928e-08,1.1932928e-08,1.1932928e-08
1.006000000,-9.9876443e-06,-9.9876443e-06,-1.0987602e-05,1.1932928e-08
1.007000000,-9.9876443e-06,-9.9876443e-06,-1.0987602e-05,1.1932928e-08
1.008000000,-9.9876443e-06,-9.9876443e-06,-1.0987602e-05,1.1932928e-08
1.009000000,-9.9876443e-06,-9.9876443e-06,-1.0987602e-05,1.1932928e-08
1.010000000,-9.9876443e-06,-9.9876443e-06,-1.0987602e-05,-9.9876443e-06
1.011000000,-9.9876443e-06,-9.9876443e-06,-1.0987602e-05,-9.9876443e-06
1.012000000,-9.9876443e-06,-9.9876443e-06,-1.0987602e-05,-9.9876443e-06
1.013000000,-9.9876443e-06,-9.9876443e-06,-1.0987602e-05,-9.9876443e-06
1.014000000,-9.9876443e-06,-9.9876443e-06,-1.0987602e-05,-9.9876443e-06
1.015000000,-9.9876443e-06,-9.9876443e-06,-1.0987602e-05,-9.9876443e-06
1.016000000,-9.9876443e-06,-9.9876443e-06,-9.9876443e-06,-9.9876443e-06
1.017000000,-9.9876443e-06,-9.9876443e-06,-9.9876443e-06,-9.9876443e-06
1.018000000,-9.9876443e-06,-9.9876443e-06,-9.9876443e-06,-9.9876443e-06
1.019000000,-9.9876443e-06,-9.9876443e-06,-9.9876443e-06,-9.9876443e-06
1.020000000,-9.9876443e-06,-9.9876443e-06,-9.9876443e-06,-9.9876443e-06
1.021000000,1.1932928e-08,1.1932928e-08,1.0118906e-06,-9.9876443e-06
1.022000000,1.0012382e-05,1.0012382e-05,1.2012384e-05,-9.9876443e-06
1.023000000,2.0012829e-05,2.0012829e-05,2.3012875e-05,-9.9876443e-06
1.024000000,2.0012829e-05,2.0012829e-05,2.3012875e-05,-9.9876443e-06
1.025000000,2.0012829e-05,2.0012829e-05,2.3012875e-05,-9.9876443e-06
1.026000000,2.0012829e-05,2.0012829e-05,2.3012875e-05,-9.9876443e-06
1.027000000,2.0012829e-05,2.0012829e-05,2.3012875e-05,-9.9876443e-06
1.028000000,2.0012829e-05,2.0012829e-05,2.3012875e-05,-9.9876443e-06
1.029000000,2.0012829e-05,2.0012829e-05,2.3012875e-05,-9.9876443e-06
1.030000000,2.0012829e-05,2.0012829e-05,2.3012875e-05,2.0012829e-05
1.031000000,1.0012382e-05,1.0012382e-05,1.1012427e-05,2.0012829e-05
1.032000000,1.0012382e-05,1.0012382e-05,1.0012382e-05,2.0012829e-05
1.033000000,1.1932928e-08,1.1932928e-08,-1.9881566e-06,2.0012829e-05
1.034000000,1.1932928e-08,1.1932928e-08,-1.9881566e-06,2.0012829e-05
1.035000000,1.1932928e-08,1.1932928e-08,-1.9881566e-06,2.0012829e-05
1.036000000,1.1932928e-08,1.1932928e-08,-1.9881566e-06,2.0012829e-05
1.037000000,1.1932928e-08,1.1932928e-08,-1.9881566e-06,2.0012829e-05
1.038000000,1.1932928e-08,1.1932928e-08,-1.9881566e-06,2.0012829e-05
1.039000000,1.1932928e-08,1.1932928e-08,-1.9881566e-06,2.0012829e-05
1.040000000,1.1932928e-08,1.1932928e-08,-1.9881566e-06,1.1932928e-08
1.041000000,1.1932928e-08,1.1932928e-08,-9.8811199e-07,1.1932928e-08
1.042000000,1.1932928e-08,1.1932928e-08,-9.8811199e-07,1.1932928e-08
1.043000000,1.1932928e-08,1.1932928e-08,1.1932928e-08,1.1932928e-08
1.044000000,1.1932928e-08,1.1932928e-08,1.1932928e-08,1.1932928e-08
1.045000000,1.1932928e-08,1.1932928e-08,1.1932928e-08,1.1932928e-08
1.046000000,1.1932928e-08,1.1932928e-08,1.1932928e-08,1.1932928e-08
1.047000000,1.1932928e-08,1.1932928e-08,1.1932928e-08,1.1932928e-08
1.048000000,1.1932928e-08,1.1932928e-08,1.1932928e-08,1.1932928e-08
1.049000000,1.1932928e-08,1.1932928e-08,1.1932928e-08,1.1932928e-08
1.050000000,1.1932928e-08,1.1932928e-08,1.1932928e-08,1.1932928e-08
1.051000000,1.1932928e-08,1.1932928e-08,1.1932928e-08,1.1932928e-08
1.052000000,1.1932928e-08,1.1932928e-08,1.1932928e-08,1.1932928e-08
1.053000000,1.1932928e-08,1.1932928e-08,1.1932928e-08,1.1932928e-08
1.054000000,1.1932928e-08,1.1932928e-08,1.1932928e-08,1.1932928e-08
1.055000000,1.1932928e-08,1.1932928e-08,1.1932928e-08,1.1932928e-08
1.056000000,1.1932928e-08,1.1932928e-08,1.1932928e-08,1.1932928e-08
1.057000000,1.1932928e-08,1.1932928e-08,1.1932928e-08,1.1932928e-08
1.058000000,1.1932928e-08,1.1932928e-08,1.1932928e-08,1.1932928e-08
1.059000000,1.1932928e-08,1.1932928e-08,1.1932928e-08,1.1932928e-08
1.060000000,1.1932928e-08,1.1932928e-08,1.1932928e-08,1.1932928e-08
1.061000000,1.1932928e-08,1.1932928e-08,1.1932928e-08,1.1932928e-08
1.062000000,1.1932928e-08,1.1932928e-08,1.1932928e-08,1.1932928e-08
1.063000000,1.1932928e-08,1.1932928e-08,1.1932928e-08,1.1932928e-08
1.064000000,1.1932928e-08,1.1932928e-08,1.1932928e-08,1.1932928e-08
1.065000000,1.1932928e-08,1.1932928e-08,1.1932928e-08,1.1932928e-08
1.066000000,1.1932928e-08,1.1932928e-08,1.1932928e-08,1.1932928e-08
1.067000000,1.1932928e-08,1.1932928e-08,1.1932928e-08,1.1932928e-08
1.068000000,1.1932928e-08,1.1932928e-08,1.1932928e-08,1.1932928e-08
1.069000000,1.1932928e-08,1.1932928e-08,1.1932928e-08,1.1932928e-08
1.070000000,1.1932928e-08,1.1932928e-08,1.1932928e-08,1.1932928e-08
1.071000000,1.1932928e-08,1.1932928e-08,1.1932928e-08,1.1932928e-08
1.072000000,1.1932928e-08,1.1932928e-08,1.1932928e-08,1.1932928e-08
1.073000000,1.1932928e-08,1.1932928e-08,1.1932928e-08,1.1932928e-08
1.074000000,1.1932928e-08,1.1932928e-08,1.1932928e-08,1.1932928e-08
1.075000000,1.1932928e-08,1.1932928e-08,1.1932928e-08,1.1932928e-08
1.076000000,1.1932928e-08,1.1932928e-08,1.1932928e-08,1.1932928e-08
1.077000000,1.1932928e-08,1.1932928e-08,1.1932928e-08,1.1932928e-08
1.078000000,1.1932928e-08,1.1932928e-08,1.1932928e-08,1.1932928e-08
1.079000000,1.1932928e-08,1.1932928e-08,1.1932928e-08,1.1932928e-08
1.080000000,1.1932928e-08,1.1932928e-08,1.1932928e-08,1.1932928e-08
1.081000000,0.07267306,0.07267306,0.079940364,1.1932928e-08
1.082000000,0.25022048,0.25022048,0.27524254,1.1932928e-08
1.083000000,0.38981631,0.38981631,0.42879796,1.1932928e-08
1.084000000,0.42679787,0.42679787,0.46947765,1.1932928e-08
1.085000000,0.429598,0.429598,0.47255781,1.1932928e-08
1.086000000,0.43237811,0.43237811,0.47561592,1.1932928e-08
1.087000000,0.43720832,0.43720832,0.48092917,1.1932928e-08
1.088000000,0.44238853,0.44238853,0.4866274,1.1932928e-08
1.089000000,0.44751874,0.44751874,0.49227062,1.1932928e-08
1.090000000,0.45259896,0.45259896,0.49785885,0.0025991201
1.091000000,0.52977216,0.52977216,0.57548207,0.0025991201
1.092000000,0.71094978,0.71094978,0.75702274,0.0025991201
1.093000000,0.85448581,0.85448581,0.90095276,0.0025991201
1.094000000,0.89621753,0.89621753,0.94315946,0.0025991201
1.095000000,0.90404791,0.90404791,0.95149291,0.0025991201
1.096000000,0.9118582,0.9118582,0.9598062,0.0025991201
1.097000000,0.92168856,0.92168856,0.97013658,0.0025991201
1.098000000,0.93186903,0.93186903,0.98081708,0.0025991201
1.099000000,0.94197941,0.94197941,0.99142545,0.0025991201
1.100000000,0.95204985,0.95204985,1.001995,0.0020499825
1.101000000,1.026053,1.026053,1.075681,0.0020499825
1.102000000,1.19231,1.19231,1.240446,0.0020499825
1.103000000,1.3251755,1.3251755,1.3722445,0.0020499825
1.104000000,1.3677274,1.3677274,1.4148784,0.0020499825
1.105000000,1.3801978,1.3801978,1.4278127,0.0020499825
1.106000000,1.3926383,1.3926383,1.4407164,0.0020499825
1.107000000,1.4068589,1.4068589,1.4553759,0.0020499825
1.108000000,1.4213896,1.4213896,1.4703417,0.0020499825
1.109000000,1.4358602,1.4358602,1.4852482,0.0020499825
1.110000000,1.4502708,1.4502708,1.5000929,0.00027096272
1.111000000,1.5217336,1.5217336,1.5713017,0.00027096272
1.112000000,1.6755003,1.6755003,1.7238193,0.00027096272
1.113000000,1.7994654,1.7994654,1.8468944,0.00027096272
1.114000000,1.8428472,1.8428472,1.8903592,0.00027096272
1.115000000,1.8593678,1.8593678,1.9072849,0.00027096272
1.116000000,1.8758585,1.8758585,1.9241805,0.00027096272
1.117000000,1.8939393,1.8939393,1.9426473,0.00027096272
1.118000000,1.9122901,1.9122901,1.9613801,0.00027096272
1.119000000,1.9305708,1.9305708,1.9800419,0.00027096272
1.120000000,1.9488016,1.9488016,1.9986547,-0.0011981726
1.121000000,2.0181146,2.0181146,2.0677526,-0.0011981726
1.122000000,2.1611404,2.1611404,2.2097044,-0.0011981726
1.123000000,2.2774754,2.2774754,2.3252764,-0.0011981726
1.124000000,2.3216171,2.3216171,2.3694942,-0.0011981726
1.125000000,2.3417079,2.3417079,2.3899419,-0.0011981726
1.126000000,2.3617589,2.3617589,2.4103489,-0.0011981726
1.127000000,2.3832197,2.3832197,2.4321477,-0.0011981726
1.128000000,2.4049206,2.4049206,2.4541836,-0.0011981726
1.129000000,2.4265516,2.4265516,2.4761496,-0.0011981726
1.130000000,2.4481325,2.4481325,2.4980657,-0.0018672943
1.131000000,2.5155654,2.5155654,2.5653105,-0.0018672943
1.132000000,2.6491911,2.6491911,2.6979961,-0.0018672943
1.133000000,2.7588356,2.7588356,2.8069715,-0.0018672943
1.134000000,2.8036475,2.8036475,2.8518505,-0.0018672943
1.135000000,2.8268585,2.8268585,2.8753736,-0.0018672943
1.136000000,2.8500395,2.8500395,2.8988676,-0.0018672943
1.137000000,2.8744805,2.8744805,2.9236066,-0.0018672943
1.138000000,2.8991215,2.8991215,2.9485416,-0.0018672943
1.139000000,2.9236927,2.9236927,2.9734068,-0.0018672943
1.140000000,2.9482136,2.9482136,2.9982216,-0.001786232
1.141000000,3.0139766,3.0139766,3.0638177,-0.001786232
1.142000000,3.1392415,3.1392415,3.1882465,-0.001786232
1.143000000,3.2429361,3.2429361,3.2913461,-0.001786232
1.144000000,3.2883279,3.2883279,3.336796,-0.001786232
1.145000000,3.3142889,3.3142889,3.3630319,-0.001786232
1.146000000,3.34021,3.34021,3.3892269,-0.001786232
1.147000000,3.3672512,3.3672512,3.4165282,-0.001786232
1.148000000,3.3944821,3.3944821,3.4440181,-0.001786232
1.149000000,3.4216335,3.4216335,3.4714274,-0.001786232
1.150000000,3.4487445,3.4487445,3.4987977,-0.0012552738
1.151000000,3.5129774,3.5129774,3.5628774,-0.0012552738
1.152000000,3.6307921,3.6307921,3.6799471,-0.0012552738
1.153000000,3.7291765,3.7291765,3.7778006,-0.0012552738
1.154000000,3.7750583,3.7750583,3.8237314,-0.0012552738
1.155000000,3.8034196,3.8034196,3.8523326,-0.0012552738
1.156000000,3.8317509,3.8317509,3.8809049,-0.0012552738
1.157000000,3.8610818,3.8610818,3.910465,-0.0012552738
1.158000000,3.890573,3.890573,3.9401822,-0.0012552738
1.159000000,3.9199941,3.9199941,3.9698303,-0.0012552738
1.160000000,3.9493656,3.9493656,3.9994278,-0.00063419342
1.161000000,4.012238,4.012238,4.0621643,-0.00063419342
1.162000000,4.1234627,4.1234627,4.1727295,-0.00063419342
1.163000000,4.2171569,4.2171569,4.265955,-0.00063419342
1.164000000,4.2634387,4.2634387,4.3122768,-0.00063419342
1.165000000,4.29392,4.29392,4.3429699,-0.00063419342
1.166000000,4.3243513,4.3243513,4.3736115,-0.00063419342
1.167000000,4.3556924,4.3556924,4.4051533,-0.00063419342
1.168000000,4.3871636,4.3871636,4.4368229,-0.00063419342
1.169000000,4.4185653,4.4185653,4.4684224,-0.00063419342
1.170000000,4.4499164,4.4499164,4.4999714,-8.3446503e-05
1.171000000,4.511579,4.511579,4.5615129,-8.3446503e-05
1.172000000,4.6169734,4.6169734,4.6663246,-8.3446503e-05
1.173000000,4.7064972,4.7064972,4.7554312,-8.3446503e-05
1.174000000,4.753129,4.753129,4.8020983,-8.3446503e-05
1.175000000,4.7854505,4.7854505,4.8346033,-8.3446503e-05
1.176000000,4.8177319,4.8177319,4.8670697,-8.3446503e-05
1.177000000,4.8508234,4.8508234,4.9003363,-8.3446503e-05
1.178000000,4.8840246,4.8840246,4.9337106,-8.3446503e-05
1.179000000,4.9171658,4.9171658,4.9670258,-8.3446503e-05
1.180000000,4.9502473,4.9502473,5.0002804,0.00024747849
1.181000000,5.0108395,5.0108395,5.0607653,0.00024747849
1.182000000,5.1111341,5.1111341,5.1605501,0.00024747849
1.183000000,5.1970077,5.1970077,5.2460585,0.00024747849
1.184000000,5.2439494,5.2439494,5.2930317,0.00024747849
1.185000000,5.2778811,5.2778811,5.3271241,0.00024747849
1.186000000,5.3117723,5.3117723,5.3611765,0.00024747849
1.187000000,5.3464036,5.3464036,5.3959618,0.00024747849
1.188000000,5.3811255,5.3811255,5.4308357,0.00024747849
1.189000000,5.4157763,5.4157763,5.4656372,0.00024747849
1.190000000,5.4503779,5.4503779,5.500391,0.00037813187
1.191000000,5.5100403,5.5100403,5.5599604,0.00037813187
1.192000000,5.6058846,5.6058846,5.6553597,0.00037813187
1.193000000,5.6885781,5.6885781,5.7377353,0.00037813187
1.194000000,5.7357802,5.7357802,5.7849631,0.00037813187
1.195000000,5.7711315,5.7711315,5.8204565,0.00037813187
1.196000000,5.8064327,5.8064327,5.8558989,0.00037813187
1.197000000,5.8424048,5.8424048,5.892005,0.00037813187
1.198000000,5.8784461,5.8784461,5.9281783,0.00037813187
1.199000000,5.9144373,5.9144373,5.9643035,0.00037813187
1.200000000,5.9503589,5.9503589,6.0003572,0.00035905838
1.201000000,6.0092216,6.0092216,6.0591397,0.00035905838
1.202000000,6.1011953,6.1011953,6.1507263,0.00035905838
1.203000000,6.181119,6.181119,6.2303729,0.00035905838
1.204000000,6.2285609,6.2285609,6.2778392,0.00035905838
1.205000000,6.265152,6.265152,6.3145542,0.00035905838
1.206000000,6.3016834,6.3016834,6.3512087,0.00035905838
1.207000000,6.3388257,6.3388257,6.3884678,0.00035905838
1.208000000,6.3760366,6.3760366,6.4257956,0.00035905838
1.209000000,6.4131885,6.4131885,6.4630637,0.00035905838
1.210000000,6.4502697,6.4502697,6.5002608,0.00026988983
1.211000000,6.5084419,6.5084419,6.5583639,0.00026988983
1.212000000,6.5970459,6.5970459,6.6466308,0.00026988983
1.213000000,6.6745796,6.6745796,6.7239256,0.00026988983
1.214000000,6.7222314,6.7222314,6.7715983,0.00026988983
1.215000000,6.7599034,6.7599034,6.8093786,0.00026988983
1.216000000,6.7975245,6.7975245,6.8471084,0.00026988983
1.217000000,6.8356862,6.8356862,6.8853722,0.00026988983
1.218000000,6.8739176,6.8739176,6.9237056,0.00026988983
1.219000000,6.9120798,6.9120798,6.9619689,0.00026988983
1.220000000,6.9501805,6.9501805,7.0001717,0.00018072128
1.221000000,7.0077434,7.0077434,7.0576735,0.00018072128
1.222000000,7.0933971,7.0933971,7.1430321,0.00018072128
1.223000000,7.1688299,7.1688299,7.218255,0.00018072128
1.224000000,7.2166619,7.2166619,7.2661052,0.00018072128
1.225000000,7.2552838,7.2552838,7.304822,0.00018072128
1.226000000,7.2938552,7.2938552,7.3434882,0.00018072128
1.227000000,7.3329272,7.3329272,7.3826513,0.00018072128
1.228000000,7.3720384,7.3720384,7.4218502,0.00018072128
1.229000000,7.4111004,7.4111004,7.4610023,0.00018072128
1.230000000,7.4500918,7.4500918,7.500083,9.2029572e-05
1.231000000,7.5071239,7.5071239,7.5570621,9.2029572e-05
1.232000000,7.5902076,7.5902076,7.6398888,9.2029572e-05
1.233000000,7.6638007,7.6638007,7.7132978,9.2029572e-05
1.234000000,7.711803,7.711803,7.7613173,9.2029572e-05
1.235000000,7.7512546,7.7512546,7.8008518,9.2029572e-05
1.236000000,7.7906461,7.7906461,7.8403254,9.2029572e-05
1.237000000,7.8305078,7.8305078,7.8802657,9.2029572e-05
1.238000000,7.8704095,7.8704095,7.9202466,9.2029572e-05
1.239000000,7.9102411,7.9102411,7.960155,9.2029572e-05
1.240000000,7.9500232,7.9500232,8.0000162,2.3365021e-05
1.241000000,8.0065947,8.0065947,8.0565414,2.3365021e-05
1.242000000,8.0874281,8.0874281,8.1371498,2.3365021e-05
1.243000000,8.1594219,8.1594219,8.2089844,2.3365021e-05
1.244000000,8.2075739,8.2075739,8.2571507,2.3365021e-05
1.245000000,8.2477455,8.2477455,8.2973948,2.3365021e-05
1.246000000,8.2878771,8.2878771,8.3375998,2.3365021e-05
1.247000000,8.3284283,8.3284283,8.3782206,2.3365021e-05
1.248000000,8.36901,8.36901,8.41887,2.3365021e-05
1.249000000,8.4095316,8.4095316,8.4594603,2.3365021e-05
1.250000000,8.4499931,8.4499931,8.4999905,-6.6757202e-06
1.251000000,8.5061655,8.5061655,8.5561228,-6.6757202e-06
1.252000000,8.5850296,8.5850296,8.6347895,-6.6757202e-06
1.253000000,8.655612,8.655612,8.7052307,-6.6757202e-06
1.254000000,8.7038946,8.7038946,8.7535267,-6.6757202e-06
1.255000000,8.7447062,8.7447062,8.7944021,-6.6757202e-06
1.256000000,8.7854776,8.7854776,8.8352375,-6.6757202e-06
1.257000000,8.8266296,8.8266296,8.8764496,-6.6757202e-06
1.258000000,8.8678112,8.8678112,8.9176912,-6.6757202e-06
1.259000000,8.9089327,8.9089327,8.9588728,-6.6757202e-06
1.260000000,8.949995,8.949995,8.9999952,-4.7683716e-06
1.261000000,9.0058165,9.0058165,9.0557814,-4.7683716e-06
1.262000000,9.0829496,9.0829496,9.1327419,-4.7683716e-06
1.263000000,9.1523027,9.1523027,9.201972,-4.7683716e-06
1.264000000,9.200695,9.200695,9.2503748,-4.7683716e-06
1.265000000,9.2420769,9.2420769,9.2918139,-4.7683716e-06
1.266000000,9.2833986,9.2833986,9.3331909,-4.7683716e-06
1.267000000,9.3250799,9.3250799,9.3749247,-4.7683716e-06
1.268000000,9.3667917,9.3667917,9.4166899,-4.7683716e-06
1.269000000,9.4084444,9.4084444,9.458396,-4.7683716e-06
1.270000000,9.4500256,9.4500256,9.5000286,2.5749207e-05
1.271000000,9.5055275,9.5055275,9.5554981,2.5749207e-05
1.272000000,9.581131,9.581131,9.630949,2.5749207e-05
1.273000000,9.649394,9.649394,9.6991034,2.5749207e-05
1.274000000,9.697876,9.697876,9.7475939,2.5749207e-05
1.275000000,9.739748,9.739748,9.7895155,2.5749207e-05
1.276000000,9.781559,9.781559,9.8313751,2.5749207e-05
1.277000000,9.8237114,9.8237114,9.8735743,2.5749207e-05
1.278000000,9.8658829,9.8658829,9.9157925,2.5749207e-05
1.279000000,9.9079847,9.9079847,9.9579391,2.5749207e-05
1.280000000,9.950036,9.950036,10.000037,3.6239624e-05
1.281000000,9.9325762,9.9325762,9.9752808,3.6239624e-05
1.282000000,9.8292913,9.8292913,9.8541069,3.6239624e-05
1.283000000,9.756978,9.756978,9.7677364,3.6239624e-05
1.284000000,9.768569,9.768569,9.7756386,3.6239624e-05
1.285000000,9.8080702,9.8080702,9.8149023,3.6239624e-05
1.286000000,9.8475218,9.8475218,9.8541183,3.6239624e-05
1.287000000,9.8852634,9.8852634,9.8914185,3.6239624e-05
1.288000000,9.9226456,9.9226456,9.9283218,3.6239624e-05
1.289000000,9.9600267,9.9600267,9.9652309,3.6239624e-05
1.290000000,9.9973984,9.9973984,10.002134,-0.0026016235
1.291000000,9.9752178,9.9752178,9.9794817,-0.0026016235
1.292000000,9.8671427,9.8671427,9.8709278,-0.0026016235
1.293000000,9.7900801,9.7900801,9.7933903,-0.0026016235
1.294000000,9.7969904,9.7969904,9.7998323,-0.0026016235
1.295000000,9.831831,9.831831,9.8342075,-0.0026016235
1.296000000,9.866643,9.866643,9.8685551,-0.0026016235
1.297000000,9.899724,9.899724,9.9011698,-0.0026016235
1.298000000,9.932476,9.932476,9.9334593,-0.0026016235
1.299000000,9.9652271,9.9652271,9.9657469,-0.0026016235
1.300000000,9.9979687,9.9979687,9.9980259,-0.0020313263
1.301000000,9.9787378,9.9787378,9.9790897,-0.0020313263
1.302000000,9.8845539,9.8845539,9.8862953,-0.0020313263
1.303000000,9.8174314,9.8174314,9.8201666,-0.0020313263
1.304000000,9.8235912,9.8235912,9.826251,-0.0020313263
1.305000000,9.8541222,9.8541222,9.8563509,-0.0020313263
1.306000000,9.884634,9.884634,9.8864326,-0.0020313263
1.307000000,9.9136353,9.9136353,9.9150267,-0.0020313263
1.308000000,9.9423466,9.9423466,9.9433336,-0.0020313263
1.309000000,9.9710569,9.9710569,9.9716396,-0.0020313263
1.310000000,9.9997482,9.9997482,9.9999266,-0.00025177002
1.311000000,9.9828882,9.9828882,9.9833031,-0.00025177002
1.312000000,9.9003038,9.9003038,9.9018784,-0.00025177002
1.313000000,9.8414421,9.8414421,9.8438435,-0.00025177002
1.314000000,9.8468323,9.8468323,9.8491564,-0.00025177002
1.315000000,9.8736038,9.8736038,9.8755522,-0.00025177002
1.316000000,9.9003439,9.9003439,9.9019146,-0.00025177002
1.317000000,9.925766,9.925766,9.9269791,-0.00025177002
1.318000000,9.9509268,9.9509268,9.9517851,-0.00025177002
1.319000000,9.9760971,9.9760971,9.9766006,-0.00025177002
1.320000000,10.001248,10.001248,10.001398,0.0012483597
1.321000000,9.9863577,9.9863577,9.9867048,0.0012483597
1.322000000,9.9137154,9.9137154,9.9150562,0.0012483597
1.323000000,9.8619232,9.8619232,9.8639717,0.0012483597
1.324000000,9.8665934,9.8665934,9.8685694,0.0012483597
1.325000000,9.8900537,9.8900537,9.8916988,0.0012483597
1.326000000,9.9134855,9.9134855,9.9147997,0.0012483597
1.327000000,9.9357662,9.9357662,9.9367666,0.0012483597
1.328000000,9.9578171,9.9578171,9.9585056,0.0012483597
1.329000000,9.9798679,9.9798679,9.9802446,0.0012483597
1.330000000,10.001909,10.001909,10.001975,0.001909256
1.331000000,9.9887581,9.9887581,9.9889984,0.001909256
1.332000000,9.9248352,9.9248352,9.9259472,0.001909256
1.333000000,9.8792439,9.8792439,9.8809757,0.001909256
1.334000000,9.8832836,9.8832836,9.8849525,0.001909256
1.335000000,9.9038343,9.9038343,9.9052124,0.001909256
1.336000000,9.924366,9.924366,9.9254541,0.001909256
1.337000000,9.9438763,9.9438763,9.9446869,0.001909256
1.338000000,9.9631872,9.9631872,9.9637241,0.001909256
1.339000000,9.9825077,9.9825077,9.9827719,0.001909256
1.340000000,10.001819,10.001819,10.00181,0.0018186569
1.341000000,9.9902182,9.9902182,9.9903641,0.0018186569
1.342000000,9.9340353,9.9340353,9.9349556,0.0018186569
1.343000000,9.8939543,9.8939543,9.8954258,0.0018186569
1.344000000,9.8974543,9.8974543,9.8988714,0.0018186569
1.345000000,9.9154549,9.9154549,9.9166164,0.0018186569
1.346000000,9.9334364,9.9334364,9.9343433,0.0018186569
1.347000000,9.9505262,9.9505262,9.9511909,0.0018186569
1.348000000,9.9674368,9.9674368,9.9678621,0.0018186569
1.349000000,9.9843483,9.9843483,9.9845324,0.0018186569
1.350000000,10.001259,10.001259,10.001203,0.0012588501
1.351000000,9.9910784,9.9910784,9.9911642,0.0012588501
1.352000000,9.9418259,9.9418259,9.942605,0.0012588501
1.353000000,9.9066744,9.9066744,9.9079466,0.0012588501
1.354000000,9.9097252,9.9097252,9.9109526,0.0012588501
1.355000000,9.9254856,9.9254856,9.9264889,0.0012588501
1.356000000,9.941226,9.941226,9.9420052,0.0012588501
1.357000000,9.9561863,9.9561863,9.9567528,0.0012588501
1.358000000,9.9709978,9.9709978,9.9713535,0.0012588501
1.359000000,9.9858084,9.9858084,9.9859543,0.0012588501
1.360000000,10.000608,10.000608,10.000544,0.00060844421
1.361000000,9.9916983,9.9916983,9.9917603,0.00060844421
1.362000000,9.948596,9.948596,9.9492731,0.00060844421
1.363000000,9.9178352,9.9178352,9.918951,0.00060844421
1.364000000,9.9205151,9.9205151,9.9215937,0.00060844421
1.365000000,9.9343157,9.9343157,9.9351988,0.00060844421
1.366000000,9.9480963,9.9480963,9.9487829,0.00060844421
1.367000000,9.9611969,9.9611969,9.9616976,0.00060844421
1.368000000,9.9741573,9.9741573,9.974473,0.00060844421
1.369000000,9.9871283,9.9871283,9.9872599,0.00060844421
1.370000000,10.000089,10.000089,10.000036,8.8691711e-05
1.371000000,9.9923077,9.9923077,9.9923687,8.8691711e-05
1.372000000,9.9546165,9.9546165,9.9552183,8.8691711e-05
1.373000000,9.9277258,9.9277258,9.9287148,8.8691711e-05
1.374000000,9.9300756,9.9300756,9.9310322,8.8691711e-05
1.375000000,9.9421663,9.9421663,9.9429512,8.8691711e-05
1.376000000,9.954237,9.954237,9.9548512,8.8691711e-05
1.377000000,9.9657078,9.9657078,9.9661589,8.8691711e-05
1.378000000,9.9770575,9.9770575,9.9773474,8.8691711e-05
1.379000000,9.9884081,9.9884081,9.9885359,8.8691711e-05
1.380000000,9.9997578,9.9997578,9.9997244,-0.00024223328
1.381000000,9.992979,9.992979,9.9930458,-0.00024223328
1.382000000,9.9600372,9.9600372,9.9605789,-0.00024223328
1.383000000,9.9365358,9.9365358,9.937417,-0.00024223328
1.384000000,9.9386168,9.9386168,9.9394712,-0.00024223328
1.385000000,9.9491968,9.9491968,9.9498997,-0.00024223328
1.386000000,9.9597673,9.9597673,9.9603205,-0.00024223328
1.387000000,9.9698172,9.9698172,9.9702282,-0.00024223328
1.388000000,9.9797583,9.9797583,9.9800282,-0.00024223328
1.389000000,9.9896984,9.9896984,9.9898272,-0.00024223328
1.390000000,9.9996386,9.9996386,9.9996262,-0.00036144257
1.391000000,9.9937181,9.9937181,9.9937916,-0.00036144257
1.392000000,9.9649067,9.9649067,9.965394,-0.00036144257
1.393000000,9.9443665,9.9443665,9.9451494,-0.00036144257
1.394000000,9.9461861,9.9461861,9.9469433,-0.00036144257
1.395000000,9.9554567,9.9554567,9.9560823,-0.00036144257
1.396000000,9.9647179,9.9647179,9.9652128,-0.00036144257
1.397000000,9.9735174,9.9735174,9.9738874,-0.00036144257
1.398000000,9.9822283,9.9822283,9.9824753,-0.00036144257
1.399000000,9.9909382,9.9909382,9.9910622,-0.00036144257
1.400000000,9.9996481,9.9996481,9.999649,-0.00035190582
1.401000000,9.9944677,9.9944677,9.9945431,-0.00035190582
1.402000000,9.9692669,9.9692669,9.9697027,-0.00035190582
1.403000000,9.9512873,9.9512873,9.9519796,-0.00035190582
1.404000000,9.9528971,9.9528971,9.9535685,-0.00035190582
1.405000000,9.9610167,9.9610167,9.9615726,-0.00035190582
1.406000000,9.9691267,9.9691267,9.9695673,-0.00035190582
1.407000000,9.9768381,9.9768381,9.97717,-0.00035190582
1.408000000,9.9844685,9.9844685,9.9846926,-0.00035190582
1.409000000,9.9920979,9.9920979,9.9922142,-0.00035190582
1.410000000,9.9997282,9.9997282,9.9997358,-0.00027179718
1.411000000,9.9951982,9.9951982,9.9952717,-0.00027179718
1.412000000,9.9731178,9.9731178,9.9735031,-0.00027179718
1.413000000,9.9573765,9.9573765,9.9579849,-0.00027179718
1.414000000,9.958787,9.958787,9.9593763,-0.00027179718
1.415000000,9.9658966,9.9658966,9.9663849,-0.00027179718
1.416000000,9.9730072,9.9730072,9.9733953,-0.00027179718
1.417000000,9.9797583,9.9797583,9.9800501,-0.00027179718
1.418000000,9.9864483,9.9864483,9.9866467,-0.00027179718
1.419000000,9.9931383,9.9931383,9.9932423,-0.00027179718
1.420000000,9.9998188,9.9998188,9.9998283,-0.00018119812
1.421000000,9.9958487,9.9958487,9.9959135,-0.00018119812
1.422000000,9.9765177,9.9765177,9.9768581,-0.00018119812
1.423000000,9.9627275,9.9627275,9.9632626,-0.00018119812
1.424000000,9.9639673,9.9639673,9.9644852,-0.00018119812
1.425000000,9.9701977,9.9701977,9.9706278,-0.00018119812
1.426000000,9.976428,9.976428,9.9767704,-0.00018119812
1.427000000,9.9823475,9.9823475,9.9826069,-0.00018119812
1.428000000,9.9881983,9.9881983,9.9883728,-0.00018119812
1.429000000,9.9940586,9.9940586,9.9941502,-0.00018119812
1.430000000,9.9999189,9.9999189,9.9999294,-8.1062317e-05
1.431000000,9.9964285,9.9964285,9.9964867,-8.1062317e-05
1.432000000,9.9794779,9.9794779,9.9797735,-8.1062317e-05
1.433000000,9.9673872,9.9673872,9.9678535,-8.1062317e-05
1.434000000,9.9684677,9.9684677,9.9689178,-8.1062317e-05
1.435000000,9.973918,9.973918,9.9742899,-8.1062317e-05
1.436000000,9.9793777,9.9793777,9.9796724,-8.1062317e-05
1.437000000,9.9845581,9.9845581,9.9847794,-8.1062317e-05
1.438000000,9.9896879,9.9896879,9.9898367,-8.1062317e-05
1.439000000,9.9948282,9.9948282,9.9949055,-8.1062317e-05
1.440000000,9.999958,9.999958,9.9999619,-4.196167e-05
1.441000000,9.9969082,9.9969082,9.9969559,-4.196167e-05
1.442000000,9.9820585,9.9820585,9.982317,-4.196167e-05
1.443000000,9.971467,9.971467,9.9718752,-4.196167e-05
1.444000000,9.9724073,9.9724073,9.9728012,-4.196167e-05
1.445000000,9.9771976,9.9771976,9.9775257,-4.196167e-05
1.446000000,9.9819679,9.9819679,9.9822273,-4.196167e-05
1.447000000,9.9865179,9.9865179,9.9867134,-4.196167e-05
1.448000000,9.9910078,9.9910078,9.9911394,-4.196167e-05
1.449000000,9.9955082,9.9955082,9.9955759,-4.196167e-05
1.450000000,9.999999,9.999999,10.000003,-9.5367432e-07
1.451000000,9.9973183,9.9973183,9.9973593,-9.5367432e-07
1.452000000,9.9842978,9.9842978,9.9845219,-9.5367432e-07
1.453000000,9.975008,9.975008,9.9753618,-9.5367432e-07
1.454000000,9.9758272,9.9758272,9.9761696,-9.5367432e-07
1.455000000,9.9800177,9.9800177,9.9802999,-9.5367432e-07
1.456000000,9.9842081,9.9842081,9.9844322,-9.5367432e-07
1.457000000,9.9881878,9.9881878,9.9883547,-9.5367432e-07
1.458000000,9.9921188,9.9921188,9.9922295,-9.5367432e-07
1.459000000,9.9960585,9.9960585,9.9961138,-9.5367432e-07
1.460000000,9.999999,9.999999,9.999999,-9.5367432e-07
1.461000000,9.9976492,9.9976492,9.9976826,-9.5367432e-07
1.462000000,9.9862385,9.9862385,9.986433,-9.5367432e-07
1.463000000,9.9780979,9.9780979,9.9784069,-9.5367432e-07
1.464000000,9.9788179,9.9788179,9.9791174,-9.5367432e-07
1.465000000,9.9824877,9.9824877,9.9827347,-9.5367432e-07
1.466000000,9.9861574,9.9861574,9.986352,-9.5367432e-07
1.467000000,9.9896383,9.9896383,9.9897833,-9.5367432e-07
1.468000000,9.9930887,9.9930887,9.993186,-9.5367432e-07
1.469000000,9.9965382,9.9965382,9.9965858,-9.5367432e-07
1.470000000,9.9999886,9.9999886,9.9999876,-1.1444092e-05
1.471000000,9.9979286,9.9979286,9.9979563,-1.1444092e-05
1.472000000,9.9879284,9.9879284,9.9880972,-1.1444092e-05
1.473000000,9.9807978,9.9807978,9.9810677,-1.1444092e-05
1.474000000,9.9814281,9.9814281,9.9816895,-1.1444092e-05
1.475000000,9.9846382,9.9846382,9.9848537,-1.1444092e-05
1.476000000,9.9878483,9.9878483,9.9880171,-1.1444092e-05
1.477000000,9.9909086,9.9909086,9.9910355,-1.1444092e-05
1.478000000,9.993928,9.993928,9.9940119,-1.1444092e-05
1.479000000,9.9969482,9.9969482,9.9969893,-1.1444092e-05
1.480000000,9.9999676,9.9999676,9.9999657,-3.2424927e-05
1.481000000,9.8528023,9.8528023,9.8382893,-3.2424927e-05
1.482000000,9.4889679,9.4889679,9.4390717,-3.2424927e-05
1.483000000,9.2035055,9.2035055,9.1257763,-3.2424927e-05
1.484000000,9.1301126,9.1301126,9.044981,-3.2424927e-05
1.485000000,9.1273222,9.1273222,9.0415907,-3.2424927e-05
1.486000000,9.1245718,9.1245718,9.0382442,-3.2424927e-05
1.487000000,9.1176014,9.1176014,9.0302706,-3.2424927e-05
1.488000000,9.1098709,9.1098709,9.0214653,-3.2424927e-05
1.489000000,9.1022711,9.1022711,9.0128031,-3.2424927e-05
1.490000000,9.0947409,9.0947409,9.0042181,-0.0052604675
1.491000000,8.9388237,8.9388237,8.8474255,-0.0052604675
1.492000000,8.568819,8.568819,8.4768038,-0.0052604675
1.493000000,8.2762766,8.2762766,8.1835537,-0.0052604675
1.494000000,8.1932831,8.1932831,8.0995998,-0.0052604675
1.495000000,8.1800928,8.1800928,8.0853701,-0.0052604675
1.496000000,8.1669321,8.1669321,8.0711679,-0.0052604675
1.497000000,8.149621,8.149621,8.0528231,-0.0052604675
1.498000000,8.1315804,8.1315804,8.0337515,-0.0052604675
1.499000000,8.1136799,8.1136799,8.0148211,-0.0052604675
1.500000000,8.0958595,8.0958595,7.9959712,-0.0041418076
1.501000000,7.9464731,7.9464731,7.8472381,-0.0041418076
1.502000000,7.6072683,7.6072683,7.5111132,-0.0041418076
1.503000000,7.3367567,7.3367567,7.2428045,-0.0041418076
1.504000000,7.2520838,7.2520838,7.1579638,-0.0041418076
1.505000000,7.2293129,7.2293129,7.1342349,-0.0041418076
1.506000000,7.2065821,7.2065821,7.1105471,-0.0041418076
1.507000000,7.1801906,7.1801906,7.0832477,-0.0041418076
1.508000000,7.1531596,7.1531596,7.0553174,-0.0041418076
1.509000000,7.1262579,7.1262579,7.0275159,-0.0041418076
1.510000000,7.0994573,7.0994573,6.9998169,-0.00054359436
1.511000000,6.9553313,6.9553313,6.8562174,-0.00054359436
1.512000000,6.6418982,6.6418982,6.545361,-0.00054359436
1.513000000,6.3897676,6.3897676,6.2950687,-0.00054359436
1.514000000,6.3033843,6.3033843,6.2085142,-0.00054359436
1.515000000,6.2722325,6.2722325,6.1765246,-0.00054359436
1.516000000,6.2411313,6.2411313,6.1445861,-0.00054359436
1.517000000,6.20678,6.20678,6.1094389,-0.00054359436
1.518000000,6.1718583,6.1718583,6.0737281,-0.00054359436
1.519000000,6.1370869,6.1370869,6.0381699,-0.00054359436
1.520000000,6.1024055,6.1024055,6.0027003,0.002404213
1.521000000,5.9627094,5.9627094,5.8634472,0.002404213
1.522000000,5.6714873,5.6714873,5.5744462,0.002404213
1.523000000,5.4351473,5.4351473,5.3396854,0.002404213
1.524000000,5.3471837,5.3471837,5.2515635,0.002404213
1.525000000,5.308672,5.308672,5.212316,0.002404213
1.526000000,5.2702308,5.2702308,5.1731405,0.002404213
1.527000000,5.2288785,5.2288785,5.1310883,0.002404213
1.528000000,5.1870375,5.1870375,5.0885553,0.002404213
1.529000000,5.1453357,5.1453357,5.0461607,0.002404213
1.530000000,5.103734,5.103734,5.0038667,0.0037326813
1.531000000,4.9679179,4.9679179,4.8684387,0.0037326813
1.532000000,4.696157,4.696157,4.5986238,0.0037326813
1.533000000,4.4736476,4.4736476,4.3774977,0.0037326813
1.534000000,4.3842936,4.3842936,4.2880044,0.0037326813
1.535000000,4.3393221,4.3393221,4.2423873,0.0037326813
1.536000000,4.2944202,4.2944202,4.1968393,0.0037326813
1.537000000,4.2469282,4.2469282,4.1487331,0.0037326813
1.538000000,4.1990061,4.1990061,4.100203,0.0037326813
1.539000000,4.1512241,4.1512241,4.0518131,0.0037326813
1.540000000,4.1035419,4.1035419,4.0035229,0.0035405159
1.541000000,3.9712164,3.9712164,3.8715463,0.0035405159
1.542000000,3.7167356,3.7167356,3.6187935,0.0035405159
1.543000000,3.5065269,3.5065269,3.4098148,0.0035405159
1.544000000,3.4159832,3.4159832,3.3191521,0.0035405159
1.545000000,3.3653412,3.3653412,3.2679431,0.0035405159
1.546000000,3.314769,3.314769,3.216804,0.0035405159
1.547000000,3.2618868,3.2618868,3.1633828,0.0035405159
1.548000000,3.2086344,3.2086344,3.1095972,0.0035405159
1.549000000,3.1555123,3.1555123,3.0559411,0.0035405159
1.550000000,3.1024899,3.1024899,3.0023847,0.0024886131
1.551000000,2.9733148,2.9733148,2.8735247,0.0024886131
1.552000000,2.7342145,2.7342145,2.6359625,0.0024886131
1.553000000,2.5349665,2.5349665,2.4378104,0.0024886131
1.554000000,2.4434323,2.4434323,2.3461773,0.0024886131
1.555000000,2.38781,2.38781,2.2900569,0.0024886131
1.556000000,2.3322678,2.3322678,2.2340176,0.0024886131
1.557000000,2.2746553,2.2746553,2.1759322,0.0024886131
1.558000000,2.216723,2.216723,2.1175318,0.0024886131
1.559000000,2.1589305,2.1589305,2.0592723,0.0024886131
1.560000000,2.101238,2.101238,2.0011129,0.0012364388
1.561000000,1.9748627,1.9748627,1.8750175,0.0012364388
1.562000000,1.7493833,1.7493833,1.6509002,0.0012364388
1.563000000,1.5598453,1.5598453,1.4623332,0.0012364388
1.564000000,1.4674714,1.4674714,1.3698753,0.0012364388
1.565000000,1.4074891,1.4074891,1.3094569,0.0012364388
1.566000000,1.3475965,1.3475965,1.2491294,0.0012364388
1.567000000,1.2858438,1.2858438,1.1869627,0.0012364388
1.568000000,1.2238213,1.2238213,1.1245311,0.0012364388
1.569000000,1.1619287,1.1619287,1.0622284,0.0012364388
1.570000000,1.100136,1.100136,1.0000259,0.00013446808
1.571000000,0.97628087,0.97628087,0.8764227,0.00013446808
1.572000000,0.76284194,0.76284194,0.66418779,0.00013446808
1.573000000,0.58191437,0.58191437,0.48412126,0.00013446808
1.574000000,0.48882049,0.48882049,0.39095539,0.00013446808
1.575000000,0.42502779,0.42502779,0.32678166,0.00013446808
1.576000000,0.36132511,0.36132511,0.26269796,0.00013446808
1.577000000,0.29595241,0.29595241,0.19696327,0.00013446808
1.578000000,0.23034966,0.23034966,0.13100249,0.00013446808
1.579000000,0.16487692,0.16487692,0.065171748,0.00013446808
1.580000000,0.09950418,0.09950418,-0.00055900216,-0.00049743056
1.581000000,-0.022148427,-0.022148427,-0.12199135,-0.00049743056
1.582000000,-0.2250638,-0.2250638,-0.32385439,-0.00049743056
1.583000000,-0.39848131,-0.39848131,-0.49652088,-0.00049743056
1.584000000,-0.49219459,-0.49219459,-0.59029609,-0.00049743056
1.585000000,-0.55932975,-0.55932975,-0.65776551,-0.00049743056
1.586000000,-0.62636495,-0.62636495,-0.72513396,-0.00049743056
1.587000000,-0.69489998,-0.69489998,-0.79398519,-0.00049743056
1.588000000,-0.76364499,-0.76364499,-0.86304444,-0.00049743056
1.589000000,-0.83225012,-0.83225012,-0.93196285,-0.00049743056
1.590000000,-0.90074515,-0.90074515,-1.0007701,-0.0007468462
1.591000000,-1.0204965,-1.0204965,-1.1203313,-0.0007468462
1.592000000,-1.2142125,-1.2142125,-1.3131274,-0.0007468462
1.593000000,-1.3810506,-1.3810506,-1.4793075,-0.0007468462
1.594000000,-1.4753238,-1.4753238,-1.5736368,-0.0007468462
1.595000000,-1.5453687,-1.5453687,-1.6439725,-0.0007468462
1.596000000,-1.6153237,-1.6153237,-1.7142196,-0.0007468462
1.597000000,-1.6866285,-1.6866285,-1.7858013,-0.0007468462
1.598000000,-1.7581134,-1.7581134,-1.8575603,-0.0007468462
1.599000000,-1.8294683,-1.8294683,-1.92919,-0.0007468462
1.600000000,-1.9007031,-1.9007031,-2.0006988,-0.00070488453
1.601000000,-2.0188046,-2.0188046,-2.1186354,-0.00070488453
1.602000000,-2.2045412,-2.2045412,-2.3035741,-0.00070488453
1.603000000,-2.3656995,-2.3656995,-2.4641645,-0.00070488453
1.604000000,-2.4604628,-2.4604628,-2.5589767,-0.00070488453
1.605000000,-2.5330675,-2.5330675,-2.6318374,-0.00070488453
1.606000000,-2.605572,-2.605572,-2.7045968,-0.00070488453
1.607000000,-2.6793067,-2.6793067,-2.7785745,-0.00070488453
1.608000000,-2.7531815,-2.7531815,-2.8526883,-0.00070488453
1.609000000,-2.8269362,-2.8269362,-2.9266829,-0.00070488453
1.610000000,-2.9005809,-2.9005809,-3.0005686,-0.00058269501
1.611000000,-3.0172226,-3.0172226,-3.1170645,-0.00058269501
1.612000000,-3.1959698,-3.1959698,-3.2951126,-0.00058269501
1.613000000,-3.3521285,-3.3521285,-3.4507713,-0.00058269501
1.614000000,-3.4473314,-3.4473314,-3.5460184,-0.00058269501
1.615000000,-3.522166,-3.522166,-3.6210759,-0.00058269501
1.616000000,-3.5969107,-3.5969107,-3.6960447,-0.00058269501
1.617000000,-3.6727653,-3.6727653,-3.7721112,-0.00058269501
1.618000000,-3.74875,-3.74875,-3.8483069,-0.00058269501
1.619000000,-3.8245945,-3.8245945,-3.9243603,-0.00058269501
1.620000000,-3.9003389,-3.9003389,-4.0003147,-0.00034070015
1.621000000,-4.0157504,-4.0157504,-4.115603,-0.00034070015
1.622000000,-4.1884279,-4.1884279,-4.287674,-0.00034070015
1.623000000,-4.3402572,-4.3402572,-4.4390702,-0.00034070015
1.624000000,-4.4358506,-4.4358506,-4.5347023,-0.00034070015
1.625000000,-4.5126548,-4.5126548,-4.6117039,-0.00034070015
1.626000000,-4.5893493,-4.5893493,-4.6885929,-0.00034070015
1.627000000,-4.6670637,-4.6670637,-4.7664938,-0.00034070015
1.628000000,-4.7448878,-4.7448878,-4.8445015,-0.00034070015
1.629000000,-4.8225822,-4.8225822,-4.9223809,-0.00034070015
1.630000000,-4.900167,-4.900167,-5.0001497,-0.00016880035
1.631000000,-5.0144892,-5.0144892,-5.1143632,-0.00016880035
1.632000000,-5.1818671,-5.1818671,-5.2812109,-0.00016880035
1.633000000,-5.3299165,-5.3299165,-5.4288826,-0.00016880035
1.634000000,-5.425859,-5.425859,-5.5248599,-0.00016880035
1.635000000,-5.5043736,-5.5043736,-5.6035452,-0.00016880035
1.636000000,-5.582778,-5.582778,-5.6821208,-0.00016880035
1.637000000,-5.6621323,-5.6621323,-5.7616391,-0.00016880035
1.638000000,-5.7415667,-5.7415667,-5.8412347,-0.00016880035
1.639000000,-5.8208809,-5.8208809,-5.9207106,-0.00016880035
1.640000000,-5.900075,-5.900075,-6.0000658,-7.724762e-05
1.641000000,-6.0134368,-6.0134368,-6.1133318,-7.724762e-05
1.642000000,-6.1761551,-6.1761551,-6.2755837,-7.724762e-05
1.643000000,-6.3208847,-6.3208847,-6.4199815,-7.724762e-05
1.644000000,-6.4171276,-6.4171276,-6.5162544,-7.724762e-05
1.645000000,-6.4971423,-6.4971423,-6.5964193,-7.724762e-05
1.646000000,-6.5770564,-6.5770564,-6.6764841,-7.724762e-05
1.647000000,-6.6578403,-6.6578403,-6.757411,-7.724762e-05
1.648000000,-6.7386847,-6.7386847,-6.8383965,-7.724762e-05
1.649000000,-6.8194089,-6.8194089,-6.9192619,-7.724762e-05
1.650000000,-6.900023,-6.900023,-7.0000176,-2.5272369e-05
1.651000000,-7.0125551,-7.0125551,-7.1124668,-2.5272369e-05
1.652000000,-7.1711836,-7.1711836,-7.2706866,-2.5272369e-05
1.653000000,-7.3129935,-7.3129935,-7.4122043,-2.5272369e-05
1.654000000,-7.4094963,-7.4094963,-7.5087333,-2.5272369e-05
1.655000000,-7.4908304,-7.4908304,-7.5901995,-2.5272369e-05
1.656000000,-7.5720644,-7.5720644,-7.6715651,-2.5272369e-05
1.657000000,-7.654089,-7.654089,-7.7537136,-2.5272369e-05
1.658000000,-7.7361832,-7.7361832,-7.8359332,-2.5272369e-05
1.659000000,-7.8181472,-7.8181472,-7.9180212,-2.5272369e-05
1.660000000,-7.899991,-7.899991,-7.9999876,6.6757202e-06
1.661000000,-8.0117931,-8.0117931,-8.1117172,6.6757202e-06
1.662000000,-8.1668615,-8.1668615,-8.2664289,6.6757202e-06
1.663000000,-8.3061419,-8.3061419,-8.4054565,6.6757202e-06
1.664000000,-8.4028645,-8.4028645,-8.5022011,6.6757202e-06
1.665000000,-8.4853582,-8.4853582,-8.5848112,6.6757202e-06
1.666000000,-8.5677433,-8.5677433,-8.6673107,6.6757202e-06
1.667000000,-8.650877,-8.650877,-8.750556,6.6757202e-06
1.668000000,-8.7340508,-8.7340508,-8.8338375,6.6757202e-06
1.669000000,-8.8171053,-8.8171053,-8.9170008,6.6757202e-06
1.670000000,-8.9000387,-8.9000387,-9.0000439,-4.1007996e-05
1.671000000,-9.0111809,-9.0111809,-9.1111193,-4.1007996e-05
1.672000000,-9.1630802,-9.1630802,-9.262702,-4.1007996e-05
1.673000000,-9.3001003,-9.3001003,-9.3994961,-4.1007996e-05
1.674000000,-9.3970337,-9.3970337,-9.4964504,-4.1007996e-05
1.675000000,-9.4805374,-9.4805374,-9.5800552,-4.1007996e-05
1.676000000,-9.5639315,-9.5639315,-9.6635504,-4.1007996e-05
1.677000000,-9.6480255,-9.6480255,-9.7477407,-4.1007996e-05
1.678000000,-9.7321491,-9.7321491,-9.8319588,-4.1007996e-05
1.679000000,-9.8161526,-9.8161526,-9.9160576,-4.1007996e-05
1.680000000,-9.9000368,-9.9000368,-10.000036,-3.9100647e-05
1.681000000,-9.8652496,-9.8652496,-9.9506569,-3.9100647e-05
1.682000000,-9.6593142,-9.6593142,-9.7089376,-3.9100647e-05
1.683000000,-9.5151548,-9.5151548,-9.5366602,-3.9100647e-05
1.684000000,-9.5383034,-9.5383034,-9.5524302,-3.9100647e-05
1.685000000,-9.6170969,-9.6170969,-9.6307526,-3.9100647e-05
1.686000000,-9.6958122,-9.6958122,-9.7090006,-3.9100647e-05
1.687000000,-9.7710867,-9.7710867,-9.7833929,-3.9100647e-05
1.688000000,-9.8456812,-9.8456812,-9.8570347,-3.9100647e-05
1.689000000,-9.9202557,-9.9202557,-9.930666,-3.9100647e-05
1.690000000,-9.9947996,-9.9947996,-10.004276,0.005200386
1.691000000,-9.9505539,-9.9505539,-9.9590845,0.005200386
1.692000000,-9.7349586,-9.7349586,-9.7425232,0.005200386
1.693000000,-9.5812302,-9.5812302,-9.5878372,0.005200386
1.694000000,-9.5950089,-9.5950089,-9.6006794,0.005200386
1.695000000,-9.6645136,-9.6645136,-9.6692553,0.005200386
1.696000000,-9.7339592,-9.7339592,-9.7377739,0.005200386
1.697000000,-9.7999744,-9.7999744,-9.8028631,0.005200386
1.698000000,-9.8653097,-9.8653097,-9.8672724,0.005200386
1.699000000,-9.930645,-9.930645,-9.9316835,0.005200386
1.700000000,-9.9959602,-9.9959602,-9.9960766,0.0040397644
1.701000000,-9.9576025,-9.9576025,-9.9583073,0.0040397644
1.702000000,-9.7697163,-9.7697163,-9.7731924,0.0040397644
1.703000000,-9.6358061,-9.6358061,-9.641264,0.0040397644
1.704000000,-9.6480951,-9.6480951,-9.6534042,0.0040397644
1.705000000,-9.7090111,-9.7090111,-9.7134609,0.0040397644
1.706000000,-9.769866,-9.769866,-9.7734566,0.0040397644
1.707000000,-9.8277321,-9.8277321,-9.8305082,0.0040397644
1.708000000,-9.8849983,-9.8849983,-9.8869667,0.0040397644
1.709000000,-9.9422741,-9.9422741,-9.9434366,0.0040397644
1.710000000,-9.9995298,-9.9995298,-9.9998865,0.00047016144
1.711000000,-9.9658823,-9.9658823,-9.9667101,0.00047016144
1.712000000,-9.8011236,-9.8011236,-9.8042641,0.00047016144
1.713000000,-9.6837025,-9.6837025,-9.6884918,0.00047016144
1.714000000,-9.6944618,-9.6944618,-9.6990986,0.00047016144
1.715000000,-9.747858,-9.747858,-9.7517424,0.00047016144
1.716000000,-9.8012047,-9.8012047,-9.8043385,0.00047016144
1.717000000,-9.8519306,-9.8519306,-9.8543501,0.00047016144
1.718000000,-9.9021263,-9.9021263,-9.9038391,0.00047016144
1.719000000,-9.9523335,-9.9523335,-9.9533396,0.00047016144
1.720000000,-10.00252,-10.00252,-10.002819,-0.0025196075
1.721000000,-9.9728117,-9.9728117,-9.973505,-0.0025196075
1.722000000,-9.8278627,-9.8278627,-9.8305368,-0.0025196075
1.723000000,-9.7245197,-9.7245197,-9.7286015,-0.0025196075
1.724000000,-9.733839,-9.733839,-9.7377768,-0.0025196075
1.725000000,-9.7806358,-9.7806358,-9.7839136,-0.0025196075
1.726000000,-9.8273821,-9.8273821,-9.8299999,-0.0025196075
1.727000000,-9.871829,-9.871829,-9.8738194,-0.0025196075
1.728000000,-9.9158163,-9.9158163,-9.9171848,-0.0025196075
1.729000000,-9.9598131,-9.9598131,-9.9605608,-0.0025196075
1.730000000,-10.003789,-10.003789,-10.003916,-0.0037889481
1.731000000,-9.977541,-9.977541,-9.978014,-0.0037889481
1.732000000,-9.8500099,-9.8500099,-9.8522243,-0.0037889481
1.733000000,-9.7590475,-9.7590475,-9.7625008,-0.0037889481
1.734000000,-9.767107,-9.767107,-9.7704334,-0.0037889481
1.735000000,-9.8081036,-9.8081036,-9.8108501,-0.0037889481
1.736000000,-9.849061,-9.849061,-9.8512287,-0.0037889481
1.737000000,-9.8879976,-9.8879976,-9.8896141,-0.0037889481
1.738000000,-9.9265251,-9.9265251,-9.9275961,-0.0037889481
1.739000000,-9.9650621,-9.9650621,-9.9655867,-0.0037889481
1.740000000,-10.003579,-10.003579,-10.003558,-0.0035791397
1.741000000,-9.9804506,-9.9804506,-9.9807415,-0.0035791397
1.742000000,-9.8684092,-9.8684092,-9.8702488,-0.0035791397
1.743000000,-9.7884655,-9.7884655,-9.7914076,-0.0035791397
1.744000000,-9.795455,-9.795455,-9.7982903,-0.0035791397
1.745000000,-9.8313618,-9.8313618,-9.8336878,-0.0035791397
1.746000000,-9.867239,-9.867239,-9.8690567,-0.0035791397
1.747000000,-9.9013271,-9.9013271,-9.9026604,-0.0035791397
1.748000000,-9.9350643,-9.9350643,-9.9359179,-0.0035791397
1.749000000,-9.968812,-9.968812,-9.9691868,-0.0035791397
1.750000000,-10.00254,-10.00254,-10.002436,-0.0025396347
1.751000000,-9.9822311,-9.9822311,-9.9824095,-0.0025396347
1.752000000,-9.8839579,-9.8839579,-9.8855124,-0.0025396347
1.753000000,-9.8138437,-9.8138437,-9.8163815,-0.0025396347
1.754000000,-9.8199224,-9.8199224,-9.8223696,-0.0025396347
1.755000000,-9.8513603,-9.8513603,-9.8533602,-0.0025396347
1.756000000,-9.8827782,-9.8827782,-9.8843317,-0.0025396347
1.757000000,-9.9126263,-9.9126263,-9.9137564,-0.0025396347
1.758000000,-9.9421644,-9.9421644,-9.9428749,-0.0025396347
1.759000000,-9.9717112,-9.9717112,-9.9720011,-0.0025396347
1.760000000,-10.00124,-10.00124,-10.00111,-0.0012397766
1.761000000,-9.9834709,-9.9834709,-9.9835949,-0.0012397766
1.762000000,-9.8974667,-9.8974667,-9.8988171,-0.0012397766
1.763000000,-9.8361015,-9.8361015,-9.8383274,-0.0012397766
1.764000000,-9.8414412,-9.8414412,-9.8435926,-0.0012397766
1.765000000,-9.868969,-9.868969,-9.8707294,-0.0012397766
1.766000000,-9.8964672,-9.8964672,-9.8978357,-0.0012397766
1.767000000,-9.9226055,-9.9226055,-9.9236031,-0.0012397766
1.768000000,-9.9484739,-9.9484739,-9.9491053,-0.0012397766
1.769000000,-9.9743319,-9.9743319,-9.9745941,-0.0012397766
1.770000000,-10.000189,-10.000189,-10.000084,-0.00018882751
1.771000000,-9.9846706,-9.9846706,-9.9847908,-0.00018882751
1.772000000,-9.9094667,-9.9094667,-9.9106665,-0.00018882751
1.773000000,-9.8558102,-9.8558102,-9.8577814,-0.00018882751
1.774000000,-9.8604994,-9.8604994,-9.8624048,-0.00018882751
1.775000000,-9.8846083,-9.8846083,-9.8861723,-0.00018882751
1.776000000,-9.9086866,-9.9086866,-9.9099083,-0.00018882751
1.777000000,-9.9315748,-9.9315748,-9.9324722,-0.00018882751
1.778000000,-9.9542236,-9.9542236,-9.9547987,-0.00018882751
1.779000000,-9.9768715,-9.9768715,-9.9771252,-0.00018882751
1.780000000,-9.9995193,-9.9995193,-9.9994526,0.00048065186
1.781000000,-9.985981,-9.985981,-9.9861116,0.00048065186
1.782000000,-9.9202557,-9.9202557,-9.9213343,0.00048065186
1.783000000,-9.8733692,-9.8733692,-9.8751249,0.00048065186
1.784000000,-9.8774986,-9.8774986,-9.8791981,0.00048065186
1.785000000,-9.8986073,-9.8986073,-9.9000072,0.00048065186
1.786000000,-9.9196959,-9.9196959,-9.9207964,0.00048065186
1.787000000,-9.939744,-9.939744,-9.9405613,0.00048065186
1.788000000,-9.9595823,-9.9595823,-9.9601183,0.00048065186
1.789000000,-9.9794207,-9.9794207,-9.9796753,0.00048065186
1.790000000,-9.9992504,-9.9992504,-9.9992237,0.00074958801
1.791000000,-9.9874401,-9.9874401,-9.987586,0.00074958801
1.792000000,-9.9299746,-9.9299746,-9.9309464,0.00074958801
1.793000000,-9.888998,-9.888998,-9.8905611,0.00074958801
1.794000000,-9.8926477,-9.8926477,-9.8941631,0.00074958801
1.795000000,-9.9111357,-9.9111357,-9.9123888,0.00074958801
1.796000000,-9.9296045,-9.9296045,-9.9305954,0.00074958801
1.797000000,-9.9471636,-9.9471636,-9.9479055,0.00074958801
1.798000000,-9.9645424,-9.9645424,-9.9650383,0.00074958801
1.799000000,-9.9819212,-9.9819212,-9.9821711,0.00074958801
1.800000000,-9.9992895,-9.9992895,-9.9992933,0.00071048737
1.801000000,-9.9889612,-9.9889612,-9.9891129,0.00071048737
1.802000000,-9.9386845,-9.9386845,-9.9395552,0.00071048737
1.803000000,-9.9028273,-9.9028273,-9.9042101,0.00071048737
1.804000000,-9.9060268,-9.9060268,-9.9073648,0.00071048737
1.805000000,-9.922226,-9.922226,-9.9233351,0.00071048737
1.806000000,-9.9384041,-9.9384041,-9.9392843,0.00071048737
1.807000000,-9.9537926,-9.9537926,-9.9544554,0.00071048737
1.808000000,-9.9690123,-9.9690123,-9.9694595,0.00071048737
1.809000000,-9.9842415,-9.9842415,-9.9844732,0.00071048737
1.810000000,-9.9994602,-9.9994602,-9.9994774,0.00053977966
1.811000000,-9.9904203,-9.9904203,-9.9905663,0.00053977966
1.812000000,-9.946394,-9.946394,-9.9471645,0.00053977966
1.813000000,-9.9149961,-9.9149961,-9.916213,0.00053977966
1.814000000,-9.9178057,-9.9178057,-9.9189835,0.00053977966
1.815000000,-9.9319944,-9.9319944,-9.932971,0.00053977966
1.816000000,-9.9461737,-9.9461737,-9.9469509,0.00053977966
1.817000000,-9.9596529,-9.9596529,-9.9602394,0.00053977966
1.818000000,-9.9729815,-9.9729815,-9.9733782,0.00053977966
1.819000000,-9.9863205,-9.9863205,-9.9865284,0.00053977966
1.820000000,-9.9996595,-9.9996595,-9.9996796,0.00034046173
1.821000000,-9.9917412,-9.9917412,-9.9918728,0.00034046173
1.822000000,-9.9531727,-9.9531727,-9.9538507,0.00034046173
1.823000000,-9.9256649,-9.9256649,-9.9267321,0.00034046173
1.824000000,-9.9281244,-9.9281244,-9.9291563,0.00034046173
1.825000000,-9.9405642,-9.9405642,-9.9414215,0.00034046173
1.826000000,-9.9529829,-9.9529829,-9.9536638,0.00034046173
1.827000000,-9.9647923,-9.9647923,-9.9653063,0.00034046173
1.828000000,-9.9764709,-9.9764709,-9.97682,0.00034046173
1.829000000,-9.9881601,-9.9881601,-9.9883442,0.00034046173
1.830000000,-9.9998398,-9.9998398,-9.9998579,0.00016021729
1.831000000,-9.9929008,-9.9929008,-9.9930172,0.00016021729
1.832000000,-9.9590826,-9.9590826,-9.9596739,0.00016021729
1.833000000,-9.9349651,-9.9349651,-9.935895,0.00016021729
1.834000000,-9.9371243,-9.9371243,-9.9380245,0.00016021729
1.835000000,-9.9480133,-9.9480133,-9.9487581,0.00016021729
1.836000000,-9.9588928,-9.9588928,-9.9594841,0.00016021729
1.837000000,-9.9692421,-9.9692421,-9.9696875,0.00016021729
1.838000000,-9.9794817,-9.9794817,-9.9797831,0.00016021729
1.839000000,-9.9897213,-9.9897213,-9.9898777,0.00016021729
1.840000000,-9.9999495,-9.9999495,-9.9999599,5.0544739e-05
1.841000000,-9.9938602,-9.9938602,-9.9939566,5.0544739e-05
1.842000000,-9.9642124,-9.9642124,-9.9647255,5.0544739e-05
1.843000000,-9.9430637,-9.9430637,-9.9438734,5.0544739e-05
1.844000000,-9.9449539,-9.9449539,-9.9457369,5.0544739e-05
1.845000000,-9.9544935,-9.9544935,-9.9551411,5.0544739e-05
1.846000000,-9.9640226,-9.9640226,-9.9645357,5.0544739e-05
1.847000000,-9.9730921,-9.9730921,-9.9734774,5.0544739e-05
1.848000000,-9.9820509,-9.9820509,-9.9823074,5.0544739e-05
1.849000000,-9.9910212,-9.9910212,-9.9911509,5.0544739e-05
1.850000000,-9.9999886,-9.9999886,-9.9999924,1.1444092e-05
1.851000000,-9.9946404,-9.9946404,-9.9947186,1.1444092e-05
1.852000000,-9.9686518,-9.9686518,-9.9690952,1.1444092e-05
1.853000000,-9.9501228,-9.9501228,-9.9508286,1.1444092e-05
1.854000000,-9.9517632,-9.9517632,-9.9524441,1.1444092e-05
1.855000000,-9.9601231,-9.9601231,-9.9606857,1.1444092e-05
1.856000000,-9.9684725,-9.9684725,-9.9689178,1.1444092e-05
1.857000000,-9.9764118,-9.9764118,-9.9767437,1.1444092e-05
1.858000000,-9.984271,-9.984271,-9.9844933,1.1444092e-05
1.859000000,-9.9921303,-9.9921303,-9.9922409,1.1444092e-05
1.860000000,-9.999979,-9.999979,-9.9999781,2.0980835e-05
1.861000000,-9.9953003,-9.9953003,-9.9953661,2.0980835e-05
1.862000000,-9.9725313,-9.9725313,-9.9729195,2.0980835e-05
1.863000000,-9.9562931,-9.9562931,-9.9569101,2.0980835e-05
1.864000000,-9.9577427,-9.9577427,-9.9583406,2.0980835e-05
1.865000000,-9.9650621,-9.9650621,-9.9655561,2.0980835e-05
1.866000000,-9.9723721,-9.9723721,-9.9727621,2.0980835e-05
1.867000000,-9.979331,-9.979331,-9.9796228,2.0980835e-05
1.868000000,-9.9862108,-9.9862108,-9.9864044,2.0980835e-05
1.869000000,-9.9930897,-9.9930897,-9.993186,2.0980835e-05
1.870000000,-9.9999695,-9.9999695,-9.9999685,3.0517578e-05
1.871000000,-9.9958696,-9.9958696,-9.9959269,3.0517578e-05
1.872000000,-9.9759312,-9.9759312,-9.9762707,3.0517578e-05
1.873000000,-9.9617128,-9.9617128,-9.9622545,3.0517578e-05
1.874000000,-9.9629726,-9.9629726,-9.9634953,3.0517578e-05
1.875000000,-9.9693918,-9.9693918,-9.9698248,3.0517578e-05
1.876000000,-9.9758015,-9.9758015,-9.9761448,3.0517578e-05
1.877000000,-9.9818907,-9.9818907,-9.9821463,3.0517578e-05
1.878000000,-9.9879208,-9.9879208,-9.9880915,3.0517578e-05
1.879000000,-9.9939499,-9.9939499,-9.9940357,3.0517578e-05
1.880000000,-9.9999695,-9.9999695,-9.9999695,3.0517578e-05
1.881000000,-9.9236956,-9.9236956,-9.9164782,3.0517578e-05
1.882000000,-9.7286692,-9.7286692,-9.7039433,3.0517578e-05
1.883000000,-9.5766001,-9.5766001,-9.5380888,3.0517578e-05
1.884000000,-9.5407333,-9.5407333,-9.4985094,3.0517578e-05
1.885000000,-9.5435429,-9.5435429,-9.5009575,3.0517578e-05
1.886000000,-9.5463724,-9.5463724,-9.5034294,3.0517578e-05
1.887000000,-9.5468826,-9.5468826,-9.5033817,3.0517578e-05
1.888000000,-9.5469828,-9.5469828,-9.5028887,3.0517578e-05
1.889000000,-9.5471325,-9.5471325,-9.5024509,3.0517578e-05
1.890000000,-9.5473318,-9.5473318,-9.5020676,0.0026693344
1.891000000,-9.4670086,-9.4670086,-9.42134,0.0026693344
1.892000000,-9.2705221,-9.2705221,-9.2247076,0.0026693344
1.893000000,-9.1160536,-9.1160536,-9.0699987,0.0026693344
1.894000000,-9.0752869,-9.0752869,-9.0287418,0.0026693344
1.895000000,-9.0723763,-9.0723763,-9.02526,0.0026693344
1.896000000,-9.0694866,-9.0694866,-9.0217981,0.0026693344
1.897000000,-9.0643368,-9.0643368,-9.0160818,0.0026693344
1.898000000,-9.0587778,-9.0587778,-9.0099573,0.0026693344
1.899000000,-9.0532885,-9.0532885,-9.0039043,0.0026693344
1.900000000,-9.0478477,-9.0478477,-8.9978991,0.0021533966
1.901000000,-8.9710941,-8.9710941,-8.9215031,0.0021533966
1.902000000,-8.7914667,-8.7914667,-8.7435608,0.0021533966
1.903000000,-8.6490574,-8.6490574,-8.6023579,0.0021533966
1.904000000,-8.6073599,-8.6073599,-8.5605669,0.0021533966
1.905000000,-8.5992107,-8.5992107,-8.5518942,0.0021533966
1.906000000,-8.5910711,-8.5910711,-8.5432301,0.0021533966
1.907000000,-8.5809422,-8.5809422,-8.5326023,0.0021533966
1.908000000,-8.5704632,-8.5704632,-8.5216312,0.0021533966
1.909000000,-8.5600529,-8.5600529,-8.5107288,0.0021533966
1.910000000,-8.5496845,-8.5496845,-8.4998684,0.0003156662
1.911000000,-8.4758196,-8.4758196,-8.4262924,0.0003156662
1.912000000,-8.3103218,-8.3103218,-8.262207,0.0003156662
1.913000000,-8.1780014,-8.1780014,-8.1308956,0.0003156662
1.914000000,-8.1353741,-8.1353741,-8.0881758,0.0003156662
1.915000000,-8.1226254,-8.1226254,-8.0749664,0.0003156662
1.916000000,-8.1098967,-8.1098967,-8.061779,0.0003156662
1.917000000,-8.0954075,-8.0954075,-8.046854,0.0003156662
1.918000000,-8.0806084,-8.0806084,-8.0316229,0.0003156662
1.919000000,-8.0658789,-8.0658789,-8.0164614,0.0003156662
1.920000000,-8.0512009,-8.0512009,-8.0013523,-0.001200676
1.921000000,-7.9797654,-7.9797654,-7.93016,-0.001200676
1.922000000,-7.8264265,-7.8264265,-7.7780371,-0.001200676
1.923000000,-7.7027454,-7.7027454,-7.65522,-0.001200676
1.924000000,-7.6592588,-7.6592588,-7.6116471,-0.001200676
1.925000000,-7.6424799,-7.6424799,-7.5944653,-0.001200676
1.926000000,-7.625731,-7.625731,-7.5773144,-0.001200676
1.927000000,-7.6074123,-7.6074123,-7.5586128,-0.001200676
1.928000000,-7.5888233,-7.5888233,-7.5396447,-0.001200676
1.929000000,-7.5702949,-7.5702949,-7.5207367,-0.001200676
1.930000000,-7.551826,-7.551826,-7.5018883,-0.0018253326
1.931000000,-7.4825315,-7.4825315,-7.4328079,-0.0018253326
1.932000000,-7.3399014,-7.3399014,-7.2912488,-0.0018253326
1.933000000,-7.2238297,-7.2238297,-7.1759381,-0.0018253326
1.934000000,-7.1795826,-7.1795826,-7.1316152,-0.0018253326
1.935000000,-7.1592746,-7.1592746,-7.1109543,-0.0018253326
1.936000000,-7.1389856,-7.1389856,-7.0903111,-0.0018253326
1.937000000,-7.1173072,-7.1173072,-7.0682964,-0.0018253326
1.938000000,-7.0953889,-7.0953889,-7.0460453,-0.0018253326
1.939000000,-7.0735307,-7.0735307,-7.0238543,-0.0018253326
1.940000000,-7.0517325,-7.0517325,-7.0017233,-0.0017318726
1.941000000,-6.9843569,-6.9843569,-6.9345393,-0.0017318726
1.942000000,-6.8512168,-6.8512168,-6.8023481,-0.0017318726
1.943000000,-6.7419043,-6.7419043,-6.6937118,-0.0017318726
1.944000000,-6.6970077,-6.6970077,-6.6487503,-0.0017318726
1.945000000,-6.6735897,-6.6735897,-6.625021,-0.0017318726
1.946000000,-6.6502109,-6.6502109,-6.6013336,-0.0017318726
1.947000000,-6.6255727,-6.6255727,-6.5763993,-0.0017318726
1.948000000,-6.6007347,-6.6007347,-6.5512695,-0.0017318726
1.949000000,-6.5759568,-6.5759568,-6.5261993,-0.0017318726
1.950000000,-6.5512381,-6.5512381,-6.5011888,-0.0012373924
1.951000000,-6.4855733,-6.4855733,-6.4356947,-0.0012373924
1.952000000,-6.3608322,-6.3608322,-6.3117938,-0.0012373924
1.953000000,-6.2574997,-6.2574997,-6.2090592,-0.0012373924
1.954000000,-6.2120628,-6.2120628,-6.1635685,-0.0012373924
1.955000000,-6.1859145,-6.1859145,-6.1371469,-0.0012373924
1.956000000,-6.1598167,-6.1598167,-6.1107774,-0.0012373924
1.957000000,-6.1325884,-6.1325884,-6.0832901,-0.0012373924
1.958000000,-6.1051908,-6.1051908,-6.0556364,-0.0012373924
1.959000000,-6.0778527,-6.0778527,-6.0280423,-0.0012373924
1.960000000,-6.0505748,-6.0505748,-6.0005083,-0.00057411194
1.961000000,-5.9864688,-5.9864688,-5.9365582,-0.00057411194
1.962000000,-5.8692074,-5.8692074,-5.820045,-0.00057411194
1.963000000,-5.7712145,-5.7712145,-5.7225862,-0.00057411194
1.964000000,-5.7253175,-5.7253175,-5.6766429,-0.00057411194
1.965000000,-5.6967897,-5.6967897,-5.6478772,-0.00057411194
1.966000000,-5.6683021,-5.6683021,-5.6191506,-0.00057411194
1.967000000,-5.638804,-5.638804,-5.5894256,-0.00057411194
1.968000000,-5.6091657,-5.6091657,-5.5595632,-0.00057411194
1.969000000,-5.5795979,-5.5795979,-5.5297723,-0.00057411194
1.970000000,-5.5500703,-5.5500703,-5.50002,-7.0095062e-05
1.971000000,-5.4873252,-5.4873252,-5.4374108,-7.0095062e-05
1.972000000,-5.3766227,-5.3766227,-5.327364,-7.0095062e-05
1.973000000,-5.2833195,-5.2833195,-5.23453,-7.0095062e-05
1.974000000,-5.2370234,-5.2370234,-5.1881938,-7.0095062e-05
1.975000000,-5.2064052,-5.2064052,-5.1573668,-7.0095062e-05
1.976000000,-5.1758375,-5.1758375,-5.1265912,-7.0095062e-05
1.977000000,-5.1443601,-5.1443601,-5.0949159,-7.0095062e-05
1.978000000,-5.112762,-5.112762,-5.0631218,-7.0095062e-05
1.979000000,-5.0812244,-5.0812244,-5.0313873,-7.0095062e-05
1.980000000,-5.0497465,-5.0497465,-4.9997139,0.00025367737
1.981000000,-4.9882007,-4.9882007,-4.9382882,0.00025367737
1.982000000,-4.8832579,-4.8832579,-4.8339214,0.00025367737
1.983000000,-4.7940645,-4.7940645,-4.7451391,0.00025367737
1.984000000,-4.7474279,-4.7474279,-4.6984682,0.00025367737
1.985000000,-4.7149801,-4.7149801,-4.6658378,0.00025367737
1.986000000,-4.6825824,-4.6825824,-4.6332569,0.00025367737
1.987000000,-4.649375,-4.649375,-4.5998764,0.00025367737
1.988000000,-4.6160574,-4.6160574,-4.5663872,0.00025367737
1.989000000,-4.5828094,-4.5828094,-4.532968,0.00025367737
1.990000000,-4.549612,-4.549612,-4.4995985,0.00038814545
1.991000000,-4.4891167,-4.4891167,-4.439208,0.00038814545
1.992000000,-4.3892035,-4.3892035,-4.339798,0.00038814545
1.993000000,-4.3035998,-4.3035998,-4.2545533,0.00038814545
1.994000000,-4.2566633,-4.2566633,-4.2075868,0.00038814545
1.995000000,-4.2226157,-4.2226157,-4.1733794,0.00038814545
1.996000000,-4.1886182,-4.1886182,-4.1392217,0.00038814545
1.997000000,-4.1539006,-4.1539006,-4.104353,0.00038814545
1.998000000,-4.1190829,-4.1190829,-4.0693855,0.00038814545
1.999000000,-4.0843258,-4.0843258,-4.0344772,0.00038814545
2.000000000,-4.0496283,-4.0496283,-3.99963,0.00037193298
2.001000000,-3.9900324,-3.9900324,-3.940124,0.00037193298
2.002000000,-3.8944893,-3.8944893,-3.8450179,0.00037193298
2.003000000,-3.812005,-3.812005,-3.7628455,0.00037193298
2.004000000,-3.7647886,-3.7647886,-3.7156012,0.00037193298
2.005000000,-3.7293513,-3.7293513,-3.6800249,0.00037193298
2.006000000,-3.693954,-3.693954,-3.6444876,0.00037193298
2.007000000,-3.6579065,-3.6579065,-3.6083071,0.00037193298
2.008000000,-3.621769,-3.621769,-3.5720375,0.00037193298
2.009000000,-3.5857015,-3.5857015,-3.5358391,0.00037193298
2.010000000,-3.5496941,-3.5496941,-3.4997005,0.00030612946
2.011000000,-3.4908884,-3.4908884,-3.440974,0.00030612946
2.012000000,-3.3991849,-3.3991849,-3.3496544,0.00030612946
2.013000000,-3.3194408,-3.3194408,-3.2701845,0.00030612946
2.014000000,-3.2719843,-3.2719843,-3.2227039,0.00030612946
2.015000000,-3.2353168,-3.2353168,-3.1859133,0.00030612946
2.016000000,-3.1986995,-3.1986995,-3.149174,0.00030612946
2.017000000,-3.1614921,-3.1614921,-3.1118507,0.00030612946
2.018000000,-3.1242049,-3.1242049,-3.0744486,0.00030612946
2.019000000,-3.0869875,-3.0869875,-3.0371161,0.00030612946
2.020000000,-3.0498202,-3.0498202,-2.9998329,0.00018000603
2.021000000,-2.9916942,-2.9916942,-2.9417748,0.00018000603
2.022000000,-2.9033008,-2.9033008,-2.8537123,0.00018000603
2.023000000,-2.8259165,-2.8259165,-2.7765641,0.00018000603
2.024000000,-2.7782497,-2.7782497,-2.7288764,0.00018000603
2.025000000,-2.7405126,-2.7405126,-2.6910322,0.00018000603
2.026000000,-2.7028253,-2.7028253,-2.6532378,0.00018000603
2.027000000,-2.6645877,-2.6645877,-2.6148973,0.00018000603
2.028000000,-2.6263006,-2.6263006,-2.5765102,0.00018000603
2.029000000,-2.5880733,-2.5880733,-2.5381818,0.00018000603
2.030000000,-2.549896,-2.549896,-2.4999037,0.00010418892
2.031000000,-2.4923704,-2.4923704,-2.4424379,0.00010418892
2.032000000,-2.4068966,-2.4068966,-2.3572562,0.00010418892
2.033000000,-2.3316021,-2.3316021,-2.2821708,0.00010418892
2.034000000,-2.2837455,-2.2837455,-2.2342951,0.00010418892
2.035000000,-2.2450683,-2.2450683,-2.195524,0.00010418892
2.036000000,-2.2064412,-2.2064412,-2.1568027,0.00010418892
2.037000000,-2.1673138,-2.1673138,-2.1175864,0.00010418892
2.038000000,-2.1281369,-2.1281369,-2.0783205,0.00010418892
2.039000000,-2.0890296,-2.0890296,-2.0391252,0.00010418892
2.040000000,-2.0499723,-2.0499723,-1.99998,2.7894974e-05
2.041000000,-1.9929665,-1.9929665,-1.9430262,2.7894974e-05
2.042000000,-1.9100324,-1.9100324,-1.860346,2.7894974e-05
2.043000000,-1.8365477,-1.8365477,-1.7870423,2.7894974e-05
2.044000000,-1.7885313,-1.7885313,-1.7390099,2.7894974e-05
2.045000000,-1.749034,-1.749034,-1.6994306,2.7894974e-05
2.046000000,-1.709577,-1.709577,-1.6598905,2.7894974e-05
2.047000000,-1.6696697,-1.6696697,-1.6199054,2.7894974e-05
2.048000000,-1.6297226,-1.6297226,-1.5798812,2.7894974e-05
2.049000000,-1.5898355,-1.5898355,-1.5399162,2.7894974e-05
2.050000000,-1.5500084,-1.5500084,-1.500012,-8.3446503e-06
2.051000000,-1.4934525,-1.4934525,-1.4435011,-8.3446503e-06
2.052000000,-1.4127482,-1.4127482,-1.3630198,-8.3446503e-06
2.053000000,-1.3408535,-1.3408535,-1.2912841,-8.3446503e-06
2.054000000,-1.2926869,-1.2926869,-1.2431026,-8.3446503e-06
2.055000000,-1.2524599,-1.2524599,-1.2028024,-8.3446503e-06
2.056000000,-1.2122827,-1.2122827,-1.1625532,-8.3446503e-06
2.057000000,-1.1716957,-1.1716957,-1.1218983,-8.3446503e-06
2.058000000,-1.1310686,-1.1310686,-1.0812032,-8.3446503e-06
2.059000000,-1.0905015,-1.0905015,-1.0405681,-8.3446503e-06
2.060000000,-1.0499945,-1.0499945,-0.99999309,5.6028366e-06
2.061000000,-0.99383843,-0.99383843,-0.94387704,5.6028366e-06
2.062000000,-0.91509408,-0.91509408,-0.86532867,5.6028366e-06
2.063000000,-0.84458923,-0.84458923,-0.79496282,5.6028366e-06
2.064000000,-0.79629272,-0.79629272,-0.74665332,5.6028366e-06
2.065000000,-0.75543565,-0.75543565,-0.70573324,5.6028366e-06
2.066000000,-0.71462858,-0.71462858,-0.66486317,5.6028366e-06
2.067000000,-0.67344153,-0.67344153,-0.6236161,5.6028366e-06
2.068000000,-0.63221449,-0.63221449,-0.58232909,5.6028366e-06
2.069000000,-0.59105748,-0.59105748,-0.54111308,5.6028366e-06
2.070000000,-0.54995042,-0.54995042,-0.49994603,4.9650669e-05
2.071000000,-0.49416447,-0.49416447,-0.44419706,4.9650669e-05
2.072000000,-0.41716,-0.41716,-0.36736661,4.9650669e-05
2.073000000,-0.34789497,-0.34789497,-0.29822555,4.9650669e-05
2.074000000,-0.29949844,-0.29949844,-0.24981901,4.9650669e-05
2.075000000,-0.25809145,-0.25809145,-0.20835704,4.9650669e-05
2.076000000,-0.21673439,-0.21673439,-0.16694498,4.9650669e-05
2.077000000,-0.17500742,-0.17500742,-0.125164,4.9650669e-05
2.078000000,-0.13326043,-0.13326043,-0.083365023,4.9650669e-05
2.079000000,-0.091583423,-0.091583423,-0.041636016,4.9650669e-05
2.080000000,-0.049956422,-0.049956422,4.2978674e-05,4.3582171e-05
2.081000000,-0.067165181,-0.067165181,-0.024465252,4.3582171e-05
2.082000000,-0.16922782,-0.16922782,-0.1444346,4.3582171e-05
2.083000000,-0.24065268,-0.24065268,-0.22992845,4.3582171e-05
2.084000000,-0.22914353,-0.22914353,-0.22210804,4.3582171e-05
2.085000000,-0.19004634,-0.19004634,-0.18324183,4.3582171e-05
2.086000000,-0.15098915,-0.15098915,-0.14441462,4.3582171e-05
2.087000000,-0.11363184,-0.11363184,-0.10749428,4.3582171e-05
2.088000000,-0.076614499,-0.076614499,-0.070949905,4.3582171e-05
2.089000000,-0.039607171,-0.039607171,-0.034409545,4.3582171e-05
2.090000000,-0.0026098341,-0.0026098341,0.002124825,-0.0026098341
2.091000000,-0.024568254,-0.024568254,-0.020308562,-0.0026098341
2.092000000,-0.13155055,-0.13155055,-0.12778282,-0.0026098341
2.093000000,-0.20783505,-0.20783505,-0.20455329,-0.0026098341
2.094000000,-0.20099553,-0.20099553,-0.19818074,-0.0026098341
2.095000000,-0.16650802,-0.16650802,-0.16415419,-0.0026098341
2.096000000,-0.1320405,-0.1320405,-0.13014564,-0.0026098341
2.097000000,-0.099282876,-0.099282876,-0.097847983,-0.0026098341
2.098000000,-0.066865206,-0.066865206,-0.065890275,-0.0026098341
2.099000000,-0.034437541,-0.034437541,-0.033920579,-0.0026098341
2.100000000,-0.002029876,-0.002029876,-0.0019718802,-0.002029876
2.101000000,-0.021058505,-0.021058505,-0.020707531,-0.002029876
2.102000000,-0.11428179,-0.11428179,-0.11255492,-0.002029876
2.103000000,-0.18071701,-0.18071701,-0.1780052,-0.002029876
2.104000000,-0.17462744,-0.17462744,-0.17199063,-0.002029876
2.105000000,-0.14438961,-0.14438961,-0.14217778,-0.002029876
2.106000000,-0.11419179,-0.11419179,-0.11240692,-0.002029876
2.107000000,-0.085473865,-0.085473865,-0.084092967,-0.002029876
2.108000000,-0.057055913,-0.057055913,-0.056074984,-0.002029876
2.109000000,-0.028637961,-0.028637961,-0.028058002,-0.002029876
2.110000000,-0.0002199797,-0.0002199797,-3.8990067e-05,-0.0002199797
2.111000000,-0.016928801,-0.016928801,-0.016515831,-0.0002199797
2.112000000,-0.098692909,-0.098692909,-0.097134024,-0.0002199797
2.113000000,-0.15697873,-0.15697873,-0.1546049,-0.0002199797
2.114000000,-0.1516391,-0.1516391,-0.14934027,-0.0002199797
2.115000000,-0.12514101,-0.12514101,-0.12321615,-0.0002199797
2.116000000,-0.098672912,-0.098672912,-0.097121023,-0.0002199797
2.117000000,-0.073494725,-0.073494725,-0.072296813,-0.0002199797
2.118000000,-0.048586518,-0.048586518,-0.047739577,-0.0002199797
2.119000000,-0.023668317,-0.023668317,-0.023171352,-0.0002199797
2.120000000,0.0012300634,0.0012300634,0.0013750677,0.0012300634
2.121000000,-0.013509048,-0.013509048,-0.013167073,0.0012300634
2.122000000,-0.085413873,-0.085413873,-0.084085971,0.0012300634
2.123000000,-0.13669017,-0.13669017,-0.13466132,0.0012300634
2.124000000,-0.13206051,-0.13206051,-0.13010265,0.0012300634
2.125000000,-0.10883218,-0.10883218,-0.1072013,0.0012300634
2.126000000,-0.085633852,-0.085633852,-0.084329948,0.0012300634
2.127000000,-0.063575439,-0.063575439,-0.062583514,0.0012300634
2.128000000,-0.041747015,-0.041747015,-0.041063063,0.0012300634
2.129000000,-0.019918589,-0.019918589,-0.019543616,0.0012300634
2.130000000,0.0019100918,0.0019100918,0.0019780947,0.0019100918
2.131000000,-0.01111922,-0.01111922,-0.010880237,0.0019100918
2.132000000,-0.074414656,-0.074414656,-0.073314734,0.0019100918
2.133000000,-0.11956141,-0.11956141,-0.11784854,0.0019100918
2.134000000,-0.1155617,-0.1155617,-0.11391182,0.0019100918
2.135000000,-0.09521316,-0.09521316,-0.093851261,0.0019100918
2.136000000,-0.074894622,-0.074894622,-0.073820695,0.0019100918
2.137000000,-0.05556602,-0.05556602,-0.054765079,0.0019100918
2.138000000,-0.036447398,-0.036447398,-0.035917439,0.0019100918
2.139000000,-0.017328773,-0.017328773,-0.017069791,0.0019100918
2.140000000,0.0017900867,0.0017900867,0.0017780862,0.0017900867
2.141000000,-0.0096893245,-0.0096893245,-0.0095463349,0.0017900867
2.142000000,-0.065285318,-0.065285318,-0.064372383,0.0017900867
2.143000000,-0.10495246,-0.10495246,-0.10349157,0.0017900867
2.144000000,-0.10148271,-0.10148271,-0.10007481,0.0017900867
2.145000000,-0.083663993,-0.083663993,-0.082509078,0.0017900867
2.146000000,-0.065865278,-0.065865278,-0.064962342,0.0017900867
2.147000000,-0.048946496,-0.048946496,-0.048284546,0.0017900867
2.148000000,-0.032197703,-0.032197703,-0.031772733,0.0017900867
2.149000000,-0.015458907,-0.015458907,-0.015271921,0.0017900867
2.150000000,0.0012800655,0.0012800655,0.0012290634,0.0012800655
2.151000000,-0.0087993881,-0.0087993881,-0.0087103946,0.0012800655
2.152000000,-0.05757587,-0.05757587,-0.056804925,0.0012800655
2.153000000,-0.092373364,-0.092373364,-0.091115452,0.0012800655
2.154000000,-0.089353576,-0.089353576,-0.088140666,0.0012800655
2.155000000,-0.073754705,-0.073754705,-0.072763778,0.0012800655
2.156000000,-0.05816583,-0.05816583,-0.057395883,0.0012800655
2.157000000,-0.043356895,-0.043356895,-0.042797934,0.0012800655
2.158000000,-0.028697956,-0.028697956,-0.028347982,0.0012800655
2.159000000,-0.014029011,-0.014029011,-0.013886021,0.0012800655
2.160000000,0.0006200379,0.0006200379,0.00055403513,0.0006200379
2.161000000,-0.0081994319,-0.0081994319,-0.0081394361,0.0006200379
2.162000000,-0.050876353,-0.050876353,-0.0502064,0.0006200379
2.163000000,-0.081324168,-0.081324168,-0.080219246,0.0006200379
2.164000000,-0.078674361,-0.078674361,-0.07760644,0.0006200379
2.165000000,-0.065015338,-0.065015338,-0.0641414,0.0006200379
2.166000000,-0.051366322,-0.051366322,-0.050686371,0.0006200379
2.167000000,-0.038397256,-0.038397256,-0.037901293,0.0006200379
2.168000000,-0.025568182,-0.025568182,-0.025255203,0.0006200379
2.169000000,-0.012729105,-0.012729105,-0.012599114,0.0006200379
2.170000000,0.00010001613,0.00010001613,4.801395e-05,0.00010001613
2.171000000,-0.0075994749,-0.0075994749,-0.0075394791,0.00010001613
2.172000000,-0.044916783,-0.044916783,-0.044320825,0.00010001613
2.173000000,-0.071544863,-0.071544863,-0.07056693,0.00010001613
2.174000000,-0.069215029,-0.069215029,-0.068269096,0.00010001613
2.175000000,-0.057245895,-0.057245895,-0.056468952,0.00010001613
2.176000000,-0.045296758,-0.045296758,-0.044689801,0.00010001613
2.177000000,-0.033937577,-0.033937577,-0.033491608,0.00010001613
2.178000000,-0.022698386,-0.022698386,-0.022411406,0.00010001613
2.179000000,-0.011459196,-0.011459196,-0.011332205,0.00010001613
2.180000000,-0.00022997927,-0.00022997927,-0.00026297881,-0.00022997927
