source:ccrt device:L2_Q2 epoch:1673450291 timeOrigin:8.900000000 firstSampleTime:0.600000000 period:0.010000000 name:I_REG_MPX type:analog,I_REF_ADV_(A) STEP,I_REF_ILC_(A) STEP,I_REF_OPEN_(A) STEP,I_ERR_ILC_(A) STEP
0.600000000,0,0,0,0
0.610000000,0,0,0,0
0.620000000,0,0,0,0
0.630000000,0,0,0,0
0.640000000,0,0,0,0
0.650000000,0,0,0,0
0.660000000,0,0,0,0
0.670000000,0,0,0,0
0.680000000,0,0,0,0
0.690000000,0,0,0,0
0.700000000,0,0,0,0
0.710000000,0,0,0,0
0.720000000,0,0,0,0
0.730000000,0,0,0,0
0.740000000,0.049999904,0,0.049999904,0
0.750000000,0.12999983,0,0.12999983,0
0.760000000,0.20999987,0,0.20999987,0
0.770000000,0.28999978,0,0.28999978,0
0.780000000,0.36999983,0,0.36999983,0
0.790000000,0.44999987,0,0.44999987,0
0.800000000,0.52999979,0,0.52999979,0
0.810000000,0.60999984,0,0.60999984,0
0.820000000,0.68999976,0,0.68999976,0
0.830000000,0.7699998,0,0.7699998,0
0.840000000,0.84999985,0,0.84999985,0
0.850000000,0.92999977,0,0.92999977,0
0.860000000,1.0099998,0,1.0099998,0
0.870000000,1.0285767,0,1.0899998,0.15159059
0.880000000,1.1085768,0,1.1741142,0.15630996
0.890000000,1.1885767,0,1.258504,0.16072202
0.900000000,1.2685766,0,1.343321,0.16105831
0.910000000,1.3485765,0,1.4283307,0.16130817
0.920000000,1.4285766,0,1.5133053,0.16106915
0.930000000,1.5085766,0,1.5980422,0.16054893
0.940000000,1.5885767,0,1.6824597,0.15998387
0.950000000,1.6685767,0,1.7665296,0.15953004
0.960000000,1.7485768,0,1.8503041,0.15927374
0.970000000,1.8285768,0,1.9338473,0.15921915
0.980000000,1.9085768,0,2.0172274,0.15931392
0.990000000,1.974098,0,2.0873365,0.14502811
1.000000000,2,0,2.1208549,0.091747999
1.010000000,1.98,0,2.1097116,0.0068597794
1.020000000,1.96,0,2.0916326,-0.041987181
1.030000000,1.9399999,0,2.0649586,-0.050565958
1.040000000,1.92,0,2.0331352,-0.055750966
1.050000000,1.9,0,1.9999754,-0.053097367
1.060000000,1.88,0,1.9683374,-0.046068907
1.070000000,1.86,0,1.9396651,-0.038191319
1.080000000,1.8399999,0,1.9141884,-0.031957746
1.090000000,1.8199999,0,1.8913156,-0.028525829
1.100000000,1.8,0,1.870044,-0.027978182
1.110000000,1.8099999,0,1.8766454,0.00033628941
1.120000000,1.8199999,0,1.8839813,0.026125312
1.130000000,1.8299999,0,1.8937172,0.025279045
1.140000000,1.8399999,0,1.9048605,0.025862336
1.150000000,1.8499999,0,1.9162053,0.02423656
1.160000000,1.86,0,1.9268423,0.021452188
1.170000000,1.87,0,1.9363686,0.018640995
1.180000000,1.88,0,1.9447743,0.01657486
1.190000000,1.89,0,1.9523249,0.015572429
1.200000000,1.9,0,1.9594138,0.015607476
1.210000000,1.8499994,0,1.9118255,0
1.220000000,1.7699995,0,1.8351333,0
1.230000000,1.6899996,0,1.7514328,0
1.240000000,1.6099997,0,1.6601785,0
1.250000000,1.5299997,0,1.5646996,0
1.260000000,1.4499998,0,1.4684842,0
1.270000000,1.3699994,0,1.3740183,0
1.280000000,1.2899995,0,1.2824951,0
1.290000000,1.2099996,0,1.1940106,0
1.300000000,1.1299996,0,1.107941,0
1.310000000,1.0499997,0,1.023345,0
1.320000000,0.96999979,0,0.93927121,0
1.330000000,0.88999939,0,0.88999939,0
1.340000000,0.80999947,0,0.80999947,0
1.350000000,0.72999954,0,0.72999954,0
1.360000000,0.64999962,0,0.64999962,0
1.370000000,0.56999969,0,0.56999969,0
1.380000000,0.48999977,0,0.48999977,0
1.390000000,0.40999937,0,0.40999937,0
1.400000000,0.32999945,0,0.32999945,0
1.410000000,0.24999952,0,0.24999952,0
1.420000000,0.1699996,0,0.1699996,0
1.430000000,0.089999676,0,0.089999676,0
1.440000000,0.009999752,0,0.009999752,0
1.450000000,0,0,0,0
1.460000000,0,0,0,0
1.470000000,0,0,0,0
1.480000000,0,0,0,0
1.490000000,0,0,0,0
1.500000000,0,0,0,0
1.510000000,0,0,0,0
1.520000000,0,0,0,0
1.530000000,0,0,0,0
1.540000000,0,0,0,0
1.550000000,0,0,0,0
1.560000000,0,0,0,0
1.570000000,0,0,0,0
1.580000000,0,0,0,0
1.590000000,0,0,0,0
1.600000000,0,0,0,0
1.610000000,0,0,0,0
1.620000000,0,0,0,0
1.630000000,0,0,0,0
1.640000000,0,0,0,0
1.650000000,0,0,0,0
1.660000000,0,0,0,0
1.670000000,0,0,0,0
1.680000000,0,0,0,0
1.690000000,0,0,0,0
1.700000000,0,0,0,0
1.710000000,0,0,0,0
1.720000000,0,0,0,0
1.730000000,0,0,0,0
1.740000000,0.049999904,0,0.049999904,0
1.750000000,0.12999983,0,0.12999983,0
1.760000000,0.20999987,0,0.20999987,0
1.770000000,0.28999978,0,0.28999978,0
1.780000000,0.36999983,0,0.36999983,0
1.790000000,0.44999987,0,0.44999987,0
1.800000000,0.52999979,0,0.52999979,0
1.810000000,0.60999984,0,0.60999984,0
1.820000000,0.68999976,0,0.68999976,0
1.830000000,0.7699998,0,0.7699998,0
1.840000000,0.84999985,0,0.84999985,0
1.850000000,0.92999977,0,0.92999977,0
1.860000000,1.0067134,0,1.0099998,0.14986736
1.870000000,1.0867134,0.16072202,1.1881403,0.15521169
1.880000000,1.1092458,0.16105831,1.2765948,0.098515749
1.890000000,1.1892457,0.16130817,1.3731222,0.008877635
1.900000000,1.2692456,0.16106915,1.4668107,0.012655973
1.910000000,1.3492455,0.16054893,1.5558909,0.0018624067
1.920000000,1.4292456,0.15998387,1.6406778,-0.0058158636
1.930000000,1.5092456,0.15953004,1.722654,-0.00920403
1.940000000,1.5892457,0.15927374,1.8034024,-0.008836627
1.950000000,1.6692457,0.15921915,1.8841659,-0.0061995983
1.960000000,1.7492458,0.15931392,1.9657277,-0.0027332306
1.970000000,1.8292458,0.14502811,2.0352449,0.00046563148
1.980000000,1.9092458,0.091747999,2.0698283,0.0033239126
1.990000000,1.9744534,0.0068597794,2.0601292,0.004504323
2.000000000,2,-0.041987181,2.0407043,0.00056433678
2.010000000,1.98,-0.050565958,2.0078385,-0.0087808371
2.020000000,1.96,-0.055750966,1.9721667,-0.011791825
2.030000000,1.9399999,-0.053097367,1.9412314,-0.0026319027
2.040000000,1.92,-0.046068907,1.9155037,0.007976532
2.050000000,1.9,-0.038191319,1.8942753,0.013612747
2.060000000,1.88,-0.031957746,1.8758729,0.014464736
2.070000000,1.86,-0.028525829,1.8583496,0.011363745
2.080000000,1.8399999,-0.027978182,1.8399678,0.0059401989
2.090000000,1.8199999,0.00033628941,1.8469119,-2.8610229e-06
2.100000000,1.8,0.026125312,1.8513886,-0.0061312914
2.110000000,1.8099999,0.025279045,1.8603147,-0.0065207481
2.120000000,1.8199999,0.025862336,1.8712127,-0.0027028322
2.130000000,1.8299999,0.02423656,1.8802925,-0.0033582449
2.140000000,1.8399999,0.021452188,1.887941,-0.0054725409
2.150000000,1.8499999,0.018640995,1.894662,-0.0055990219
2.160000000,1.86,0.01657486,1.9010599,-0.0044426918
2.170000000,1.87,0.01657486,1.9086093,-0.0024964809
2.180000000,1.88,0.01657486,1.9159158,-0.00036740303
2.190000000,1.89,0.01657486,1.9234619,0
2.200000000,1.9,0.01657486,1.9314071,0
2.210000000,1.8499994,0,1.8700982,0
2.220000000,1.7699995,0,1.7943608,0
2.230000000,1.6899996,0,1.7102704,0
2.240000000,1.6099997,0,1.6187966,0
2.250000000,1.5299997,0,1.5234672,0
2.260000000,1.4499998,0,1.4277375,0
2.270000000,1.3699994,0,1.3339556,0
2.280000000,1.2899995,0,1.2431521,0
2.290000000,1.2099996,0,1.1553339,0
2.300000000,1.1299996,0,1.069834,0
2.310000000,1.0499997,0,0.98570269,0
2.320000000,0.96999979,0,0.90200126,0
2.330000000,0.88999939,0,0.88999939,0
2.340000000,0.80999947,0,0.80999947,0
2.350000000,0.72999954,0,0.72999954,0
2.360000000,0.64999962,0,0.64999962,0
2.370000000,0.56999969,0,0.56999969,0
2.380000000,0.48999977,0,0.48999977,0
2.390000000,0.40999937,0,0.40999937,0
2.400000000,0.32999945,0,0.32999945,0
2.410000000,0.24999952,0,0.24999952,0
2.420000000,0.1699996,0,0.1699996,0
2.430000000,0.089999676,0,0.089999676,0
2.440000000,0.009999752,0,0.009999752,0
2.450000000,0,0,0,0
2.460000000,0,0,0,0
2.470000000,0,0,0,0
2.480000000,0,0,0,0
2.490000000,0,0,0,0
2.500000000,0,0,0,0
2.510000000,0,0,0,0
2.520000000,0,0,0,0
2.530000000,0,0,0,0
2.540000000,0,0,0,0
2.550000000,0,0,0,0
2.560000000,0,0,0,0
2.570000000,0,0,0,0
2.580000000,0,0,0,0
2.590000000,0,0,0,0
2.600000000,0,0,0,0
2.610000000,0,0,0,0
2.620000000,0,0,0,0
2.630000000,0,0,0,0
2.640000000,0,0,0,0
2.650000000,0,0,0,0
2.660000000,0,0,0,0
2.670000000,0,0,0,0
2.680000000,0,0,0,0
2.690000000,0,0,0,0
2.700000000,0,0,0,0
2.710000000,0,0,0,0
2.720000000,0,0,0,0
2.730000000,0,0,0,0
2.740000000,0.049999904,0,0.049999904,0
2.750000000,0.12999983,0,0.12999983,0
2.760000000,0.20999987,0,0.20999987,0
2.770000000,0.28999978,0,0.28999978,0
2.780000000,0.36999983,0,0.36999983,0
2.790000000,0.44999987,0,0.44999987,0
2.800000000,0.52999979,0,0.52999979,0
2.810000000,0.60999984,0,0.60999984,0
2.820000000,0.68999976,0,0.68999976,0
2.830000000,0.7699998,0,0.7699998,0
2.840000000,0.84999985,0,0.84999985,0
2.850000000,0.92999977,0,0.92999977,0
2.860000000,1.0068706,0.098515749,1.0099998,0.14986533
2.870000000,0.98835492,0.16959965,1.1588616,0.056681871
2.880000000,1.0683548,0.17371428,1.2496911,0.058793783
2.890000000,1.1483548,0.16317058,1.3331097,-0.0028120279
2.900000000,1.2283547,0.15525329,1.4173063,-0.003010869
2.910000000,1.3083546,0.1513449,1.5010277,-0.00064098835
2.920000000,1.3883547,0.15114725,1.584577,8.0108643e-05
2.930000000,1.4683547,0.15333045,1.6684312,0.001168251
2.940000000,1.5483547,0.15654051,1.7529681,0.0022622347
2.950000000,1.6283548,0.15968478,1.8381871,0.0028996468
2.960000000,1.7083548,0.16263783,1.9243058,0.0027474165
2.970000000,1.7883549,0.14953244,1.9967673,0.0018446445
2.980000000,1.8683549,0.092312336,2.0291741,0.00063228607
2.990000000,1.948355,-0.0019210577,2.0249777,0.014314294
3.000000000,2,-0.053779006,2.0262806,0.03862226
3.010000000,1.98,-0.053197861,2.0022724,0.022948503
3.020000000,1.96,-0.047774434,1.9785988,9.894371e-05
3.030000000,1.9399999,-0.03948462,1.9554902,0.0018877983
3.040000000,1.92,-0.031604171,1.9330397,0.00139606
3.050000000,1.9,-0.026827574,1.9105014,0.00032508373
3.060000000,1.88,-0.026017547,1.8872989,-0.00126791
3.070000000,1.86,-0.02852869,1.8631264,-0.0026414394
3.080000000,1.8399999,-0.034109473,1.8369612,-0.0032755136
3.090000000,1.8199999,-0.0061844587,1.840982,-0.0028835535
3.100000000,1.8,0.02342248,1.8466928,-0.0019642115
3.110000000,1.8099999,0.0219208,1.8539982,-0.00023901463
3.120000000,1.8199999,0.020389795,1.8632549,0.0022035837
3.130000000,1.8299999,0.018637538,1.8730272,0.0032767057
3.140000000,1.8399999,0.017009497,1.8825704,0.0025817156
3.150000000,1.8499999,0.016144514,1.8918905,0.001581192
3.160000000,1.86,0.016207457,1.9010144,0.00085091591
3.170000000,1.87,0.016207457,1.9092884,0.00033378601
3.180000000,1.88,0.016207457,1.9171314,2.6702881e-05
3.190000000,1.89,0.016207457,1.9248363,0
3.200000000,1.9,0.016207457,1.9326302,0
3.210000000,1.8499994,0,1.8713188,0
3.220000000,1.7699995,0,1.7952079,0
3.230000000,1.6899996,0,1.710827,0
3.240000000,1.6099997,0,1.6191627,0
3.250000000,1.5299997,0,1.5237472,0
3.260000000,1.4499998,0,1.4280208,0
3.270000000,1.3699994,0,1.3342916,0
3.280000000,1.2899995,0,1.2435749,0
3.290000000,1.2099996,0,1.1558503,0
3.300000000,1.1299996,0,1.0704305,0
3.310000000,1.0499997,0,0.98633635,0
3.320000000,0.96999979,0,0.9026413,0
3.330000000,0.88999939,0,0.88999939,0
3.340000000,0.80999947,0,0.80999947,0
3.350000000,0.72999954,0,0.72999954,0
3.360000000,0.64999962,0,0.64999962,0
3.370000000,0.56999969,0,0.56999969,0
3.380000000,0.48999977,0,0.48999977,0
3.390000000,0.40999937,0,0.40999937,0
3.400000000,0.32999945,0,0.32999945,0
3.410000000,0.24999952,0,0.24999952,0
3.420000000,0.1699996,0,0.1699996,0
3.430000000,0.089999676,0,0.089999676,0
3.440000000,0.009999752,0,0.009999752,0
3.450000000,0,0,0,0
3.460000000,0,0,0,0
3.470000000,0,0,0,0
3.480000000,0,0,0,0
3.490000000,0,0,0,0
3.500000000,0,0,0,0
3.510000000,0,0,0,0
3.520000000,0,0,0,0
3.530000000,0,0,0,0
3.540000000,0,0,0,0
3.550000000,0,0,0,0
3.560000000,0,0,0,0
3.570000000,0,0,0,0
3.580000000,0,0,0,0
3.590000000,0,0,0,0
3.600000000,0,0,0,0
3.610000000,0,0,0,0
3.620000000,0,0,0,0
3.630000000,0,0,0,0
3.640000000,0,0,0,0
3.650000000,0,0,0,0
3.660000000,0,0,0,0
3.670000000,0,0,0,0
3.680000000,0,0,0,0
3.690000000,0,0,0,0
3.700000000,0,0,0,0
3.710000000,0,0,0,0
3.720000000,0,0,0,0
3.730000000,0,0,0,0
3.740000000,0.049999904,0,0.049999904,0
3.750000000,0.12999983,0,0.12999983,0
3.760000000,0.20999987,0,0.20999987,0
3.770000000,0.28999978,0,0.28999978,0
3.780000000,0.36999983,0,0.36999983,0
3.790000000,0.44999987,0,0.44999987,0
3.800000000,0.52999979,0,0.52999979,0
3.810000000,0.60999984,0,0.60999984,0
3.820000000,0.68999976,0,0.68999976,0
3.830000000,0.7699998,0,0.7699998,0
3.840000000,0.84999985,0,0.84999985,0
3.850000000,0.92999977,0,0.92999977,0
3.860000000,1.0069169,0.15730953,1.0099998,0.14986652
3.870000000,0.92960739,0.16678762,1.1028157,-0.002104938
3.880000000,1.0096073,0.17070341,1.1914072,0.0025315285
3.890000000,1.0896072,0.16252959,1.2704446,-0.0050824881
3.900000000,1.1696072,0.1553334,1.3504845,-0.0073117018
3.910000000,1.2496071,0.15251315,1.4331913,-0.00083899498
3.920000000,1.3296071,0.15340948,1.5181473,0.0036705732
3.930000000,1.4096072,0.15623009,1.6044852,0.0054317713
3.940000000,1.4896072,0.15928793,1.6913273,0.0050748587
3.950000000,1.5696073,0.16152942,1.7779231,0.0034230947
3.960000000,1.6496073,0.16327012,1.8644208,0.0013030767
3.970000000,1.7296073,0.16384673,1.9499108,-0.00065755844
3.980000000,1.8096074,0.1309346,2.0047216,-0.0026165247
3.990000000,1.8896074,0.021027446,1.9879701,-0.0023509264
4.000000000,2,-0.053680062,2.024399,0.060841799
4.010000000,1.98,-0.051310062,2.003381,0.057518959
4.020000000,1.96,-0.046378374,1.9823362,-0.0001115799
4.030000000,1.9399999,-0.039159536,1.9601133,0.0014460087
4.040000000,1.92,-0.032872081,1.9365112,-0.0012689829
4.050000000,1.9,-0.029469013,1.9117656,-0.002933979
4.060000000,1.88,-0.02929306,1.8863845,-0.0032533407
4.070000000,1.86,-0.031412244,1.8609262,-0.0025125742
4.080000000,1.8399999,-0.036073685,1.834386,-0.0011851788
4.090000000,1.8199999,-0.0064234734,1.8394372,0.00026774406
4.100000000,1.8,0.025626063,1.8475143,0.001385808
4.110000000,1.8099999,0.025197506,1.8565147,0.0019804239
4.120000000,1.8199999,0.022971511,1.866164,0.0021417141
4.130000000,1.8299999,0.02021873,1.8759359,0.0017459393
4.140000000,1.8399999,0.017860413,1.8853177,0.00081121922
4.150000000,1.8499999,0.0164783,1.8942289,-0.00016140938
4.160000000,1.86,0.016234159,1.9028372,-0.00072515011
4.170000000,1.87,0.016234159,1.9107329,-0.00085425377
4.180000000,1.88,0.016234159,1.9182035,-0.00069415569
4.190000000,1.89,0.016234159,1.9256382,0
4.200000000,1.9,0.016234159,1.9332843,0
4.210000000,1.8499994,0,1.8719189,0
4.220000000,1.7699995,0,1.7958604,0
4.230000000,1.6899996,0,1.7115686,0
4.240000000,1.6099997,0,1.6199977,0
4.250000000,1.5299997,0,1.52465,0
4.260000000,1.4499998,0,1.4289616,0
4.270000000,1.3699994,0,1.3352486,0
4.280000000,1.2899995,0,1.2445203,0
4.290000000,1.2099996,0,1.1567647,0
4.300000000,1.1299996,0,1.0712982,0
4.310000000,1.0499997,0,0.98716819,0
4.320000000,0.96999979,0,0.90344721,0
4.330000000,0.88999939,0,0.88999939,0
4.340000000,0.80999947,0,0.80999947,0
4.350000000,0.72999954,0,0.72999954,0
4.360000000,0.64999962,0,0.64999962,0
4.370000000,0.56999969,0,0.56999969,0
4.380000000,0.48999977,0,0.48999977,0
4.390000000,0.40999937,0,0.40999937,0
4.400000000,0.32999945,0,0.32999945,0
4.410000000,0.24999952,0,0.24999952,0
4.420000000,0.1699996,0,0.1699996,0
4.430000000,0.089999676,0,0.089999676,0
4.440000000,0.009999752,0,0.009999752,0
4.450000000,0,0,0,0
4.460000000,0,0,0,0
4.470000000,0,0,0,0
4.480000000,0,0,0,0
4.490000000,0,0,0,0
4.500000000,0,0,0,0
4.510000000,0,0,0,0
4.520000000,0,0,0,0
4.530000000,0,0,0,0
4.540000000,0,0,0,0
4.550000000,0,0,0,0
4.560000000,0,0,0,0
4.570000000,0,0,0,0
4.580000000,0,0,0,0
4.590000000,0,0,0,0
4.600000000,0,0,0,0
4.610000000,0,0,0,0
4.620000000,0,0,0,0
4.630000000,0,0,0,0
4.640000000,0,0,0,0
4.650000000,0,0,0,0
4.660000000,0,0,0,0
4.670000000,0,0,0,0
4.680000000,0,0,0,0
4.690000000,0,0,0,0
4.700000000,0,0,0,0
4.710000000,0,0,0,0
4.720000000,0,0,0,0
4.730000000,0,0,0,0
4.740000000,0.049999904,0,0.049999904,0
4.750000000,0.12999983,0,0.12999983,0
4.760000000,0.20999987,0,0.20999987,0
4.770000000,0.28999978,0,0.28999978,0
4.780000000,0.36999983,0,0.36999983,0
4.790000000,0.44999987,0,0.44999987,0
4.800000000,0.52999979,0,0.52999979,0
4.810000000,0.60999984,0,0.60999984,0
4.820000000,0.68999976,0,0.68999976,0
4.830000000,0.7699998,0,0.7699998,0
4.840000000,0.84999985,0,0.84999985,0
4.850000000,0.92999977,0,0.92999977,0
4.860000000,1.0069079,0.15984106,1.0099998,0.14986759
4.870000000,0.92706692,0.16170514,1.095888,-0.0046353936
4.880000000,1.007067,0.16339171,1.1822016,0.00031757355
4.890000000,1.0870669,0.16169059,1.2662518,-0.00053071976
4.900000000,1.1670668,0.15900397,1.3497614,-0.0013501644
4.910000000,1.2470667,0.15794492,1.4344562,-3.361702e-05
4.920000000,1.3270668,0.15848434,1.520061,0.0014356375
4.930000000,1.4070668,0.15965319,1.6058698,0.001560688
4.940000000,1.4870669,0.16059101,1.691308,0.00076723099
4.950000000,1.5670669,0.16087186,1.7760762,-0.00024783611
4.960000000,1.647067,0.16065359,1.8602755,-0.00098025799
4.970000000,1.727067,0.1614958,1.9452388,-0.0011982918
4.980000000,1.807067,0.19177639,2.0568008,-0.0010719299
4.990000000,1.8870671,0.078546405,2.0681379,-0.0030491352
5.000000000,2,-0.053791642,2.0325611,0.0068160295
5.010000000,1.98,-0.049864054,2.0182307,-0.015821457
5.020000000,1.96,-0.047647357,1.9903365,-0.0022056103
5.030000000,1.9399999,-0.042093515,1.9609419,-0.012435675
5.040000000,1.92,-0.036125422,1.9321486,-0.0079808235
5.050000000,1.9,-0.031981587,1.9050517,-0.0030567646
5.060000000,1.88,-0.030478239,1.8798233,0.001121521
5.070000000,1.86,-0.0311445,1.8562536,0.003693223
5.080000000,1.8399999,-0.034687877,1.8322992,0.0045870543
5.090000000,1.8199999,-0.0044430494,1.839829,0.0041307211
5.100000000,1.8,0.027767777,1.8497962,0.0028096437
5.110000000,1.8099999,0.026943445,1.8596312,0.0011509657
5.120000000,1.8199999,0.02378273,1.8689559,-0.00033116341
5.130000000,1.8299999,0.020057321,1.8777395,-0.0013514757
5.140000000,1.8399999,0.017135262,1.8860294,-0.0018610954
5.150000000,1.8499999,0.015624046,1.8940191,-0.0018655062
5.160000000,1.86,0.015540004,1.9020134,-0.0014207363
5.170000000,1.87,0.015540004,1.9093807,-0.00072455406
5.180000000,1.88,0.015540004,1.9166045,-2.9921532e-05
5.190000000,1.89,0.015540004,1.9240254,0
5.200000000,1.9,0.015540004,1.9318217,0
5.210000000,1.8499994,0,1.8713133,0
5.220000000,1.7699995,0,1.7954936,0
5.230000000,1.6899996,0,1.7114495,0
5.240000000,1.6099997,0,1.6200351,0
5.250000000,1.5299997,0,1.524752,0
5.260000000,1.4499998,0,1.429051,0
5.270000000,1.3699994,0,1.3352728,0
5.280000000,1.2899995,0,1.2444696,0
5.290000000,1.2099996,0,1.156635,0
5.300000000,1.1299996,0,1.0711155,0
5.310000000,1.0499997,0,0.98695934,0
5.320000000,0.96999979,0,0.90323377,0
5.330000000,0.88999939,0,0.88999939,0
5.340000000,0.80999947,0,0.80999947,0
5.350000000,0.72999954,0,0.72999954,0
5.360000000,0.64999962,0,0.64999962,0
5.370000000,0.56999969,0,0.56999969,0
5.380000000,0.48999977,0,0.48999977,0
5.390000000,0.40999937,0,0.40999937,0
5.400000000,0.32999945,0,0.32999945,0
5.410000000,0.24999952,0,0.24999952,0
5.420000000,0.1699996,0,0.1699996,0
5.430000000,0.089999676,0,0.089999676,0
5.440000000,0.009999752,0,0.009999752,0
5.450000000,0,0,0,0
5.460000000,0,0,0,0
5.470000000,0,0,0,0
5.480000000,0,0,0,0
5.490000000,0,0,0,0
5.500000000,0,0,0,0
5.510000000,0,0,0,0
5.520000000,0,0,0,0
5.530000000,0,0,0,0
5.540000000,0,0,0,0
5.550000000,0,0,0,0
5.560000000,0,0,0,0
5.570000000,0,0,0,0
5.580000000,0,0,0,0
5.590000000,0,0,0,0
5.600000000,0,0,0,0
5.610000000,0,0,0,0
5.620000000,0,0,0,0
5.630000000,0,0,0,0
5.640000000,0,0,0,0
5.650000000,0,0,0,0
5.660000000,0,0,0,0
5.670000000,0,0,0,0
5.680000000,0,0,0,0
5.690000000,0,0,0,0
5.700000000,0,0,0,0
5.710000000,0,0,0,0
5.720000000,0,0,0,0
5.730000000,0,0,0,0
5.740000000,0.049999904,0,0.049999904,0
5.750000000,0.12999983,0,0.12999983,0
5.760000000,0.20999987,0,0.20999987,0
5.770000000,0.28999978,0,0.28999978,0
5.780000000,0.36999983,0,0.36999983,0
5.790000000,0.44999987,0,0.44999987,0
5.800000000,0.52999979,0,0.52999979,0
5.810000000,0.60999984,0,0.60999984,0
5.820000000,0.68999976,0,0.68999976,0
5.830000000,0.7699998,0,0.7699998,0
5.840000000,0.84999985,0,0.84999985,0
5.850000000,0.92999977,0,0.92999977,0
5.860000000,1.006865,0.16015863,1.0099998,0.14986473
5.870000000,0.92670643,0.16117442,1.0951163,-0.004956007
5.880000000,1.0067065,0.16204154,1.1806542,3.0994415e-05
5.890000000,1.0867064,0.16165698,1.2657818,-4.1484833e-05
5.900000000,1.1667063,0.16043961,1.3505181,-0.00022208691
5.910000000,1.2467062,0.15950561,1.43541,-6.8426132e-05
5.920000000,1.3267063,0.15925157,1.5205309,0.00030457973
5.930000000,1.4067063,0.15940535,1.6055937,0.00036108494
5.940000000,1.4867064,0.15961075,1.6903605,8.3327293e-05
5.950000000,1.5667064,0.15967357,1.7747581,-0.00022542477
5.960000000,1.6467065,0.15958166,1.8588339,-0.00036215782
5.970000000,1.7267065,0.15844667,1.941824,-0.00026333332
5.980000000,1.8067065,0.19859242,2.062218,3.7789345e-05
5.990000000,1.8867067,0.062724948,2.0822911,-0.00044465065
6.000000000,2,-0.055997252,2.0314748,0.00073575974
6.010000000,1.98,-0.062299728,2.0090203,-0.028915167
6.020000000,1.96,-0.055628181,1.9840918,0.000415802
6.030000000,1.9399999,-0.04515028,1.9572327,-0.0033179522
6.040000000,1.92,-0.035003901,1.9312252,-0.002518177
6.050000000,1.9,-0.028288364,1.9066296,6.8187714e-05
6.060000000,1.88,-0.025891185,1.8831651,0.0016697645
6.070000000,1.86,-0.027013779,1.8603381,0.0019857883
6.080000000,1.8399999,-0.031878233,1.8360921,0.0013691187
6.090000000,1.8199999,-0.0032920837,1.8424985,0.00034701824
6.100000000,1.8,0.027436614,1.8509623,-0.00058567524
6.110000000,1.8099999,0.025591969,1.8593212,-0.0011260509
6.120000000,1.8199999,0.021921635,1.8674824,-0.0011874437
6.130000000,1.8299999,0.018191814,1.8756247,-0.00086653233
6.140000000,1.8399999,0.015714526,1.8839122,-0.00034201145
6.150000000,1.8499999,0.014899492,1.8924074,0.00016963482
6.160000000,1.86,0.015510082,1.9011769,0.00054478645
6.170000000,1.87,0.015510082,1.9088668,0.00071489811
6.180000000,1.88,0.015510082,1.9164753,0.00070166588
6.190000000,1.89,0.015510082,1.9241893,0
6.200000000,1.9,0.015510082,1.9321444,0
6.210000000,1.8499994,0,1.8716829,0
6.220000000,1.7699995,0,1.7958149,0
6.230000000,1.6899996,0,1.7116766,0
6.240000000,1.6099997,0,1.6201533,0
6.250000000,1.5299997,0,1.5247773,0
6.260000000,1.4499998,0,1.429022,0
6.270000000,1.3699994,0,1.3352154,0
6.280000000,1.2899995,0,1.2444057,0
6.290000000,1.2099996,0,1.1565977,0
6.300000000,1.1299996,0,1.0711056,0
6.310000000,1.0499997,0,0.98697513,0
6.320000000,0.96999979,0,0.90327078,0
6.330000000,0.88999939,0,0.88999939,0
6.340000000,0.80999947,0,0.80999947,0
6.350000000,0.72999954,0,0.72999954,0
6.360000000,0.64999962,0,0.64999962,0
6.370000000,0.56999969,0,0.56999969,0
6.380000000,0.48999977,0,0.48999977,0
6.390000000,0.40999937,0,0.40999937,0
6.400000000,0.32999945,0,0.32999945,0
6.410000000,0.24999952,0,0.24999952,0
6.420000000,0.1699996,0,0.1699996,0
6.430000000,0.089999676,0,0.089999676,0
6.440000000,0.009999752,0,0.009999752,0
6.450000000,0,0,0,0
6.460000000,0,0,0,0
6.470000000,0,0,0,0
6.480000000,0,0,0,0
6.490000000,0,0,0,0
6.500000000,0,0,0,0
6.510000000,0,0,0,0
6.520000000,0,0,0,0
6.530000000,0,0,0,0
6.540000000,0,0,0,0
6.550000000,0,0,0,0
6.560000000,0,0,0,0
6.570000000,0,0,0,0
6.580000000,0,0,0,0
6.590000000,0,0,0,0
6.600000000,0,0,0,0
6.610000000,0,0,0,0
6.620000000,0,0,0,0
6.630000000,0,0,0,0
6.640000000,0,0,0,0
6.650000000,0,0,0,0
6.660000000,0,0,0,0
6.670000000,0,0,0,0
6.680000000,0,0,0,0
6.690000000,0,0,0,0
6.700000000,0,0,0,0
6.710000000,0,0,0,0
6.720000000,0,0,0,0
6.730000000,0,0,0,0
6.740000000,0.049999904,0,0.049999904,0
6.750000000,0.12999983,0,0.12999983,0
6.760000000,0.20999987,0,0.20999987,0
6.770000000,0.28999978,0,0.28999978,0
6.780000000,0.36999983,0,0.36999983,0
6.790000000,0.44999987,0,0.44999987,0
6.800000000,0.52999979,0,0.52999979,0
6.810000000,0.60999984,0,0.60999984,0
6.820000000,0.68999976,0,0.68999976,0
6.830000000,0.7699998,0,0.7699998,0
6.840000000,0.84999985,0,0.84999985,0
6.850000000,0.92999977,0,0.92999977,0
6.860000000,1.0068768,0.16018963,1.0099998,0.14986646
6.870000000,0.92668724,0.16113293,1.0950499,-0.0049851537
6.880000000,1.0066872,0.16181946,1.1804181,1.6689301e-06
6.890000000,1.0866871,0.16158855,1.2656785,8.3446503e-06
6.900000000,1.166687,0.16074419,1.3507372,-2.3245811e-05
6.910000000,1.2466869,0.15986669,1.4356952,-2.3365021e-05
6.920000000,1.326687,0.1593349,1.520614,4.9114227e-05
6.930000000,1.406687,0.15917993,1.605428,7.4028969e-05
6.940000000,1.4866871,0.15924859,1.6900525,7.5101852e-06
6.950000000,1.5666871,0.15941024,1.7744852,-7.0571899e-05
6.960000000,1.6466872,0.15961945,1.8587899,-8.3804131e-05
6.970000000,1.7266872,0.15800202,1.9413179,-5.3524971e-05
6.980000000,1.8066872,0.19932818,2.062794,5.5789948e-05
6.990000000,1.8866872,0.033809781,2.0839374,-1.4424324e-05
7.000000000,2,-0.05558145,2.0319479,6.1869621e-05
7.010000000,1.98,-0.065617681,2.0062613,-0.030482292
7.020000000,1.96,-0.058146358,1.9819291,0.00021481514
7.030000000,1.9399999,-0.045082092,1.9569898,-0.00053310394
7.040000000,1.92,-0.033334136,1.9322367,-0.00065255165
7.050000000,1.9,-0.026302576,1.90812,7.1406364e-05
7.060000000,1.88,-0.024522066,1.8844774,0.00060117245
7.070000000,1.86,-0.02666676,1.8610399,0.00057435036
7.080000000,1.8399999,-0.032463908,1.8360345,0.00018942356
7.090000000,1.8199999,-0.0044181347,1.8418093,-0.0002259016
7.100000000,1.8,0.02624917,1.8499506,-0.00044536591
7.110000000,1.8099999,0.024725437,1.8583323,-0.00042641163
7.120000000,1.8199999,0.021579623,1.8667986,-0.00023460388
7.130000000,1.8299999,0.018361449,1.8753791,2.0027161e-05
7.140000000,1.8399999,0.016259313,1.8841146,0.00023138523
7.150000000,1.8499999,0.01561439,1.8929569,0.00033342838
7.160000000,1.86,0.016211748,1.9019098,0.00029659271
7.170000000,1.87,0.016211748,1.9097428,0.00016415119
7.180000000,1.88,0.016211748,1.9174049,-1.180172e-05
7.190000000,1.89,0.016211748,1.9251094,0
7.200000000,1.9,0.016211748,1.9330159,0
7.210000000,1.8499994,0,1.8718556,0
7.220000000,1.7699995,0,1.7959023,0
7.230000000,1.6899996,0,1.7116418,0
7.240000000,1.6099997,0,1.6200465,0
7.250000000,1.5299997,0,1.5246449,0
7.260000000,1.4499998,0,1.4288939,0
7.270000000,1.3699994,0,1.3351178,0
7.280000000,1.2899995,0,1.2443467,0
7.290000000,1.2099996,0,1.1565721,0
7.300000000,1.1299996,0,1.071111,0
7.310000000,1.0499997,0,0.98699898,0
7.320000000,0.96999979,0,0.90329701,0
7.330000000,0.88999939,0,0.88999939,0
7.340000000,0.80999947,0,0.80999947,0
7.350000000,0.72999954,0,0.72999954,0
7.360000000,0.64999962,0,0.64999962,0
7.370000000,0.56999969,0,0.56999969,0
7.380000000,0.48999977,0,0.48999977,0
7.390000000,0.40999937,0,0.40999937,0
7.400000000,0.32999945,0,0.32999945,0
7.410000000,0.24999952,0,0.24999952,0
7.420000000,0.1699996,0,0.1699996,0
7.430000000,0.089999676,0,0.089999676,0
7.440000000,0.009999752,0,0.009999752,0
7.450000000,0,0,0,0
7.460000000,0,0,0,0
7.470000000,0,0,0,0
7.480000000,0,0,0,0
7.490000000,0,0,0,0
7.500000000,0,0,0,0
7.510000000,0,0,0,0
7.520000000,0,0,0,0
7.530000000,0,0,0,0
7.540000000,0,0,0,0
7.550000000,0,0,0,0
7.560000000,0,0,0,0
7.570000000,0,0,0,0
7.580000000,0,0,0,0
7.590000000,0,0,0,0
7.600000000,0,0,0,0
7.610000000,0,0,0,0
7.620000000,0,0,0,0
7.630000000,0,0,0,0
7.640000000,0,0,0,0
7.650000000,0,0,0,0
7.660000000,0,0,0,0
7.670000000,0,0,0,0
7.680000000,0,0,0,0
7.690000000,0,0,0,0
7.700000000,0,0,0,0
7.710000000,0,0,0,0
7.720000000,0,0,0,0
7.730000000,0,0,0,0
7.740000000,0.049999904,0,0.049999904,0
7.750000000,0.12999983,0,0.12999983,0
7.760000000,0.20999987,0,0.20999987,0
7.770000000,0.28999978,0,0.28999978,0
7.780000000,0.36999983,0,0.36999983,0
7.790000000,0.44999987,0,0.44999987,0
7.800000000,0.52999979,0,0.52999979,0
7.810000000,0.60999984,0,0.60999984,0
7.820000000,0.68999976,0,0.68999976,0
7.830000000,0.7699998,0,0.7699998,0
7.840000000,0.84999985,0,0.84999985,0
7.850000000,0.92999977,0,0.92999977,0
7.860000000,1.0068964,0.1601913,1.0099998,0.14986604
7.870000000,0.92670512,0.16114128,1.0950568,-0.004987359
7.880000000,1.006705,0.16179621,1.1803972,-3.5762787e-07
7.890000000,1.086705,0.16156518,1.2656507,-5.1259995e-06
7.900000000,1.1667049,0.1607933,1.3507696,-7.0333481e-06
7.910000000,1.2467048,0.15994072,1.4357564,8.3446503e-07
7.920000000,1.3267049,0.15934241,1.5206236,9.7751617e-06
7.930000000,1.4067049,0.15910935,1.6053723,1.3589859e-05
7.940000000,1.4867049,0.15916479,1.6899788,1.1920929e-06
7.950000000,1.566705,0.15935671,1.7744284,-1.4781952e-05
7.960000000,1.646705,0.15967524,1.8588151,-2.4795532e-05
7.970000000,1.7267051,0.15798759,1.94129,-1.1920929e-06
7.980000000,1.8067051,0.19939005,2.0628512,2.9563904e-05
7.990000000,1.8867052,0.0033274889,2.0840788,1.3947487e-05
8.000000000,2,-0.055366635,2.0321491,-1.8119812e-05
8.010000000,1.98,-0.066150784,2.0057995,-0.030636787
8.020000000,1.96,-0.058798909,1.9813433,3.5881996e-05
8.030000000,1.9399999,-0.045010686,1.9569871,-5.8412552e-05
8.040000000,1.92,-0.032732964,1.9326661,-0.00013959408
8.050000000,1.9,-0.025728226,1.9085721,-1.0371208e-05
8.060000000,1.88,-0.024332643,1.8846802,0.00015103817
8.070000000,1.86,-0.026892662,1.860927,0.00014615059
8.080000000,1.8399999,-0.032909274,1.8357072,1.8596649e-05
8.090000000,1.8199999,-0.0048445463,1.8414302,-9.8228455e-05
8.100000000,1.8,0.026014566,1.849665,-0.00013518333
8.110000000,1.8099999,0.024745464,1.8582277,-9.059906e-05
8.120000000,1.8199999,0.021811008,1.8668901,-8.3446503e-07
8.130000000,1.8299999,0.018694878,1.8756199,8.4280968e-05
8.140000000,1.8399999,0.016555905,1.8843886,0.00010752678
8.150000000,1.8499999,0.015778542,1.8931661,8.0943108e-05
8.160000000,1.86,0.016199946,1.9019822,2.7656555e-05
8.170000000,1.87,0.016199946,1.9098059,-2.7298927e-05
8.180000000,1.88,0.016199946,1.917432,-7.6174736e-05
8.190000000,1.89,0.016199946,1.9250963,0
8.200000000,1.9,0.016199946,1.9329703,0
8.210000000,1.8499994,0,1.8718077,0
8.220000000,1.7699995,0,1.7958549,0
8.230000000,1.6899996,0,1.7116059,0
8.240000000,1.6099997,0,1.6200186,0
8.250000000,1.5299997,0,1.5246255,0
8.260000000,1.4499998,0,1.4288788,0
8.270000000,1.3699994,0,1.3351088,0
8.280000000,1.2899995,0,1.2443397,0
8.290000000,1.2099996,0,1.1565592,0
8.300000000,1.1299996,0,1.0710951,0
8.310000000,1.0499997,0,0.98698109,0
8.320000000,0.96999979,0,0.9032867,0
8.330000000,0.88999939,0,0.88999939,0
8.340000000,0.80999947,0,0.80999947,0
8.350000000,0.72999954,0,0.72999954,0
8.360000000,0.64999962,0,0.64999962,0
8.370000000,0.56999969,0,0.56999969,0
8.380000000,0.48999977,0,0.48999977,0
8.390000000,0.40999937,0,0.40999937,0
8.400000000,0.32999945,0,0.32999945,0
8.410000000,0.24999952,0,0.24999952,0
8.420000000,0.1699996,0,0.1699996,0
8.430000000,0.089999676,0,0.089999676,0
8.440000000,0.009999752,0,0.009999752,0
8.450000000,0,0,0,0
8.460000000,0,0,0,0
8.470000000,0,0,0,0
8.480000000,0,0,0,0
8.490000000,0,0,0,0
8.500000000,0,0,0,0
8.510000000,0,0,0,0
8.520000000,0,0,0,0
8.530000000,0,0,0,0
8.540000000,0,0,0,0
8.550000000,0,0,0,0
8.560000000,0,0,0,0
8.570000000,0,0,0,0
8.580000000,0,0,0,0
8.590000000,0,0,0,0
8.600000000,0,0,0,0
8.610000000,0,0,0,0
8.620000000,0,0,0,0
8.630000000,0,0,0,0
8.640000000,0,0,0,0
8.650000000,0,0,0,0
8.660000000,0,0,0,0
8.670000000,0,0,0,0
8.680000000,0,0,0,0
8.690000000,0,0,0,0
8.700000000,0,0,0,0
8.710000000,0,0,0,0
8.720000000,0,0,0,0
8.730000000,0,0,0,0
8.740000000,0.049999904,0,0.049999904,0
8.750000000,0.12999983,0,0.12999983,0
8.760000000,0.20999987,0,0.20999987,0
8.770000000,0.28999978,0,0.28999978,0
8.780000000,0.36999983,0,0.36999983,0
8.790000000,0.44999987,0,0.44999987,0
8.800000000,0.52999979,0,0.52999979,0
8.810000000,0.60999984,0,0.60999984,0
8.820000000,0.68999976,0,0.68999976,0
8.830000000,0.7699998,0,0.7699998,0
8.840000000,0.84999985,0,0.84999985,0
8.850000000,0.92999977,0,0.92999977,0
8.860000000,1.0069,0.16019094,1.0099998,0.14986461
8.870000000,0.92670906,0.16113615,1.0950462,-0.0049939156
8.880000000,1.0067091,0.16178918,1.1803859,-7.1525574e-07
8.890000000,1.086709,0.16156602,1.2656428,-4.7683716e-07
8.900000000,1.1667089,0.16080308,1.3507731,2.6226044e-06
