﻿Signal Name Template,PXI Signal Type,PXI Slot,PXI Port,PXI Pin,Property,Symbols,Logged signal,Skip
USER_PERMIT_W1_A_*_1,DIG_OUT,PXI1Slot5,0,"0,1",STATUS.PC_IN[0],PERMIT_1A,RESULT_PC1_W1_A_IN,
USER_PERMIT_W1_B_*_1,DIG_OUT,PXI1Slot5,0,"2,3",STATUS.PC_IN[0],PERMIT_1B,RESULT_PC1_W1_B_IN,
USER_PERMIT_W2_A_*_1,DIG_OUT,PXI1Slot5,0,"4,5",STATUS.PC_IN[0],PERMIT_2A,RESULT_PC1_W2_A_IN,
USER_PERMIT_W2_B_*_1,DIG_OUT,PXI1Slot5,0,"6,7",STATUS.PC_IN[0],PERMIT_2B,RESULT_PC1_W2_B_IN,
,,,,,,,,
USER_PERMIT_W1_A_*_2,DIG_OUT,PXI1Slot5,1,"0,1",STATUS.PC_IN[1],PERMIT_1A,RESULT_PC2_W1_A_IN,
USER_PERMIT_W1_B_*_2,DIG_OUT,PXI1Slot5,1,"2,3",STATUS.PC_IN[1],PERMIT_1B,RESULT_PC2_W1_B_IN,
USER_PERMIT_W2_A_*_2,DIG_OUT,PXI1Slot5,1,"4,5",STATUS.PC_IN[1],PERMIT_2A,RESULT_PC2_W2_A_IN,
USER_PERMIT_W2_B_*_2,DIG_OUT,PXI1Slot5,1,"6,7",STATUS.PC_IN[1],PERMIT_2B,RESULT_PC2_W2_B_IN,
,,,,,,,,
USER_PERMIT_W1_A_*_3,DIG_OUT,PXI1Slot5,2,"0,1",STATUS.PC_IN[2],PERMIT_1A,RESULT_PC3_W1_A_IN,
USER_PERMIT_W1_B_*_3,DIG_OUT,PXI1Slot5,2,"2,3",STATUS.PC_IN[2],PERMIT_1B,RESULT_PC3_W1_B_IN,
USER_PERMIT_W2_A_*_3,DIG_OUT,PXI1Slot5,2,"4,5",STATUS.PC_IN[2],PERMIT_2A,RESULT_PC3_W2_A_IN,
USER_PERMIT_W2_B_*_3,DIG_OUT,PXI1Slot5,2,"6,7",STATUS.PC_IN[2],PERMIT_2B,RESULT_PC3_W2_B_IN,
,,,,,,,,
USER_PERMIT_W1_A_*_4,DIG_OUT,PXI1Slot5,3,"0,1",STATUS.PC_IN[3],PERMIT_1A,RESULT_PC4_W1_A_IN,
USER_PERMIT_W1_B_*_4,DIG_OUT,PXI1Slot5,3,"2,3",STATUS.PC_IN[3],PERMIT_1B,RESULT_PC4_W1_B_IN,
USER_PERMIT_W2_A_*_4,DIG_OUT,PXI1Slot5,3,"4,5",STATUS.PC_IN[3],PERMIT_2A,RESULT_PC4_W2_A_IN,
USER_PERMIT_W2_B_*_4,DIG_OUT,PXI1Slot5,3,"6,7",STATUS.PC_IN[3],PERMIT_2B,RESULT_PC4_W2_B_IN,
,,,,,,,,
USER_PERMIT_W1_A_*_5,DIG_OUT,PXI1Slot5,4,"0,1",STATUS.PC_IN[4],PERMIT_1A,RESULT_PC5_W1_A_IN,
USER_PERMIT_W1_B_*_5,DIG_OUT,PXI1Slot5,4,"2,3",STATUS.PC_IN[4],PERMIT_1B,RESULT_PC5_W1_B_IN,
USER_PERMIT_W2_A_*_5,DIG_OUT,PXI1Slot5,4,"4,5",STATUS.PC_IN[4],PERMIT_2A,RESULT_PC5_W2_A_IN,
USER_PERMIT_W2_B_*_5,DIG_OUT,PXI1Slot5,4,"6,7",STATUS.PC_IN[4],PERMIT_2B,RESULT_PC5_W2_B_IN,
,,,,,,,,
USER_PERMIT_W1_A_*_6,DIG_OUT,PXI1Slot5,6,"0,1",STATUS.PC_IN[5],PERMIT_1A,RESULT_PC6_W1_A_IN,
USER_PERMIT_W1_B_*_6,DIG_OUT,PXI1Slot5,6,"2,3",STATUS.PC_IN[5],PERMIT_1B,RESULT_PC6_W1_B_IN,
USER_PERMIT_W2_A_*_6,DIG_OUT,PXI1Slot5,6,"4,5",STATUS.PC_IN[5],PERMIT_2A,RESULT_PC6_W2_A_IN,
USER_PERMIT_W2_B_*_6,DIG_OUT,PXI1Slot5,6,"6,7",STATUS.PC_IN[5],PERMIT_2B,RESULT_PC6_W2_B_IN,
,,,,,,,,
USER_PERMIT_W1_A_*_7,DIG_OUT,PXI1Slot5,7,"0,1",STATUS.PC_IN[6],PERMIT_1A,RESULT_PC7_W1_A_IN,
USER_PERMIT_W1_B_*_7,DIG_OUT,PXI1Slot5,7,"2,3",STATUS.PC_IN[6],PERMIT_1B,RESULT_PC7_W1_B_IN,
USER_PERMIT_W2_A_*_7,DIG_OUT,PXI1Slot5,7,"4,5",STATUS.PC_IN[6],PERMIT_2A,RESULT_PC7_W2_A_IN,
USER_PERMIT_W2_B_*_7,DIG_OUT,PXI1Slot5,7,"6,7",STATUS.PC_IN[6],PERMIT_2B,RESULT_PC7_W2_B_IN,
,,,,,,,,
USER_PERMIT_W1_A_*_8,DIG_OUT,PXI1Slot5,8,"0,1",STATUS.PC_IN[7],PERMIT_1A,RESULT_PC8_W1_A_IN,
USER_PERMIT_W1_B_*_8,DIG_OUT,PXI1Slot5,8,"2,3",STATUS.PC_IN[7],PERMIT_1B,RESULT_PC8_W1_B_IN,
USER_PERMIT_W2_A_*_8,DIG_OUT,PXI1Slot5,8,"4,5",STATUS.PC_IN[7],PERMIT_2A,RESULT_PC8_W2_A_IN,
USER_PERMIT_W2_B_*_8,DIG_OUT,PXI1Slot5,8,"6,7",STATUS.PC_IN[7],PERMIT_2B,RESULT_PC8_W2_B_IN,
,,,,,,,,
USER_PERMIT_W1_A_*_9,DIG_OUT,PXI1Slot5,9,"0,1",STATUS.PC_IN[8],PERMIT_1A,RESULT_PC9_W1_A_IN,
USER_PERMIT_W1_B_*_9,DIG_OUT,PXI1Slot5,9,"2,3",STATUS.PC_IN[8],PERMIT_1B,RESULT_PC9_W1_B_IN,
USER_PERMIT_W2_A_*_9,DIG_OUT,PXI1Slot5,9,"4,5",STATUS.PC_IN[8],PERMIT_2A,RESULT_PC9_W2_A_IN,
USER_PERMIT_W2_B_*_9,DIG_OUT,PXI1Slot5,9,"6,7",STATUS.PC_IN[8],PERMIT_2B,RESULT_PC9_W2_B_IN,
,,,,,,,,
USER_PERMIT_W1_A_*_10,DIG_OUT,PXI1Slot5,10,"0,1",STATUS.PC_IN[9],PERMIT_1A,RESULT_PC10_W1_A_IN,
USER_PERMIT_W1_B_*_10,DIG_OUT,PXI1Slot5,10,"2,3",STATUS.PC_IN[9],PERMIT_1B,RESULT_PC10_W1_B_IN,
USER_PERMIT_W2_A_*_10,DIG_OUT,PXI1Slot5,10,"4,5",STATUS.PC_IN[9],PERMIT_2A,RESULT_PC10_W2_A_IN,
USER_PERMIT_W2_B_*_10,DIG_OUT,PXI1Slot5,10,"6,7",STATUS.PC_IN[9],PERMIT_2B,RESULT_PC10_W2_B_IN,
,,,,,,,,
CL_IN_A_*_11,DIG_OUT,PXI1Slot6,8,"0,1",STATUS.FEI_IN,PERMIT_1A,RESULT_FEI1_W1_A_IN,
CL_IN_B_*_11,DIG_OUT,PXI1Slot6,8,"2,3",STATUS.FEI_IN,PERMIT_1B,RESULT_FEI1_W1_B_IN,
CL_IN_A_*_12,DIG_OUT,PXI1Slot6,8,"4,5",STATUS.FEI_IN,PERMIT_2A,RESULT_FEI1_W2_A_IN,
CL_IN_B_*_12,DIG_OUT,PXI1Slot6,8,"6,7",STATUS.FEI_IN,PERMIT_2B,RESULT_FEI1_W2_B_IN,
,,,,,,,,
nDISABLE_PC_A_1,DIG_OUT,PXI1Slot6,10,0,ENABLE.PC_IN[0],ENABLED_A,ENABLE_PC1_A_IN,
nDISABLE_PC_B_1,DIG_OUT,PXI1Slot6,10,1,ENABLE.PC_IN[0],ENABLED_B,ENABLE_PC1_B_IN,
nDISABLE_PC_A_2,DIG_OUT,PXI1Slot5,5,2,ENABLE.PC_IN[1],ENABLED_A,ENABLE_PC2_A_IN,
nDISABLE_PC_B_2,DIG_OUT,PXI1Slot5,5,3,ENABLE.PC_IN[1],ENABLED_B,ENABLE_PC2_B_IN,
nDISABLE_PC_A_3,DIG_OUT,PXI1Slot5,5,7,ENABLE.PC_IN[2],ENABLED_A,ENABLE_PC3_B_IN,
nDISABLE_PC_B_3,DIG_OUT,PXI1Slot5,5,6,ENABLE.PC_IN[2],ENABLED_B,ENABLE_PC3_B_IN,
nDISABLE_PC_A_4,DIG_OUT,PXI1Slot6,10,2,ENABLE.PC_IN[3],ENABLED_A,ENABLE_PC4_B_IN,
nDISABLE_PC_B_4,DIG_OUT,PXI1Slot6,10,3,ENABLE.PC_IN[3],ENABLED_B,ENABLE_PC4_B_IN,
nDISABLE_PC_A_5,DIG_OUT,PXI1Slot5,5,1,ENABLE.PC_IN[4],ENABLED_A,ENABLE_PC5_B_IN,
nDISABLE_PC_B_5,DIG_OUT,PXI1Slot5,5,0,ENABLE.PC_IN[4],ENABLED_B,ENABLE_PC5_B_IN,
nDISABLE_PC_A_6,DIG_OUT,PXI1Slot6,10,4,ENABLE.PC_IN[5],ENABLED_A,ENABLE_PC6_B_IN,
nDISABLE_PC_B_6,DIG_OUT,PXI1Slot6,10,5,ENABLE.PC_IN[5],ENABLED_B,ENABLE_PC6_B_IN,
nDISABLE_PC_A_7,DIG_OUT,PXI1Slot5,5,5,ENABLE.PC_IN[6],ENABLED_A,ENABLE_PC7_B_IN,
nDISABLE_PC_B_7,DIG_OUT,PXI1Slot5,5,4,ENABLE.PC_IN[6],ENABLED_B,ENABLE_PC7_B_IN,
nDISABLE_PC_A_8,DIG_OUT,PXI1Slot5,11,1,ENABLE.PC_IN[7],ENABLED_A,ENABLE_PC8_B_IN,
nDISABLE_PC_B_8,DIG_OUT,PXI1Slot5,11,0,ENABLE.PC_IN[7],ENABLED_B,ENABLE_PC8_B_IN,
nDISABLE_PC_A_9,DIG_OUT,PXI1Slot6,10,6,ENABLE.PC_IN[8],ENABLED_A,ENABLE_PC9_B_IN,
nDISABLE_PC_B_9,DIG_OUT,PXI1Slot6,10,7,ENABLE.PC_IN[8],ENABLED_B,ENABLE_PC9_B_IN,
nDISABLE_PC_A_10,DIG_OUT,PXI1Slot5,11,3,ENABLE.PC_IN[9],ENABLED_A,ENABLE_PC10_B_IN,
nDISABLE_PC_B_10,DIG_OUT,PXI1Slot5,11,2,ENABLE.PC_IN[9],ENABLED_B,ENABLE_PC10_B_IN,
,,,,,,,,
nDISABLE_FEI_A_1,DIG_OUT,PXI1Slot6,11,0,ENABLE.FEI_IN[0],ENABLED_A,ENABLE_FEI1_A_IN,
nDISABLE_FEI_B_1,DIG_OUT,PXI1Slot6,11,1,ENABLE.FEI_IN[0],ENABLED_B,ENABLE_FEI1_B_IN,
nDISABLE_FEI_A_2,DIG_OUT,PXI1Slot6,11,2,ENABLE.FEI_IN[1],ENABLED_A,ENABLE_FEI2_A_IN,
nDISABLE_FEI_B_2,DIG_OUT,PXI1Slot6,11,3,ENABLE.FEI_IN[1],ENABLED_B,ENABLE_FEI2_B_IN,
,,,,,,,,
CL_OUT_A_*_W1,DIG_IN,PXI1Slot6,7,"0,1",,,,
