source:ccrt device:rst-3 epoch:1673450474 timeOrigin:1.510000000 firstSampleTime:0.310000000 period:0.010000000 name:I_REG type:analog,I_MEAS_REG_(A),I_REF_USER_(A) STEP +0.019000000,I_REF_ADV_(A) STEP,I_REF_LIMITED_(A) STEP,I_REF_CLOSED_(A) STEP,V_REF_(V) STEP,V_MEAS_(V)
0.310000000,1.2202366e-21,0,0,0,0,-1.2030456e-20,-7.3057264e-20
0.320000000,-4.4307869e-21,0,0,0,0,5.6213922e-21,-3.9420501e-20
0.330000000,-6.4703247e-21,0,0,0,0,1.3897226e-20,-1.203031e-20
0.340000000,-6.0773464e-21,0,0,0,0,1.5166922e-20,5.6214855e-21
0.350000000,-4.4554472e-21,0,0,0,0,1.2340429e-20,1.3897269e-20
0.360000000,-2.5426074e-21,0,0,0,0,7.9462782e-21,1.5166928e-20
0.370000000,-9.1526e-22,0,0,0,0,3.7199479e-21,1.2340414e-20
0.380000000,1.7996695e-22,0,0,0,0,5.6428798e-22,7.946254e-21
0.390000000,7.3257915e-22,0,0,0,0,-1.2789291e-21,3.7199257e-21
0.400000000,8.6265244e-22,0.44999984,0.44999984,0.44999984,0.44999984,4.6855288,5.6427122e-22
0.410000000,7.3328521e-22,0.94999987,0.94999987,0.94999987,0.94999987,3.8894496,-1.2789389e-21
0.420000000,0.47989866,1.4499998,1.4499998,1.4499998,1.4499998,3.8202198,4.6855536
0.430000000,0.97480577,1.9499998,1.9499998,1.9499998,1.9499998,4.0810957,3.8894458
0.440000000,1.4390539,2.4499998,2.4499998,2.4499998,2.4499998,4.2609301,3.8202193
0.450000000,1.9227362,2.9499998,2.9499998,2.9499998,2.9499998,4.3584127,4.0810971
0.460000000,2.4245327,3.4499998,3.4499998,3.4499998,3.4499998,4.4083452,4.260931
0.470000000,2.9340107,3.9499998,3.9499998,3.9499998,3.9499998,4.4354382,4.3584132
0.480000000,3.4444025,4.4499998,4.4499998,4.4499998,4.4499998,4.4365172,4.4083452
0.490000000,3.9528854,4.9499998,4.9499998,4.9499998,4.9499998,4.3830204,4.4354382
0.500000000,4.4610262,5.4499998,5.4499998,5.4499998,5.4499998,4.2534332,4.4365172
0.510000000,4.9691792,5.9499998,5.9499998,5.9499998,5.9499998,4.0651283,4.3830204
0.520000000,5.4746871,6.4499998,6.4499998,6.4499998,6.4499998,3.8612361,4.2534328
0.530000000,5.975112,6.9499998,6.9499998,6.9499998,6.9499998,3.6833131,4.0651269
0.540000000,6.4681072,7.4499998,7.4499998,7.4499998,7.4499998,3.5506554,3.8612354
0.550000000,6.9554591,7.9499998,7.9499998,7.9499998,7.9499998,3.440758,3.6833124
0.560000000,7.4431548,8.4499998,8.4499998,8.4499998,8.4499998,3.3271365,3.5506546
0.570000000,7.9358377,8.9499998,8.9499998,8.9499998,8.9499998,3.1974726,3.4407575
0.580000000,8.4345236,9.4499998,9.4499998,9.4499998,9.4499998,3.0703745,3.3271358
0.590000000,8.9366789,9.9499998,9.9499998,9.9499998,9.9499998,2.9890604,3.1974719
0.600000000,9.4349031,10,10,10,10,0.6068179,3.0703738
0.610000000,9.926115,10,10,10,10,1.1120707,2.9890602
0.620000000,9.9330473,10,10,10,10,1.246698,0.60680526
0.630000000,9.9405327,10,10,10,10,1.1313241,1.1120733
0.640000000,9.9971447,10,10,10,10,1.029506,1.2466989
0.650000000,10.034671,10,10,10,10,0.97555131,1.1313235
0.660000000,10.045517,10,10,10,10,0.95231497,1.0295055
0.670000000,10.040684,10,10,10,10,0.94883943,0.97555101
0.680000000,10.028896,10,10,10,10,0.95777488,0.95231479
0.690000000,10.015685,10,10,10,10,0.97222859,0.94883943
0.700000000,10.004472,10,10,10,10,0.9867481,0.95777494
0.710000000,9.99687,10,10,10,10,0.99812573,0.97222865
0.720000000,9.9930429,10,10,10,10,1.0052028,0.98674822
0.730000000,9.992259,10,10,10,10,1.0082443,0.99812579
0.740000000,9.9934301,10,10,10,10,1.0082723,1.0052029
0.750000000,9.9954987,10,10,10,10,1.006533,1.0082443
0.760000000,9.997654,10,10,10,10,1.0041277,1.0082723
0.770000000,9.999402,10,10,10,10,1.0018528,1.006533
0.780000000,10.000542,10,10,10,10,1.0001329,1.0041277
0.790000000,10.001085,10,10,10,10,0.99910539,1.0018528
0.800000000,10.001165,9.1000013,9.1000013,9.1000013,9.1000013,-3.6868172,1.0001329
0.810000000,10.000959,8.1000013,8.1000013,8.1000013,8.1000013,-2.8906972,0.99910539
0.820000000,9.0452213,7.1000009,7.1000009,7.1000009,7.1000009,-3.0691164,-3.686842
0.830000000,8.0813112,6.1000013,6.1000013,6.1000013,6.1000013,-4.1148524,-2.8906932
0.840000000,7.2154894,5.1000013,5.1000013,5.1000013,5.1000013,-5.5271807,-3.0691171
0.850000000,6.3008814,4.1000013,4.1000013,4.1000013,4.1000013,-6.8732195,-4.1148582
0.860000000,5.2802925,3.1000013,3.1000013,3.1000013,3.1000013,-7.9570379,-5.5271883
0.870000000,4.1871128,2.1000016,2.1000016,2.1000016,2.1000016,-8.6926374,-6.8732262
0.880000000,3.0767455,1.1000016,1.1000016,1.1000016,1.1000016,-8.6975079,-7.9570441
0.890000000,1.9573252,0.10000161,0.10000161,0.10000161,0.10000161,-8.0210619,-8.6926413
0.900000000,0.85197377,-0.89999831,-0.89999831,-0.89999831,-0.89999831,-7.3371701,-8.6975079
0.910000000,-0.17042707,-1.8999982,-1.8999982,-1.8999982,-1.8999982,-7.186769,-8.0210581
0.920000000,-1.0952753,-2.8999982,-2.8999982,-2.8999982,-2.8999982,-7.4629931,-7.3371673
0.930000000,-1.9782614,-3.8999982,-3.8999982,-3.8999982,-3.8999982,-7.8984213,-7.1867681
0.940000000,-2.8752728,-4.8999982,-4.8999982,-4.8999982,-4.8999982,-8.3198357,-7.4629951
0.950000000,-3.8117747,-5.8999977,-5.8999977,-5.8999977,-5.8999977,-8.510437,-7.8984237
0.960000000,-4.7929654,-6.8999977,-6.8999977,-6.8999977,-6.8999977,-8.1468525,-8.3198385
0.970000000,-5.8285279,-7.8999977,-7.8999977,-7.8999977,-7.8999977,-7.157691,-8.510437
0.980000000,-6.9101496,-8.8999977,-8.8999977,-8.8999977,-8.8999977,-5.9874415,-8.1468496
0.990000000,-7.9788971,-9.8999977,-9.8999977,-9.8999977,-9.8999977,-5.0587797,-7.1576858
1.000000000,-8.9871569,-10,-10,-10,-10,0.34740666,-5.9874353
1.010000000,-9.9337893,-10,-10,-10,-10,-0.73604399,-5.0587754
1.020000000,-9.8326588,-10,-10,-10,-10,-1.4200146,0.34743527
1.030000000,-9.7246552,-10,-10,-10,-10,-1.4789878,-0.73604971
1.040000000,-9.8054228,-10,-10,-10,-10,-1.3385313,-1.4200183
1.050000000,-9.9257088,-10,-10,-10,-10,-1.1883745,-1.4789882
1.060000000,-10.01721,-10,-10,-10,-10,-1.0612694,-1.3385305
1.070000000,-10.069848,-10,-10,-10,-10,-0.9704957,-1.1883738
1.080000000,-10.088772,-10,-10,-10,-10,-0.92087221,-1.0612687
1.090000000,-10.083214,-10,-10,-10,-10,-0.90704823,-0.97049522
1.100000000,-10.063745,-10,-10,-10,-10,-0.91774446,-0.92087191
1.110000000,-10.039788,-10,-10,-10,-10,-0.94082153,-0.90704811
1.120000000,-10.018008,-10,-10,-10,-10,-0.96639895,-0.91774452
1.130000000,-10.001935,-10,-10,-10,-10,-0.98813713,-0.94082165
1.140000000,-9.9924726,-10,-10,-10,-10,-1.0031046,-0.96639907
1.150000000,-9.9887848,-10,-10,-10,-10,-1.0109903,-0.98813725
1.160000000,-9.9891815,-10,-10,-10,-10,-1.0131171,-1.0031046
1.170000000,-9.9918242,-10,-10,-10,-10,-1.0114746,-1.0109903
1.180000000,-9.9951773,-10,-10,-10,-10,-1.0080073,-1.0131171
1.190000000,-9.9982042,-10,-10,-10,-10,-1.0042434,-1.0114746
1.200000000,-10.000378,-9.5500011,-9.5500011,-9.5500011,-9.5500011,1.341634,-1.0080073
1.210000000,-10.001581,-9.0500011,-9.0500011,-9.0500011,-9.0500011,0.94568032,-1.0042434
1.220000000,-9.52425,-8.5500002,-8.5500002,-8.5500002,-8.5500002,0.97096121,1.3416466
1.230000000,-9.0389843,-8.0500002,-8.0500002,-8.0500002,-8.0500002,1.2517855,0.94567823
1.240000000,-8.5877094,-7.5500007,-7.5500007,-7.5500007,-7.5500007,1.5437074,0.97096139
1.250000000,-8.1102543,-7.0500007,-7.0500007,-7.0500007,-7.0500007,1.8366339,1.2517871
1.260000000,-7.6064429,-6.5500007,-6.5500007,-6.5500007,-6.5500007,2.1462626,1.543709
1.270000000,-7.0901046,-6.0500007,-6.0500007,-6.0500007,-6.0500007,2.4390495,1.8366355
1.280000000,-6.5654249,-5.5500002,-5.5500002,-5.5500002,-5.5500002,2.6742089,2.1462643
1.290000000,-6.0363679,-5.0500002,-5.0500002,-5.0500002,-5.0500002,2.8649466,2.4390512
1.300000000,-5.5122223,-4.5500002,-4.5500002,-4.5500002,-4.5500002,3.0437391,2.6742103
1.310000000,-4.9994354,-4.0500002,-4.0500002,-4.0500002,-4.0500002,3.2311966,2.8649478
1.320000000,-4.4985628,-3.5500002,-3.5500002,-3.5500002,-3.5500002,3.4134867,3.04374
1.330000000,-4.0059147,-3.0500002,-3.0500002,-3.0500002,-3.0500002,3.5620277,3.2311976
1.340000000,-3.5154104,-2.5500002,-2.5500002,-2.5500002,-2.5500002,3.6555698,3.4134877
1.350000000,-3.0242562,-2.0500002,-2.0500002,-2.0500002,-2.0500002,3.7050369,3.5620284
1.360000000,-2.5329523,-1.5500001,-1.5500001,-1.5500001,-1.5500001,3.7389207,3.6555705
1.370000000,-2.0420148,-1.0500001,-1.0500001,-1.0500001,-1.0500001,3.7877231,3.7050371
1.380000000,-1.5526292,-0.55000007,-0.55000007,-0.55000007,-0.55000007,3.8683989,3.7389207
1.390000000,-1.0635868,-0.050000004,-0.050000004,-0.050000004,-0.050000004,3.9617748,3.7877231
1.400000000,-0.57129252,0,0,0,0,-0.63835633,3.8683996
1.410000000,-0.07378871,0,0,0,0,0.22735244,3.9617753
1.420000000,-0.051578082,0,0,0,0,0.35118499,-0.63838071
1.430000000,-0.041617196,0,0,0,0,0.13449077,0.22735702
1.440000000,-0.00015702128,0,0,0,0,-0.006239803,0.35118568
1.450000000,0.021302819,0,0,0,0,-0.065339945,0.13448963
1.460000000,0.023341289,0,0,0,0,-0.074902512,-0.0062405486
1.470000000,0.016222429,0,0,0,0,-0.058516718,-0.065340258
1.480000000,0.0069196653,0,0,0,0,-0.033342045,-0.074902564
1.490000000,-0.00079841318,0,0,0,0,-0.010204547,-0.058516633
1.500000000,-0.0054836441,0,0,0,0,0.0058308174,-0.033341907
1.510000000,-0.0071900962,0,0,0,0,0.01389091,-0.010204425
