! S ADC.INTERNAL.VREF_TEMP.REF     4.00000E+01
! S ADC.INTERNAL.SIGNALS           V_LOAD,I_DCCT_A,NONE,NONE
! S DCCT.SELECT                    A
! S DCCT.A.POSITION                LOAD
! S DCCT.B.POSITION                LOAD
! S DEVICE.PPM                     ENABLED
! S FGC.ITER_PERIOD.EXT_DSP_DIV    1
! S INTER_FGC.ROLE                 INDEPENDANT
! S INTER_FGC.COMM.DEST_ADDR       0
! S INTER_FGC.COMM.SRC_ADDR.SLAVES 0
! S INTER_FGC.COMM.SRC_ADDR.MASTER 0
! S INTER_FGC.COMM.SRC_ADDR.REMOTE_MEAS 0
! S INTER_FGC.MASTER.NO_CONVERTER  DISABLED
! S LIMITS.I.POS                   2.00000E+02
! S LIMITS.I.NEG                   -2.00000E+02
! S LIMITS.I.LOW                   2.00000E+00
! S LIMITS.I.ZERO                  2.00000E-01
! S LIMITS.I.ERR_WARNING           2.00000E-03
! S LIMITS.I.ERR_FAULT             0.00000E+00
! S LIMITS.V.POS                   0.00000E+00
! S LIMITS.V.NEG                   0.00000E+00
! S LIMITS.V.ERR_FAULT             0.00000E+00
! S LIMITS.V.ERR_WARNING           0.00000E+00
! S LOG.OASIS.SUBSAMPLE            1
! S MEAS.FAST_ACQ                  0,0
! S MEAS.UNITS.V                   V
! S MEAS.UNITS.I                   A
! S REF.EVENT_CYC                  INJECTION
! S REGFGC3.PARAMS                 65536,0,0,0,0,0,0,0,0,0,0,0,0,0,2048,67634700,1179666,1180178,1310740,1310740,1310740,1310740,1310740,1310740,1310740,1310740,1310740,1310740,1310740,1310740,1310740,1310740,1310740,1310740,1310740,1316116,2687017,2687017,2687017,2687017,2687017,2687017,2687017,2687017,2687017,2687017,2687017,2687017,2687017,2687017,2687017,2687017,2687017,2687017,2687017,2687017,2687017,2687017,2687017,2687017,2687017,2687017,2687017,2687017,2687017,2687017,2687017,2687017,2687017,2687017,2687017,2687017,2687017,2687017,2687017,2687017,2687017,2687017,2687017,2687017,2687017,2687017,2687017,2687017,2687017,2687017,2687017,2687017,2687017,2687017,2687017,2687017,2687017,2687017,2687017,2687017,2687017,2687017,2687017,2687017,2687017,2687017,2687017,2687017,2687017,2687017,2687017,2687017,2687017,2687017,2687017,2687017,2687017,2687017,2687017,2687017,2687017,2687017,2687017,2687017,2687017,2687017,2687017,2687017,2687017,2687017,2687017,2687017,2687017,2687017,2687017,2687017,2687017,2687017,2687017,2687017,2687017,2687017,2687017,2687017,2687017,2687017,2687017,2687017,2687017,2687017,2687017,2687017,2687017,2687017,2687017,2687017,2687017,2687017,2687017,2687017,2687017,2687017,2687017,2687017,2687017,2687017,2687017,2687017,2687017,2687017,2687017,2687017,2687017,2687017,2687017,2687017,2687017,2687017,2687017,2687017,2687017,2687017,2687017,2687017,2687017,2687017,2687017,2687017,2687017,2687017,2687017,2687017,2687017,2687017,2687017,2687017,2687017,2687017,2687017,2687017,2687017,2687017,2687017,2687017,2687017,2687017,2687017,2687017,2687017,2687017,2687017,2687017,2687017,2687017,2687017,2687017,2687017,2687017,2687017,2687017,2687017,2687017,2687017,2687017,2687017,2687017,2687017,2687017,2732299,2,16000000,32000000,800000,1600000,400000,1600000,8000000,400,200,200,100,1720000,40000,8,40000,2000,4000000,0,0,65535,3000,1000,3000,15514,15206,704,7372,0,1366,2277,3188,4099,891,1378,2226,4677,29,775,2652,9049,0
! S STATE.PC_ON                    CYCLING
! S VS.OFFSET                      0.00000E+00
! S VS.PULSE.TIMING                -421000,-21000,-10000,-9000
! S V_PROBE.CAPA.POSITION          LOAD
! S V_PROBE.LOAD.POSITION          LOAD
