source:ccrt device:L2_Q2 epoch:1673450363 timeOrigin:8.900000000 firstSampleTime:0.600000000 period:0.010000000 name:I_REG_MPX type:analog,I_REF_ADV_(A) STEP,I_MEAS_REG_(A),I_REF_ILC_(A) STEP,I_ERR_ILC_(A) STEP
0.600000000,0,0.00018007521,0,0
0.610000000,0,0.00018007521,0,0
0.620000000,0,0.00018007521,0,0
0.630000000,0,0.00018007521,0,0
0.640000000,0,0.00018007521,0,0
0.650000000,0,0.00018007521,0,0
0.660000000,0,0.00018007521,0,0
0.670000000,0,0.00018007521,0,0
0.680000000,0,0.00018007521,0,0
0.690000000,0,0.00018007521,0,0
0.700000000,0,0.00018007521,0,0
0.710000000,0,0.00018007521,0,0
0.720000000,0,0.00018007521,0,0
0.730000000,0,0.00018007521,0,0
0.740000000,0,0.00018007521,0,0
0.750000000,0,0.00018007521,0,0
0.760000000,0,0.00018007521,0,0
0.770000000,0,0.00018007521,0,0
0.780000000,0,0.00018007521,0,0
0.790000000,0,0.00018007521,0,0
0.800000000,0,0.00018007521,0,0
0.810000000,0,0.00018007521,0,0
0.820000000,0,0.00018007521,0,0
0.830000000,0,0.00018007521,0,0
0.840000000,0,0.00018007521,0,0
0.850000000,0,0.00018007521,0,0
0.860000000,0,0.00018007521,0,0
0.870000000,0,0.00018007521,0,0
0.880000000,0,0.00018007521,0,0
0.890000000,0,0.00018007521,0,0
0.900000000,0,0.00018007521,0,0
0.910000000,0,0.00018007521,0,0
0.920000000,0,0.00018007521,0,0
0.930000000,0,0.00018007521,0,0
0.940000000,0,0.00018007521,0,0
0.950000000,0.00018007516,0.00018007521,0,0
0.960000000,0,0.00018007521,0,0
0.970000000,0,0.0001700756,0,0
0.980000000,0,1.008155e-05,0,0
0.990000000,0.020299984,3.0080764e-05,0,0
1.000000000,0.043633316,0.00085005042,0,0
1.010000000,0.066966645,0.019644018,0,0
1.020000000,0.090299979,0.040272862,0,0
1.030000000,0.11363331,0.062841594,0,0
1.040000000,0.13696665,0.08727023,0,0
1.050000000,0.16029997,0.11254381,0,0
1.060000000,0.18363331,0.1378074,0,0
1.070000000,0.20696664,0.16254601,0,0
1.080000000,0.23029998,0.18655966,0,0
1.090000000,0.20696664,0.20987836,0,0
1.100000000,0.23029998,0.23075718,0,0
1.110000000,0.25363332,0.21225321,0,0
1.120000000,0.27696663,0.23673686,0,0
1.130000000,0.30029997,0.25464085,0,0.045659125
1.140000000,0.32363331,0.27397975,0,0.04965356
1.150000000,0.34696662,0.29568854,0,0.051278085
1.160000000,0.37029997,0.31922221,0,0.051077753
1.170000000,0.39363331,0.34384584,0,0.049787462
1.180000000,0.41696665,0.36887443,0,0.048092216
1.190000000,0.44029996,0.39377806,0,0.046521902
1.200000000,0.4636333,0.41823167,0,0.045401633
1.210000000,0.48696664,0.44212031,0,0.044846326
1.220000000,0.51029998,0.46549901,0,0.044800967
1.230000000,0.53363329,0.48849773,0,0.045135558
1.240000000,0.5569666,0.51130146,0,0.045665145
1.250000000,0.58029997,0.53409016,0,0.046209812
1.260000000,0.60363328,0.55697393,0,0.04665935
1.270000000,0.62696666,0.58000755,0,0.046959102
1.280000000,0.65029997,0.60321128,0,0.047088683
1.290000000,0.67363328,0.62655503,0,0.047078252
1.300000000,0.69696665,0.64998865,0,0.046977997
1.310000000,0.69129997,0.6734674,0,0.017832577
1.320000000,0.68129998,0.69574112,0,-0.014441133
1.330000000,0.67129999,0.69210625,0,-0.020806253
1.340000000,0.6613,0.68588668,0,-0.024586678
1.350000000,0.65130001,0.67705214,0,-0.025752127
1.360000000,0.64130002,0.66561782,0,-0.024317801
1.370000000,0.63129997,0.65296352,0,-0.021663547
1.380000000,0.62129998,0.64025927,0,-0.018959284
1.390000000,0.61129999,0.62823486,0,-0.016934872
1.400000000,0.6013,0.6172055,0,-0.015905499
1.410000000,0.59130001,0.60714608,0,-0.015846074
1.420000000,0.58130002,0.59783161,0,0
1.430000000,0.57130003,0.58892208,0,0
1.440000000,0.56129998,0.58008265,0,0
1.450000000,0.55129999,0.57108307,0,0
1.460000000,0.5413,0.56177366,0,0
1.470000000,0.53130001,0.55212915,0,0
1.480000000,0.52130002,0.54218972,0,0
1.490000000,0.51130003,0.53203028,0,0
1.500000000,0.50129998,0.52177083,0,0
1.510000000,0.5,0.51149142,0,0
1.520000000,0.49498498,0.50161195,0,0
1.530000000,0.47993997,0.49930212,0,0
1.540000000,0.45486501,0.49303746,0,0
1.550000000,0.41976002,0.47867829,0,0
1.560000000,0.37462494,0.45587957,0,0
1.570000000,0.31945997,0.42328638,0,0
1.580000000,0.25426504,0.37994379,0,0
1.590000000,0.18789324,0.32543188,0,0
1.600000000,0.13151498,0.26009053,0,0
1.610000000,0.0851667,0.19238433,0,0
1.620000000,0.048848305,0.1323777,0,0
1.630000000,0.022560019,0.081105575,0,0
1.640000000,0.0063017136,0.040612847,0,0
1.650000000,7.338533e-05,0.012044445,0,0
1.660000000,0,-0.0043697432,0,0
1.670000000,0,-0.0091795316,0,0
1.680000000,0,-0.0067696376,0,0
1.690000000,0,-0.0030598005,0,0
1.700000000,0,0.0010000449,0,0
1.710000000,0,0.0011200404,0,0
1.720000000,0,0.0011100408,0,0
1.730000000,0,0.0011000412,0,0
1.740000000,0,0.0010900416,0,0
1.750000000,0,0.001080042,0,0
1.760000000,0,0.0010700421,0,0
1.770000000,0,0.0010700421,0,0
1.780000000,0,0.0010600426,0,0
1.790000000,0,0.0010500429,0,0
1.800000000,0,0.0010400433,0,0
1.810000000,0,0.0010300437,0,0
1.820000000,0,0.0010300437,0,0
1.830000000,0,0.0010200441,0,0
1.840000000,0,0.0010100445,0,0
1.850000000,0,0.0010000449,0,0
1.860000000,0,0.0010000449,0,0
1.870000000,0,0.00099004526,0,0
1.880000000,0,0.00098004553,0,0
1.890000000,0,0.00097004592,0,0
1.900000000,0,0.00097004592,0,0
1.910000000,0,0.00096004631,0,0
1.920000000,0,0.0009500467,0,0
1.930000000,0,0.0009500467,0,0
1.940000000,0,0.00094004709,0,0
1.950000000,0.0009264705,0.00093004742,0,0
1.960000000,0,0.00093004742,0,0
1.970000000,0,0.00088004931,0,0
1.980000000,0,6.0079677e-05,0,0
1.990000000,0.020299984,0.00010007818,0,0
2.000000000,0.043633316,0.00086004997,0,0
2.010000000,0.066966645,0.019614018,0,0
2.020000000,0.090299979,0.04021287,0,0
2.030000000,0.11363331,0.062786601,0,0
2.040000000,0.13696665,0.087235227,0,0
2.050000000,0.16029997,0.11252381,0,0
2.060000000,0.18363331,0.1378074,0,0
2.070000000,0.20696664,0.16256601,0,0
2.080000000,0.23029998,0.18658465,0,0
2.090000000,0.20696664,0.20989835,0,0
2.100000000,0.23029998,0.23077719,0,0
2.110000000,0.25363332,0.21226822,0.045659125,0
2.120000000,0.27696663,0.23863173,0.04965356,0
2.130000000,0.30029997,0.2968635,0.051278085,0.003436476
2.140000000,0.32363331,0.31785229,0.051077753,0.0057810247
2.150000000,0.34696662,0.34545574,0.049787462,0.0015108883
2.160000000,0.37029997,0.3725692,0.048092216,-0.0022692382
2.170000000,0.39363331,0.39785784,0.046521902,-0.0042245388
2.180000000,0.41696665,0.42140651,0.045401633,-0.0044398606
2.190000000,0.44029996,0.44368523,0.044846326,-0.0033852756
2.200000000,0.4636333,0.46531904,0.044800967,-0.0016857386
2.210000000,0.48696664,0.48690784,0.045135558,5.8799982e-05
2.220000000,0.51029998,0.50888157,0.045665145,0.0014184117
2.230000000,0.53363329,0.53149533,0.046209812,0.002137959
2.240000000,0.5569666,0.55474401,0.04665935,0.0022225976
2.250000000,0.58029997,0.57846773,0.046959102,0.0018322468
2.260000000,0.60363328,0.60247135,0.047088683,0.0011619329
2.270000000,0.62696666,0.62653506,0.047078252,0.00043159723
2.280000000,0.65029997,0.65047866,0.046977997,-0.00017869473
2.290000000,0.67363328,0.67420733,0.017832577,-0.00057405233
2.300000000,0.69696665,0.69649106,-0.014441133,0.00047558546
2.310000000,0.69129997,0.69274127,-0.020806253,-0.0014412999
2.320000000,0.68129998,0.68725163,-0.024586678,-0.005951643
2.330000000,0.67129999,0.67626727,-0.025752127,-0.0049672723
2.340000000,0.6613,0.66152805,-0.024317801,-0.00022804737
2.350000000,0.65130001,0.64786386,-0.021663547,0.0034361482
2.360000000,0.64130002,0.63600451,-0.018959284,0.0052955151
2.370000000,0.63129997,0.62584507,-0.016934872,0.0054548979
2.380000000,0.62129998,0.61709553,-0.016934872,0.004204452
2.390000000,0.61129999,0.60912597,-0.016934872,0.0021740198
2.400000000,0.6013,0.60044146,-0.016934872,0
2.410000000,0.59130001,0.59227192,-0.016934872,0
2.420000000,0.56129998,0.58385742,0,0
2.430000000,0.55129999,0.5748229,0,0
2.440000000,0.5413,0.5626936,0,0
2.450000000,0.53130001,0.5529241,0,0
2.460000000,0.52130002,0.54238474,0,0
2.470000000,0.51130003,0.53176033,0,0
2.480000000,0.50129998,0.52125585,0,0
2.490000000,0.5,0.51093149,0,0
2.500000000,0.49498501,0.50115705,0,0
2.510000000,0.47994003,0.49902213,0,0
2.520000000,0.45486501,0.4929325,0,0
2.530000000,0.41976002,0.47872329,0,0
2.540000000,0.37462509,0.45601955,0,0
2.550000000,0.31946015,0.42345637,0,0
2.560000000,0.25426504,0.38010383,0,0
2.570000000,0.18789342,0.32555687,0,0
2.580000000,0.13151513,0.26016054,0,0
2.590000000,0.0851667,0.19240433,0,0
2.600000000,0.048848398,0.1323677,0,0
2.610000000,0.022560082,0.081075571,0,0
2.620000000,0.0063017136,0.040567845,0,0
2.630000000,7.3388946e-05,0.011999448,0,0
2.640000000,0,-0.0043997411,0,0
2.650000000,0,-0.0091895312,0,0
2.660000000,0,-0.0067696376,0,0
2.670000000,0,-0.0030498009,0,0
2.680000000,0,0.0010100445,0,0
2.690000000,0,0.00113004,0,0
2.700000000,0,0.0011200404,0,0
2.710000000,0,0.0011100408,0,0
2.720000000,0,0.0011000412,0,0
2.730000000,0,0.0010900416,0,0
2.740000000,0,0.001080042,0,0
2.750000000,0,0.001080042,0,0
2.760000000,0,0.0010700421,0,0
2.770000000,0,0.0010600426,0,0
2.780000000,0,0.0010500429,0,0
2.790000000,0,0.0010400433,0,0
2.800000000,0,0.0010400433,0,0
2.810000000,0,0.0010300437,0,0
2.820000000,0,0.0010200441,0,0
2.830000000,0,0.0010100445,0,0
2.840000000,0,0.0010100445,0,0
2.850000000,0,0.0010000449,0,0
2.860000000,0,0.00099004526,0,0
2.870000000,0,0.00098004553,0,0
2.880000000,0,0.00098004553,0,0
2.890000000,0,0.00097004592,0,0
2.900000000,0,0.00096004631,0,0
2.910000000,0,0.00096004631,0,0
2.920000000,0,0.0009500467,0,0
2.930000000,0,0.00094004709,0,0
2.940000000,0,0.00094004709,0,0
2.950000000,0.00092312816,0.00093004742,0,0
2.960000000,0,0.00092004775,0,0
2.970000000,0,0.00088004931,0,0
2.980000000,0,7.0079303e-05,0,0
2.990000000,0.020299984,0.0001100778,0,0
3.000000000,0.043633316,0.00086004997,0,0
3.010000000,0.066966645,0.019609019,0,0
3.020000000,0.090299979,0.04021287,0,0
3.030000000,0.11363331,0.062786601,0,0
3.040000000,0.13696665,0.087230228,0,0
3.050000000,0.16029997,0.11252381,0,0
3.060000000,0.18363331,0.13781241,0,0
3.070000000,0.20696664,0.16257101,0,0
3.080000000,0.23029998,0.18658966,0,0
3.090000000,0.20696664,0.20989835,0.045659125,0
3.100000000,0.23029998,0.23265707,0.045659125,0
3.110000000,0.25363332,0.25432086,0.049095601,0
3.120000000,0.27696663,0.27701458,0.055434585,0
3.130000000,0.30029997,0.30284315,0.052788973,-0.0025431812
3.140000000,0.32363331,0.33095658,0.048808515,-0.0073232651
3.150000000,0.34696662,0.35163039,0.045562923,-0.0046637654
3.160000000,0.37029997,0.37234426,0.043652356,-0.0020442903
3.170000000,0.39363331,0.39338803,0.043136626,0.00024527311
3.180000000,0.41696665,0.41495687,0.043715894,0.0020097792
3.190000000,0.44029996,0.43734059,0.044905126,0.0029593706
3.200000000,0.4636333,0.46061927,0.046219379,0.0030140281
3.210000000,0.48696664,0.48461795,0.047273517,0.0023486912
3.220000000,0.51029998,0.50903153,0.047887743,0.0012684464
3.230000000,0.53363329,0.53352022,0.048042059,0.00011307001
3.240000000,0.5569666,0.55780387,0.047821283,-0.00083726645
3.250000000,0.58029997,0.58170247,0.047390699,-0.0014024973
3.260000000,0.60363328,0.60515118,0.046909988,-0.0015178919
3.270000000,0.62696666,0.62823486,0.0465042,-0.001268208
3.280000000,0.65029997,0.65110362,0.047453582,-0.00080364943
3.290000000,0.67363328,0.67395735,0.016391277,-0.00032407045
3.300000000,0.69696665,0.69661105,-0.020392776,0.00035560131
3.310000000,0.69129997,0.69062144,-0.025773525,0.00067853928
3.320000000,0.68129998,0.68131697,-0.024814725,-1.6987324e-05
3.330000000,0.67129999,0.6715675,-0.022315979,-0.00026750565
3.340000000,0.6613,0.66067809,-0.019022286,0.00062191486
3.350000000,0.65130001,0.64995372,-0.016208649,0.0013462901
3.360000000,0.64130002,0.64013922,-0.014754832,0.0011608005
3.370000000,0.63129997,0.63093477,-0.014760852,0.00036519766
3.380000000,0.62129998,0.62183523,-0.014760852,-0.00053524971
3.390000000,0.61129999,0.61257577,-0.014760852,-0.0012757778
3.400000000,0.6013,0.60389626,-0.014760852,0
3.410000000,0.59130001,0.59519178,-0.014760852,0
3.420000000,0.56129998,0.5862323,0,0
3.430000000,0.55129999,0.57670277,0,0
3.440000000,0.5413,0.5624336,0,0
3.450000000,0.53130001,0.55269408,0,0
3.460000000,0.52130002,0.54198974,0,0
3.470000000,0.51130003,0.53133035,0,0
3.480000000,0.50129998,0.52092087,0,0
3.490000000,0.5,0.51074147,0,0
3.500000000,0.49498501,0.50111699,0,0
3.510000000,0.47994003,0.49910212,0,0
3.520000000,0.45486501,0.49308747,0,0
3.530000000,0.41976002,0.47889328,0,0
3.540000000,0.37462509,0.45616955,0,0
3.550000000,0.31946015,0.42356634,0,0
3.560000000,0.25426504,0.38015878,0,0
3.570000000,0.18789342,0.32556185,0,0
3.580000000,0.13151513,0.26014054,0,0
3.590000000,0.0851667,0.19237435,0,0
3.600000000,0.048848398,0.13232771,0,0
3.610000000,0.022560082,0.081040576,0,0
3.620000000,0.0063017136,0.040542848,0,0
3.630000000,7.3388946e-05,0.011989448,0,0
3.640000000,0,-0.0043997411,0,0
3.650000000,0,-0.0091895312,0,0
3.660000000,0,-0.0067496384,0,0
3.670000000,0,-0.0030298019,0,0
3.680000000,0,0.0010200441,0,0
3.690000000,0,0.00113004,0,0
3.700000000,0,0.00113004,0,0
3.710000000,0,0.0011200404,0,0
3.720000000,0,0.0011100408,0,0
3.730000000,0,0.0011000412,0,0
3.740000000,0,0.0010900416,0,0
3.750000000,0,0.001080042,0,0
3.760000000,0,0.001080042,0,0
3.770000000,0,0.0010700421,0,0
3.780000000,0,0.0010600426,0,0
3.790000000,0,0.0010500429,0,0
3.800000000,0,0.0010400433,0,0
3.810000000,0,0.0010400433,0,0
3.820000000,0,0.0010300437,0,0
3.830000000,0,0.0010200441,0,0
3.840000000,0,0.0010100445,0,0
3.850000000,0,0.0010100445,0,0
3.860000000,0,0.0010000449,0,0
3.870000000,0,0.00099004526,0,0
3.880000000,0,0.00098004553,0,0
3.890000000,0,0.00098004553,0,0
3.900000000,0,0.00097004592,0,0
3.910000000,0,0.00096004631,0,0
3.920000000,0,0.0009500467,0,0
3.930000000,0,0.0009500467,0,0
3.940000000,0,0.00094004709,0,0
3.950000000,0.00092123437,0.00093004742,0,0
3.960000000,0,0.00093004742,0,0
3.970000000,0,0.00088004931,0,0
3.980000000,0,7.0079303e-05,0,0
3.990000000,0.020299984,0.0001100778,0,0
4.000000000,0.043633316,0.00085005042,0,0
4.010000000,0.066966645,0.01960402,0,0
4.020000000,0.090299979,0.04021287,0,0
4.030000000,0.11363331,0.062791601,0,0
4.040000000,0.13696665,0.087235227,0,0
4.050000000,0.16029997,0.11252381,0,0
4.060000000,0.18363331,0.1378074,0,0
4.070000000,0.20696664,0.16256601,0,0
4.080000000,0.23029998,0.18658966,0,0
4.090000000,0.20696664,0.20990336,0.049095601,0
4.100000000,0.23029998,0.23280206,0.049095601,0
4.110000000,0.25363332,0.25748068,0.04655242,0
4.120000000,0.27696663,0.27978942,0.04811132,0
4.130000000,0.30029997,0.30051327,0.048125207,-0.00021329522
4.140000000,0.32363331,0.32504189,0.046764225,-0.001408577
4.150000000,0.34696662,0.3478556,0.045808196,-0.00088897347
4.160000000,0.37029997,0.36989939,0.045662135,0.00040057302
4.170000000,0.39363331,0.39256811,0.046095997,0.0010651946
4.180000000,0.41696665,0.41587681,0.046729922,0.0010898411
4.190000000,0.44029996,0.43960547,0.047253817,0.00069448352
4.200000000,0.4636333,0.46351916,0.047487825,0.00011414289
4.210000000,0.48696664,0.4874028,0.047386587,-0.00043615699
4.220000000,0.51029998,0.51108146,0.047050476,-0.0007814765
4.230000000,0.53363329,0.53446019,0.046639562,-0.00082689524
4.240000000,0.5569666,0.55758381,0.046303391,-0.0006172061
4.250000000,0.58029997,0.5805676,0.046122491,-0.00026762486
4.260000000,0.60363328,0.60353625,0.046106339,9.7036362e-05
4.270000000,0.62696666,0.62658501,0.046180129,0.00038164854
4.280000000,0.65029997,0.6497637,0.047809184,0.00053626299
4.290000000,0.67363328,0.67312241,0.017069817,0.00051087141
4.300000000,0.69696665,0.69658607,-0.020409763,0.00038057566
4.310000000,0.69129997,0.69108641,-0.026041031,0.00021356344
4.320000000,0.68129998,0.68139696,-0.02419281,-9.6976757e-05
4.330000000,0.67129999,0.67167747,-0.020969689,-0.00037747622
4.340000000,0.6613,0.66159803,-0.017861485,-0.00029802322
4.350000000,0.65130001,0.65134859,-0.015843451,-4.8577785e-05
4.360000000,0.64130002,0.64128423,-0.015290082,1.5795231e-05
4.370000000,0.63129997,0.6314047,-0.01603663,-0.00010472536
4.380000000,0.62129998,0.62152529,-0.01603663,-0.00022530556
4.390000000,0.61129999,0.61153579,-0.01603663,-0.00023579597
4.400000000,0.6013,0.60268629,-0.01603663,0
4.410000000,0.59130001,0.59377182,-0.01603663,0
4.420000000,0.56129998,0.58470732,0,0
4.430000000,0.55129999,0.57523286,0,0
4.440000000,0.5413,0.56214356,0,0
4.450000000,0.53130001,0.55244416,0,0
4.460000000,0.52130002,0.54195476,0,0
4.470000000,0.51130003,0.53146029,0,0
4.480000000,0.50129998,0.52112091,0,0
4.490000000,0.5,0.51094151,0,0
4.500000000,0.49498501,0.50127202,0,0
4.510000000,0.47994003,0.49919212,0,0
4.520000000,0.45486501,0.4931075,0,0
4.530000000,0.41976002,0.47886327,0,0
4.540000000,0.37462509,0.45610955,0,0
4.550000000,0.31946015,0.42349637,0,0
4.560000000,0.25426504,0.38009882,0,0
4.570000000,0.18789342,0.32552189,0,0
4.580000000,0.13151513,0.26011556,0,0
4.590000000,0.0851667,0.19236934,0,0
4.600000000,0.048848398,0.1323427,0,0
4.610000000,0.022560082,0.081055574,0,0
4.620000000,0.0063017136,0.040562846,0,0
4.630000000,7.3388946e-05,0.012009447,0,0
4.640000000,0,-0.0043897419,0,0
4.650000000,0,-0.0091895312,0,0
4.660000000,0,-0.0067596375,0,0
4.670000000,0,-0.003039801,0,0
4.680000000,0,0.0010100445,0,0
4.690000000,0,0.00113004,0,0
4.700000000,0,0.0011200404,0,0
4.710000000,0,0.0011100408,0,0
4.720000000,0,0.0011000412,0,0
4.730000000,0,0.0011000412,0,0
4.740000000,0,0.0010900416,0,0
4.750000000,0,0.001080042,0,0
4.760000000,0,0.0010700421,0,0
4.770000000,0,0.0010600426,0,0
4.780000000,0,0.0010600426,0,0
4.790000000,0,0.0010500429,0,0
4.800000000,0,0.0010400433,0,0
4.810000000,0,0.0010300437,0,0
4.820000000,0,0.0010200441,0,0
4.830000000,0,0.0010200441,0,0
4.840000000,0,0.0010100445,0,0
4.850000000,0,0.0010000449,0,0
4.860000000,0,0.00099004526,0,0
4.870000000,0,0.00099004526,0,0
4.880000000,0,0.00098004553,0,0
4.890000000,0,0.00097004592,0,0
4.900000000,0,0.00097004592,0,0
4.910000000,0,0.00096004631,0,0
4.920000000,0,0.0009500467,0,0
4.930000000,0,0.00094004709,0,0
4.940000000,0,0.00094004709,0,0
4.950000000,0.0009199091,0.00093004742,0,0
4.960000000,0,0.00092004775,0,0
4.970000000,0,0.00088004931,0,0
4.980000000,0,7.0079303e-05,0,0
4.990000000,0.020299984,0.0001100778,0,0
5.000000000,0.043633316,0.00086004997,0,0
5.010000000,0.066966645,0.019609019,0,0
5.020000000,0.090299979,0.04021287,0,0
5.030000000,0.11363331,0.062781602,0,0
5.040000000,0.13696665,0.087225229,0,0
5.050000000,0.16029997,0.11252381,0,0
5.060000000,0.18363331,0.13781738,0,0
5.070000000,0.20696664,0.162576,0,0
5.080000000,0.23029998,0.18658465,0,0
5.090000000,0.20696664,0.20989835,0.04655242,0
5.100000000,0.23029998,0.23269707,0.04655242,0
5.110000000,0.25363332,0.25514081,0.046339124,0
5.120000000,0.27696663,0.27764955,0.046702743,0
5.130000000,0.30029997,0.30010331,0.047236234,0.00019666553
5.140000000,0.32363331,0.32331699,0.047164798,0.00031632185
5.150000000,0.34696662,0.34686565,0.046873391,0.00010097027
5.160000000,0.37029997,0.37011939,0.046751976,0.00018057227
5.170000000,0.39363331,0.39340806,0.046790481,0.00022524595
5.180000000,0.41696665,0.41689676,0.046844065,6.9886446e-05
5.190000000,0.44029996,0.44046041,0.04681766,-0.0001604557
5.200000000,0.4636333,0.4639591,0.046706349,-0.00032579899
5.210000000,0.48696664,0.48731279,0.046559691,-0.00034615397
5.220000000,0.51029998,0.5105415,0.04643327,-0.00024151802
5.230000000,0.53363329,0.53370517,0.046371937,-7.1883202e-05
5.240000000,0.5569666,0.5568639,0.046400428,0.0001026988
5.250000000,0.58029997,0.58007258,0.04650414,0.00022739172
5.260000000,0.60363328,0.60336626,0.046642601,0.00026702881
5.270000000,0.62696666,0.626755,0.046691,0.00021165609
5.280000000,0.65029997,0.6501987,0.048189759,0.00010126829
5.290000000,0.67363328,0.67365742,0.01728338,-2.4139881e-05
5.300000000,0.69696665,0.69708103,-0.02050674,-0.00011438131
5.310000000,0.69129997,0.69144142,-0.026418507,-0.00014144182
5.320000000,0.68129998,0.68144697,-0.024490833,-0.00014698505
5.330000000,0.67129999,0.67144752,-0.021018267,-0.0001475215
5.340000000,0.6613,0.66136807,-0.01784569,-6.8068504e-05
5.350000000,0.65130001,0.65123862,-0.015948176,6.1392784e-05
5.360000000,0.64130002,0.64115918,-0.015515387,0.00014084578
5.370000000,0.63129997,0.63117975,-0.016272426,0.00012022257
5.380000000,0.62129998,0.62124527,-0.016272426,5.4717064e-05
5.390000000,0.61129999,0.61129582,-0.016272426,4.1723251e-06
5.400000000,0.6013,0.60246634,-0.016272426,0
5.410000000,0.59130001,0.59355688,-0.016272426,0
5.420000000,0.56129998,0.58449233,0,0
5.430000000,0.55129999,0.57502288,0,0
5.440000000,0.5413,0.56213361,0,0
5.450000000,0.53130001,0.55241412,0,0
5.460000000,0.52130002,0.54195476,0,0
5.470000000,0.51130003,0.53148031,0,0
5.480000000,0.50129998,0.52114093,0,0
5.490000000,0.5,0.51096147,0,0
5.500000000,0.49498501,0.50129199,0,0
5.510000000,0.47994003,0.49920213,0,0
5.520000000,0.45486501,0.49310249,0,0
5.530000000,0.41976002,0.47884825,0,0
5.540000000,0.37462509,0.45609954,0,0
5.550000000,0.31946015,0.42348641,0,0
5.560000000,0.25426504,0.38009378,0,0
5.570000000,0.18789342,0.32552189,0,0
5.580000000,0.13151513,0.26011056,0,0
5.590000000,0.0851667,0.19236434,0,0
5.600000000,0.048848398,0.1323427,0,0
5.610000000,0.022560082,0.08106558,0,0
5.620000000,0.0063017136,0.040567845,0,0
5.630000000,7.3388946e-05,0.012009447,0,0
5.640000000,0,-0.0043797423,0,0
5.650000000,0,-0.0091895312,0,0
5.660000000,0,-0.0067696376,0,0
5.670000000,0,-0.0030498009,0,0
5.680000000,0,0.0010100445,0,0
5.690000000,0,0.00113004,0,0
5.700000000,0,0.0011200404,0,0
5.710000000,0,0.0011200404,0,0
5.720000000,0,0.0011100408,0,0
5.730000000,0,0.0011000412,0,0
5.740000000,0,0.0010900416,0,0
5.750000000,0,0.001080042,0,0
5.760000000,0,0.0010700421,0,0
5.770000000,0,0.0010700421,0,0
5.780000000,0,0.0010600426,0,0
5.790000000,0,0.0010500429,0,0
5.800000000,0,0.0010400433,0,0
5.810000000,0,0.0010300437,0,0
5.820000000,0,0.0010300437,0,0
5.830000000,0,0.0010200441,0,0
5.840000000,0,0.0010100445,0,0
5.850000000,0,0.0010000449,0,0
5.860000000,0,0.0010000449,0,0
5.870000000,0,0.00099004526,0,0
5.880000000,0,0.00098004553,0,0
5.890000000,0,0.00097004592,0,0
5.900000000,0,0.00097004592,0,0
5.910000000,0,0.00096004631,0,0
5.920000000,0,0.0009500467,0,0
5.930000000,0,0.0009500467,0,0
5.940000000,0,0.00094004709,0,0
5.950000000,0.00092250545,0.00093004742,0,0
5.960000000,0,0.00093004742,0,0
5.970000000,0,0.00088004931,0,0
5.980000000,0,7.0079303e-05,0,0
5.990000000,0.020299984,0.0001100778,0,0
6.000000000,0.043633316,0.00085005042,0,0
6.010000000,0.066966645,0.01960402,0,0
6.020000000,0.090299979,0.04021287,0,0
6.030000000,0.11363331,0.062791601,0,0
6.040000000,0.13696665,0.087240227,0,0
6.050000000,0.16029997,0.11253381,0,0
6.060000000,0.18363331,0.13781241,0,0
6.070000000,0.20696664,0.16256601,0,0
6.080000000,0.23029998,0.18657966,0,0
6.090000000,0.20696664,0.20988834,0.046339124,0
6.100000000,0.23029998,0.23268709,0.046339124,0
6.110000000,0.25363332,0.25495082,0.04653579,0
6.120000000,0.27696663,0.27747959,0.047019064,0
6.130000000,0.30029997,0.30027831,0.047337204,2.1666288e-05
6.140000000,0.32363331,0.32355195,0.04734537,8.136034e-05
6.150000000,0.34696662,0.34694564,0.047098637,2.0980835e-05
6.160000000,0.37029997,0.37032935,0.046821862,-2.938509e-05
6.170000000,0.39363331,0.39365304,0.046630025,-1.9729137e-05
6.180000000,0.41696665,0.41699675,0.046518266,-3.0100346e-05
6.190000000,0.44029996,0.44035041,0.046471506,-5.0455332e-05
6.200000000,0.4636333,0.46367913,0.046464831,-4.5835972e-05
6.210000000,0.48696664,0.48698282,0.046487808,-1.6182661e-05
6.220000000,0.51029998,0.51027155,0.046535969,2.8431416e-05
6.230000000,0.53363329,0.53357017,0.046599329,6.3121319e-05
6.240000000,0.5569666,0.55688393,0.046667457,8.2671642e-05
6.250000000,0.58029997,0.58023757,0.046715796,6.2406063e-05
6.260000000,0.60363328,0.60361624,0.04674387,1.7046928e-05
6.270000000,0.62696666,0.62698996,0.046666861,-2.3305416e-05
6.280000000,0.65029997,0.65035868,0.048075378,-5.8710575e-05
6.290000000,0.67363328,0.67370737,0.017141938,-7.4088573e-05
6.300000000,0.69696665,0.69703102,-0.020653725,-6.4373016e-05
6.310000000,0.69129997,0.69133139,-0.026566029,-3.1411648e-05
6.320000000,0.68129998,0.68129694,-0.024558902,3.0398369e-06
6.330000000,0.67129999,0.67126751,-0.020956874,3.2484531e-05
6.340000000,0.6613,0.6612581,-0.017704844,4.1902065e-05
6.350000000,0.65130001,0.65123862,-0.015827954,6.1392784e-05
6.360000000,0.64130002,0.64124417,-0.01546067,5.5849552e-05
6.370000000,0.63129997,0.63127476,-0.016268253,2.5212765e-05
6.380000000,0.62129998,0.62131524,-0.016268253,-1.5258789e-05
6.390000000,0.61129999,0.61134583,-0.016268253,-4.5835972e-05
6.400000000,0.6013,0.60251629,-0.016268253,0
6.410000000,0.59130001,0.59359682,-0.016268253,0
6.420000000,0.56129998,0.58451235,0,0
6.430000000,0.55129999,0.57502288,0,0
6.440000000,0.5413,0.5621236,0,0
6.450000000,0.53130001,0.55240417,0,0
6.460000000,0.52130002,0.54194474,0,0
6.470000000,0.51130003,0.53146529,0,0
6.480000000,0.50129998,0.52113092,0,0
6.490000000,0.5,0.51096147,0,0
6.500000000,0.49498501,0.50128198,0,0
6.510000000,0.47994003,0.49919212,0,0
6.520000000,0.45486501,0.4931075,0,0
6.530000000,0.41976002,0.47885829,0,0
6.540000000,0.37462509,0.45609954,0,0
6.550000000,0.31946015,0.42349637,0,0
6.560000000,0.25426504,0.3801088,0,0
6.570000000,0.18789342,0.32552686,0,0
6.580000000,0.13151513,0.26011056,0,0
6.590000000,0.0851667,0.19236434,0,0
6.600000000,0.048848398,0.1323377,0,0
6.610000000,0.022560082,0.081055574,0,0
6.620000000,0.0063017136,0.040562846,0,0
6.630000000,7.3388946e-05,0.012009447,0,0
6.640000000,0,-0.0043897419,0,0
6.650000000,0,-0.0091895312,0,0
6.660000000,0,-0.0067596375,0,0
6.670000000,0,-0.003039801,0,0
6.680000000,0,0.0010100445,0,0
6.690000000,0,0.00113004,0,0
6.700000000,0,0.0011200404,0,0
6.710000000,0,0.0011100408,0,0
6.720000000,0,0.0011000412,0,0
6.730000000,0,0.0010900416,0,0
6.740000000,0,0.0010900416,0,0
6.750000000,0,0.001080042,0,0
6.760000000,0,0.0010700421,0,0
6.770000000,0,0.0010600426,0,0
6.780000000,0,0.0010500429,0,0
6.790000000,0,0.0010500429,0,0
6.800000000,0,0.0010400433,0,0
6.810000000,0,0.0010300437,0,0
6.820000000,0,0.0010200441,0,0
6.830000000,0,0.0010100445,0,0
6.840000000,0,0.0010100445,0,0
6.850000000,0,0.0010000449,0,0
6.860000000,0,0.00099004526,0,0
6.870000000,0,0.00098004553,0,0
6.880000000,0,0.00098004553,0,0
6.890000000,0,0.00097004592,0,0
6.900000000,0,0.00096004631,0,0
6.910000000,0,0.00096004631,0,0
6.920000000,0,0.0009500467,0,0
6.930000000,0,0.00094004709,0,0
6.940000000,0,0.00094004709,0,0
6.950000000,0.00092298642,0.00093004742,0,0
6.960000000,0,0.00092004775,0,0
6.970000000,0,0.00088004931,0,0
6.980000000,0,7.0079303e-05,0,0
6.990000000,0.020299984,0.0001100778,0,0
7.000000000,0.043633316,0.00086004997,0,0
7.010000000,0.066966645,0.019609019,0,0
7.020000000,0.090299979,0.04021287,0,0
7.030000000,0.11363331,0.062786601,0,0
7.040000000,0.13696665,0.087235227,0,0
7.050000000,0.16029997,0.11252381,0,0
7.060000000,0.18363331,0.1378074,0,0
7.070000000,0.20696664,0.16256601,0,0
7.080000000,0.23029998,0.18658465,0,0
7.090000000,0.20696664,0.20989835,0.04653579,0
7.100000000,0.23029998,0.23270208,0.04653579,0
7.110000000,0.25363332,0.25513083,0.046557456,0
7.120000000,0.27696663,0.27764457,0.047100425,0
7.130000000,0.30029997,0.30031329,0.047358185,-1.3321638e-05
7.140000000,0.32363331,0.32366195,0.047315985,-2.8640032e-05
7.150000000,0.34696662,0.34698066,0.047078907,-1.4036894e-05
7.160000000,0.37029997,0.37030435,0.046791762,-4.3809414e-06
7.170000000,0.39363331,0.39363304,0.04657957,2.682209e-07
7.180000000,0.41696665,0.41695672,0.04647243,9.9241734e-06
7.190000000,0.44029996,0.44029045,0.046455324,9.5069408e-06
7.200000000,0.4636333,0.46362913,0.046493262,4.1723251e-06
7.210000000,0.48696664,0.48695782,0.04655093,8.8214874e-06
7.220000000,0.51029998,0.51029146,0.04661864,8.5234642e-06
7.230000000,0.53363329,0.53362018,0.046661735,1.3113022e-05
7.240000000,0.5569666,0.55696392,0.046684504,2.682209e-06
7.250000000,0.58029997,0.5803076,0.046692491,-7.6293945e-06
7.260000000,0.60363328,0.60364628,0.046685159,-1.2993813e-05
7.270000000,0.62696666,0.62698495,0.046592772,-1.8298626e-05
7.280000000,0.65029997,0.65031874,0.048011005,-1.8775463e-05
7.290000000,0.67363328,0.67363739,0.017110527,-4.1127205e-06
7.300000000,0.69696665,0.69696105,-0.020650685,5.6028366e-06
7.310000000,0.69129997,0.69129133,-0.026533544,8.6426735e-06
7.320000000,0.68129998,0.68128192,-0.024517,1.8060207e-05
7.330000000,0.67129999,0.67127752,-0.020895481,2.2470951e-05
7.340000000,0.6613,0.66128802,-0.017648995,1.1980534e-05
7.350000000,0.65130001,0.65130359,-0.015802741,-3.5762787e-06
7.360000000,0.64130002,0.64130914,-0.015475929,-9.1195107e-06
7.370000000,0.63129997,0.63131976,-0.016314089,-1.9788742e-05
7.380000000,0.62129998,0.62132525,-0.016314089,-2.5272369e-05
7.390000000,0.61129999,0.61131585,-0.016314089,-1.5854836e-05
7.400000000,0.6013,0.60246634,-0.016314089,0
7.410000000,0.59130001,0.59353685,-0.016314089,0
7.420000000,0.56129998,0.58445239,0,0
7.430000000,0.55129999,0.57496786,0,0
7.440000000,0.5413,0.56211358,0,0
7.450000000,0.53130001,0.55239415,0,0
7.460000000,0.52130002,0.54193974,0,0
7.470000000,0.51130003,0.5314703,0,0
7.480000000,0.50129998,0.52114093,0,0
7.490000000,0.5,0.51097143,0,0
7.500000000,0.49498501,0.50129199,0,0
7.510000000,0.47994003,0.49919713,0,0
7.520000000,0.45486501,0.4931075,0,0
7.530000000,0.41976002,0.47885829,0,0
7.540000000,0.37462509,0.45609954,0,0
7.550000000,0.31946015,0.42348641,0,0
7.560000000,0.25426504,0.38009882,0,0
7.570000000,0.18789342,0.32552686,0,0
7.580000000,0.13151513,0.26011556,0,0
7.590000000,0.0851667,0.19236434,0,0
7.600000000,0.048848398,0.1323377,0,0
7.610000000,0.022560082,0.081055574,0,0
7.620000000,0.0063017136,0.040562846,0,0
7.630000000,7.3388946e-05,0.012009447,0,0
7.640000000,0,-0.0043897419,0,0
7.650000000,0,-0.0091895312,0,0
7.660000000,0,-0.0067596375,0,0
7.670000000,0,-0.003039801,0,0
7.680000000,0,0.0010150447,0,0
7.690000000,0,0.00113004,0,0
7.700000000,0,0.00113004,0,0
7.710000000,0,0.0011200404,0,0
7.720000000,0,0.0011100408,0,0
7.730000000,0,0.0011000412,0,0
7.740000000,0,0.0010900416,0,0
7.750000000,0,0.001080042,0,0
7.760000000,0,0.001080042,0,0
7.770000000,0,0.0010700421,0,0
7.780000000,0,0.0010600426,0,0
7.790000000,0,0.0010500429,0,0
7.800000000,0,0.0010400433,0,0
7.810000000,0,0.0010400433,0,0
7.820000000,0,0.0010300437,0,0
7.830000000,0,0.0010200441,0,0
7.840000000,0,0.0010100445,0,0
7.850000000,0,0.0010100445,0,0
7.860000000,0,0.0010000449,0,0
7.870000000,0,0.00099004526,0,0
7.880000000,0,0.00098004553,0,0
7.890000000,0,0.00098004553,0,0
7.900000000,0,0.00097004592,0,0
7.910000000,0,0.00096004631,0,0
7.920000000,0,0.0009500467,0,0
7.930000000,0,0.0009500467,0,0
7.940000000,0,0.00094004709,0,0
7.950000000,0.00092124607,0.00093004742,0,0
7.960000000,0,0.00093004742,0,0
7.970000000,0,0.00088004931,0,0
7.980000000,0,7.0079303e-05,0,0
7.990000000,0.020299984,0.0001100778,0,0
8.000000000,0.043633316,0.00085005042,0,0
8.010000000,0.066966645,0.01960402,0,0
8.020000000,0.090299979,0.04021287,0,0
8.030000000,0.11363331,0.062791601,0,0
8.040000000,0.13696665,0.087235227,0,0
8.050000000,0.16029997,0.11252381,0,0
8.060000000,0.18363331,0.1378074,0,0
8.070000000,0.20696664,0.16256601,0,0
8.080000000,0.23029998,0.18658966,0,0
8.090000000,0.20696664,0.20990336,0.046557456,0
8.100000000,0.23029998,0.23270208,0.046557456,0
8.110000000,0.25363332,0.25514081,0.046544135,0
8.120000000,0.27696663,0.27765957,0.047071785,0
8.130000000,0.30029997,0.30030328,0.047344148,-3.3080578e-06
8.140000000,0.32363331,0.32364196,0.047311604,-8.6426735e-06
8.150000000,0.34696662,0.34697568,0.047079176,-9.059906e-06
8.160000000,0.37029997,0.37030435,0.046801686,-4.3809414e-06
8.170000000,0.39363331,0.39362806,0.046589077,5.2452087e-06
8.180000000,0.41696665,0.41695672,0.046476603,9.9241734e-06
8.190000000,0.44029996,0.44028544,0.046464145,1.4513731e-05
8.200000000,0.4636333,0.46361911,0.046501786,1.4185905e-05
8.210000000,0.48696664,0.48697281,0.046564043,-6.1690807e-06
8.220000000,0.51029998,0.51031148,0.046621323,-1.1503696e-05
8.230000000,0.53363329,0.53364521,0.046654105,-1.1920929e-05
8.240000000,0.5569666,0.55697888,0.04667151,-1.2278557e-05
8.250000000,0.58029997,0.5803026,0.046674192,-2.6226044e-06
8.260000000,0.60363328,0.60363626,0.046666384,-2.9802322e-06
8.270000000,0.62696666,0.62696499,0.046588659,1.6689301e-06
8.280000000,0.65029997,0.6502887,0.048016608,1.1265278e-05
8.290000000,0.67363328,0.67362738,0.017119169,5.9008598e-06
8.300000000,0.69696665,0.69696105,-0.020632625,5.6028366e-06
8.310000000,0.69129997,0.69129133,-0.026511073,8.6426735e-06
8.320000000,0.68129998,0.68129694,-0.024505019,3.0398369e-06
8.330000000,0.67129999,0.67130744,-0.020899057,-7.4505806e-06
8.340000000,0.6613,0.66130805,-0.017658114,-8.046627e-06
8.350000000,0.65130001,0.65130359,-0.01582253,-3.5762787e-06
8.360000000,0.64130002,0.64130414,-0.015501201,-4.1127205e-06
8.370000000,0.63129997,0.63129973,-0.016329944,2.3841858e-07
8.380000000,0.62129998,0.62129527,-0.016329944,4.7087669e-06
8.390000000,0.61129999,0.61129582,-0.016329944,4.1723251e-06
8.400000000,0.6013,0.60245633,-0.016329944,0
8.410000000,0.59130001,0.59352183,-0.016329944,0
8.420000000,0.56129998,0.58443236,0,0
8.430000000,0.55129999,0.57494789,0,0
8.440000000,0.5413,0.56211358,0,0
8.450000000,0.53130001,0.55239415,0,0
8.460000000,0.52130002,0.54193974,0,0
8.470000000,0.51130003,0.5314703,0,0
8.480000000,0.50129998,0.52114093,0,0
8.490000000,0.5,0.51097143,0,0
8.500000000,0.49498501,0.50129199,0,0
8.510000000,0.47994003,0.49920213,0,0
8.520000000,0.45486501,0.49311247,0,0
8.530000000,0.41976002,0.47885829,0,0
8.540000000,0.37462509,0.45609954,0,0
8.550000000,0.31946015,0.42348641,0,0
8.560000000,0.25426504,0.38009882,0,0
8.570000000,0.18789342,0.32552189,0,0
8.580000000,0.13151513,0.26011056,0,0
8.590000000,0.0851667,0.19236434,0,0
8.600000000,0.048848398,0.1323377,0,0
8.610000000,0.022560082,0.081060573,0,0
8.620000000,0.0063017136,0.040562846,0,0
8.630000000,7.3388946e-05,0.012009447,0,0
8.640000000,0,-0.0043897419,0,0
8.650000000,0,-0.0091895312,0,0
8.660000000,0,-0.0067596375,0,0
8.670000000,0,-0.003039801,0,0
8.680000000,0,0.0010100445,0,0
8.690000000,0,0.00113004,0,0
8.700000000,0,0.00113004,0,0
8.710000000,0,0.0011200404,0,0
8.720000000,0,0.0011100408,0,0
8.730000000,0,0.0011000412,0,0
8.740000000,0,0.0010900416,0,0
8.750000000,0,0.001080042,0,0
8.760000000,0,0.001080042,0,0
8.770000000,0,0.0010700421,0,0
8.780000000,0,0.0010600426,0,0
8.790000000,0,0.0010500429,0,0
8.800000000,0,0.0010400433,0,0
8.810000000,0,0.0010400433,0,0
8.820000000,0,0.0010300437,0,0
8.830000000,0,0.0010200441,0,0
8.840000000,0,0.0010100445,0,0
8.850000000,0,0.001005045,0,0
8.860000000,0,0.0010000449,0,0
8.870000000,0,0.00099004526,0,0
8.880000000,0,0.00098004553,0,0
8.890000000,0,0.00098004553,0,0
8.900000000,0,0.00097004592,0,0
