REF_TIME,REF
0.000,5.5616199E+01
0.006,5.5641701E+01
0.012,5.5717899E+01
0.018,5.5844898E+01
0.024,5.6022800E+01
0.030,5.6251400E+01
0.035,5.6641300E+01
0.036,5.6531700E+01
0.042,5.6281399E+01
0.048,5.6406101E+01
0.050,5.6571999E+01
0.054,5.6941601E+01
0.060,5.7838001E+01
0.066,5.9043098E+01
0.072,6.0534100E+01
0.078,6.2287998E+01
0.084,6.4161797E+01
0.090,6.5757698E+01
0.096,6.7056198E+01
0.100,6.7743698E+01
0.102,6.8571701E+01
0.108,7.0886299E+01
0.114,7.3030701E+01
0.120,7.5004997E+01
0.126,7.6809700E+01
0.132,7.8445198E+01
0.138,7.9911797E+01
0.144,8.1209900E+01
0.150,8.2339798E+01
0.156,8.3302002E+01
0.162,8.4143898E+01
0.168,8.4819603E+01
0.174,8.5329002E+01
0.180,8.5672401E+01
0.186,8.5849800E+01
0.192,8.5870399E+01
0.253,8.5705704E+01
0.312,8.5704498E+01
0.507,8.5700699E+01
0.625,8.5698997E+01
1.015,8.5693398E+01
1.026,8.5693604E+01
1.030,8.5693604E+01
1.046,8.5693802E+01
1.056,8.5693901E+01
1.066,8.5694000E+01
1.076,8.5694199E+01
1.086,8.5694397E+01
1.116,8.5695198E+01
1.126,8.5695396E+01
1.146,8.5695900E+01
1.176,8.5696701E+01
1.206,8.5697403E+01
1.220,8.5697800E+01
1.226,8.5697800E+01
1.236,8.5697800E+01
1.266,8.5697800E+01
1.276,8.5697899E+01
1.296,8.5697899E+01
1.300,8.5697899E+01
1.315,8.5697899E+01
1.326,8.5697899E+01
1.350,8.5697899E+01
1.380,8.5697899E+01
1.426,8.5697899E+01
1.430,8.5697899E+01
1.460,8.5697899E+01
1.510,8.5697899E+01
1.526,8.5697899E+01
1.540,8.5697899E+01
1.545,8.5697899E+01
1.570,8.5697899E+01
1.590,8.5697899E+01
1.595,8.5697899E+01
1.620,8.5697899E+01
1.626,8.5697899E+01
1.645,8.5697899E+01
1.670,8.5697899E+01
1.695,8.5697899E+01
1.720,8.5697899E+01
1.726,8.5697899E+01
1.745,8.5697899E+01
1.750,8.5697899E+01
1.770,8.5697899E+01
1.780,8.5697899E+01
1.795,8.5697899E+01
1.820,8.5697899E+01
1.826,8.5697899E+01
1.830,8.5697899E+01
1.845,8.5697899E+01
1.860,8.5697899E+01
1.870,8.5697899E+01
1.876,8.5697899E+01
1.895,8.5697899E+01
1.910,8.5697899E+01
1.920,8.5697899E+01
1.926,8.5697899E+01
1.940,8.5697899E+01
1.945,8.5697899E+01
1.970,8.5697899E+01
1.990,8.5697899E+01
1.995,8.5697899E+01
2.020,8.5697899E+01
2.026,8.5697899E+01
2.045,8.5697899E+01
2.095,8.5697899E+01
2.120,8.5697899E+01
2.126,8.5697899E+01
2.145,8.5697899E+01
2.170,8.5697899E+01
2.195,8.5697899E+01
2.220,8.5697899E+01
2.226,8.5697899E+01
2.230,8.5697899E+01
2.245,8.5697899E+01
2.270,8.5697899E+01
2.295,8.5697899E+01
2.310,8.5697899E+01
2.320,8.5697899E+01
2.326,8.5697899E+01
2.340,8.5697899E+01
2.345,8.5697899E+01
2.370,8.5697899E+01
2.390,8.5697899E+01
2.395,8.5697899E+01
2.420,8.5697899E+01
2.426,8.5697899E+01
2.445,8.5697899E+01
2.470,8.5697899E+01
2.495,8.5697899E+01
2.500,8.5697899E+01
2.520,8.5697899E+01
2.545,8.5697899E+01
2.550,8.5697899E+01
2.570,8.5697899E+01
2.595,8.5697899E+01
2.620,8.5697899E+01
2.630,8.5697899E+01
2.645,8.5697899E+01
2.660,8.5697899E+01
2.670,8.5697899E+01
2.695,8.5697899E+01
2.710,8.5697899E+01
2.720,8.5697899E+01
2.726,8.5697899E+01
2.740,8.5697899E+01
2.745,8.5697899E+01
2.770,8.5697899E+01
2.795,8.5697899E+01
2.820,8.5697899E+01
2.826,8.5697899E+01
2.845,8.5697899E+01
2.870,8.5697899E+01
2.895,8.5697899E+01
2.900,8.5697899E+01
2.920,8.5697899E+01
2.926,8.5697899E+01
2.945,8.5697899E+01
2.950,8.5697899E+01
2.970,8.5697899E+01
2.980,8.5697899E+01
2.995,8.5697899E+01
3.020,8.5697899E+01
3.030,8.5697899E+01
3.060,8.5697899E+01
3.070,8.5697899E+01
3.095,8.5697899E+01
3.110,8.5697899E+01
3.120,8.5697899E+01
3.145,8.5697899E+01
3.170,8.5697899E+01
3.190,8.5697899E+01
3.195,8.5697899E+01
3.220,8.5697899E+01
3.226,8.5697899E+01
3.245,8.5697899E+01
3.270,8.5697899E+01
3.295,8.5697899E+01
3.300,8.5697899E+01
3.320,8.5697899E+01
3.326,8.5697899E+01
3.345,8.5697899E+01
3.350,8.5697899E+01
3.370,8.5697899E+01
3.395,8.5697899E+01
3.420,8.5697899E+01
3.426,8.5697899E+01
3.430,8.5697899E+01
3.445,8.5697899E+01
3.526,8.5697899E+01
3.540,8.5697899E+01
3.545,8.5697899E+01
3.570,8.5697899E+01
3.590,8.5697899E+01
3.595,8.5697899E+01
3.620,8.5697899E+01
3.626,8.5697899E+01
3.645,8.5697899E+01
3.670,8.5697899E+01
3.700,8.5697899E+01
3.720,8.5697899E+01
3.726,8.5697899E+01
3.745,8.5697899E+01
3.770,8.5697899E+01
3.780,8.5697899E+01
3.795,8.5697899E+01
3.820,8.5697899E+01
3.826,8.5697899E+01
3.845,8.5697899E+01
3.860,8.5697899E+01
3.870,8.5697899E+01
3.895,8.5697899E+01
3.910,8.5697899E+01
3.920,8.5697899E+01
3.926,8.5697899E+01
3.940,8.5697899E+01
3.945,8.5697899E+01
3.970,8.5697899E+01
3.990,8.5697899E+01
3.995,8.5697899E+01
4.020,8.5697899E+01
4.026,8.5697899E+01
4.045,8.5697998E+01
4.070,8.5697998E+01
4.095,8.5697899E+01
4.110,8.5697998E+01
4.120,8.5697998E+01
4.126,8.5697899E+01
4.145,8.5697899E+01
4.150,8.5697899E+01
4.170,8.5697899E+01
4.195,8.5697899E+01
4.220,8.5697899E+01
4.230,8.5697899E+01
4.245,8.5697899E+01
4.270,8.5697899E+01
4.295,8.5697899E+01
4.310,8.5697899E+01
4.320,8.5697899E+01
4.326,8.5697899E+01
4.340,8.5697899E+01
4.345,8.5697899E+01
4.370,8.5697899E+01
4.390,8.5697899E+01
4.395,8.5697899E+01
4.420,8.5697899E+01
4.426,8.5697899E+01
4.445,8.5697899E+01
4.470,8.5697899E+01
4.476,8.5697899E+01
4.495,8.5697899E+01
4.500,8.5697899E+01
4.515,8.5697899E+01
4.520,8.5697899E+01
4.526,8.5697899E+01
4.545,8.5697899E+01
4.546,8.5697899E+01
4.550,8.5697899E+01
4.565,8.5697899E+01
4.570,8.5697701E+01
4.580,8.5697403E+01
4.591,8.5696999E+01
4.595,8.5696899E+01
4.615,8.5696297E+01
4.620,8.5696297E+01
4.626,8.5696297E+01
4.630,8.5696297E+01
4.670,8.5696297E+01
4.676,8.5696297E+01
4.695,8.5696297E+01
4.706,8.5696297E+01
4.720,8.5696297E+01
4.726,8.5696297E+01
4.737,8.5696297E+01
4.740,8.5696297E+01
4.745,8.5696198E+01
4.770,8.5696198E+01
4.790,8.5696198E+01
4.795,8.5696198E+01
4.820,8.5696198E+01
4.845,8.5696198E+01
4.870,8.5696198E+01
4.895,8.5696198E+01
4.900,8.5696198E+01
4.920,8.5696198E+01
4.945,8.5696198E+01
4.950,8.5696198E+01
4.970,8.5696198E+01
4.980,8.5696198E+01
4.995,8.5696198E+01
5.020,8.5696198E+01
5.026,8.5696198E+01
5.030,8.5696198E+01
5.045,8.5696198E+01
5.060,8.5696198E+01
5.070,8.5696198E+01
5.095,8.5696198E+01
5.110,8.5696198E+01
5.120,8.5696198E+01
5.126,8.5696198E+01
5.140,8.5696198E+01
5.145,8.5696198E+01
5.170,8.5696198E+01
5.190,8.5696198E+01
5.195,8.5696198E+01
5.245,8.5696098E+01
5.270,8.5696098E+01
5.295,8.5696098E+01
5.320,8.5696098E+01
5.345,8.5696098E+01
5.350,8.5696098E+01
5.370,8.5696098E+01
5.395,8.5696098E+01
5.420,8.5696098E+01
5.430,8.5696098E+01
5.445,8.5696098E+01
5.495,8.5696098E+01
5.510,8.5696098E+01
5.520,8.5696098E+01
5.526,8.5696098E+01
5.545,8.5696098E+01
5.570,8.5696098E+01
5.590,8.5696098E+01
5.595,8.5696098E+01
5.620,8.5696098E+01
5.626,8.5696098E+01
5.645,8.5696098E+01
5.670,8.5695999E+01
5.695,8.5695999E+01
5.700,8.5695999E+01
5.720,8.5695999E+01
5.745,8.5695999E+01
5.750,8.5695999E+01
5.770,8.5695999E+01
5.795,8.5695999E+01
5.820,8.5695999E+01
5.826,8.5695999E+01
5.830,8.5695999E+01
5.845,8.5695999E+01
5.870,8.5695999E+01
5.895,8.5695999E+01
5.920,8.5695999E+01
5.940,8.5695999E+01
5.945,8.5695999E+01
5.970,8.5695999E+01
5.990,8.5695999E+01
5.995,8.5695999E+01
6.020,8.5695999E+01
6.026,8.5695999E+01
6.045,8.5695999E+01
6.070,8.5695999E+01
6.095,8.5695999E+01
6.100,8.5695999E+01
6.120,8.5695999E+01
6.126,8.5695900E+01
6.145,8.5695900E+01
6.150,8.5695900E+01
6.170,8.5695900E+01
6.180,8.5695900E+01
6.195,8.5695900E+01
6.220,8.5695900E+01
6.226,8.5695900E+01
6.230,8.5695900E+01
6.245,8.5695900E+01
6.260,8.5695900E+01
6.270,8.5695900E+01
6.295,8.5695900E+01
6.320,8.5695900E+01
6.340,8.5695900E+01
6.345,8.5695900E+01
6.370,8.5695900E+01
6.395,8.5695900E+01
6.420,8.5695900E+01
6.445,8.5695900E+01
6.470,8.5695900E+01
6.495,8.5695900E+01
6.500,8.5695900E+01
6.520,8.5695900E+01
6.545,8.5695900E+01
6.570,8.5695900E+01
6.580,8.5695900E+01
6.595,8.5695801E+01
6.620,8.5695801E+01
6.630,8.5695801E+01
6.645,8.5695801E+01
6.660,8.5695801E+01
6.670,8.5695801E+01
6.695,8.5695801E+01
6.720,8.5695801E+01
6.740,8.5695801E+01
6.745,8.5695801E+01
6.770,8.5695801E+01
6.790,8.5695801E+01
6.795,8.5695801E+01
6.820,8.5695801E+01
6.826,8.5695801E+01
6.845,8.5695801E+01
6.870,8.5695801E+01
6.895,8.5695801E+01
6.900,8.5695801E+01
6.920,8.5695801E+01
6.926,8.5695801E+01
6.945,8.5695801E+01
6.950,8.5695801E+01
6.970,8.5695801E+01
6.980,8.5695801E+01
6.995,8.5695801E+01
7.020,8.5695801E+01
7.045,8.5695702E+01
7.060,8.5695702E+01
7.070,8.5695702E+01
7.095,8.5695702E+01
7.120,8.5695702E+01
7.126,8.5695702E+01
7.140,8.5695702E+01
7.145,8.5695702E+01
7.170,8.5695702E+01
7.190,8.5695702E+01
7.195,8.5695702E+01
7.220,8.5695702E+01
7.226,8.5695702E+01
7.245,8.5695702E+01
7.270,8.5695702E+01
7.295,8.5695702E+01
7.300,8.5695702E+01
7.320,8.5695702E+01
7.345,8.5695702E+01
7.370,8.5695702E+01
7.380,8.5695702E+01
7.395,8.5695702E+01
7.420,8.5695702E+01
7.426,8.5695702E+01
7.430,8.5695702E+01
7.445,8.5695702E+01
7.460,8.5695702E+01
7.470,8.5695702E+01
7.495,8.5695702E+01
7.520,8.5695602E+01
7.526,8.5695602E+01
7.545,8.5695602E+01
7.570,8.5695602E+01
7.590,8.5695602E+01
7.595,8.5695602E+01
7.620,8.5695602E+01
7.645,8.5695602E+01
7.670,8.5695602E+01
7.720,8.5695602E+01
7.726,8.5695602E+01
7.745,8.5695602E+01
7.750,8.5695602E+01
7.770,8.5695602E+01
7.776,8.5695602E+01
7.780,8.5695602E+01
7.795,8.5695602E+01
7.820,8.5695602E+01
7.826,8.5695602E+01
7.830,8.5695602E+01
7.845,8.5695602E+01
7.860,8.5695602E+01
7.870,8.5695602E+01
7.895,8.5695602E+01
7.910,8.5695602E+01
7.920,8.5695602E+01
7.926,8.5695602E+01
7.940,8.5695602E+01
7.945,8.5695602E+01
7.970,8.5695503E+01
7.976,8.5695503E+01
7.990,8.5695503E+01
7.995,8.5695503E+01
8.020,8.5695503E+01
8.026,8.5695503E+01
8.045,8.5695503E+01
8.070,8.5695503E+01
8.095,8.5695503E+01
8.100,8.5695503E+01
8.115,8.5695503E+01
8.120,8.5695503E+01
8.126,8.5695503E+01
8.145,8.5695503E+01
8.146,8.5695503E+01
8.150,8.5695503E+01
8.165,8.5695503E+01
8.170,8.5695396E+01
8.176,8.5695297E+01
8.180,8.5695198E+01
8.195,8.5694901E+01
8.215,8.5694397E+01
8.220,8.5694397E+01
8.226,8.5694397E+01
8.245,8.5694397E+01
8.260,8.5694397E+01
8.270,8.5694397E+01
8.276,8.5694397E+01
8.295,8.5694397E+01
8.320,8.5694397E+01
8.326,8.5694397E+01
8.340,8.5694397E+01
8.345,8.5694397E+01
8.370,8.5694397E+01
8.395,8.5694397E+01
8.420,8.5694397E+01
8.426,8.5694397E+01
8.445,8.5694397E+01
8.470,8.5694397E+01
8.520,8.5694397E+01
8.545,8.5694397E+01
8.580,8.5694298E+01
8.595,8.5694298E+01
8.620,8.5694298E+01
8.626,8.5694298E+01
8.630,8.5694298E+01
8.645,8.5694298E+01
8.660,8.5694298E+01
8.670,8.5694298E+01
8.695,8.5694298E+01
8.710,8.5694298E+01
8.720,8.5694298E+01
8.726,8.5694298E+01
8.740,8.5694298E+01
8.745,8.5694298E+01
8.770,8.5694298E+01
8.795,8.5694298E+01
8.820,8.5694298E+01
8.845,8.5694298E+01
8.870,8.5694298E+01
8.895,8.5694298E+01
8.920,8.5694298E+01
8.945,8.5694298E+01
8.970,8.5694298E+01
8.995,8.5694298E+01
9.020,8.5694298E+01
9.045,8.5694199E+01
9.070,8.5694199E+01
9.095,8.5694199E+01
9.110,8.5694199E+01
9.120,8.5694199E+01
9.145,8.5694199E+01
9.170,8.5694199E+01
9.190,8.5694199E+01
9.195,8.5694199E+01
9.220,8.5694199E+01
9.245,8.5694199E+01
9.270,8.5694199E+01
9.295,8.5694199E+01
9.300,8.5694199E+01
9.320,8.5694199E+01
9.345,8.5694199E+01
9.370,8.5694199E+01
9.380,8.5694199E+01
9.395,8.5694199E+01
9.420,8.5694199E+01
9.426,8.5694199E+01
9.430,8.5694199E+01
9.445,8.5694199E+01
9.460,8.5694199E+01
9.470,8.5694199E+01
9.495,8.5694099E+01
9.520,8.5694099E+01
9.526,8.5694099E+01
9.540,8.5694099E+01
9.545,8.5694099E+01
9.570,8.5694099E+01
9.595,8.5694099E+01
9.620,8.5694099E+01
9.626,8.5694099E+01
9.645,8.5694099E+01
9.670,8.5694099E+01
9.695,8.5694099E+01
9.700,8.5694099E+01
9.720,8.5694099E+01
9.745,8.5694099E+01
9.770,8.5694099E+01
9.780,8.5694099E+01
9.795,8.5694099E+01
9.820,8.5694099E+01
9.830,8.5694099E+01
9.845,8.5694099E+01
9.860,8.5694099E+01
9.870,8.5694099E+01
9.895,8.5694099E+01
9.920,8.5694099E+01
9.940,8.5694099E+01
9.945,8.5694000E+01
9.970,8.5694000E+01
9.995,8.5694000E+01
10.020,8.5694000E+01
10.026,8.5694000E+01
10.045,8.5694000E+01
10.070,8.5694000E+01
10.095,8.5694000E+01
10.100,8.5694000E+01
10.120,8.5694000E+01
10.126,8.5694000E+01
10.145,8.5694000E+01
10.150,8.5694000E+01
10.170,8.5694000E+01
10.195,8.5694000E+01
10.220,8.5694000E+01
10.230,8.5694000E+01
10.245,8.5694000E+01
10.260,8.5694000E+01
10.270,8.5694000E+01
10.295,8.5694000E+01
10.310,8.5694000E+01
10.320,8.5694000E+01
10.340,8.5694000E+01
10.345,8.5694000E+01
10.370,8.5694000E+01
10.395,8.5694000E+01
10.420,8.5693901E+01
10.445,8.5693901E+01
10.470,8.5693901E+01
10.495,8.5693901E+01
10.500,8.5693901E+01
10.520,8.5693901E+01
10.545,8.5693901E+01
10.595,8.5693901E+01
10.620,8.5693901E+01
10.630,8.5693901E+01
10.645,8.5693901E+01
10.670,8.5693901E+01
10.695,8.5693901E+01
10.720,8.5693901E+01
10.726,8.5693901E+01
10.745,8.5693901E+01
10.770,8.5693901E+01
10.795,8.5693901E+01
10.820,8.5693901E+01
10.845,8.5693901E+01
10.895,8.5693802E+01
10.920,8.5693802E+01
10.926,8.5693802E+01
10.945,8.5693802E+01
10.970,8.5693802E+01
10.995,8.5693802E+01
11.020,8.5693802E+01
11.026,8.5693802E+01
11.030,8.5694199E+01
11.045,8.5695702E+01
11.046,8.5695801E+01
11.060,8.5695099E+01
11.066,8.5694801E+01
11.070,8.5694801E+01
11.095,8.5694801E+01
11.106,8.5694801E+01
11.110,8.5694901E+01
11.120,8.5695000E+01
11.126,8.5695000E+01
11.145,8.5695198E+01
11.146,8.5695198E+01
11.166,8.5695000E+01
11.170,8.5694901E+01
11.186,8.5694901E+01
11.190,8.5694801E+01
11.195,8.5694702E+01
11.206,8.5694603E+01
11.220,8.5694603E+01
11.226,8.5694603E+01
11.245,8.5694702E+01
11.266,8.5694702E+01
11.270,8.5694702E+01
11.276,8.5694702E+01
11.286,8.5694801E+01
11.295,8.5694702E+01
11.300,8.5694702E+01
11.306,8.5694702E+01
11.320,8.5694298E+01
11.326,8.5694199E+01
11.345,8.5694603E+01
11.350,8.5694702E+01
11.366,8.5695000E+01
11.370,8.5695000E+01
11.386,8.5695099E+01
11.395,8.5695000E+01
11.406,8.5695000E+01
11.420,8.5694801E+01
11.426,8.5694702E+01
11.430,8.5694702E+01
11.445,8.5694702E+01
11.470,8.5694801E+01
11.476,8.5694801E+01
11.495,8.5694901E+01
11.506,8.5694901E+01
11.510,8.5694901E+01
11.520,8.5695000E+01
11.526,8.5695099E+01
11.545,8.5694702E+01
11.546,8.5694603E+01
11.556,8.5694702E+01
11.566,8.5694702E+01
11.570,8.5694702E+01
11.576,8.5694702E+01
11.586,8.5694702E+01
11.590,8.5694702E+01
11.595,8.5694702E+01
11.606,8.5694603E+01
11.620,8.5694603E+01
11.626,8.5694603E+01
11.645,8.5694504E+01
11.646,8.5694504E+01
11.666,8.5694199E+01
11.670,8.5694199E+01
11.676,8.5694199E+01
11.682,8.5694199E+01
11.686,8.5694199E+01
11.695,8.5694298E+01
11.706,8.5694504E+01
11.715,8.5694504E+01
11.720,8.5694603E+01
11.726,8.5694603E+01
11.745,8.5694504E+01
11.746,8.5694504E+01
11.750,8.5694504E+01
11.765,8.5694702E+01
11.766,8.5694603E+01
11.770,8.5694504E+01
11.776,8.5694298E+01
11.786,8.5694099E+01
11.795,8.5693901E+01
11.806,8.5693703E+01
11.815,8.5693497E+01
11.820,8.5693497E+01
11.826,8.5693497E+01
11.830,8.5693497E+01
11.845,8.5693703E+01
11.846,8.5693703E+01
11.866,8.5693802E+01
11.870,8.5693901E+01
11.876,8.5694000E+01
11.880,8.5694000E+01
11.886,8.5694000E+01
11.895,8.5693901E+01
11.906,8.5693802E+01
11.910,8.5693802E+01
11.920,8.5693802E+01
11.926,8.5693802E+01
11.938,8.5693802E+01
11.945,8.5693901E+01
11.946,8.5693901E+01
11.970,8.5694000E+01
11.976,8.5694000E+01
11.990,8.5694000E+01
11.995,8.5694000E+01
12.006,8.5694099E+01
12.020,8.5694099E+01
12.026,8.5694099E+01
12.045,8.5694099E+01
12.046,8.5694099E+01
12.056,8.5694099E+01
12.058,8.5694099E+01
12.066,8.5694099E+01
12.070,8.5694099E+01
12.076,8.5694099E+01
12.086,8.5694199E+01
12.095,8.5694199E+01
12.100,8.5694199E+01
12.106,8.5694298E+01
12.115,8.5694000E+01
12.116,8.5694298E+01
12.120,8.5695503E+01
12.126,8.5697197E+01
12.127,8.5697502E+01
12.139,8.5706596E+01
12.145,8.5713997E+01
12.146,8.5715302E+01
12.150,8.5720001E+01
12.151,8.5721199E+01
12.156,8.5729401E+01
12.163,8.5740997E+01
12.165,8.5745201E+01
12.166,8.5747398E+01
12.170,8.5755898E+01
12.175,8.5766502E+01
12.176,8.5769096E+01
12.186,8.5795097E+01
12.187,8.5797699E+01
12.195,8.5822502E+01
12.199,8.5834900E+01
12.206,8.5859802E+01
12.211,8.5877701E+01
12.220,8.5914200E+01
12.223,8.5926399E+01
12.226,8.5939903E+01
12.230,8.5958199E+01
12.235,8.5980904E+01
12.236,8.5985901E+01
12.245,8.6031097E+01
12.246,8.6036102E+01
12.247,8.6041000E+01
12.259,8.6105301E+01
12.266,8.6146103E+01
12.270,8.6169998E+01
12.271,8.6176003E+01
12.276,8.6208099E+01
12.283,8.6253098E+01
12.286,8.6273804E+01
12.295,8.6335403E+01
12.296,8.6342697E+01
12.304,8.6401100E+01
12.306,8.6415703E+01
12.307,8.6422997E+01
12.310,8.6446198E+01
12.319,8.6515800E+01
12.320,8.6524002E+01
12.326,8.6573303E+01
12.331,8.6614403E+01
12.334,8.6640404E+01
12.336,8.6657700E+01
12.340,8.6692497E+01
12.342,8.6709801E+01
12.343,8.6718498E+01
12.345,8.6736801E+01
12.355,8.6828300E+01
12.356,8.6837898E+01
12.366,8.6933998E+01
12.367,8.6943703E+01
12.370,8.6973999E+01
12.376,8.7034500E+01
12.379,8.7064796E+01
12.386,8.7138702E+01
12.390,8.7180702E+01
12.391,8.7191200E+01
12.395,8.7235001E+01
12.396,8.7246002E+01
12.403,8.7322601E+01
12.406,8.7356903E+01
12.413,8.7437202E+01
12.415,8.7460197E+01
12.416,8.7472099E+01
12.420,8.7519897E+01
12.426,8.7591499E+01
12.427,8.7603500E+01
12.439,8.7752701E+01
12.445,8.7830101E+01
12.446,8.7843002E+01
12.451,8.7907501E+01
12.456,8.7974297E+01
12.463,8.8067902E+01
12.466,8.8109398E+01
12.470,8.8164703E+01
12.475,8.8233902E+01
12.476,8.8248199E+01
12.486,8.8391296E+01
12.487,8.8405602E+01
12.495,8.8523697E+01
12.499,8.8582703E+01
12.500,8.8597900E+01
12.501,8.8613197E+01
12.506,8.8689301E+01
12.511,8.8765404E+01
12.520,8.8906700E+01
12.523,8.8953796E+01
12.526,8.9002296E+01
12.535,8.9147797E+01
12.536,8.9164398E+01
12.545,8.9314102E+01
12.546,8.9330704E+01
12.547,8.9347298E+01
12.559,8.9552399E+01
12.566,8.9675301E+01
12.570,8.9745499E+01
12.571,8.9763100E+01
12.576,8.9853203E+01
12.580,8.9925400E+01
12.583,8.9979401E+01
12.586,9.0034897E+01
12.595,9.0201401E+01
12.596,9.0220299E+01
12.600,9.0296204E+01
12.606,9.0409698E+01
12.607,9.0428703E+01
12.619,9.0661697E+01
12.620,9.0681602E+01
12.626,9.0800903E+01
12.631,9.0900497E+01
12.636,9.1002403E+01
12.643,9.1144997E+01
12.645,9.1186699E+01
12.655,9.1395203E+01
12.660,9.1501801E+01
12.666,9.1629700E+01
12.667,9.1651001E+01
12.670,9.1716301E+01
12.676,9.1847000E+01
12.679,9.1912300E+01
12.686,9.2068001E+01
12.690,9.2156998E+01
12.691,9.2179298E+01
12.695,9.2270103E+01
12.696,9.2292801E+01
12.697,9.2315498E+01
12.703,9.2451797E+01
12.706,9.2521400E+01
12.710,9.2614098E+01
12.715,9.2729897E+01
12.716,9.2753601E+01
12.720,9.2848099E+01
12.726,9.2989998E+01
12.727,9.3013603E+01
12.739,9.3303001E+01
12.740,9.3327599E+01
12.745,9.3450401E+01
12.746,9.3474998E+01
12.751,9.3597801E+01
12.756,9.3722900E+01
12.763,9.3898102E+01
12.766,9.3974602E+01
12.770,9.4076599E+01
12.775,9.4204201E+01
12.776,9.4230202E+01
12.786,9.4489998E+01
12.787,9.4515999E+01
12.795,9.4727303E+01
12.799,9.4832901E+01
12.806,9.5021004E+01
12.811,9.5155403E+01
12.816,9.5292198E+01
12.820,9.5401497E+01
12.823,9.5483597E+01
12.826,9.5567001E+01
12.835,9.5817200E+01
12.836,9.5845497E+01
12.845,9.6099899E+01
12.846,9.6128197E+01
12.847,9.6156502E+01
12.859,9.6501701E+01
12.866,9.6706299E+01
12.870,9.6823303E+01
12.871,9.6852600E+01
12.874,9.6941803E+01
12.876,9.7001198E+01
12.883,9.7209297E+01
12.895,9.7571701E+01
12.896,9.7602402E+01
12.900,9.7724998E+01
12.906,9.7908997E+01
12.907,9.7939697E+01
12.919,9.8313301E+01
12.920,9.8344902E+01
12.926,9.8534500E+01
12.931,9.8692497E+01
12.936,9.8852898E+01
12.943,9.9077400E+01
12.945,9.9142502E+01
12.946,9.9175003E+01
12.955,9.9467796E+01
12.956,9.9500801E+01
12.966,9.9830704E+01
12.967,9.9863701E+01
12.970,9.9964203E+01
12.976,1.0016520E+02
12.979,1.0026570E+02
12.980,1.0029960E+02
12.986,1.0050340E+02
12.991,1.0067330E+02
12.995,1.0081100E+02
13.003,1.0108640E+02
13.015,1.0150520E+02
13.016,1.0154050E+02
13.019,1.0164660E+02
13.020,1.0168200E+02
13.026,1.0189420E+02
13.027,1.0192950E+02
13.039,1.0235950E+02
13.045,1.0257730E+02
13.046,1.0261360E+02
13.051,1.0279470E+02
13.056,1.0297810E+02
13.060,1.0312480E+02
13.063,1.0323490E+02
13.066,1.0334630E+02
13.070,1.0349460E+02
13.075,1.0367990E+02
13.076,1.0371750E+02
13.086,1.0409410E+02
13.087,1.0413180E+02
13.095,1.0443680E+02
13.099,1.0458940E+02
13.106,1.0485960E+02
13.110,1.0501400E+02
13.111,1.0505260E+02
13.116,1.0524810E+02
13.120,1.0540460E+02
13.123,1.0552190E+02
13.126,1.0564060E+02
13.135,1.0599590E+02
13.136,1.0603590E+02
13.140,1.0619570E+02
13.145,1.0639540E+02
13.146,1.0643540E+02
13.147,1.0647530E+02
13.148,1.0651580E+02
13.159,1.0696040E+02
13.166,1.0724670E+02
13.170,1.0741020E+02
13.171,1.0745110E+02
13.176,1.0765780E+02
13.183,1.0794720E+02
13.186,1.0807260E+02
13.190,1.0823890E+02
13.195,1.0844800E+02
13.196,1.0849030E+02
13.206,1.0891330E+02
13.207,1.0895560E+02
13.219,1.0946880E+02
13.220,1.0951210E+02
13.226,1.0977150E+02
13.231,1.0998750E+02
13.236,1.1020580E+02
13.243,1.1051150E+02
13.245,1.1059970E+02
13.246,1.1064390E+02
13.255,1.1104170E+02
13.256,1.1108640E+02
13.266,1.1153320E+02
13.267,1.1157790E+02
13.270,1.1171330E+02
13.276,1.1198390E+02
13.279,1.1211920E+02
13.286,1.1243820E+02
13.291,1.1266610E+02
13.293,1.1275820E+02
13.295,1.1285030E+02
13.296,1.1289640E+02
13.300,1.1308060E+02
13.303,1.1321870E+02
13.306,1.1335830E+02
13.315,1.1377750E+02
13.316,1.1382450E+02
13.320,1.1401270E+02
13.326,1.1429500E+02
13.327,1.1434200E+02
13.339,1.1491210E+02
13.345,1.1520000E+02
13.346,1.1524800E+02
13.350,1.1543980E+02
13.351,1.1548780E+02
13.363,1.1606900E+02
13.366,1.1621570E+02
13.370,1.1641150E+02
13.375,1.1665610E+02
13.376,1.1670550E+02
13.380,1.1690310E+02
13.386,1.1719940E+02
13.387,1.1724880E+02
13.390,1.1739840E+02
13.395,1.1764770E+02
13.399,1.1784710E+02
13.406,1.1819940E+02
13.411,1.1845090E+02
13.416,1.1870480E+02
13.420,1.1890780E+02
13.423,1.1906010E+02
13.426,1.1921380E+02
13.430,1.1941680E+02
13.435,1.1967290E+02
13.436,1.1972450E+02
13.445,1.2018960E+02
13.446,1.2024130E+02
13.447,1.2029300E+02
13.459,1.2091860E+02
13.460,1.2097120E+02
13.466,1.2128680E+02
13.470,1.2149700E+02
13.471,1.2154960E+02
13.476,1.2181470E+02
13.483,1.2218580E+02
13.486,1.2234630E+02
13.495,1.2282720E+02
13.496,1.2288110E+02
13.506,1.2342020E+02
13.507,1.2347410E+02
13.510,1.2363700E+02
13.518,1.2407170E+02
13.519,1.2412610E+02
13.520,1.2418090E+02
13.526,1.2450960E+02
13.531,1.2478400E+02
13.536,1.2506080E+02
13.540,1.2528220E+02
13.543,1.2544830E+02
13.545,1.2556000E+02
13.546,1.2561580E+02
13.555,1.2611850E+02
13.556,1.2617490E+02
13.566,1.2673810E+02
13.567,1.2679450E+02
13.570,1.2696490E+02
13.576,1.2730580E+02
13.579,1.2747560E+02
13.586,1.2787530E+02
13.590,1.2810370E+02
13.591,1.2816100E+02
13.595,1.2839200E+02
13.603,1.2885420E+02
13.606,1.2902879E+02
13.615,1.2955290E+02
13.620,1.2984641E+02
13.626,1.3019839E+02
13.627,1.3025710E+02
13.639,1.3096761E+02
13.645,1.3132561E+02
13.651,1.3168359E+02
13.656,1.3198430E+02
13.663,1.3240530E+02
13.666,1.3258710E+02
13.670,1.3282941E+02
13.675,1.3313229E+02
13.676,1.3319341E+02
13.686,1.3380409E+02
13.687,1.3386520E+02
13.695,1.3435760E+02
13.699,1.3460381E+02
13.700,1.3466580E+02
13.706,1.3503780E+02
13.711,1.3534760E+02
13.716,1.3565970E+02
13.720,1.3590939E+02
13.723,1.3609669E+02
13.726,1.3628529E+02
13.735,1.3685020E+02
13.736,1.3691341E+02
13.745,1.3748250E+02
13.746,1.3754570E+02
13.747,1.3760899E+02
13.750,1.3780009E+02
13.759,1.3837350E+02
13.766,1.3882280E+02
13.770,1.3907950E+02
13.771,1.3914371E+02
13.776,1.3946690E+02
13.780,1.3972520E+02
13.783,1.3991890E+02
13.786,1.4011411E+02
13.795,1.4069910E+02
13.796,1.4076460E+02
13.806,1.4142030E+02
13.807,1.4148590E+02
13.819,1.4227910E+02
13.820,1.4234570E+02
13.826,1.4274510E+02
13.830,1.4301120E+02
13.831,1.4307761E+02
13.838,1.4354570E+02
13.843,1.4388000E+02
13.845,1.4401469E+02
13.846,1.4408200E+02
13.855,1.4468961E+02
13.856,1.4475760E+02
13.860,1.4502950E+02
13.866,1.4543739E+02
13.867,1.4550520E+02
13.870,1.4571021E+02
13.876,1.4612000E+02
13.879,1.4632471E+02
13.886,1.4680550E+02
13.891,1.4714931E+02
13.895,1.4742630E+02
13.896,1.4749550E+02
13.903,1.4798019E+02
13.906,1.4818930E+02
13.910,1.4846840E+02
13.915,1.4881779E+02
13.916,1.4888811E+02
13.920,1.4916940E+02
13.926,1.4959010E+02
13.927,1.4966040E+02
13.939,1.5050980E+02
13.940,1.5058110E+02
13.945,1.5093730E+02
13.946,1.5100861E+02
13.951,1.5136420E+02
13.956,1.5172220E+02
13.963,1.5222340E+02
13.966,1.5243950E+02
13.970,1.5272791E+02
13.975,1.5308839E+02
13.976,1.5316100E+02
13.986,1.5388690E+02
13.987,1.5395970E+02
13.990,1.5417920E+02
13.995,1.5454460E+02
13.996,1.5461771E+02
13.998,1.5476390E+02
13.999,1.5483690E+02
14.000,1.5491051E+02
14.006,1.5535181E+02
14.011,1.5571980E+02
14.016,1.5609030E+02
14.020,1.5638660E+02
14.023,1.5660851E+02
14.026,1.5683180E+02
14.035,1.5750101E+02
14.036,1.5757581E+02
14.038,1.5772520E+02
14.040,1.5787440E+02
14.045,1.5824870E+02
14.046,1.5832350E+02
14.047,1.5839850E+02
14.059,1.5930360E+02
14.066,1.5983490E+02
14.070,1.6013550E+02
14.071,1.6021080E+02
14.076,1.6058960E+02
14.083,1.6112410E+02
14.086,1.6135460E+02
14.095,1.6204610E+02
14.096,1.6212340E+02
14.100,1.6243230E+02
14.106,1.6289619E+02
14.107,1.6297350E+02
14.119,1.6390610E+02
14.120,1.6398430E+02
14.126,1.6445309E+02
14.131,1.6484430E+02
14.136,1.6523790E+02
14.143,1.6578889E+02
14.145,1.6594720E+02
14.146,1.6602640E+02
14.150,1.6634019E+02
14.155,1.6673630E+02
14.156,1.6681599E+02
14.166,1.6761391E+02
14.167,1.6769370E+02
14.170,1.6793440E+02
14.176,1.6841589E+02
14.179,1.6865610E+02
14.180,1.6873660E+02
14.186,1.6921980E+02
14.191,1.6962340E+02
14.195,1.6994810E+02
14.196,1.7002930E+02
14.203,1.7059770E+02
14.215,1.7157761E+02
14.216,1.7165970E+02
14.220,1.7198669E+02
14.226,1.7247780E+02
14.227,1.7255910E+02
14.230,1.7280420E+02
14.239,1.7354649E+02
14.245,1.7404420E+02
14.246,1.7412711E+02
14.251,1.7454179E+02
14.252,1.7462520E+02
14.256,1.7495880E+02
14.260,1.7529240E+02
14.263,1.7554230E+02
14.266,1.7579370E+02
14.270,1.7612910E+02
14.275,1.7654840E+02
14.276,1.7663271E+02
14.286,1.7747189E+02
14.287,1.7755600E+02
14.295,1.7823280E+02
14.299,1.7857111E+02
14.306,1.7916660E+02
14.310,1.7950600E+02
14.311,1.7959081E+02
14.316,1.8001720E+02
14.320,1.8035831E+02
14.323,1.8061400E+02
14.326,1.8087100E+02
14.335,1.8164729E+02
14.336,1.8173399E+02
14.340,1.8208040E+02
14.345,1.8251379E+02
14.346,1.8260049E+02
14.347,1.8268719E+02
14.359,1.8373380E+02
14.366,1.8434760E+02
14.370,1.8469679E+02
14.371,1.8478410E+02
14.376,1.8522290E+02
14.383,1.8583710E+02
14.386,1.8610170E+02
14.390,1.8645630E+02
14.395,1.8689760E+02
14.396,1.8698630E+02
14.406,1.8787440E+02
14.407,1.8796310E+02
14.419,1.8903410E+02
14.420,1.8912379E+02
14.426,1.8966130E+02
14.431,1.9010989E+02
14.436,1.9056090E+02
14.443,1.9119220E+02
14.445,1.9137350E+02
14.455,1.9228011E+02
14.466,1.9328239E+02
14.467,1.9337350E+02
14.470,1.9364830E+02
14.476,1.9419780E+02
14.478,1.9438139E+02
14.479,1.9447321E+02
14.486,1.9511900E+02
14.491,1.9558060E+02
14.495,1.9595171E+02
14.496,1.9604449E+02
14.500,1.9641560E+02
14.503,1.9669400E+02
14.506,1.9697391E+02
14.515,1.9781329E+02
14.516,1.9790700E+02
14.520,1.9828110E+02
14.526,1.9884280E+02
14.527,1.9893610E+02
14.539,2.0006160E+02
14.545,2.0062711E+02
14.546,2.0072141E+02
14.550,2.0109830E+02
14.551,2.0119270E+02
14.563,2.0233099E+02
14.566,2.0261700E+02
14.570,2.0299809E+02
14.575,2.0347450E+02
14.576,2.0357030E+02
14.580,2.0395390E+02
14.586,2.0452950E+02
14.587,2.0462480E+02
14.595,2.0539110E+02
14.599,2.0577420E+02
14.606,2.0644791E+02
14.611,2.0693469E+02
14.620,2.0781630E+02
14.623,2.0810970E+02
14.626,2.0840610E+02
14.630,2.0879610E+02
14.635,2.0928490E+02
14.645,2.1027209E+02
14.646,2.1037080E+02
14.647,2.1047020E+02
14.659,2.1167360E+02
14.660,2.1177480E+02
14.666,2.1238150E+02
14.670,2.1278650E+02
14.671,2.1288770E+02
14.676,2.1339880E+02
14.683,2.1411400E+02
14.686,2.1442349E+02
14.695,2.1535651E+02
14.696,2.1546111E+02
14.706,2.1650760E+02
14.707,2.1661180E+02
14.710,2.1692740E+02
14.719,2.1787379E+02
14.720,2.1797990E+02
14.726,2.1861639E+02
14.731,2.1914650E+02
14.736,2.1968150E+02
14.740,2.2010950E+02
14.743,2.2043010E+02
14.745,2.2064590E+02
14.746,2.2075380E+02
14.755,2.2172820E+02
14.756,2.2183740E+02
14.766,2.2292990E+02
14.767,2.2303931E+02
14.770,2.2337041E+02
14.776,2.2403259E+02
14.779,2.2436270E+02
14.786,2.2513989E+02
14.790,2.2558360E+02
14.791,2.2569460E+02
14.795,2.2614270E+02
14.803,2.2703889E+02
14.806,2.2737790E+02
14.815,2.2839450E+02
14.816,2.2850841E+02
14.820,2.2896330E+02
14.826,2.2964670E+02
14.827,2.2976041E+02
14.839,2.3113651E+02
14.845,2.3183040E+02
14.846,2.3194611E+02
14.851,2.3252431E+02
14.856,2.3310750E+02
14.863,2.3392390E+02
14.866,2.3427670E+02
14.870,2.3474770E+02
14.875,2.3533650E+02
14.876,2.3545520E+02
14.886,2.3664349E+02
14.887,2.3676320E+02
14.895,2.3772900E+02
14.899,2.3821190E+02
14.906,2.3906390E+02
14.911,2.3966701E+02
14.916,2.4027499E+02
14.920,2.4076140E+02
14.923,2.4112570E+02
14.926,2.4149290E+02
14.935,2.4259410E+02
14.936,2.4271750E+02
14.945,2.4382761E+02
14.946,2.4395100E+02
14.947,2.4407420E+02
14.950,2.4444679E+02
14.959,2.4556700E+02
14.966,2.4644510E+02
14.970,2.4695210E+02
14.971,2.4707880E+02
14.976,2.4771750E+02
14.980,2.4822580E+02
14.983,2.4860719E+02
14.986,2.4899150E+02
14.995,2.5013741E+02
15.006,2.5154871E+02
15.007,2.5167690E+02
15.019,2.5322720E+02
15.020,2.5335730E+02
15.026,2.5413789E+02
15.030,2.5466000E+02
15.031,2.5479060E+02
15.036,2.5544881E+02
15.043,2.5637009E+02
15.045,2.5663541E+02
15.055,2.5796140E+02
15.056,2.5809500E+02
15.060,2.5862881E+02
15.066,2.5943039E+02
15.067,2.5956400E+02
15.070,2.5996771E+02
15.076,2.6077499E+02
15.079,2.6117871E+02
15.086,2.6212741E+02
15.091,2.6280530E+02
15.095,2.6335150E+02
15.096,2.6348801E+02
15.103,2.6444391E+02
15.110,2.6540659E+02
15.115,2.6609210E+02
15.116,2.6623019E+02
15.120,2.6678250E+02
15.126,2.6761301E+02
15.127,2.6775140E+02
15.139,2.6942441E+02
15.140,2.6956479E+02
15.145,2.7026682E+02
15.146,2.7040720E+02
15.151,2.7110919E+02
15.156,2.7181601E+02
15.163,2.7280560E+02
15.170,2.7380209E+02
15.175,2.7451379E+02
15.176,2.7465720E+02
15.186,2.7609052E+02
15.187,2.7623380E+02
15.190,2.7666681E+02
15.195,2.7738831E+02
15.199,2.7796561E+02
15.206,2.7898260E+02
15.211,2.7970911E+02
15.216,2.8044040E+02
15.220,2.8102551E+02
15.223,2.8146429E+02
15.226,2.8190601E+02
15.235,2.8323080E+02
15.236,2.8337900E+02
15.245,2.8471259E+02
15.247,2.8500891E+02
15.259,2.8679880E+02
15.266,2.8784970E+02
15.270,2.8845020E+02
15.271,2.8860040E+02
15.276,2.8935599E+02
15.283,2.9041391E+02
15.295,2.9223911E+02
15.296,2.9239221E+02
15.300,2.9300449E+02
15.306,2.9392291E+02
15.307,2.9407599E+02
15.319,2.9592471E+02
15.320,2.9607971E+02
15.326,2.9700989E+02
15.331,2.9778531E+02
15.336,2.9856570E+02
15.343,2.9965811E+02
15.345,2.9997220E+02
15.350,3.0075739E+02
15.355,3.0154251E+02
15.356,3.0170050E+02
15.367,3.0343860E+02
15.370,3.0391559E+02
15.376,3.0486951E+02
15.379,3.0534631E+02
15.380,3.0550629E+02
15.386,3.0646579E+02
15.391,3.0726550E+02
15.395,3.0790909E+02
15.403,3.0919641E+02
15.415,3.1113901E+02
15.420,3.1195331E+02
15.426,3.1293051E+02
15.427,3.1309341E+02
15.430,3.1358490E+02
15.439,3.1505960E+02
15.445,3.1604849E+02
15.446,3.1621341E+02
15.450,3.1687271E+02
15.451,3.1703751E+02
15.456,3.1786649E+02
15.460,3.1852969E+02
15.463,3.1902710E+02
15.470,3.2019461E+02
15.475,3.2102850E+02
15.476,3.2119629E+02
15.486,3.2287381E+02
15.487,3.2304160E+02
15.495,3.2439139E+02
15.499,3.2506631E+02
15.506,3.2625430E+02
15.511,3.2710281E+02
15.516,3.2795630E+02
15.520,3.2863901E+02
15.523,3.2915109E+02
15.526,3.2966611E+02
15.535,3.3121060E+02
15.536,3.3138321E+02
15.540,3.3207361E+02
15.545,3.3293661E+02
15.546,3.3310919E+02
15.547,3.3328180E+02
15.559,3.3536469E+02
15.566,3.3658649E+02
15.570,3.3728470E+02
15.571,3.3745929E+02
15.576,3.3833691E+02
15.583,3.3956601E+02
15.590,3.4080191E+02
15.595,3.4168451E+02
15.596,3.4186200E+02
15.607,3.4381451E+02
15.619,3.4595621E+02
15.620,3.4613571E+02
15.626,3.4721240E+02
15.631,3.4810999E+02
15.643,3.5027600E+02
15.645,3.5063901E+02
15.655,3.5245380E+02
15.656,3.5263620E+02
15.666,3.5446078E+02
15.667,3.5464331E+02
15.670,3.5519360E+02
15.676,3.5629440E+02
15.679,3.5684460E+02
15.686,3.5813541E+02
15.691,3.5905740E+02
15.695,3.5979889E+02
15.700,3.6072580E+02
15.703,3.6128180E+02
15.715,3.6351730E+02
15.716,3.6370459E+02
15.720,3.6445370E+02
15.726,3.6557739E+02
15.727,3.6576459E+02
15.739,3.6802341E+02
15.745,3.6915869E+02
15.746,3.6934790E+02
15.750,3.7010480E+02
15.751,3.7029410E+02
15.763,3.7257761E+02
15.770,3.7391641E+02
15.775,3.7487280E+02
15.776,3.7506500E+02
15.780,3.7583411E+02
15.786,3.7698761E+02
15.787,3.7717981E+02
15.795,3.7872559E+02
15.799,3.7949850E+02
15.806,3.8085791E+02
15.811,3.8182889E+02
15.816,3.8280481E+02
15.820,3.8358551E+02
15.823,3.8417111E+02
15.826,3.8475961E+02
15.830,3.8554401E+02
15.835,3.8652380E+02
15.836,3.8672070E+02
15.845,3.8849301E+02
15.846,3.8868991E+02
15.847,3.8888690E+02
15.859,3.9126160E+02
15.860,3.9146051E+02
15.866,3.9265399E+02
15.870,3.9344971E+02
15.871,3.9364859E+02
15.876,3.9464810E+02
15.883,3.9604779E+02
15.886,3.9665051E+02
15.895,3.9845889E+02
15.896,3.9866080E+02
15.900,3.9946841E+02
15.906,4.0067981E+02
15.907,4.0088171E+02
15.910,4.0149039E+02
15.916,4.0270789E+02
15.918,4.0311371E+02
15.919,4.0331659E+02
15.920,4.0352051E+02
15.926,4.0475320E+02
15.930,4.0556860E+02
15.931,4.0577240E+02
15.936,4.0679630E+02
15.943,4.0822971E+02
15.945,4.0864120E+02
15.955,4.1069870E+02
15.956,4.1090549E+02
15.958,4.1131891E+02
15.967,4.1317950E+02
15.970,4.1380261E+02
15.976,4.1504880E+02
15.979,4.1567151E+02
15.986,4.1713129E+02
15.991,4.1817471E+02
15.995,4.1901331E+02
15.998,4.1964230E+02
16.003,4.2069061E+02
16.015,4.2321811E+02
16.016,4.2342981E+02
16.020,4.2427621E+02
16.026,4.2554590E+02
16.027,4.2575751E+02
16.031,4.2660770E+02
16.038,4.2809570E+02
16.039,4.2830820E+02
16.045,4.2958951E+02
16.046,4.2980301E+02
16.050,4.3065710E+02
16.051,4.3087070E+02
16.056,4.3194321E+02
16.063,4.3344479E+02
16.066,4.3409131E+02
16.068,4.3452219E+02
16.070,4.3495319E+02
16.075,4.3603131E+02
16.076,4.3624789E+02
16.078,4.3668100E+02
16.081,4.3733069E+02
16.086,4.3841360E+02
16.087,4.3863019E+02
16.096,4.4058820E+02
16.098,4.4102328E+02
16.099,4.4124091E+02
16.100,4.4145941E+02
16.106,4.4277020E+02
16.111,4.4386249E+02
16.116,4.4495969E+02
16.118,4.4539850E+02
16.120,4.4583740E+02
16.123,4.4649570E+02
16.126,4.4715689E+02
16.128,4.4759781E+02
16.131,4.4825919E+02
16.135,4.4914099E+02
16.136,4.4936249E+02
16.145,4.5135529E+02
16.146,4.5157681E+02
16.147,4.5179819E+02
16.150,4.5246530E+02
16.158,4.5424411E+02
16.159,4.5446649E+02
16.166,4.5602969E+02
16.170,4.5692300E+02
16.171,4.5714630E+02
16.176,4.5826779E+02
16.180,4.5916501E+02
16.181,4.5938919E+02
16.183,4.5983771E+02
16.186,4.6051349E+02
16.188,4.6096390E+02
16.195,4.6254059E+02
16.196,4.6276682E+02
16.200,4.6367160E+02
16.206,4.6502890E+02
16.207,4.6525510E+02
16.218,4.6775421E+02
16.219,4.6798129E+02
16.220,4.6820950E+02
16.226,4.6957840E+02
16.230,4.7049100E+02
16.231,4.7071921E+02
16.236,4.7186499E+02
16.243,4.7346909E+02
16.245,4.7392941E+02
16.246,4.7415948E+02
16.248,4.7461981E+02
16.250,4.7508011E+02
16.255,4.7623080E+02
16.256,4.7646191E+02
16.260,4.7738629E+02
16.266,4.7877341E+02
16.267,4.7900461E+02
16.270,4.7970111E+02
16.276,4.8109409E+02
16.278,4.8155850E+02
16.279,4.8179059E+02
16.286,4.8342279E+02
16.291,4.8458859E+02
16.295,4.8552509E+02
16.296,4.8575931E+02
16.300,4.8669580E+02
16.303,4.8739819E+02
16.306,4.8810349E+02
16.308,4.8857379E+02
16.310,4.8904401E+02
16.315,4.9021881E+02
16.316,4.9045471E+02
16.318,4.9092661E+02
16.320,4.9139841E+02
16.326,4.9281400E+02
16.327,4.9304990E+02
16.331,4.9399750E+02
16.336,4.9518188E+02
16.338,4.9565570E+02
16.339,4.9589249E+02
16.340,4.9613040E+02
16.345,4.9732019E+02
16.346,4.9755811E+02
16.350,4.9850989E+02
16.351,4.9874789E+02
16.356,4.9994250E+02
16.358,5.0042029E+02
16.363,5.0161490E+02
16.366,5.0233459E+02
16.370,5.0329419E+02
16.375,5.0449371E+02
16.376,5.0473459E+02
16.381,5.0593881E+02
16.386,5.0714301E+02
16.387,5.0738379E+02
16.395,5.0931821E+02
16.396,5.0956009E+02
16.398,5.1004370E+02
16.399,5.1028549E+02
16.400,5.1052820E+02
16.406,5.1198489E+02
16.411,5.1319879E+02
16.416,5.1441760E+02
16.420,5.1539258E+02
16.423,5.1612372E+02
16.426,5.1685773E+02
16.428,5.1734729E+02
16.435,5.1906073E+02
16.436,5.1930652E+02
16.438,5.1979797E+02
16.440,5.2028949E+02
16.445,5.2151849E+02
16.446,5.2176422E+02
16.447,5.2201001E+02
16.450,5.2275031E+02
16.456,5.2423090E+02
16.459,5.2497119E+02
16.466,5.2670532E+02
16.470,5.2769623E+02
16.471,5.2794397E+02
16.476,5.2918750E+02
16.478,5.2968469E+02
16.483,5.3092767E+02
16.488,5.3217548E+02
16.495,5.3392249E+02
16.496,5.3417297E+02
16.500,5.3517419E+02
16.506,5.3667841E+02
16.507,5.3692908E+02
16.518,5.3969751E+02
16.519,5.3994922E+02
16.520,5.4020190E+02
16.526,5.4171777E+02
16.530,5.4272839E+02
16.531,5.4298108E+02
16.536,5.4424982E+02
16.543,5.4602582E+02
16.545,5.4653528E+02
16.548,5.4729938E+02
16.550,5.4780878E+02
16.555,5.4908228E+02
16.556,5.4933789E+02
16.558,5.4984930E+02
16.566,5.5189471E+02
16.567,5.5215039E+02
16.570,5.5292041E+02
16.576,5.5446033E+02
16.578,5.5497357E+02
16.579,5.5523022E+02
16.580,5.5548779E+02
16.581,5.5574579E+02
16.586,5.5703528E+02
16.590,5.5806689E+02
16.591,5.5832422E+02
16.595,5.5935742E+02
16.596,5.5961572E+02
16.598,5.6013232E+02
16.600,5.6064893E+02
16.603,5.6142371E+02
16.606,5.6220148E+02
16.608,5.6272009E+02
16.615,5.6453491E+02
16.616,5.6479462E+02
16.620,5.6583380E+02
16.626,5.6739258E+02
16.627,5.6765240E+02
16.636,5.6999060E+02
16.638,5.7051019E+02
16.639,5.7077002E+02
16.645,5.7232867E+02
16.646,5.7258850E+02
16.651,5.7388739E+02
16.656,5.7518628E+02
16.660,5.7622540E+02
16.663,5.7700470E+02
16.666,5.7778412E+02
16.668,5.7830359E+02
16.670,5.7882318E+02
16.675,5.8012207E+02
16.676,5.8038177E+02
16.678,5.8090118E+02
16.681,5.8168018E+02
16.687,5.8323840E+02
16.695,5.8531580E+02
16.696,5.8557550E+02
16.698,5.8609479E+02
16.699,5.8635449E+02
16.700,5.8661407E+02
16.706,5.8817212E+02
16.711,5.8947040E+02
16.716,5.9076868E+02
16.718,5.9128809E+02
16.720,5.9180737E+02
16.723,5.9258630E+02
16.726,5.9336530E+02
16.728,5.9388483E+02
16.735,5.9570282E+02
16.745,5.9829999E+02
16.746,5.9855969E+02
16.747,5.9881940E+02
16.756,6.0115680E+02
16.758,6.0167621E+02
16.759,6.0193591E+02
16.766,6.0375378E+02
16.770,6.0479260E+02
16.771,6.0505231E+02
16.776,6.0635083E+02
16.783,6.0816852E+02
16.786,6.0894739E+02
16.788,6.0946667E+02
16.790,6.0998608E+02
16.795,6.1128430E+02
16.796,6.1154388E+02
16.798,6.1206329E+02
16.800,6.1258270E+02
16.806,6.1414069E+02
16.807,6.1440039E+02
16.819,6.1751642E+02
16.820,6.1777600E+02
16.826,6.1933398E+02
16.831,6.2063251E+02
16.836,6.2193103E+02
16.838,6.2245032E+02
16.843,6.2374878E+02
16.845,6.2426819E+02
16.846,6.2452777E+02
16.850,6.2556659E+02
16.855,6.2686499E+02
16.856,6.2712457E+02
16.866,6.2972150E+02
16.867,6.2998120E+02
16.870,6.3076031E+02
16.876,6.3231842E+02
16.878,6.3283752E+02
16.879,6.3309711E+02
16.881,6.3361627E+02
16.891,6.3621210E+02
16.895,6.3725043E+02
16.900,6.3854828E+02
16.903,6.3932709E+02
16.906,6.4010602E+02
16.908,6.4062518E+02
16.915,6.4244263E+02
16.916,6.4270221E+02
16.918,6.4322137E+02
16.920,6.4374060E+02
16.926,6.4529828E+02
16.927,6.4555823E+02
16.936,6.4789740E+02
16.938,6.4841718E+02
16.939,6.4867712E+02
16.945,6.5023651E+02
16.946,6.5049652E+02
16.950,6.5153387E+02
16.951,6.5179327E+02
16.956,6.5309039E+02
16.958,6.5360919E+02
16.963,6.5490619E+02
16.966,6.5568433E+02
16.968,6.5620312E+02
16.970,6.5672192E+02
16.975,6.5801880E+02
16.976,6.5827820E+02
16.980,6.5931732E+02
16.986,6.6087512E+02
16.987,6.6113470E+02
16.995,6.6321167E+02
16.996,6.6347131E+02
16.998,6.6399060E+02
17.000,6.6450983E+02
17.006,6.6606750E+02
17.020,6.6970209E+02
17.023,6.7048090E+02
17.026,6.7125970E+02
17.030,6.7229749E+02
17.035,6.7359460E+02
17.036,6.7385413E+02
17.038,6.7437292E+02
17.045,6.7618890E+02
17.047,6.7670770E+02
17.050,6.7748602E+02
17.059,6.7982068E+02
17.060,6.8008008E+02
17.066,6.8163690E+02
17.070,6.8267480E+02
17.071,6.8293433E+02
17.076,6.8423163E+02
17.078,6.8475067E+02
17.083,6.8604840E+02
17.095,6.8916272E+02
17.096,6.8942218E+02
17.106,6.9201740E+02
17.107,6.9227698E+02
17.110,6.9305548E+02
17.118,6.9513129E+02
17.119,6.9539081E+02
17.120,6.9565033E+02
17.126,6.9720709E+02
17.131,6.9850421E+02
17.143,7.0161713E+02
17.145,7.0213593E+02
17.150,7.0343292E+02
17.156,7.0498932E+02
17.158,7.0550812E+02
17.170,7.0862073E+02
17.176,7.1017712E+02
17.178,7.1069568E+02
17.179,7.1095508E+02
17.190,7.1380762E+02
17.191,7.1406677E+02
17.195,7.1510388E+02
17.196,7.1536322E+02
17.200,7.1640033E+02
17.203,7.1717810E+02
17.206,7.1795587E+02
17.215,7.2028918E+02
17.220,7.2158551E+02
17.226,7.2314099E+02
17.227,7.2340051E+02
17.236,7.2573590E+02
17.238,7.2625482E+02
17.239,7.2651428E+02
17.245,7.2807123E+02
17.246,7.2833069E+02
17.251,7.2962811E+02
17.263,7.3274170E+02
17.266,7.3352008E+02
17.270,7.3455792E+02
17.275,7.3585559E+02
17.276,7.3611517E+02
17.287,7.3896741E+02
17.295,7.4104169E+02
17.299,7.4207880E+02
17.300,7.4233807E+02
17.306,7.4389368E+02
17.311,7.4518988E+02
17.316,7.4648602E+02
17.318,7.4700452E+02
17.320,7.4752289E+02
17.326,7.4907819E+02
17.336,7.5167139E+02
17.345,7.5400519E+02
17.346,7.5426453E+02
17.347,7.5452380E+02
17.350,7.5530170E+02
17.356,7.5685760E+02
17.358,7.5737622E+02
17.359,7.5763550E+02
17.370,7.6048792E+02
17.371,7.6074719E+02
17.376,7.6204382E+02
17.383,7.6385889E+02
17.395,7.6697040E+02
17.396,7.6722968E+02
17.398,7.6774829E+02
17.400,7.6826678E+02
17.406,7.6982251E+02
17.407,7.7008179E+02
17.416,7.7241541E+02
17.419,7.7319330E+02
17.420,7.7345258E+02
17.426,7.7500830E+02
17.431,7.7630481E+02
17.438,7.7811981E+02
17.443,7.7941620E+02
17.445,7.7993469E+02
17.450,7.8123108E+02
17.455,7.8252740E+02
17.456,7.8278668E+02
17.466,7.8537939E+02
17.467,7.8563867E+02
17.470,7.8641650E+02
17.476,7.8797229E+02
17.478,7.8849078E+02
17.479,7.8875012E+02
17.486,7.9056500E+02
17.491,7.9186090E+02
17.495,7.9289758E+02
17.496,7.9315680E+02
17.500,7.9419342E+02
17.506,7.9574841E+02
17.510,7.9678510E+02
17.515,7.9808063E+02
17.516,7.9833972E+02
17.518,7.9885797E+02
17.520,7.9937628E+02
17.526,8.0093109E+02
17.545,8.0585449E+02
17.546,8.0611359E+02
17.550,8.0715009E+02
17.551,8.0740918E+02
17.556,8.0870477E+02
17.558,8.0922302E+02
17.563,8.1051849E+02
17.570,8.1233228E+02
17.575,8.1362781E+02
17.576,8.1388690E+02
17.586,8.1647778E+02
17.587,8.1673688E+02
17.590,8.1751422E+02
17.595,8.1880969E+02
17.596,8.1906879E+02
17.598,8.1958698E+02
17.600,8.2010522E+02
17.606,8.2165979E+02
17.611,8.2295532E+02
17.616,8.2425092E+02
17.620,8.2528870E+02
17.626,8.2684558E+02
17.636,8.2944043E+02
17.645,8.3177557E+02
17.650,8.3307300E+02
17.656,8.3462982E+02
17.659,8.3540759E+02
17.666,8.3722260E+02
17.670,8.3825952E+02
17.676,8.3981500E+02
17.678,8.4033301E+02
17.683,8.4162750E+02
17.688,8.4292200E+02
17.695,8.4473383E+02
17.696,8.4499268E+02
17.700,8.4603137E+02
17.706,8.4759589E+02
17.707,8.4785608E+02
17.716,8.5019800E+02
17.718,8.5071741E+02
17.719,8.5097668E+02
17.720,8.5123608E+02
17.726,8.5279211E+02
17.731,8.5408508E+02
17.745,8.5770520E+02
17.750,8.5899811E+02
17.756,8.6054950E+02
17.758,8.6106750E+02
17.770,8.6417560E+02
17.776,8.6572961E+02
17.779,8.6650671E+02
17.786,8.6832013E+02
17.791,8.6961530E+02
17.795,8.7065143E+02
17.796,8.7091052E+02
17.798,8.7142853E+02
17.800,8.7194659E+02
17.803,8.7272357E+02
17.806,8.7350067E+02
17.815,8.7583191E+02
17.816,8.7609088E+02
17.820,8.7712701E+02
17.826,8.7868121E+02
17.827,8.7894012E+02
17.830,8.7971698E+02
17.836,8.8127069E+02
17.838,8.8178857E+02
17.839,8.8204749E+02
17.850,8.8489587E+02
17.851,8.8515479E+02
17.856,8.8644952E+02
17.863,8.8826208E+02
17.868,8.8955670E+02
17.870,8.9007458E+02
17.875,8.9136920E+02
17.876,8.9162811E+02
17.878,8.9214612E+02
17.886,8.9421777E+02
17.895,8.9654822E+02
17.899,8.9758398E+02
17.905,8.9913751E+02
17.906,8.9939648E+02
17.920,9.0302142E+02
17.926,9.0457489E+02
17.935,9.0690552E+02
17.936,9.0716443E+02
17.945,9.0949390E+02
17.946,9.0975269E+02
17.947,9.1001147E+02
17.958,9.1285840E+02
17.959,9.1311719E+02
17.966,9.1492877E+02
17.970,9.1596393E+02
17.971,9.1622272E+02
17.976,9.1751672E+02
17.983,9.1934052E+02
17.988,9.2064319E+02
17.990,9.2116418E+02
17.995,9.2246692E+02
17.996,9.2272742E+02
17.998,9.2324872E+02
18.000,9.2377008E+02
18.006,9.2533429E+02
18.007,9.2559460E+02
18.016,9.2793719E+02
18.018,9.2845782E+02
18.020,9.2899890E+02
18.026,9.3055780E+02
18.031,9.3184729E+02
18.038,9.3365240E+02
18.040,9.3416821E+02
18.043,9.3494348E+02
18.045,9.3546039E+02
18.048,9.3623572E+02
18.055,9.3804480E+02
18.060,9.3933691E+02
18.066,9.4088739E+02
18.067,9.4114587E+02
18.070,9.4192108E+02
18.076,9.4347162E+02
18.078,9.4398853E+02
18.080,9.4450537E+02
18.086,9.4605579E+02
18.091,9.4734528E+02
18.095,9.4837689E+02
18.096,9.4863483E+02
18.100,9.4966608E+02
18.108,9.5172852E+02
18.118,9.5430652E+02
18.120,9.5482208E+02
18.126,9.5636877E+02
18.127,9.5662659E+02
18.138,9.5946210E+02
18.140,9.5997760E+02
18.145,9.6126642E+02
18.146,9.6152411E+02
18.151,9.6281299E+02
18.158,9.6461731E+02
18.160,9.6513281E+02
18.168,9.6719470E+02
18.170,9.6771021E+02
18.176,9.6925659E+02
18.180,9.7029529E+02
18.186,9.7185327E+02
18.195,9.7419000E+02
18.198,9.7496887E+02
18.199,9.7522852E+02
18.200,9.7548810E+02
18.206,9.7704578E+02
18.211,9.7833350E+02
18.216,9.7962122E+02
18.220,9.8065143E+02
18.223,9.8142389E+02
18.226,9.8219647E+02
18.228,9.8271149E+02
18.230,9.8322650E+02
18.235,9.8451422E+02
18.236,9.8477173E+02
18.238,9.8528668E+02
18.240,9.8580182E+02
18.245,9.8708929E+02
18.247,9.8760431E+02
18.250,9.8837677E+02
18.258,9.9043701E+02
18.259,9.9069452E+02
18.260,9.9095203E+02
18.270,9.9352710E+02
18.271,9.9378461E+02
18.276,9.9507208E+02
18.278,9.9558710E+02
18.283,9.9687628E+02
18.288,9.9816553E+02
18.295,9.9997113E+02
18.296,1.0002291E+03
18.300,1.0012587E+03
18.306,1.0028032E+03
18.307,1.0030606E+03
18.316,1.0053776E+03
18.318,1.0058924E+03
18.320,1.0064069E+03
18.326,1.0079503E+03
18.340,1.0115786E+03
18.345,1.0128745E+03
18.348,1.0136520E+03
18.355,1.0154634E+03
18.356,1.0157222E+03
18.358,1.0162398E+03
18.360,1.0167582E+03
18.367,1.0185726E+03
18.370,1.0193502E+03
18.376,1.0209054E+03
18.380,1.0219422E+03
18.386,1.0234974E+03
18.390,1.0245376E+03
18.391,1.0247976E+03
18.395,1.0258378E+03
18.397,1.0263579E+03
18.398,1.0266184E+03
18.400,1.0271392E+03
18.403,1.0279202E+03
18.415,1.0310446E+03
18.416,1.0313051E+03
18.420,1.0323463E+03
18.426,1.0339084E+03
18.427,1.0341680E+03
18.438,1.0370229E+03
18.439,1.0372830E+03
18.440,1.0375431E+03
18.445,1.0388436E+03
18.446,1.0391038E+03
18.451,1.0404043E+03
18.460,1.0427454E+03
18.463,1.0435258E+03
18.470,1.0453466E+03
18.476,1.0469073E+03
18.478,1.0474288E+03
18.480,1.0479501E+03
18.495,1.0518597E+03
18.500,1.0531628E+03
18.511,1.0560304E+03
18.518,1.0578551E+03
18.520,1.0583802E+03
18.523,1.0591678E+03
18.526,1.0599554E+03
18.528,1.0604822E+03
18.536,1.0625905E+03
18.545,1.0649501E+03
18.546,1.0652122E+03
18.547,1.0654744E+03
18.556,1.0678337E+03
18.558,1.0683585E+03
18.570,1.0715055E+03
18.576,1.0730791E+03
18.580,1.0741281E+03
18.586,1.0757014E+03
18.595,1.0780615E+03
18.596,1.0783237E+03
18.598,1.0788481E+03
18.600,1.0793729E+03
18.618,1.0840953E+03
18.619,1.0843597E+03
18.620,1.0846241E+03
18.626,1.0862111E+03
18.631,1.0875319E+03
18.640,1.0899097E+03
18.645,1.0912308E+03
18.646,1.0914950E+03
18.648,1.0920236E+03
18.655,1.0938741E+03
18.656,1.0941385E+03
18.660,1.0951975E+03
18.666,1.0967859E+03
18.667,1.0970507E+03
18.670,1.0978448E+03
18.676,1.0994335E+03
18.678,1.0999630E+03
18.679,1.1002278E+03
18.680,1.1004926E+03
18.691,1.1034056E+03
18.695,1.1044650E+03
18.700,1.1057892E+03
18.703,1.1065837E+03
18.706,1.1073783E+03
18.708,1.1079080E+03
18.715,1.1097622E+03
18.718,1.1105570E+03
18.720,1.1110865E+03
18.726,1.1126757E+03
18.736,1.1153337E+03
18.738,1.1158657E+03
18.739,1.1161318E+03
18.740,1.1163979E+03
18.745,1.1177281E+03
18.756,1.1206548E+03
18.758,1.1211870E+03
18.766,1.1233159E+03
18.768,1.1238477E+03
18.770,1.1243800E+03
18.776,1.1259769E+03
18.786,1.1286324E+03
18.787,1.1288990E+03
18.790,1.1296989E+03
18.795,1.1310325E+03
18.799,1.1320995E+03
18.806,1.1339669E+03
18.811,1.1353008E+03
18.820,1.1377021E+03
18.823,1.1385024E+03
18.826,1.1393027E+03
18.835,1.1417047E+03
18.836,1.1419716E+03
18.845,1.1443726E+03
18.847,1.1449061E+03
18.859,1.1481077E+03
18.866,1.1499755E+03
18.870,1.1510548E+03
18.871,1.1513243E+03
18.876,1.1526727E+03
18.880,1.1537443E+03
18.883,1.1545481E+03
18.895,1.1577640E+03
18.896,1.1580320E+03
18.900,1.1590948E+03
18.906,1.1606902E+03
18.916,1.1633392E+03
18.918,1.1638690E+03
18.920,1.1643989E+03
18.925,1.1657235E+03
18.926,1.1659884E+03
18.936,1.1686532E+03
18.940,1.1697192E+03
18.943,1.1705187E+03
18.945,1.1710518E+03
18.950,1.1723843E+03
18.955,1.1737170E+03
18.956,1.1739836E+03
18.958,1.1745168E+03
18.960,1.1750500E+03
18.970,1.1777167E+03
18.976,1.1793168E+03
18.978,1.1798499E+03
18.979,1.1801165E+03
18.980,1.1803831E+03
18.985,1.1817162E+03
18.986,1.1819828E+03
18.991,1.1833086E+03
18.995,1.1843694E+03
18.996,1.1846346E+03
18.997,1.1848997E+03
18.998,1.1851649E+03
19.000,1.1856953E+03
19.003,1.1864908E+03
19.006,1.1872865E+03
19.008,1.1878169E+03
19.015,1.1896733E+03
19.016,1.1899386E+03
19.020,1.1909908E+03
19.026,1.1925695E+03
19.027,1.1928346E+03
19.030,1.1936301E+03
19.036,1.1952217E+03
19.038,1.1957500E+03
19.039,1.1960148E+03
19.040,1.1962795E+03
19.045,1.1976035E+03
19.051,1.1991923E+03
19.056,1.2005164E+03
19.060,1.2015757E+03
19.063,1.2023701E+03
19.070,1.2042238E+03
19.075,1.2055479E+03
19.076,1.2058127E+03
19.078,1.2063391E+03
19.080,1.2068656E+03
19.086,1.2084451E+03
19.093,1.2102878E+03
19.095,1.2108145E+03
19.096,1.2110778E+03
19.100,1.2121309E+03
19.105,1.2134471E+03
19.106,1.2137096E+03
19.111,1.2150203E+03
19.116,1.2163311E+03
19.117,1.2165931E+03
19.118,1.2168553E+03
19.120,1.2173771E+03
19.126,1.2189423E+03
19.135,1.2212925E+03
19.136,1.2215536E+03
19.140,1.2226034E+03
19.141,1.2228658E+03
19.145,1.2239156E+03
19.146,1.2241780E+03
19.150,1.2252280E+03
19.153,1.2260159E+03
19.156,1.2268040E+03
19.158,1.2273289E+03
19.160,1.2278530E+03
19.166,1.2294255E+03
19.170,1.2304692E+03
19.171,1.2307301E+03
19.176,1.2320348E+03
19.177,1.2322968E+03
19.180,1.2330823E+03
19.186,1.2346534E+03
19.190,1.2356884E+03
19.195,1.2369811E+03
19.196,1.2372397E+03
19.198,1.2377584E+03
19.200,1.2382759E+03
19.206,1.2398284E+03
19.219,1.2431948E+03
19.220,1.2434539E+03
19.226,1.2450084E+03
19.231,1.2463105E+03
19.240,1.2486542E+03
19.243,1.2494355E+03
19.245,1.2499563E+03
19.255,1.2525605E+03
19.256,1.2528209E+03
19.260,1.2538621E+03
19.266,1.2554241E+03
19.267,1.2556818E+03
19.270,1.2564551E+03
19.276,1.2580065E+03
19.279,1.2587841E+03
19.286,1.2605981E+03
19.291,1.2618899E+03
19.295,1.2629233E+03
19.296,1.2631816E+03
19.297,1.2634399E+03
19.300,1.2642150E+03
19.303,1.2649897E+03
19.306,1.2657644E+03
19.316,1.2683466E+03
19.318,1.2688601E+03
19.320,1.2693702E+03
19.326,1.2709115E+03
19.327,1.2711685E+03
19.340,1.2745085E+03
19.345,1.2757928E+03
19.346,1.2760498E+03
19.350,1.2770800E+03
19.351,1.2773375E+03
19.370,1.2822318E+03
19.376,1.2837893E+03
19.380,1.2848204E+03
19.386,1.2863668E+03
19.395,1.2886553E+03
19.399,1.2896722E+03
19.400,1.2899264E+03
19.406,1.2914517E+03
19.411,1.2927402E+03
19.413,1.2932556E+03
19.416,1.2940286E+03
19.420,1.2950593E+03
19.423,1.2958384E+03
19.426,1.2966180E+03
19.435,1.2989133E+03
19.436,1.2991683E+03
19.438,1.2996799E+03
19.440,1.3001915E+03
19.445,1.3014711E+03
19.446,1.3017271E+03
19.447,1.3019830E+03
19.459,1.3050535E+03
19.460,1.3053094E+03
19.466,1.3068444E+03
19.470,1.3078658E+03
19.471,1.3081234E+03
19.476,1.3094111E+03
19.480,1.3104359E+03
19.483,1.3112040E+03
19.495,1.3142759E+03
19.496,1.3145319E+03
19.500,1.3155632E+03
19.506,1.3171154E+03
19.516,1.3196989E+03
19.519,1.3204738E+03
19.520,1.3207340E+03
19.526,1.3222979E+03
19.540,1.3259285E+03
19.545,1.3272264E+03
19.556,1.3300813E+03
19.558,1.3305966E+03
19.560,1.3311121E+03
19.570,1.3336862E+03
19.576,1.3352419E+03
19.580,1.3362874E+03
19.586,1.3378525E+03
19.595,1.3401877E+03
19.600,1.3414849E+03
19.616,1.3456127E+03
19.620,1.3466429E+03
19.626,1.3482004E+03
19.627,1.3484564E+03
19.639,1.3515280E+03
19.640,1.3517839E+03
19.645,1.3530690E+03
19.646,1.3533257E+03
19.660,1.3569701E+03
19.663,1.3577499E+03
19.666,1.3585319E+03
19.670,1.3595851E+03
19.675,1.3609025E+03
19.676,1.3611660E+03
19.680,1.3622269E+03
19.687,1.3640778E+03
19.695,1.3661927E+03
19.699,1.3672500E+03
19.700,1.3675144E+03
19.706,1.3691000E+03
19.711,1.3704230E+03
19.718,1.3722838E+03
19.720,1.3728195E+03
19.723,1.3736187E+03
19.726,1.3744177E+03
19.735,1.3768140E+03
19.736,1.3770802E+03
19.738,1.3776097E+03
19.740,1.3781407E+03
19.745,1.3794727E+03
19.746,1.3797390E+03
19.760,1.3834865E+03
19.763,1.3842870E+03
19.766,1.3850902E+03
19.770,1.3861548E+03
19.776,1.3877513E+03
19.780,1.3888163E+03
19.795,1.3927863E+03
19.796,1.3930509E+03
19.798,1.3935795E+03
19.800,1.3941129E+03
19.807,1.3959949E+03
19.813,1.3976138E+03
19.819,1.3992288E+03
19.820,1.3994927E+03
19.826,1.4010812E+03
19.830,1.4021924E+03
19.831,1.4024701E+03
19.836,1.4038256E+03
19.838,1.4043678E+03
19.840,1.4048939E+03
19.843,1.4056707E+03
19.845,1.4061750E+03
19.855,1.4086973E+03
19.856,1.4089429E+03
19.860,1.4099363E+03
19.866,1.4114589E+03
19.867,1.4117133E+03
19.870,1.4124565E+03
19.876,1.4139429E+03
19.878,1.4144382E+03
19.879,1.4146899E+03
19.880,1.4149351E+03
19.886,1.4164056E+03
19.888,1.4168884E+03
19.891,1.4176110E+03
19.895,1.4185476E+03
19.900,1.4197183E+03
19.903,1.4204207E+03
19.906,1.4211030E+03
19.910,1.4220176E+03
19.915,1.4231735E+03
19.916,1.4233979E+03
19.920,1.4243035E+03
19.926,1.4256506E+03
19.927,1.4258757E+03
19.939,1.4284958E+03
19.940,1.4287074E+03
19.945,1.4297729E+03
19.951,1.4310518E+03
19.960,1.4329089E+03
19.963,1.4335280E+03
19.970,1.4349259E+03
19.975,1.4359330E+03
19.976,1.4361276E+03
19.980,1.4369240E+03
19.986,1.4381139E+03
19.987,1.4383124E+03
19.990,1.4388876E+03
19.995,1.4398524E+03
19.999,1.4406241E+03
20.000,1.4408103E+03
20.006,1.4419305E+03
20.011,1.4428514E+03
20.020,1.4444478E+03
20.023,1.4449799E+03
20.026,1.4454916E+03
20.035,1.4470317E+03
20.036,1.4471960E+03
20.038,1.4475258E+03
20.040,1.4478669E+03
20.045,1.4487155E+03
20.046,1.4488851E+03
20.047,1.4490537E+03
20.059,1.4509937E+03
20.060,1.4511484E+03
20.066,1.4520791E+03
20.070,1.4527010E+03
20.071,1.4528561E+03
20.076,1.4535955E+03
20.080,1.4541959E+03
20.083,1.4546461E+03
20.086,1.4550756E+03
20.095,1.4563458E+03
20.096,1.4564801E+03
20.100,1.4570157E+03
20.106,1.4578248E+03
20.107,1.4579622E+03
20.118,1.4593973E+03
20.119,1.4595262E+03
20.120,1.4596482E+03
20.126,1.4603680E+03
20.131,1.4609709E+03
20.138,1.4617664E+03
20.140,1.4619889E+03
20.143,1.4623322E+03
20.145,1.4625471E+03
20.150,1.4630845E+03
20.155,1.4636227E+03
20.156,1.4637234E+03
20.160,1.4641342E+03
20.167,1.4648530E+03
20.170,1.4651403E+03
20.176,1.4657147E+03
20.179,1.4660020E+03
20.180,1.4660909E+03
20.186,1.4666215E+03
20.188,1.4667990E+03
20.191,1.4670652E+03
20.195,1.4673925E+03
20.196,1.4674742E+03
20.198,1.4676379E+03
20.200,1.4678016E+03
20.203,1.4680466E+03
20.206,1.4682709E+03
20.213,1.4687921E+03
20.215,1.4689384E+03
20.216,1.4690068E+03
20.220,1.4692799E+03
20.226,1.4696896E+03
20.227,1.4697607E+03
20.230,1.4699664E+03
20.239,1.4705840E+03
20.240,1.4706501E+03
20.245,1.4709818E+03
20.246,1.4710482E+03
20.251,1.4713816E+03
20.260,1.4719594E+03
20.263,1.4721520E+03
20.270,1.4725839E+03
20.275,1.4728925E+03
20.276,1.4729519E+03
20.278,1.4730613E+03
20.286,1.4735266E+03
20.287,1.4735847E+03
20.295,1.4740299E+03
20.299,1.4742524E+03
20.300,1.4743057E+03
20.306,1.4746096E+03
20.310,1.4748221E+03
20.311,1.4748752E+03
20.316,1.4751283E+03
20.320,1.4753307E+03
20.323,1.4754825E+03
20.326,1.4756268E+03
20.335,1.4760507E+03
20.336,1.4760951E+03
20.340,1.4762731E+03
20.346,1.4765500E+03
20.347,1.4765940E+03
20.358,1.4770496E+03
20.359,1.4770916E+03
20.360,1.4771311E+03
20.366,1.4773618E+03
20.371,1.4775571E+03
20.376,1.4777399E+03
20.380,1.4778813E+03
20.383,1.4779910E+03
20.386,1.4780931E+03
20.390,1.4782377E+03
20.395,1.4784181E+03
20.396,1.4784517E+03
20.406,1.4787872E+03
20.407,1.4788208E+03
20.419,1.4791934E+03
20.420,1.4792218E+03
20.426,1.4793855E+03
20.431,1.4795245E+03
20.436,1.4796510E+03
20.438,1.4797017E+03
20.440,1.4797522E+03
20.443,1.4798286E+03
20.446,1.4798975E+03
20.455,1.4800980E+03
20.456,1.4801177E+03
20.460,1.4801914E+03
20.466,1.4803094E+03
20.467,1.4803296E+03
20.470,1.4803821E+03
20.476,1.4804891E+03
20.479,1.4805391E+03
20.480,1.4805533E+03
20.486,1.4806382E+03
20.491,1.4807091E+03
20.496,1.4807673E+03
20.503,1.4808489E+03
20.506,1.4808763E+03
20.515,1.4809572E+03
20.516,1.4809636E+03
20.518,1.4809764E+03
20.520,1.4809895E+03
20.526,1.4810283E+03
20.527,1.4810312E+03
20.540,1.4810222E+03
20.546,1.4810035E+03
20.550,1.4810083E+03
20.560,1.4809955E+03
20.566,1.4810004E+03
20.576,1.4810087E+03
20.580,1.4810120E+03
20.586,1.4810168E+03
20.606,1.4810334E+03
20.620,1.4810450E+03
20.626,1.4810385E+03
20.636,1.4810270E+03
20.640,1.4810225E+03
20.646,1.4810261E+03
20.660,1.4810344E+03
20.666,1.4810380E+03
20.686,1.4810498E+03
20.696,1.4810558E+03
20.700,1.4810582E+03
20.706,1.4810619E+03
20.726,1.4810743E+03
20.740,1.4810829E+03
20.756,1.4810938E+03
20.760,1.4810964E+03
20.780,1.4811042E+03
20.790,1.4810988E+03
20.800,1.4810909E+03
20.816,1.4810789E+03
20.820,1.4810759E+03
20.826,1.4810746E+03
20.840,1.4810718E+03
20.846,1.4810729E+03
20.860,1.4810754E+03
20.870,1.4810773E+03
20.880,1.4810872E+03
20.900,1.4811068E+03
20.906,1.4811039E+03
20.920,1.4810970E+03
20.926,1.4810995E+03
20.936,1.4811035E+03
20.940,1.4811051E+03
20.946,1.4811075E+03
20.960,1.4811130E+03
20.966,1.4811165E+03
20.980,1.4811241E+03
20.996,1.4812463E+03
21.000,1.4812769E+03
21.020,1.4814906E+03
21.026,1.4815425E+03
21.040,1.4815741E+03
21.046,1.4822430E+03
21.050,1.4826882E+03
21.060,1.4825826E+03
21.090,1.4747976E+03
21.120,1.4416162E+03
21.150,1.3996162E+03
21.180,1.3576162E+03
21.210,1.3156162E+03
21.240,1.2736162E+03
21.270,1.2316162E+03
21.300,1.1896162E+03
21.330,1.1476162E+03
21.360,1.1056162E+03
21.390,1.0636162E+03
21.420,1.0216162E+03
21.450,9.7961621E+02
21.480,9.3761621E+02
21.510,8.9561621E+02
21.540,8.5361621E+02
21.570,8.1161621E+02
21.600,7.6961621E+02
21.630,7.2761621E+02
21.660,6.8561621E+02
21.690,6.4361621E+02
21.720,6.0161621E+02
21.750,5.5961621E+02
21.780,5.1761621E+02
21.810,4.7561621E+02
21.840,4.3361621E+02
21.870,3.9161621E+02
21.900,3.4961621E+02
21.930,3.0761621E+02
21.960,2.6561621E+02
21.990,2.2361620E+02
22.020,1.8161620E+02
22.050,1.3961620E+02
22.080,9.9913101E+01
22.110,7.1366203E+01
22.140,5.5616199E+01
22.800,5.5616199E+01
