REF_TIME,REF
0.000,5.5616200E+01
0.006,5.5641700E+01
0.012,5.5717900E+01
0.018,5.5844900E+01
0.024,5.6022800E+01
0.030,5.6251400E+01
0.035,5.6641300E+01
0.036,5.6531400E+01
0.042,5.6279400E+01
0.048,5.6402400E+01
0.050,5.6567700E+01
0.054,5.6901200E+01
0.060,5.7740300E+01
0.066,5.8883400E+01
0.072,6.0306400E+01
0.078,6.1985300E+01
0.084,6.3776600E+01
0.090,6.5284600E+01
0.096,6.6490400E+01
0.100,6.7113800E+01
0.102,6.7951300E+01
0.108,7.0298000E+01
0.111,7.1388500E+01
0.114,7.2479000E+01
0.120,7.4494400E+01
0.126,7.6344100E+01
0.132,7.8028200E+01
0.138,7.9546700E+01
0.144,8.0899400E+01
0.150,8.2086600E+01
0.156,8.3108100E+01
0.162,8.3963900E+01
0.168,8.4654100E+01
0.174,8.5178700E+01
0.180,8.5537600E+01
0.186,8.5730800E+01
0.192,8.5767700E+01
0.253,8.5767700E+01
0.387,8.5767700E+01
0.507,8.5767700E+01
1.015,8.5767700E+01
1.026,8.5767700E+01
1.076,8.5767700E+01
1.126,8.5767700E+01
1.140,8.5767700E+01
1.150,8.5767700E+01
1.176,8.5767700E+01
1.180,8.5767700E+01
1.200,8.5767700E+01
1.210,8.5767700E+01
1.226,8.5767700E+01
1.276,8.5767700E+01
1.300,8.5767700E+01
1.326,8.5767700E+01
1.350,8.5767700E+01
1.376,8.5767700E+01
1.390,8.5767700E+01
1.426,8.5767700E+01
1.476,8.5767700E+01
1.480,8.5767700E+01
1.510,8.5767700E+01
1.526,8.5767700E+01
1.576,8.5767600E+01
1.600,8.5767600E+01
1.626,8.5767600E+01
1.676,8.5767600E+01
1.726,8.5767600E+01
1.776,8.5767600E+01
1.826,8.5767600E+01
1.876,8.5767600E+01
1.926,8.5767600E+01
1.930,8.5767600E+01
1.976,8.5767600E+01
2.020,8.5767600E+01
2.026,8.5767600E+01
2.076,8.5767600E+01
2.126,8.5767600E+01
2.176,8.5767600E+01
2.200,8.5767600E+01
2.226,8.5767600E+01
2.276,8.5767600E+01
2.320,8.5767600E+01
2.326,8.5767600E+01
2.376,8.5767600E+01
2.426,8.5767600E+01
2.526,8.5767600E+01
2.560,8.5767600E+01
2.576,8.5767600E+01
2.620,8.5767600E+01
2.626,8.5767600E+01
2.676,8.5767600E+01
2.680,8.5767600E+01
2.726,8.5767600E+01
2.776,8.5767600E+01
2.800,8.5767600E+01
2.826,8.5767600E+01
2.860,8.5767600E+01
2.876,8.5767600E+01
2.920,8.5767600E+01
2.926,8.5767600E+01
3.010,8.5767600E+01
3.040,8.5767600E+01
3.126,8.5767600E+01
3.176,8.5767600E+01
3.220,8.5767600E+01
3.226,8.5767600E+01
3.276,8.5767600E+01
3.280,8.5767600E+01
3.326,8.5767600E+01
3.340,8.5767600E+01
3.376,8.5767600E+01
3.400,8.5767600E+01
3.426,8.5767600E+01
3.460,8.5767600E+01
3.476,8.5767600E+01
3.520,8.5767600E+01
3.526,8.5767600E+01
3.576,8.5767600E+01
3.580,8.5767600E+01
3.610,8.5767600E+01
3.611,8.5767600E+01
3.626,8.5767600E+01
3.676,8.5767600E+01
3.700,8.5767600E+01
3.726,8.5767600E+01
3.760,8.5767600E+01
3.776,8.5767600E+01
3.820,8.5767600E+01
3.880,8.5767600E+01
3.926,8.5767600E+01
3.940,8.5767600E+01
3.976,8.5767600E+01
4.000,8.5767600E+01
4.076,8.5767600E+01
4.126,8.5767600E+01
4.150,8.5767600E+01
4.180,8.5767600E+01
4.210,8.5767600E+01
4.240,8.5767600E+01
4.276,8.5767600E+01
4.376,8.5767600E+01
4.420,8.5767600E+01
4.426,8.5767600E+01
4.450,8.5767600E+01
4.476,8.5767600E+01
4.489,8.5767600E+01
4.526,8.5767600E+01
4.540,8.5767600E+01
4.565,8.5767600E+01
4.600,8.5767600E+01
4.615,8.5767600E+01
4.626,8.5767600E+01
4.676,8.5767600E+01
4.690,8.5767600E+01
4.720,8.5767600E+01
4.726,8.5767600E+01
4.776,8.5767600E+01
4.780,8.5767600E+01
4.810,8.5767600E+01
4.826,8.5767600E+01
4.876,8.5767600E+01
4.926,8.5767600E+01
4.976,8.5767600E+01
5.026,8.5767600E+01
5.126,8.5767600E+01
5.140,8.5767600E+01
5.170,8.5767600E+01
5.176,8.5767600E+01
5.226,8.5767600E+01
5.230,8.5767600E+01
5.276,8.5767600E+01
5.326,8.5767600E+01
5.376,8.5767500E+01
5.426,8.5767500E+01
5.470,8.5767500E+01
5.526,8.5767500E+01
5.530,8.5767500E+01
5.576,8.5767500E+01
5.590,8.5767500E+01
5.650,8.5767500E+01
5.676,8.5767500E+01
5.710,8.5767500E+01
5.726,8.5767500E+01
5.740,8.5767500E+01
5.776,8.5767500E+01
5.826,8.5767500E+01
5.890,8.5767500E+01
5.950,8.5767500E+01
6.020,8.5767500E+01
6.070,8.5767500E+01
6.126,8.5767500E+01
6.130,8.5767500E+01
6.176,8.5767500E+01
6.226,8.5767500E+01
6.276,8.5767500E+01
6.278,8.5767500E+01
6.376,8.5767500E+01
6.426,8.5767500E+01
6.526,8.5767500E+01
6.576,8.5767500E+01
6.580,8.5767500E+01
6.610,8.5767500E+01
6.726,8.5767500E+01
6.776,8.5767500E+01
6.790,8.5767500E+01
6.926,8.5767500E+01
6.940,8.5767500E+01
6.976,8.5767500E+01
7.026,8.5767500E+01
7.076,8.5767500E+01
7.126,8.5767500E+01
7.176,8.5767500E+01
7.326,8.5767500E+01
7.330,8.5767500E+01
7.360,8.5767500E+01
7.376,8.5767500E+01
7.390,8.5767500E+01
7.409,8.5767500E+01
7.420,8.5767500E+01
7.450,8.5767500E+01
7.480,8.5767500E+01
7.676,8.5767500E+01
7.720,8.5767500E+01
7.726,8.5767500E+01
7.776,8.5767500E+01
7.780,8.5767500E+01
7.826,8.5767500E+01
7.840,8.5767500E+01
7.876,8.5767500E+01
7.976,8.5767500E+01
8.020,8.5767500E+01
8.165,8.5767500E+01
8.200,8.5767500E+01
8.215,8.5767500E+01
8.260,8.5767500E+01
8.276,8.5767500E+01
8.326,8.5767500E+01
8.380,8.5767500E+01
8.410,8.5767500E+01
8.426,8.5767500E+01
8.470,8.5767500E+01
8.476,8.5767500E+01
8.526,8.5767500E+01
8.576,8.5767500E+01
8.590,8.5767500E+01
8.626,8.5767500E+01
8.710,8.5767500E+01
8.726,8.5767500E+01
8.770,8.5767500E+01
8.776,8.5767500E+01
8.826,8.5767500E+01
8.830,8.5767500E+01
8.876,8.5767500E+01
8.926,8.5767500E+01
8.976,8.5767500E+01
9.010,8.5767500E+01
9.026,8.5767500E+01
9.076,8.5767400E+01
9.176,8.5767400E+01
9.226,8.5767400E+01
9.276,8.5767400E+01
9.310,8.5767400E+01
9.326,8.5767400E+01
9.430,8.5767400E+01
9.580,8.5767400E+01
9.626,8.5767400E+01
9.640,8.5767400E+01
9.676,8.5767400E+01
9.700,8.5767400E+01
9.776,8.5767400E+01
9.790,8.5767400E+01
9.826,8.5767400E+01
9.876,8.5767400E+01
9.910,8.5767400E+01
9.940,8.5767400E+01
10.000,8.5767400E+01
10.026,8.5767400E+01
10.056,8.5767400E+01
10.060,8.5767400E+01
10.086,8.5767400E+01
10.116,8.5767400E+01
10.126,8.5767400E+01
10.146,8.5767400E+01
10.176,8.5767400E+01
10.180,8.5767400E+01
10.206,8.5767400E+01
10.236,8.5767400E+01
10.240,8.5767400E+01
10.266,8.5767400E+01
10.326,8.5767400E+01
10.356,8.5767400E+01
10.386,8.5767400E+01
10.390,8.5767400E+01
10.416,8.5767400E+01
10.420,8.5767400E+01
10.426,8.5767400E+01
10.446,8.5767400E+01
10.476,8.5767400E+01
10.506,8.5767400E+01
10.510,8.5767400E+01
10.526,8.5767400E+01
10.536,8.5767400E+01
10.566,8.5767400E+01
10.570,8.5767400E+01
10.576,8.5767400E+01
10.596,8.5767400E+01
10.626,8.5767400E+01
10.630,8.5767400E+01
10.656,8.5767400E+01
10.676,8.5767400E+01
10.690,8.5767400E+01
10.710,8.5767400E+01
10.716,8.5767400E+01
10.726,8.5767400E+01
10.746,8.5767400E+01
10.750,8.5767400E+01
10.776,8.5767400E+01
10.806,8.5767400E+01
10.826,8.5767400E+01
10.836,8.5767400E+01
10.866,8.5767400E+01
10.876,8.5767400E+01
10.896,8.5767400E+01
10.926,8.5767400E+01
10.956,8.5767400E+01
10.986,8.5767400E+01
11.016,8.5767400E+01
11.020,8.5767400E+01
11.026,8.5767200E+01
11.046,8.5766500E+01
11.050,8.5766400E+01
11.056,8.5766400E+01
11.070,8.5766500E+01
11.076,8.5766500E+01
11.080,8.5766500E+01
11.086,8.5766500E+01
11.106,8.5766600E+01
11.110,8.5766600E+01
11.126,8.5766700E+01
11.136,8.5766700E+01
11.140,8.5766800E+01
11.146,8.5766800E+01
11.166,8.5766900E+01
11.170,8.5766900E+01
11.176,8.5766900E+01
11.200,8.5767000E+01
11.226,8.5767100E+01
11.230,8.5767200E+01
11.250,8.5767300E+01
11.256,8.5767300E+01
11.260,8.5767300E+01
11.266,8.5767300E+01
11.276,8.5767400E+01
11.286,8.5767400E+01
11.316,8.5767500E+01
11.326,8.5767600E+01
11.340,8.5767700E+01
11.346,8.5767700E+01
11.350,8.5767700E+01
11.356,8.5767700E+01
11.376,8.5767800E+01
11.380,8.5767800E+01
11.406,8.5768000E+01
11.410,8.5768000E+01
11.436,8.5768100E+01
11.440,8.5768100E+01
11.446,8.5768100E+01
11.466,8.5768200E+01
11.470,8.5768200E+01
11.476,8.5768300E+01
11.490,8.5768300E+01
11.496,8.5768300E+01
11.500,8.5768400E+01
11.526,8.5768500E+01
11.530,8.5768500E+01
11.550,8.5768600E+01
11.556,8.5768600E+01
11.560,8.5768600E+01
11.576,8.5768700E+01
11.580,8.5768700E+01
11.586,8.5768800E+01
11.590,8.5768800E+01
11.616,8.5768900E+01
11.620,8.5768900E+01
11.626,8.5768900E+01
11.646,8.5769000E+01
11.650,8.5769000E+01
11.676,8.5769200E+01
11.680,8.5769200E+01
11.686,8.5769200E+01
11.700,8.5769300E+01
11.706,8.5769300E+01
11.710,8.5769300E+01
11.726,8.5769400E+01
11.730,8.5769400E+01
11.736,8.5769400E+01
11.740,8.5769400E+01
11.745,8.5769500E+01
11.760,8.5769500E+01
11.765,8.5769500E+01
11.766,8.5769600E+01
11.770,8.5769600E+01
11.776,8.5769600E+01
11.790,8.5769700E+01
11.795,8.5769700E+01
11.796,8.5769700E+01
11.800,8.5769700E+01
11.815,8.5769800E+01
11.820,8.5769800E+01
11.826,8.5769800E+01
11.830,8.5769800E+01
11.839,8.5769900E+01
11.850,8.5769900E+01
11.856,8.5769900E+01
11.860,8.5770000E+01
11.876,8.5770000E+01
11.880,8.5770000E+01
11.886,8.5770100E+01
11.890,8.5770100E+01
11.895,8.5770100E+01
11.910,8.5770200E+01
11.916,8.5770200E+01
11.920,8.5770200E+01
11.926,8.5768300E+01
11.940,8.5764000E+01
11.945,8.5766400E+01
11.946,8.5766900E+01
11.950,8.5768900E+01
11.956,8.5771800E+01
11.960,8.5773700E+01
11.970,8.5770500E+01
11.976,8.5768600E+01
11.980,8.5767300E+01
11.986,8.5767300E+01
11.995,8.5767200E+01
12.000,8.5767100E+01
12.010,8.5773100E+01
12.017,8.5777300E+01
12.020,8.5779200E+01
12.026,8.5777600E+01
12.030,8.5776600E+01
12.040,8.5773900E+01
12.045,8.5773400E+01
12.060,8.5772000E+01
12.066,8.5771000E+01
12.070,8.5770300E+01
12.076,8.5769200E+01
12.080,8.5768500E+01
12.090,8.5770000E+01
12.096,8.5771000E+01
12.100,8.5771600E+01
12.106,8.5772400E+01
12.115,8.5773800E+01
12.120,8.5775700E+01
12.126,8.5780600E+01
12.127,8.5781400E+01
12.130,8.5785200E+01
12.139,8.5796800E+01
12.140,8.5798600E+01
12.145,8.5804400E+01
12.150,8.5810300E+01
12.151,8.5811400E+01
12.156,8.5819600E+01
12.160,8.5826200E+01
12.163,8.5832000E+01
12.166,8.5839200E+01
12.167,8.5841700E+01
12.170,8.5848900E+01
12.175,8.5860900E+01
12.176,8.5863800E+01
12.180,8.5875300E+01
12.186,8.5892300E+01
12.187,8.5895100E+01
12.195,8.5921500E+01
12.196,8.5924800E+01
12.199,8.5934700E+01
12.200,8.5938500E+01
12.210,8.5972000E+01
12.211,8.5975300E+01
12.216,8.5994400E+01
12.220,8.6009700E+01
12.223,8.6021000E+01
12.226,8.6033800E+01
12.235,8.6072000E+01
12.240,8.6095600E+01
12.245,8.6124300E+01
12.246,8.6130000E+01
12.247,8.6135700E+01
12.250,8.6154300E+01
12.259,8.6210000E+01
12.260,8.6216600E+01
12.270,8.6274800E+01
12.271,8.6280700E+01
12.276,8.6312100E+01
12.280,8.6337300E+01
12.283,8.6356100E+01
12.286,8.6376400E+01
12.295,8.6437200E+01
12.300,8.6473400E+01
12.306,8.6517700E+01
12.307,8.6525100E+01
12.310,8.6548600E+01
12.319,8.6619400E+01
12.320,8.6627700E+01
12.326,8.6677300E+01
12.330,8.6710400E+01
12.331,8.6718700E+01
12.336,8.6762300E+01
12.340,8.6797300E+01
12.343,8.6823500E+01
12.355,8.6934000E+01
12.360,8.6982400E+01
12.366,8.7040500E+01
12.367,8.7050200E+01
12.370,8.7080600E+01
12.376,8.7141600E+01
12.379,8.7172000E+01
12.380,8.7182700E+01
12.390,8.7288500E+01
12.391,8.7299100E+01
12.395,8.7343400E+01
12.396,8.7354400E+01
12.400,8.7398700E+01
12.403,8.7431900E+01
12.415,8.7570200E+01
12.420,8.7630200E+01
12.426,8.7701900E+01
12.427,8.7713900E+01
12.430,8.7751200E+01
12.439,8.7863100E+01
12.440,8.7876000E+01
12.445,8.7940500E+01
12.450,8.8004900E+01
12.451,8.8017800E+01
12.456,8.8084700E+01
12.460,8.8138200E+01
12.463,8.8178300E+01
12.470,8.8275200E+01
12.475,8.8344300E+01
12.476,8.8358700E+01
12.480,8.8415900E+01
12.486,8.8501700E+01
12.487,8.8516000E+01
12.490,8.8560400E+01
12.495,8.8634200E+01
12.499,8.8693300E+01
12.500,8.8708500E+01
12.510,8.8864300E+01
12.511,8.8879900E+01
12.516,8.8960200E+01
12.520,8.9024400E+01
12.523,8.9071300E+01
12.526,8.9119700E+01
12.535,8.9265400E+01
12.540,8.9348700E+01
12.545,8.9432000E+01
12.546,8.9448700E+01
12.547,8.9465300E+01
12.559,8.9670800E+01
12.570,8.9864400E+01
12.571,8.9881900E+01
12.576,8.9972100E+01
12.580,9.0044200E+01
12.583,9.0098300E+01
12.595,9.0320400E+01
12.600,9.0415300E+01
12.605,9.0510200E+01
12.606,9.0529100E+01
12.607,9.0548100E+01
12.619,9.0781800E+01
12.620,9.0801700E+01
12.621,9.0821600E+01
12.626,9.0920800E+01
12.630,9.1000000E+01
12.631,9.1019900E+01
12.636,9.1121500E+01
12.640,9.1202800E+01
12.643,9.1263800E+01
12.651,9.1430400E+01
12.655,9.1513700E+01
12.660,9.1620200E+01
12.666,9.1748400E+01
12.667,9.1769800E+01
12.670,9.1835300E+01
12.676,9.1966400E+01
12.679,9.2031900E+01
12.680,9.2054200E+01
12.681,9.2076600E+01
12.686,9.2188200E+01
12.690,9.2277600E+01
12.691,9.2299900E+01
12.696,9.2414000E+01
12.700,9.2505200E+01
12.703,9.2573600E+01
12.710,9.2736600E+01
12.715,9.2852900E+01
12.720,9.2971700E+01
12.726,9.3111700E+01
12.727,9.3135000E+01
12.730,9.3206500E+01
12.739,9.3420400E+01
12.740,9.3444700E+01
12.745,9.3568000E+01
12.750,9.3691400E+01
12.751,9.3716100E+01
12.756,9.3841800E+01
12.760,9.3942400E+01
12.763,9.4017900E+01
12.770,9.4197400E+01
12.775,9.4325600E+01
12.776,9.4351700E+01
12.780,9.4455900E+01
12.786,9.4611500E+01
12.787,9.4637400E+01
12.795,9.4848600E+01
12.799,9.4954200E+01
12.800,9.4981100E+01
12.810,9.5249800E+01
12.811,9.5276700E+01
12.816,9.5413300E+01
12.820,9.5522700E+01
12.823,9.5604700E+01
12.826,9.5688100E+01
12.835,9.5938400E+01
12.840,9.6079700E+01
12.845,9.6220100E+01
12.846,9.6248100E+01
12.847,9.6276200E+01
12.850,9.6361800E+01
12.856,9.6533200E+01
12.859,9.6618900E+01
12.860,9.6648000E+01
12.870,9.6938400E+01
12.871,9.6967500E+01
12.876,9.7114900E+01
12.880,9.7232800E+01
12.883,9.7322400E+01
12.895,9.7686500E+01
12.900,9.7840600E+01
12.906,9.8025300E+01
12.907,9.8056100E+01
12.919,9.8431400E+01
12.920,9.8463100E+01
12.926,9.8652500E+01
12.930,9.8778500E+01
12.931,9.8810000E+01
12.936,9.8969800E+01
12.940,9.9097600E+01
12.943,9.9193500E+01
12.945,9.9258400E+01
12.950,9.9420500E+01
12.955,9.9582900E+01
12.960,9.9747500E+01
12.966,9.9945000E+01
12.967,9.9977900E+01
12.970,1.0007790E+02
12.976,1.0027810E+02
12.979,1.0037820E+02
12.980,1.0041200E+02
12.990,1.0075080E+02
12.991,1.0078470E+02
12.995,1.0092210E+02
12.996,1.0095640E+02
13.000,1.0109360E+02
13.003,1.0119660E+02
13.006,1.0130110E+02
13.015,1.0161450E+02
13.020,1.0179100E+02
13.026,1.0200270E+02
13.027,1.0203800E+02
13.030,1.0214530E+02
13.039,1.0246710E+02
13.040,1.0250340E+02
13.045,1.0268420E+02
13.050,1.0286540E+02
13.051,1.0290160E+02
13.056,1.0308510E+02
13.060,1.0323190E+02
13.063,1.0334200E+02
13.066,1.0345350E+02
13.070,1.0360220E+02
13.075,1.0378810E+02
13.076,1.0382570E+02
13.080,1.0397630E+02
13.087,1.0423980E+02
13.095,1.0454470E+02
13.099,1.0469710E+02
13.100,1.0473570E+02
13.110,1.0512490E+02
13.111,1.0516390E+02
13.116,1.0536080E+02
13.120,1.0551840E+02
13.123,1.0563460E+02
13.126,1.0575230E+02
13.135,1.0610520E+02
13.140,1.0630360E+02
13.145,1.0650370E+02
13.146,1.0654370E+02
13.147,1.0658380E+02
13.159,1.0706970E+02
13.160,1.0711070E+02
13.170,1.0752240E+02
13.171,1.0756360E+02
13.176,1.0777190E+02
13.180,1.0793850E+02
13.183,1.0806240E+02
13.186,1.0818770E+02
13.190,1.0835480E+02
13.195,1.0856370E+02
13.200,1.0877450E+02
13.206,1.0902770E+02
13.207,1.0906990E+02
13.210,1.0919800E+02
13.219,1.0958220E+02
13.220,1.0962540E+02
13.226,1.0988730E+02
13.230,1.1006200E+02
13.231,1.1010570E+02
13.236,1.1032640E+02
13.240,1.1050290E+02
13.243,1.1063340E+02
13.245,1.1072130E+02
13.246,1.1076530E+02
13.255,1.1116080E+02
13.260,1.1138280E+02
13.266,1.1164760E+02
13.267,1.1169170E+02
13.270,1.1182550E+02
13.276,1.1209310E+02
13.279,1.1222690E+02
13.280,1.1227190E+02
13.290,1.1272910E+02
13.291,1.1277480E+02
13.295,1.1295950E+02
13.296,1.1300570E+02
13.300,1.1319050E+02
13.303,1.1332800E+02
13.306,1.1346700E+02
13.310,1.1365230E+02
13.315,1.1388390E+02
13.320,1.1411790E+02
13.326,1.1439880E+02
13.327,1.1444560E+02
13.330,1.1458740E+02
13.336,1.1487110E+02
13.339,1.1501300E+02
13.340,1.1506070E+02
13.345,1.1529950E+02
13.350,1.1553860E+02
13.351,1.1558650E+02
13.356,1.1582790E+02
13.360,1.1602110E+02
13.363,1.1616660E+02
13.366,1.1631350E+02
13.370,1.1650940E+02
13.375,1.1675430E+02
13.376,1.1680380E+02
13.380,1.1700160E+02
13.386,1.1729560E+02
13.387,1.1734460E+02
13.390,1.1749300E+02
13.395,1.1774360E+02
13.399,1.1794410E+02
13.400,1.1799470E+02
13.410,1.1850170E+02
13.411,1.1855240E+02
13.416,1.1880830E+02
13.420,1.1901300E+02
13.423,1.1916460E+02
13.426,1.1931750E+02
13.430,1.1952150E+02
13.435,1.1977650E+02
13.440,1.2003380E+02
13.445,1.2028590E+02
13.446,1.2033630E+02
13.447,1.2038670E+02
13.450,1.2053930E+02
13.459,1.2100460E+02
13.460,1.2105680E+02
13.470,1.2159070E+02
13.471,1.2164360E+02
13.476,1.2191020E+02
13.480,1.2212340E+02
13.483,1.2228250E+02
13.486,1.2244300E+02
13.495,1.2292480E+02
13.500,1.2319460E+02
13.506,1.2351840E+02
13.507,1.2357240E+02
13.510,1.2373570E+02
13.516,1.2406230E+02
13.519,1.2422550E+02
13.520,1.2428030E+02
13.526,1.2460970E+02
13.530,1.2482920E+02
13.531,1.2488410E+02
13.536,1.2516090E+02
13.540,1.2538220E+02
13.543,1.2554820E+02
13.546,1.2571560E+02
13.550,1.2593870E+02
13.555,1.2621790E+02
13.560,1.2649940E+02
13.566,1.2683690E+02
13.567,1.2689310E+02
13.570,1.2706310E+02
13.579,1.2757400E+02
13.580,1.2763120E+02
13.590,1.2820340E+02
13.591,1.2826060E+02
13.596,1.2854890E+02
13.600,1.2877940E+02
13.603,1.2895320E+02
13.606,1.2912830E+02
13.610,1.2936180E+02
13.615,1.2965400E+02
13.620,1.2994860E+02
13.626,1.3030210E+02
13.627,1.3036100E+02
13.630,1.3053920E+02
13.639,1.3106940E+02
13.640,1.3112880E+02
13.645,1.3142560E+02
13.650,1.3172250E+02
13.651,1.3178190E+02
13.656,1.3208110E+02
13.660,1.3232040E+02
13.663,1.3250200E+02
13.666,1.3268490E+02
13.670,1.3292730E+02
13.675,1.3323210E+02
13.676,1.3329350E+02
13.680,1.3353920E+02
13.686,1.3390770E+02
13.687,1.3396910E+02
13.690,1.3415470E+02
13.695,1.3446070E+02
13.696,1.3452190E+02
13.699,1.3470540E+02
13.700,1.3476710E+02
13.706,1.3513700E+02
13.710,1.3538360E+02
13.711,1.3544530E+02
13.716,1.3575590E+02
13.720,1.3600440E+02
13.723,1.3619150E+02
13.726,1.3638000E+02
13.735,1.3694540E+02
13.736,1.3700870E+02
13.740,1.3726190E+02
13.745,1.3757830E+02
13.746,1.3764160E+02
13.747,1.3770490E+02
13.750,1.3789620E+02
13.756,1.3827870E+02
13.759,1.3847000E+02
13.760,1.3853420E+02
13.766,1.3891950E+02
13.770,1.3917640E+02
13.771,1.3924060E+02
13.776,1.3956410E+02
13.780,1.3982290E+02
13.783,1.4001620E+02
13.795,1.4079510E+02
13.796,1.4086050E+02
13.800,1.4112200E+02
13.806,1.4151420E+02
13.807,1.4157960E+02
13.810,1.4177710E+02
13.819,1.4237180E+02
13.820,1.4243830E+02
13.826,1.4283750E+02
13.830,1.4310360E+02
13.831,1.4317020E+02
13.836,1.4350520E+02
13.838,1.4363920E+02
13.840,1.4377320E+02
13.843,1.4397420E+02
13.846,1.4417660E+02
13.855,1.4478370E+02
13.856,1.4485170E+02
13.860,1.4512340E+02
13.866,1.4553090E+02
13.867,1.4559890E+02
13.870,1.4580410E+02
13.876,1.4621450E+02
13.879,1.4641980E+02
13.880,1.4648870E+02
13.886,1.4690200E+02
13.890,1.4717750E+02
13.891,1.4724640E+02
13.895,1.4752370E+02
13.896,1.4759310E+02
13.900,1.4787050E+02
13.903,1.4807880E+02
13.910,1.4856830E+02
13.915,1.4891790E+02
13.916,1.4898820E+02
13.920,1.4926980E+02
13.926,1.4969210E+02
13.927,1.4976250E+02
13.930,1.4997510E+02
13.939,1.5061230E+02
13.940,1.5068360E+02
13.945,1.5104000E+02
13.946,1.5111120E+02
13.950,1.5139630E+02
13.951,1.5146760E+02
13.956,1.5182630E+02
13.960,1.5211330E+02
13.963,1.5232910E+02
13.966,1.5254640E+02
13.970,1.5283610E+02
13.975,1.5319830E+02
13.976,1.5327110E+02
13.980,1.5356270E+02
13.986,1.5400010E+02
13.987,1.5407300E+02
13.990,1.5429310E+02
13.995,1.5465820E+02
13.996,1.5473120E+02
13.999,1.5495020E+02
14.000,1.5502370E+02
14.006,1.5546450E+02
14.010,1.5575840E+02
14.011,1.5583190E+02
14.016,1.5620160E+02
14.020,1.5649740E+02
14.023,1.5671930E+02
14.026,1.5694260E+02
14.035,1.5761260E+02
14.036,1.5768750E+02
14.038,1.5783730E+02
14.040,1.5798710E+02
14.046,1.5843650E+02
14.047,1.5851140E+02
14.050,1.5873750E+02
14.056,1.5918960E+02
14.059,1.5941570E+02
14.060,1.5949150E+02
14.066,1.5994630E+02
14.070,1.6024950E+02
14.071,1.6032540E+02
14.076,1.6070690E+02
14.080,1.6101220E+02
14.083,1.6124070E+02
14.095,1.6216020E+02
14.096,1.6223730E+02
14.100,1.6254570E+02
14.106,1.6300820E+02
14.107,1.6308530E+02
14.110,1.6331800E+02
14.116,1.6378270E+02
14.119,1.6401500E+02
14.120,1.6409290E+02
14.126,1.6456030E+02
14.130,1.6487190E+02
14.131,1.6494980E+02
14.136,1.6534160E+02
14.140,1.6565510E+02
14.143,1.6589110E+02
14.150,1.6644520E+02
14.155,1.6684090E+02
14.156,1.6692050E+02
14.160,1.6723890E+02
14.166,1.6771660E+02
14.167,1.6779620E+02
14.170,1.6803650E+02
14.176,1.6851700E+02
14.179,1.6875720E+02
14.180,1.6883770E+02
14.186,1.6932100E+02
14.190,1.6964320E+02
14.191,1.6972370E+02
14.195,1.7004770E+02
14.200,1.7045270E+02
14.203,1.7069670E+02
14.210,1.7126910E+02
14.215,1.7167800E+02
14.216,1.7176030E+02
14.220,1.7208930E+02
14.226,1.7258270E+02
14.227,1.7266500E+02
14.230,1.7291310E+02
14.236,1.7340340E+02
14.239,1.7364850E+02
14.240,1.7373070E+02
14.245,1.7414160E+02
14.246,1.7422380E+02
14.250,1.7455250E+02
14.251,1.7463470E+02
14.256,1.7504790E+02
14.260,1.7537840E+02
14.263,1.7562830E+02
14.266,1.7587960E+02
14.270,1.7621460E+02
14.275,1.7663340E+02
14.276,1.7671760E+02
14.280,1.7705450E+02
14.286,1.7755980E+02
14.287,1.7764410E+02
14.290,1.7789810E+02
14.295,1.7832330E+02
14.299,1.7866340E+02
14.300,1.7874890E+02
14.306,1.7926190E+02
14.310,1.7960390E+02
14.311,1.7968940E+02
14.316,1.8011920E+02
14.320,1.8046300E+02
14.323,1.8071900E+02
14.326,1.8097630E+02
14.335,1.8174830E+02
14.336,1.8183460E+02
14.340,1.8217950E+02
14.346,1.8269690E+02
14.347,1.8278320E+02
14.350,1.8304330E+02
14.359,1.8382470E+02
14.366,1.8443580E+02
14.370,1.8478490E+02
14.371,1.8487220E+02
14.376,1.8531100E+02
14.380,1.8566200E+02
14.383,1.8592690E+02
14.386,1.8619320E+02
14.390,1.8654840E+02
14.395,1.8699230E+02
14.396,1.8708150E+02
14.400,1.8743850E+02
14.406,1.8797400E+02
14.407,1.8806320E+02
14.410,1.8833240E+02
14.416,1.8886860E+02
14.419,1.8913670E+02
14.420,1.8922650E+02
14.426,1.8976550E+02
14.430,1.9012480E+02
14.431,1.9021460E+02
14.436,1.9066610E+02
14.440,1.9102730E+02
14.443,1.9129820E+02
14.445,1.9147980E+02
14.446,1.9157060E+02
14.455,1.9238750E+02
14.460,1.9284380E+02
14.466,1.9339120E+02
14.467,1.9348240E+02
14.470,1.9375760E+02
14.476,1.9430780E+02
14.478,1.9449120E+02
14.479,1.9458290E+02
14.480,1.9467510E+02
14.486,1.9522810E+02
14.490,1.9559680E+02
14.491,1.9568900E+02
14.495,1.9605950E+02
14.496,1.9615220E+02
14.500,1.9652270E+02
14.503,1.9680320E+02
14.506,1.9708520E+02
14.515,1.9793100E+02
14.516,1.9802540E+02
14.520,1.9840330E+02
14.526,1.9897000E+02
14.527,1.9906440E+02
14.530,1.9934920E+02
14.536,1.9990620E+02
14.539,2.0018460E+02
14.540,2.0027790E+02
14.546,2.0083760E+02
14.550,2.0121060E+02
14.551,2.0130390E+02
14.556,2.0177250E+02
14.560,2.0214740E+02
14.563,2.0243250E+02
14.570,2.0310090E+02
14.575,2.0357830E+02
14.576,2.0367420E+02
14.580,2.0405800E+02
14.586,2.0463370E+02
14.587,2.0472960E+02
14.590,2.0501890E+02
14.595,2.0550020E+02
14.599,2.0588520E+02
14.600,2.0598190E+02
14.606,2.0656230E+02
14.610,2.0694910E+02
14.611,2.0704590E+02
14.616,2.0753240E+02
14.620,2.0792160E+02
14.623,2.0821490E+02
14.626,2.0851110E+02
14.630,2.0890600E+02
14.635,2.0939960E+02
14.640,2.0989820E+02
14.645,2.1039670E+02
14.646,2.1049640E+02
14.647,2.1059610E+02
14.650,2.1089820E+02
14.659,2.1180190E+02
14.660,2.1190330E+02
14.666,2.1251160E+02
14.670,2.1291720E+02
14.671,2.1301860E+02
14.676,2.1353050E+02
14.680,2.1394000E+02
14.683,2.1424940E+02
14.686,2.1456180E+02
14.690,2.1497830E+02
14.695,2.1549890E+02
14.696,2.1560400E+02
14.700,2.1602440E+02
14.706,2.1665510E+02
14.707,2.1676020E+02
14.710,2.1707850E+02
14.716,2.1771020E+02
14.719,2.1802600E+02
14.720,2.1813230E+02
14.726,2.1876990E+02
14.730,2.1919490E+02
14.731,2.1930120E+02
14.736,2.1983740E+02
14.740,2.2026630E+02
14.743,2.2058810E+02
14.746,2.2091270E+02
14.755,2.2188670E+02
14.756,2.2199590E+02
14.760,2.2243280E+02
14.766,2.2308800E+02
14.767,2.2319720E+02
14.770,2.2352770E+02
14.776,2.2418290E+02
14.779,2.2451030E+02
14.786,2.2528100E+02
14.790,2.2572140E+02
14.791,2.2583150E+02
14.796,2.2638690E+02
14.800,2.2683120E+02
14.803,2.2716730E+02
14.815,2.2852350E+02
14.816,2.2863750E+02
14.820,2.2909350E+02
14.826,2.2977750E+02
14.827,2.2989150E+02
14.830,2.3023650E+02
14.836,2.3092630E+02
14.839,2.3127130E+02
14.840,2.3138720E+02
14.845,2.3196700E+02
14.846,2.3208300E+02
14.850,2.3254680E+02
14.851,2.3266280E+02
14.856,2.3324750E+02
14.860,2.3371520E+02
14.863,2.3406740E+02
14.866,2.3442260E+02
14.875,2.3548810E+02
14.876,2.3560740E+02
14.880,2.3608490E+02
14.886,2.3680120E+02
14.887,2.3692050E+02
14.890,2.3728160E+02
14.895,2.3787950E+02
14.896,2.3799910E+02
14.899,2.3835780E+02
14.900,2.3847830E+02
14.906,2.3920170E+02
14.910,2.3968390E+02
14.911,2.3980440E+02
14.920,2.4089820E+02
14.923,2.4126540E+02
14.926,2.4163560E+02
14.935,2.4274610E+02
14.936,2.4287050E+02
14.940,2.4336800E+02
14.945,2.4398990E+02
14.946,2.4411430E+02
14.947,2.4423870E+02
14.950,2.4461480E+02
14.959,2.4573170E+02
14.966,2.4660720E+02
14.970,2.4710750E+02
14.971,2.4723250E+02
14.976,2.4786280E+02
14.980,2.4836690E+02
14.983,2.4874700E+02
14.995,2.5027920E+02
15.000,2.5092240E+02
15.006,2.5169440E+02
15.007,2.5182300E+02
15.010,2.5221190E+02
15.016,2.5298930E+02
15.019,2.5337800E+02
15.020,2.5350850E+02
15.026,2.5429170E+02
15.030,2.5481390E+02
15.031,2.5494440E+02
15.036,2.5560200E+02
15.040,2.5612810E+02
15.043,2.5652370E+02
15.045,2.5678940E+02
15.055,2.5811800E+02
15.056,2.5825180E+02
15.060,2.5878720E+02
15.066,2.5959020E+02
15.067,2.5972410E+02
15.070,2.6012850E+02
15.076,2.6093300E+02
15.079,2.6133520E+02
15.086,2.6228060E+02
15.090,2.6282080E+02
15.091,2.6295580E+02
15.095,2.6349990E+02
15.096,2.6363590E+02
15.100,2.6418000E+02
15.103,2.6458950E+02
15.106,2.6500190E+02
15.110,2.6555180E+02
15.115,2.6623910E+02
15.116,2.6637760E+02
15.120,2.6693140E+02
15.126,2.6776210E+02
15.127,2.6790050E+02
15.130,2.6831880E+02
15.139,2.6957360E+02
15.140,2.6971400E+02
15.145,2.7041600E+02
15.146,2.7055650E+02
15.150,2.7111810E+02
15.151,2.7125850E+02
15.156,2.7196540E+02
15.160,2.7253090E+02
15.163,2.7295610E+02
15.170,2.7395500E+02
15.175,2.7466660E+02
15.176,2.7480990E+02
15.180,2.7538320E+02
15.186,2.7624290E+02
15.187,2.7638620E+02
15.190,2.7681910E+02
15.195,2.7753820E+02
15.199,2.7811600E+02
15.200,2.7826140E+02
15.206,2.7913390E+02
15.210,2.7971560E+02
15.211,2.7986100E+02
15.216,2.8059310E+02
15.220,2.8117870E+02
15.223,2.8161760E+02
15.226,2.8205950E+02
15.235,2.8338500E+02
15.236,2.8353320E+02
15.240,2.8412620E+02
15.245,2.8486750E+02
15.247,2.8516370E+02
15.250,2.8561080E+02
15.259,2.8695090E+02
15.266,2.8800000E+02
15.270,2.8859950E+02
15.271,2.8874950E+02
15.276,2.8950450E+02
15.280,2.9010840E+02
15.283,2.9056260E+02
15.295,2.9239130E+02
15.296,2.9254470E+02
15.300,2.9315810E+02
15.306,2.9407820E+02
15.307,2.9423160E+02
15.310,2.9469460E+02
15.319,2.9607970E+02
15.320,2.9623460E+02
15.326,2.9716550E+02
15.330,2.9778610E+02
15.331,2.9794130E+02
15.340,2.9934630E+02
15.343,2.9981670E+02
15.345,3.0013230E+02
15.350,3.0091870E+02
15.355,3.0170500E+02
15.356,3.0186330E+02
15.360,3.0249630E+02
15.366,3.0344590E+02
15.367,3.0360420E+02
15.370,3.0408190E+02
15.376,3.0503440E+02
15.379,3.0551060E+02
15.380,3.0567030E+02
15.386,3.0662860E+02
15.390,3.0726740E+02
15.391,3.0742710E+02
15.395,3.0806990E+02
15.396,3.0823100E+02
15.400,3.0887570E+02
15.403,3.0935730E+02
15.406,3.0984180E+02
15.415,3.1129540E+02
15.420,3.1210780E+02
15.426,3.1308170E+02
15.427,3.1324400E+02
15.430,3.1373390E+02
15.436,3.1471680E+02
15.439,3.1520820E+02
15.440,3.1537300E+02
15.445,3.1619690E+02
15.446,3.1636200E+02
15.450,3.1702210E+02
15.451,3.1718720E+02
15.456,3.1801740E+02
15.460,3.1868150E+02
15.463,3.1918010E+02
15.470,3.2035040E+02
15.475,3.2118510E+02
15.476,3.2135300E+02
15.480,3.2202470E+02
15.486,3.2303220E+02
15.487,3.2320020E+02
15.490,3.2370690E+02
15.495,3.2455050E+02
15.499,3.2522530E+02
15.500,3.2539500E+02
15.506,3.2641320E+02
15.510,3.2709200E+02
15.511,3.2726170E+02
15.516,3.2811500E+02
15.520,3.2879770E+02
15.523,3.2930840E+02
15.526,3.2982200E+02
15.535,3.3136280E+02
15.536,3.3153490E+02
15.540,3.3222360E+02
15.545,3.3308430E+02
15.546,3.3325700E+02
15.547,3.3342980E+02
15.550,3.3395080E+02
15.559,3.3551200E+02
15.560,3.3568640E+02
15.566,3.3673300E+02
15.570,3.3743080E+02
15.571,3.3760520E+02
15.576,3.3848220E+02
15.580,3.3918410E+02
15.583,3.3971220E+02
15.590,3.4095130E+02
15.595,3.4183630E+02
15.596,3.4201430E+02
15.600,3.4272620E+02
15.606,3.4379410E+02
15.607,3.4397210E+02
15.610,3.4450910E+02
15.619,3.4611680E+02
15.620,3.4629650E+02
15.626,3.4737420E+02
15.630,3.4809270E+02
15.631,3.4827230E+02
15.636,3.4917540E+02
15.640,3.4989780E+02
15.643,3.5043870E+02
15.645,3.5080130E+02
15.655,3.5261360E+02
15.656,3.5279580E+02
15.660,3.5352470E+02
15.666,3.5461730E+02
15.667,3.5479940E+02
15.670,3.5534860E+02
15.676,3.5644860E+02
15.679,3.5699850E+02
15.686,3.5828860E+02
15.690,3.5902580E+02
15.691,3.5921010E+02
15.696,3.6013650E+02
15.700,3.6087760E+02
15.703,3.6143340E+02
15.715,3.6366840E+02
15.716,3.6385560E+02
15.720,3.6460450E+02
15.726,3.6572790E+02
15.727,3.6591510E+02
15.730,3.6647980E+02
15.739,3.6817420E+02
15.740,3.6836350E+02
15.746,3.6949900E+02
15.750,3.7025600E+02
15.751,3.7044530E+02
15.756,3.7139670E+02
15.760,3.7215790E+02
15.763,3.7272800E+02
15.775,3.7502030E+02
15.776,3.7521230E+02
15.780,3.7598030E+02
15.786,3.7713190E+02
15.787,3.7732380E+02
15.790,3.7790250E+02
15.799,3.7964410E+02
15.800,3.7983860E+02
15.806,3.8100560E+02
15.810,3.8178350E+02
15.811,3.8197800E+02
15.816,3.8295540E+02
15.820,3.8373730E+02
15.823,3.8432130E+02
15.826,3.8490820E+02
15.830,3.8569080E+02
15.835,3.8666900E+02
15.836,3.8686560E+02
15.840,3.8765200E+02
15.846,3.8883170E+02
15.847,3.8902850E+02
15.850,3.8962170E+02
15.859,3.9140410E+02
15.860,3.9160310E+02
15.866,3.9279730E+02
15.870,3.9359330E+02
15.871,3.9379240E+02
15.876,3.9479240E+02
15.880,3.9559240E+02
15.883,3.9619230E+02
15.886,3.9679510E+02
15.890,3.9759890E+02
15.895,3.9860360E+02
15.896,3.9880550E+02
15.900,3.9961310E+02
15.906,4.0082430E+02
15.907,4.0102610E+02
15.910,4.0163460E+02
15.916,4.0285390E+02
15.918,4.0326030E+02
15.919,4.0346350E+02
15.920,4.0366770E+02
15.926,4.0489290E+02
15.930,4.0570960E+02
15.931,4.0591380E+02
15.936,4.0693960E+02
15.940,4.0776030E+02
15.943,4.0837490E+02
15.955,4.1084520E+02
15.956,4.1105200E+02
15.958,4.1146560E+02
15.960,4.1187930E+02
15.966,4.1312020E+02
15.967,4.1332710E+02
15.970,4.1395050E+02
15.976,4.1519730E+02
15.979,4.1582070E+02
15.986,4.1728210E+02
15.990,4.1811720E+02
15.991,4.1832600E+02
15.995,4.1916500E+02
15.996,4.1937480E+02
15.998,4.1979430E+02
16.000,4.2021380E+02
16.003,4.2084370E+02
16.010,4.2232020E+02
16.015,4.2337490E+02
16.016,4.2358680E+02
16.020,4.2443440E+02
16.026,4.2570590E+02
16.027,4.2591780E+02
16.030,4.2655650E+02
16.031,4.2676880E+02
16.036,4.2783010E+02
16.038,4.2825470E+02
16.039,4.2846690E+02
16.040,4.2868020E+02
16.046,4.2995960E+02
16.050,4.3081260E+02
16.051,4.3102580E+02
16.056,4.3209690E+02
16.060,4.3295370E+02
16.063,4.3359750E+02
16.066,4.3424430E+02
16.068,4.3467540E+02
16.070,4.3510660E+02
16.075,4.3618450E+02
16.076,4.3640100E+02
16.078,4.3683410E+02
16.080,4.3726720E+02
16.081,4.3748380E+02
16.086,4.3856650E+02
16.087,4.3878310E+02
16.090,4.3943570E+02
16.096,4.4074080E+02
16.098,4.4117580E+02
16.099,4.4139340E+02
16.100,4.4161190E+02
16.106,4.4292280E+02
16.110,4.4379680E+02
16.111,4.4401530E+02
16.116,4.4511270E+02
16.118,4.4555160E+02
16.120,4.4599060E+02
16.123,4.4664950E+02
16.126,4.4731140E+02
16.128,4.4775260E+02
16.131,4.4841440E+02
16.135,4.4929690E+02
16.136,4.4951850E+02
16.140,4.5040490E+02
16.146,4.5173450E+02
16.147,4.5195610E+02
16.150,4.5262380E+02
16.156,4.5395800E+02
16.158,4.5440280E+02
16.159,4.5462510E+02
16.166,4.5618860E+02
16.170,4.5708190E+02
16.171,4.5730530E+02
16.176,4.5842690E+02
16.180,4.5932410E+02
16.181,4.5954850E+02
16.183,4.5999720E+02
16.186,4.6067320E+02
16.188,4.6112380E+02
16.195,4.6270100E+02
16.196,4.6292730E+02
16.200,4.6383250E+02
16.206,4.6519030E+02
16.207,4.6541660E+02
16.210,4.6609840E+02
16.216,4.6746230E+02
16.218,4.6791700E+02
16.219,4.6814440E+02
16.220,4.6837270E+02
16.226,4.6974280E+02
16.230,4.7065630E+02
16.231,4.7088470E+02
16.236,4.7203150E+02
16.240,4.7294890E+02
16.243,4.7363710E+02
16.246,4.7432830E+02
16.248,4.7478880E+02
16.250,4.7524940E+02
16.255,4.7640080E+02
16.256,4.7663210E+02
16.260,4.7755580E+02
16.266,4.7894310E+02
16.267,4.7917440E+02
16.270,4.7987130E+02
16.276,4.8126320E+02
16.278,4.8172720E+02
16.279,4.8195920E+02
16.286,4.8358980E+02
16.290,4.8452170E+02
16.291,4.8475460E+02
16.296,4.8592420E+02
16.300,4.8685990E+02
16.303,4.8756190E+02
16.306,4.8826680E+02
16.308,4.8873580E+02
16.310,4.8920490E+02
16.315,4.9037970E+02
16.316,4.9061570E+02
16.318,4.9108800E+02
16.320,4.9156020E+02
16.326,4.9297700E+02
16.327,4.9321320E+02
16.330,4.9392460E+02
16.331,4.9416170E+02
16.336,4.9534720E+02
16.338,4.9582100E+02
16.339,4.9605790E+02
16.340,4.9629580E+02
16.346,4.9772420E+02
16.350,4.9867660E+02
16.351,4.9891470E+02
16.356,5.0011020E+02
16.358,5.0058830E+02
16.360,5.0106640E+02
16.363,5.0178380E+02
16.366,5.0250410E+02
16.375,5.0466470E+02
16.376,5.0490570E+02
16.380,5.0586970E+02
16.381,5.0611060E+02
16.386,5.0731550E+02
16.387,5.0755650E+02
16.390,5.0828230E+02
16.396,5.0973130E+02
16.398,5.1021430E+02
16.399,5.1045580E+02
16.400,5.1069830E+02
16.406,5.1215320E+02
16.410,5.1312360E+02
16.411,5.1336620E+02
16.416,5.1458400E+02
16.420,5.1555860E+02
16.423,5.1629030E+02
16.426,5.1702480E+02
16.428,5.1751490E+02
16.435,5.1923000E+02
16.436,5.1947600E+02
16.438,5.1996820E+02
16.440,5.2046030E+02
16.446,5.2193700E+02
16.447,5.2218300E+02
16.450,5.2292420E+02
16.456,5.2440650E+02
16.459,5.2514760E+02
16.460,5.2539560E+02
16.466,5.2688370E+02
16.470,5.2787530E+02
16.471,5.2812320E+02
16.476,5.2936760E+02
16.478,5.2986520E+02
16.480,5.3036290E+02
16.483,5.3110840E+02
16.486,5.3185680E+02
16.488,5.3235560E+02
16.495,5.3410150E+02
16.496,5.3435180E+02
16.500,5.3535100E+02
16.506,5.3685280E+02
16.507,5.3710330E+02
16.510,5.3785790E+02
16.516,5.3936970E+02
16.518,5.3987370E+02
16.519,5.4012570E+02
16.520,5.4037870E+02
16.526,5.4189660E+02
16.530,5.4290880E+02
16.531,5.4316180E+02
16.536,5.4443200E+02
16.540,5.4544820E+02
16.543,5.4620910E+02
16.546,5.4697280E+02
16.548,5.4748150E+02
16.550,5.4799020E+02
16.555,5.4926150E+02
16.556,5.4951680E+02
16.558,5.5002750E+02
16.560,5.5053810E+02
16.566,5.5207020E+02
16.567,5.5232560E+02
16.570,5.5309460E+02
16.576,5.5463400E+02
16.578,5.5514690E+02
16.579,5.5540330E+02
16.580,5.5566070E+02
16.581,5.5591820E+02
16.586,5.5720590E+02
16.590,5.5823620E+02
16.591,5.5849360E+02
16.596,5.5978510E+02
16.598,5.6030170E+02
16.600,5.6081830E+02
16.603,5.6159320E+02
16.606,5.6237100E+02
16.608,5.6288950E+02
16.615,5.6470410E+02
16.616,5.6496390E+02
16.620,5.6600250E+02
16.626,5.6756190E+02
16.627,5.6782180E+02
16.630,5.6860150E+02
16.636,5.7015910E+02
16.638,5.7067840E+02
16.639,5.7093800E+02
16.640,5.7119760E+02
16.646,5.7275540E+02
16.650,5.7379400E+02
16.651,5.7405360E+02
16.656,5.7535180E+02
16.660,5.7638940E+02
16.663,5.7716950E+02
16.666,5.7794970E+02
16.668,5.7846990E+02
16.675,5.8029050E+02
16.676,5.8055060E+02
16.678,5.8107070E+02
16.680,5.8159080E+02
16.681,5.8185080E+02
16.686,5.8315110E+02
16.687,5.8341130E+02
16.690,5.8419190E+02
16.696,5.8574620E+02
16.698,5.8626430E+02
16.699,5.8652330E+02
16.700,5.8678230E+02
16.706,5.8833650E+02
16.710,5.8937260E+02
16.711,5.8963160E+02
16.716,5.9092670E+02
16.718,5.9144430E+02
16.720,5.9196190E+02
16.723,5.9274230E+02
16.726,5.9352270E+02
16.728,5.9404340E+02
16.735,5.9586560E+02
16.740,5.9716710E+02
16.746,5.9872900E+02
16.747,5.9898930E+02
16.750,5.9977000E+02
16.756,6.0132660E+02
16.758,6.0184550E+02
16.759,6.0210490E+02
16.766,6.0392100E+02
16.770,6.0495890E+02
16.771,6.0521840E+02
16.776,6.0651580E+02
16.780,6.0755380E+02
16.783,6.0833340E+02
16.786,6.0911290E+02
16.788,6.0963270E+02
16.790,6.1015230E+02
16.795,6.1145080E+02
16.796,6.1171040E+02
16.798,6.1223000E+02
16.800,6.1274970E+02
16.806,6.1430850E+02
16.807,6.1456830E+02
16.810,6.1534790E+02
16.819,6.1768690E+02
16.826,6.1950610E+02
16.830,6.2054560E+02
16.831,6.2080550E+02
16.836,6.2210480E+02
16.838,6.2262460E+02
16.840,6.2314430E+02
16.843,6.2392410E+02
16.846,6.2470390E+02
16.850,6.2574320E+02
16.855,6.2704230E+02
16.856,6.2730220E+02
16.860,6.2834110E+02
16.866,6.2989940E+02
16.867,6.3015910E+02
16.870,6.3093830E+02
16.876,6.3249650E+02
16.878,6.3301620E+02
16.879,6.3327600E+02
16.881,6.3379570E+02
16.890,6.3613440E+02
16.891,6.3639430E+02
16.900,6.3873290E+02
16.903,6.3951160E+02
16.906,6.4029040E+02
16.908,6.4081000E+02
16.915,6.4262890E+02
16.916,6.4288870E+02
16.918,6.4340840E+02
16.926,6.4548700E+02
16.927,6.4574720E+02
16.930,6.4652770E+02
16.936,6.4808920E+02
16.938,6.4860970E+02
16.939,6.4886990E+02
16.940,6.4913010E+02
16.946,6.5069160E+02
16.950,6.5173030E+02
16.951,6.5199020E+02
16.956,6.5328950E+02
16.958,6.5380950E+02
16.960,6.5432950E+02
16.963,6.5510830E+02
16.966,6.5588700E+02
16.968,6.5640630E+02
16.975,6.5822380E+02
16.976,6.5848350E+02
16.980,6.5952160E+02
16.986,6.6108060E+02
16.987,6.6134040E+02
16.990,6.6212010E+02
16.996,6.6368130E+02
16.998,6.6420170E+02
17.000,6.6472220E+02
17.006,6.6628340E+02
17.010,6.6732430E+02
17.020,6.6992640E+02
17.023,6.7070700E+02
17.026,6.7148760E+02
17.030,6.7252700E+02
17.035,6.7382650E+02
17.036,6.7408640E+02
17.038,6.7460670E+02
17.046,6.7668760E+02
17.047,6.7694770E+02
17.050,6.7772800E+02
17.056,6.7928870E+02
17.059,6.8006900E+02
17.060,6.8032920E+02
17.066,6.8188820E+02
17.071,6.8318800E+02
17.076,6.8448780E+02
17.078,6.8500800E+02
17.080,6.8552820E+02
17.083,6.8630800E+02
17.086,6.8708780E+02
17.096,6.8968750E+02
17.106,6.9228730E+02
17.107,6.9254680E+02
17.110,6.9332540E+02
17.116,6.9488130E+02
17.118,6.9539990E+02
17.119,6.9565920E+02
17.126,6.9747440E+02
17.130,6.9851130E+02
17.131,6.9877060E+02
17.136,7.0006680E+02
17.140,7.0110370E+02
17.143,7.0188430E+02
17.146,7.0266500E+02
17.150,7.0370600E+02
17.156,7.0526750E+02
17.158,7.0578810E+02
17.160,7.0630880E+02
17.166,7.0787070E+02
17.170,7.0891190E+02
17.176,7.1046700E+02
17.178,7.1098430E+02
17.179,7.1124340E+02
17.190,7.1409400E+02
17.191,7.1435310E+02
17.196,7.1564860E+02
17.200,7.1668560E+02
17.203,7.1746490E+02
17.206,7.1824410E+02
17.215,7.2058190E+02
17.220,7.2188060E+02
17.226,7.2343910E+02
17.227,7.2369870E+02
17.230,7.2447780E+02
17.236,7.2603730E+02
17.238,7.2655720E+02
17.239,7.2681710E+02
17.246,7.2863660E+02
17.251,7.2993610E+02
17.256,7.3123550E+02
17.260,7.3227510E+02
17.263,7.3305480E+02
17.266,7.3383440E+02
17.270,7.3487400E+02
17.275,7.3617160E+02
17.276,7.3643110E+02
17.280,7.3746940E+02
17.286,7.3902670E+02
17.287,7.3928650E+02
17.290,7.4006580E+02
17.299,7.4240370E+02
17.300,7.4266340E+02
17.306,7.4422200E+02
17.311,7.4552080E+02
17.316,7.4681960E+02
17.318,7.4733910E+02
17.320,7.4785860E+02
17.326,7.4941710E+02
17.336,7.5201470E+02
17.340,7.5305370E+02
17.346,7.5461220E+02
17.347,7.5487140E+02
17.350,7.5564880E+02
17.356,7.5720800E+02
17.358,7.5772780E+02
17.359,7.5798770E+02
17.371,7.6110600E+02
17.376,7.6240530E+02
17.380,7.6344470E+02
17.383,7.6422350E+02
17.395,7.6733850E+02
17.396,7.6759810E+02
17.398,7.6811720E+02
17.400,7.6863630E+02
17.406,7.7019350E+02
17.407,7.7045310E+02
17.410,7.7123170E+02
17.416,7.7278950E+02
17.419,7.7356840E+02
17.420,7.7382810E+02
17.426,7.7538580E+02
17.430,7.7642430E+02
17.431,7.7668390E+02
17.436,7.7798200E+02
17.438,7.7850120E+02
17.440,7.7902040E+02
17.443,7.7980150E+02
17.450,7.8162410E+02
17.455,7.8292590E+02
17.456,7.8318630E+02
17.460,7.8422720E+02
17.466,7.8578860E+02
17.467,7.8604880E+02
17.470,7.8682960E+02
17.476,7.8838740E+02
17.478,7.8890680E+02
17.479,7.8916650E+02
17.486,7.9098440E+02
17.490,7.9202340E+02
17.491,7.9228310E+02
17.496,7.9358190E+02
17.500,7.9462100E+02
17.506,7.9617960E+02
17.510,7.9721860E+02
17.515,7.9851470E+02
17.516,7.9877390E+02
17.518,7.9929340E+02
17.520,7.9981290E+02
17.526,8.0137120E+02
17.530,8.0241020E+02
17.536,8.0396850E+02
17.540,8.0500740E+02
17.546,8.0656580E+02
17.550,8.0760470E+02
17.551,8.0786450E+02
17.556,8.0916310E+02
17.558,8.0968260E+02
17.560,8.1020210E+02
17.563,8.1098100E+02
17.566,8.1175980E+02
17.575,8.1409650E+02
17.576,8.1435610E+02
17.580,8.1539300E+02
17.586,8.1694840E+02
17.587,8.1720680E+02
17.590,8.1798200E+02
17.596,8.1953380E+02
17.598,8.2005110E+02
17.600,8.2056830E+02
17.606,8.2212000E+02
17.611,8.2341300E+02
17.616,8.2470610E+02
17.620,8.2574050E+02
17.626,8.2729860E+02
17.636,8.2989550E+02
17.640,8.3093420E+02
17.650,8.3353120E+02
17.656,8.3508930E+02
17.659,8.3586840E+02
17.666,8.3768620E+02
17.676,8.4028250E+02
17.678,8.4080170E+02
17.680,8.4132100E+02
17.683,8.4210090E+02
17.688,8.4340090E+02
17.695,8.4522090E+02
17.696,8.4548090E+02
17.700,8.4651970E+02
17.706,8.4807800E+02
17.707,8.4833790E+02
17.710,8.4911760E+02
17.716,8.5067040E+02
17.718,8.5118800E+02
17.719,8.5144680E+02
17.726,8.5325830E+02
17.731,8.5455130E+02
17.736,8.5584430E+02
17.740,8.5687990E+02
17.750,8.5947630E+02
17.756,8.6103420E+02
17.758,8.6155340E+02
17.766,8.6363050E+02
17.770,8.6466900E+02
17.776,8.6622680E+02
17.779,8.6700310E+02
17.786,8.6881460E+02
17.791,8.7011040E+02
17.796,8.7140620E+02
17.798,8.7192440E+02
17.800,8.7244260E+02
17.803,8.7322070E+02
17.806,8.7399880E+02
17.815,8.7633310E+02
17.816,8.7659240E+02
17.820,8.7762870E+02
17.826,8.7918300E+02
17.827,8.7944110E+02
17.830,8.8021550E+02
17.836,8.8177320E+02
17.838,8.8229250E+02
17.839,8.8255220E+02
17.850,8.8540850E+02
17.851,8.8566810E+02
17.856,8.8696640E+02
17.860,8.8800470E+02
17.863,8.8878130E+02
17.868,8.9007570E+02
17.875,8.9188790E+02
17.876,8.9214680E+02
17.878,8.9266400E+02
17.880,8.9318110E+02
17.886,8.9473290E+02
17.890,8.9576880E+02
17.896,8.9732460E+02
17.899,8.9810250E+02
17.905,8.9965830E+02
17.906,8.9991760E+02
17.916,9.0250850E+02
17.920,9.0354440E+02
17.926,9.0509830E+02
17.935,9.0743150E+02
17.936,9.0769070E+02
17.946,9.1028310E+02
17.947,9.1054240E+02
17.950,9.1132000E+02
17.958,9.1339310E+02
17.959,9.1365220E+02
17.966,9.1546610E+02
17.971,9.1676050E+02
17.976,9.1805500E+02
17.980,9.1909120E+02
17.983,9.1986980E+02
17.988,9.2116750E+02
17.990,9.2168650E+02
17.995,9.2298280E+02
17.996,9.2324200E+02
17.998,9.2376110E+02
18.000,9.2428020E+02
18.006,9.2583750E+02
18.007,9.2609710E+02
18.010,9.2687610E+02
18.016,9.2842610E+02
18.018,9.2894280E+02
18.020,9.2945950E+02
18.026,9.3100800E+02
18.031,9.3229870E+02
18.036,9.3358940E+02
18.038,9.3410450E+02
18.040,9.3461960E+02
18.043,9.3539760E+02
18.048,9.3669410E+02
18.055,9.3850920E+02
18.060,9.3980570E+02
18.066,9.4136150E+02
18.067,9.4162050E+02
18.070,9.4239740E+02
18.076,9.4394560E+02
18.078,9.4446020E+02
18.080,9.4497490E+02
18.086,9.4652370E+02
18.091,9.4781430E+02
18.096,9.4910490E+02
18.100,9.5013200E+02
18.108,9.5220210E+02
18.118,9.5478960E+02
18.126,9.5685960E+02
18.127,9.5711830E+02
18.130,9.5789430E+02
18.138,9.5996360E+02
18.146,9.6203290E+02
18.150,9.6306810E+02
18.151,9.6332690E+02
18.156,9.6462080E+02
18.158,9.6513840E+02
18.160,9.6565590E+02
18.166,9.6721390E+02
18.168,9.6773320E+02
18.176,9.6981040E+02
18.180,9.7084190E+02
18.186,9.7239460E+02
18.190,9.7343360E+02
18.198,9.7549470E+02
18.199,9.7575230E+02
18.206,9.7755570E+02
18.211,9.7884260E+02
18.216,9.8012940E+02
18.220,9.8115620E+02
18.223,9.8193000E+02
18.226,9.8270370E+02
18.228,9.8321930E+02
18.230,9.8373290E+02
18.235,9.8501790E+02
18.236,9.8527490E+02
18.238,9.8578860E+02
18.240,9.8630220E+02
18.246,9.8784370E+02
18.247,9.8810000E+02
18.250,9.8886910E+02
18.258,9.9093660E+02
18.259,9.9119500E+02
18.260,9.9145350E+02
18.271,9.9429880E+02
18.276,9.9559210E+02
18.278,9.9610970E+02
18.280,9.9662800E+02
18.283,9.9740190E+02
18.288,9.9869190E+02
18.295,1.0004986E+03
18.296,1.0007568E+03
18.300,1.0017869E+03
18.306,1.0033280E+03
18.307,1.0035854E+03
18.310,1.0043574E+03
18.316,1.0059064E+03
18.318,1.0064218E+03
18.320,1.0069368E+03
18.326,1.0084823E+03
18.336,1.0110819E+03
18.340,1.0121217E+03
18.346,1.0136786E+03
18.348,1.0141974E+03
18.355,1.0160103E+03
18.356,1.0162693E+03
18.358,1.0167877E+03
18.367,1.0191242E+03
18.370,1.0199031E+03
18.386,1.0240393E+03
18.390,1.0250723E+03
18.391,1.0253310E+03
18.396,1.0266249E+03
18.397,1.0268838E+03
18.398,1.0271421E+03
18.400,1.0276601E+03
18.403,1.0284395E+03
18.415,1.0315570E+03
18.416,1.0318168E+03
18.420,1.0328559E+03
18.426,1.0344145E+03
18.427,1.0346735E+03
18.430,1.0354504E+03
18.438,1.0375277E+03
18.439,1.0377879E+03
18.446,1.0396097E+03
18.451,1.0409111E+03
18.460,1.0432538E+03
18.463,1.0440391E+03
18.470,1.0458715E+03
18.476,1.0474421E+03
18.478,1.0479673E+03
18.480,1.0484921E+03
18.490,1.0511153E+03
18.500,1.0537216E+03
18.510,1.0563286E+03
18.511,1.0565892E+03
18.518,1.0584140E+03
18.520,1.0589393E+03
18.523,1.0597270E+03
18.526,1.0605146E+03
18.528,1.0610418E+03
18.536,1.0631518E+03
18.540,1.0642010E+03
18.546,1.0657744E+03
18.547,1.0660366E+03
18.550,1.0668233E+03
18.556,1.0683952E+03
18.558,1.0689199E+03
18.576,1.0736383E+03
18.580,1.0746865E+03
18.586,1.0762657E+03
18.595,1.0786344E+03
18.596,1.0788976E+03
18.598,1.0794240E+03
18.600,1.0799508E+03
18.606,1.0815310E+03
18.610,1.0825847E+03
18.618,1.0846730E+03
18.619,1.0849362E+03
18.620,1.0851995E+03
18.626,1.0867791E+03
18.631,1.0880936E+03
18.640,1.0904599E+03
18.646,1.0920474E+03
18.648,1.0925769E+03
18.655,1.0944308E+03
18.656,1.0946956E+03
18.660,1.0957565E+03
18.666,1.0973468E+03
18.667,1.0976118E+03
18.670,1.0984071E+03
18.676,1.0999977E+03
18.678,1.1005277E+03
18.679,1.1007929E+03
18.680,1.1010580E+03
18.690,1.1037096E+03
18.691,1.1039748E+03
18.700,1.1063624E+03
18.703,1.1071566E+03
18.706,1.1079509E+03
18.708,1.1084803E+03
18.715,1.1103340E+03
18.718,1.1111284E+03
18.720,1.1116578E+03
18.726,1.1132461E+03
18.730,1.1143091E+03
18.736,1.1159077E+03
18.738,1.1164412E+03
18.739,1.1167081E+03
18.740,1.1169750E+03
18.750,1.1196435E+03
18.756,1.1212425E+03
18.758,1.1217755E+03
18.760,1.1223086E+03
18.766,1.1238969E+03
18.768,1.1244256E+03
18.776,1.1265437E+03
18.780,1.1275999E+03
18.786,1.1291865E+03
18.787,1.1294520E+03
18.790,1.1302484E+03
18.799,1.1326557E+03
18.806,1.1345282E+03
18.810,1.1355983E+03
18.811,1.1358657E+03
18.816,1.1372028E+03
18.820,1.1382725E+03
18.823,1.1390745E+03
18.826,1.1398764E+03
18.835,1.1422843E+03
18.836,1.1425518E+03
18.840,1.1436210E+03
18.847,1.1454936E+03
18.850,1.1462962E+03
18.856,1.1479015E+03
18.859,1.1487012E+03
18.866,1.1505674E+03
18.870,1.1516352E+03
18.871,1.1519018E+03
18.876,1.1532351E+03
18.880,1.1543017E+03
18.883,1.1551017E+03
18.895,1.1583019E+03
18.896,1.1585686E+03
18.900,1.1596352E+03
18.906,1.1612342E+03
18.910,1.1622997E+03
18.916,1.1638979E+03
18.918,1.1644307E+03
18.920,1.1649635E+03
18.925,1.1662955E+03
18.926,1.1665619E+03
18.930,1.1676268E+03
18.936,1.1692226E+03
18.940,1.1702865E+03
18.943,1.1710847E+03
18.950,1.1729473E+03
18.955,1.1742779E+03
18.956,1.1745440E+03
18.958,1.1750762E+03
18.960,1.1756085E+03
18.970,1.1782700E+03
18.976,1.1798632E+03
18.978,1.1803924E+03
18.979,1.1806571E+03
18.980,1.1809218E+03
18.985,1.1822454E+03
18.986,1.1825101E+03
18.990,1.1835690E+03
18.991,1.1838336E+03
18.996,1.1851564E+03
18.997,1.1854209E+03
18.998,1.1856855E+03
19.000,1.1862146E+03
19.003,1.1870130E+03
19.006,1.1878113E+03
19.008,1.1883435E+03
19.015,1.1902064E+03
19.016,1.1904726E+03
19.020,1.1915372E+03
19.026,1.1931347E+03
19.027,1.1934012E+03
19.030,1.1942006E+03
19.036,1.1957901E+03
19.038,1.1963161E+03
19.039,1.1965802E+03
19.040,1.1968443E+03
19.050,1.1994854E+03
19.051,1.1997499E+03
19.060,1.2021302E+03
19.063,1.2029236E+03
19.075,1.2060972E+03
19.076,1.2063616E+03
19.078,1.2068906E+03
19.080,1.2074196E+03
19.093,1.2108582E+03
19.096,1.2116496E+03
19.100,1.2127047E+03
19.105,1.2140237E+03
19.106,1.2142861E+03
19.110,1.2153358E+03
19.111,1.2155988E+03
19.116,1.2169137E+03
19.117,1.2171767E+03
19.118,1.2174396E+03
19.120,1.2179654E+03
19.126,1.2195429E+03
19.135,1.2219083E+03
19.136,1.2221712E+03
19.140,1.2232225E+03
19.141,1.2234853E+03
19.146,1.2247994E+03
19.150,1.2258511E+03
19.153,1.2266416E+03
19.156,1.2274322E+03
19.158,1.2279584E+03
19.160,1.2284835E+03
19.166,1.2300526E+03
19.170,1.2310987E+03
19.171,1.2313602E+03
19.176,1.2326679E+03
19.177,1.2329301E+03
19.180,1.2337160E+03
19.186,1.2352997E+03
19.190,1.2363556E+03
19.196,1.2379372E+03
19.198,1.2384622E+03
19.200,1.2389851E+03
19.206,1.2405537E+03
19.210,1.2416010E+03
19.219,1.2439403E+03
19.220,1.2442003E+03
19.226,1.2457612E+03
19.230,1.2467995E+03
19.231,1.2470590E+03
19.236,1.2483568E+03
19.240,1.2493964E+03
19.243,1.2501772E+03
19.255,1.2533004E+03
19.256,1.2535606E+03
19.260,1.2545947E+03
19.266,1.2561458E+03
19.267,1.2564030E+03
19.270,1.2571754E+03
19.276,1.2587375E+03
19.279,1.2595196E+03
19.280,1.2597803E+03
19.286,1.2613416E+03
19.290,1.2623836E+03
19.291,1.2626442E+03
19.296,1.2639472E+03
19.297,1.2642077E+03
19.300,1.2649856E+03
19.303,1.2657550E+03
19.306,1.2665244E+03
19.310,1.2675502E+03
19.316,1.2690917E+03
19.318,1.2696045E+03
19.320,1.2701209E+03
19.326,1.2716732E+03
19.327,1.2719312E+03
19.330,1.2727051E+03
19.340,1.2753058E+03
19.346,1.2768661E+03
19.350,1.2778971E+03
19.351,1.2781553E+03
19.356,1.2794465E+03
19.360,1.2804794E+03
19.376,1.2845830E+03
19.380,1.2856155E+03
19.386,1.2871620E+03
19.390,1.2881862E+03
19.399,1.2904904E+03
19.400,1.2907464E+03
19.406,1.2922822E+03
19.410,1.2933099E+03
19.411,1.2935668E+03
19.413,1.2940807E+03
19.416,1.2948513E+03
19.420,1.2958857E+03
19.423,1.2966651E+03
19.426,1.2974445E+03
19.435,1.2997749E+03
19.436,1.3000338E+03
19.438,1.3005509E+03
19.440,1.3010680E+03
19.447,1.3028571E+03
19.450,1.3036238E+03
19.459,1.3059235E+03
19.460,1.3061790E+03
19.466,1.3077119E+03
19.470,1.3087397E+03
19.471,1.3089977E+03
19.476,1.3102876E+03
19.480,1.3113165E+03
19.483,1.3120871E+03
19.495,1.3151690E+03
19.496,1.3154258E+03
19.500,1.3164611E+03
19.506,1.3180207E+03
19.510,1.3190572E+03
19.516,1.3206125E+03
19.519,1.3213967E+03
19.520,1.3216581E+03
19.526,1.3232265E+03
19.530,1.3242618E+03
19.536,1.3258258E+03
19.540,1.3268688E+03
19.556,1.3310508E+03
19.558,1.3315696E+03
19.560,1.3320884E+03
19.566,1.3336335E+03
19.570,1.3346662E+03
19.576,1.3362035E+03
19.580,1.3372317E+03
19.586,1.3387690E+03
19.590,1.3398012E+03
19.596,1.3413485E+03
19.600,1.3423791E+03
19.610,1.3449214E+03
19.616,1.3464511E+03
19.620,1.3474693E+03
19.626,1.3490091E+03
19.627,1.3492647E+03
19.630,1.3500314E+03
19.639,1.3523733E+03
19.640,1.3526335E+03
19.645,1.3539608E+03
19.646,1.3542262E+03
19.650,1.3552804E+03
19.656,1.3568624E+03
19.660,1.3579097E+03
19.663,1.3586921E+03
19.666,1.3594808E+03
19.675,1.3618465E+03
19.676,1.3621093E+03
19.680,1.3631768E+03
19.686,1.3647575E+03
19.687,1.3650200E+03
19.690,1.3658077E+03
19.699,1.3681703E+03
19.700,1.3684327E+03
19.706,1.3700062E+03
19.710,1.3710556E+03
19.711,1.3713177E+03
19.716,1.3726399E+03
19.718,1.3731692E+03
19.720,1.3736984E+03
19.723,1.3745022E+03
19.726,1.3753059E+03
19.735,1.3777168E+03
19.736,1.3779846E+03
19.738,1.3785203E+03
19.740,1.3790560E+03
19.746,1.3806569E+03
19.750,1.3817280E+03
19.760,1.3843994E+03
19.763,1.3852064E+03
19.766,1.3860134E+03
19.770,1.3870894E+03
19.776,1.3887035E+03
19.780,1.3897772E+03
19.796,1.3940201E+03
19.798,1.3945503E+03
19.800,1.3950805E+03
19.806,1.3966697E+03
19.807,1.3969364E+03
19.810,1.3977372E+03
19.813,1.3985470E+03
19.816,1.3993664E+03
19.819,1.4001867E+03
19.820,1.4004576E+03
19.826,1.4020910E+03
19.830,1.4031814E+03
19.831,1.4034539E+03
19.836,1.4048000E+03
19.838,1.4053380E+03
19.840,1.4058761E+03
19.843,1.4066710E+03
19.855,1.4098144E+03
19.856,1.4100751E+03
19.860,1.4111154E+03
19.866,1.4126953E+03
19.867,1.4129598E+03
19.870,1.4137434E+03
19.876,1.4153129E+03
19.878,1.4158360E+03
19.879,1.4161018E+03
19.880,1.4163644E+03
19.886,1.4179398E+03
19.888,1.4184567E+03
19.890,1.4189725E+03
19.891,1.4192308E+03
19.896,1.4205061E+03
19.900,1.4215286E+03
19.903,1.4223015E+03
19.906,1.4230698E+03
19.910,1.4240996E+03
19.915,1.4253898E+03
19.916,1.4256445E+03
19.920,1.4266715E+03
19.926,1.4281916E+03
19.927,1.4284461E+03
19.930,1.4291997E+03
19.939,1.4314593E+03
19.940,1.4317070E+03
19.950,1.4342014E+03
19.951,1.4344528E+03
19.960,1.4367032E+03
19.963,1.4374444E+03
19.970,1.4391503E+03
19.975,1.4403696E+03
19.976,1.4406101E+03
19.980,1.4415847E+03
19.986,1.4430413E+03
19.987,1.4432846E+03
19.990,1.4440042E+03
19.999,1.4462010E+03
20.000,1.4464418E+03
20.006,1.4478907E+03
20.010,1.4488558E+03
20.011,1.4490992E+03
20.016,1.4502992E+03
20.020,1.4512593E+03
20.023,1.4519788E+03
20.026,1.4526881E+03
20.035,1.4548161E+03
20.036,1.4550492E+03
20.038,1.4555159E+03
20.040,1.4559827E+03
20.046,1.4573830E+03
20.047,1.4576169E+03
20.050,1.4583086E+03
20.056,1.4596920E+03
20.059,1.4603856E+03
20.060,1.4606150E+03
20.066,1.4619916E+03
20.070,1.4629115E+03
20.071,1.4631415E+03
20.076,1.4642723E+03
20.080,1.4651874E+03
20.083,1.4658743E+03
20.086,1.4665509E+03
20.095,1.4685785E+03
20.096,1.4688004E+03
20.100,1.4696879E+03
20.106,1.4710191E+03
20.107,1.4712410E+03
20.110,1.4718963E+03
20.116,1.4731962E+03
20.118,1.4736327E+03
20.119,1.4738509E+03
20.120,1.4740657E+03
20.126,1.4753744E+03
20.130,1.4762501E+03
20.131,1.4764687E+03
20.136,1.4775444E+03
20.138,1.4779738E+03
20.140,1.4783983E+03
20.143,1.4790540E+03
20.146,1.4796993E+03
20.150,1.4805449E+03
20.155,1.4816034E+03
20.156,1.4818117E+03
20.160,1.4826532E+03
20.166,1.4839151E+03
20.167,1.4841254E+03
20.170,1.4847459E+03
20.176,1.4859905E+03
20.179,1.4866249E+03
20.180,1.4868329E+03
20.186,1.4880761E+03
20.190,1.4889073E+03
20.191,1.4891133E+03
20.196,1.4901259E+03
20.200,1.4909383E+03
20.203,1.4915555E+03
20.206,1.4921622E+03
20.210,1.4929867E+03
20.213,1.4936051E+03
20.215,1.4940145E+03
20.216,1.4942140E+03
20.220,1.4950122E+03
20.226,1.4962080E+03
20.227,1.4964095E+03
20.230,1.4969934E+03
20.236,1.4981372E+03
20.239,1.4987035E+03
20.240,1.4988860E+03
20.246,1.4999822E+03
20.250,1.5007157E+03
20.251,1.5008985E+03
20.256,1.5017783E+03
20.260,1.5024824E+03
20.263,1.5030033E+03
20.266,1.5035034E+03
20.270,1.5041871E+03
20.275,1.5050416E+03
20.276,1.5052056E+03
20.278,1.5055224E+03
20.280,1.5058470E+03
20.286,1.5068170E+03
20.287,1.5069786E+03
20.290,1.5074430E+03
20.296,1.5083939E+03
20.299,1.5088683E+03
20.300,1.5090195E+03
20.306,1.5099105E+03
20.310,1.5105153E+03
20.311,1.5106674E+03
20.316,1.5113973E+03
20.320,1.5119839E+03
20.323,1.5124182E+03
20.326,1.5128317E+03
20.330,1.5133739E+03
20.335,1.5140536E+03
20.336,1.5141825E+03
20.340,1.5146979E+03
20.346,1.5154858E+03
20.347,1.5156148E+03
20.350,1.5159810E+03
20.356,1.5167208E+03
20.358,1.5169643E+03
20.359,1.5170867E+03
20.360,1.5172021E+03
20.366,1.5178876E+03
20.370,1.5183491E+03
20.371,1.5184642E+03
20.376,1.5190052E+03
20.380,1.5194384E+03
20.383,1.5197580E+03
20.386,1.5200566E+03
20.390,1.5204609E+03
20.395,1.5209662E+03
20.400,1.5214367E+03
20.406,1.5220013E+03
20.407,1.5220955E+03
20.410,1.5223573E+03
20.416,1.5228971E+03
20.419,1.5231665E+03
20.420,1.5232494E+03
20.426,1.5237400E+03
20.430,1.5240701E+03
20.431,1.5241525E+03
20.436,1.5245293E+03
20.440,1.5248300E+03
20.443,1.5250586E+03
20.446,1.5252661E+03
20.455,1.5258399E+03
20.456,1.5258967E+03
20.460,1.5261175E+03
20.466,1.5264631E+03
20.467,1.5265203E+03
20.470,1.5266711E+03
20.476,1.5269644E+03
20.479,1.5271030E+03
20.490,1.5275341E+03
20.491,1.5275741E+03
20.496,1.5277391E+03
20.500,1.5278711E+03
20.503,1.5279724E+03
20.506,1.5280525E+03
20.515,1.5282784E+03
20.520,1.5283687E+03
20.526,1.5284777E+03
20.527,1.5284920E+03
20.530,1.5285135E+03
20.536,1.5285840E+03
20.539,1.5286182E+03
20.540,1.5286229E+03
20.546,1.5286348E+03
20.550,1.5286637E+03
20.556,1.5286782E+03
20.560,1.5286879E+03
20.580,1.5287035E+03
20.586,1.5287082E+03
20.590,1.5287112E+03
20.610,1.5288082E+03
20.616,1.5288373E+03
20.620,1.5288567E+03
20.640,1.5288597E+03
20.646,1.5288607E+03
20.670,1.5288643E+03
20.676,1.5288652E+03
20.700,1.5288689E+03
20.706,1.5288698E+03
20.710,1.5288704E+03
20.730,1.5288734E+03
20.736,1.5288744E+03
20.760,1.5288780E+03
20.766,1.5288789E+03
20.770,1.5288796E+03
20.790,1.5288815E+03
20.796,1.5288821E+03
20.800,1.5288824E+03
20.820,1.5288843E+03
20.826,1.5288849E+03
20.850,1.5288871E+03
20.860,1.5288880E+03
20.880,1.5288900E+03
20.886,1.5288905E+03
20.890,1.5288909E+03
20.910,1.5288928E+03
20.920,1.5288938E+03
20.930,1.5288947E+03
20.950,1.5288966E+03
20.970,1.5288985E+03
20.980,1.5288995E+03
21.000,1.5289013E+03
21.030,1.5289042E+03
21.036,1.5289048E+03
21.040,1.5289051E+03
21.050,1.5288632E+03
21.060,1.5286208E+03
21.090,1.5190385E+03
21.120,1.4836162E+03
21.150,1.4416162E+03
21.180,1.3996162E+03
21.210,1.3576162E+03
21.240,1.3156162E+03
21.270,1.2736162E+03
21.300,1.2316162E+03
21.330,1.1896162E+03
21.360,1.1476162E+03
21.390,1.1056162E+03
21.420,1.0636162E+03
21.450,1.0216162E+03
21.480,9.7961620E+02
21.510,9.3761620E+02
21.540,8.9561620E+02
21.570,8.5361620E+02
21.600,8.1161620E+02
21.630,7.6961620E+02
21.660,7.2761620E+02
21.690,6.8561620E+02
21.720,6.4361620E+02
21.750,6.0161620E+02
21.780,5.5961620E+02
21.810,5.1761620E+02
21.840,4.7561620E+02
21.870,4.3361620E+02
21.900,3.9161620E+02
21.930,3.4961620E+02
21.960,3.0761620E+02
21.990,2.6561620E+02
22.020,2.2361620E+02
22.050,1.8161620E+02
22.080,1.3961620E+02
22.110,9.9913100E+01
22.140,7.1366200E+01
22.170,5.5616200E+01
22.800,5.5616200E+01
