! S ADC.INTERNAL.VREF_TEMP.REF     4.00000E+01
! S ADC.INTERNAL.SIGNALS           V_LOAD,I_DCCT_A,V_CAPA,I_DCCT_B
! S DCCT.SELECT                    A
! S DCCT.A.POSITION                LOAD
! S DCCT.B.POSITION                LOAD
! S DEVICE.PPM                     ENABLED
! S FGC.ITER_PERIOD.EXT_DSP_DIV    1
! S INTER_FGC.ROLE                 INDEPENDANT
! S INTER_FGC.COMM.DEST_ADDR       0
! S INTER_FGC.COMM.SRC_ADDR.SLAVES 0
! S INTER_FGC.COMM.SRC_ADDR.MASTER 0
! S INTER_FGC.COMM.SRC_ADDR.REMOTE_MEAS 0
! S INTER_FGC.MASTER.NO_CONVERTER  DISABLED
! S LIMITS.I.POS                   0.00000E+00
! S LIMITS.I.NEG                   -5.00000E+01
! S LIMITS.I.LOW                   -5.00000E-01
! S LIMITS.I.ZERO                  -5.00000E-02
! S LIMITS.I.ERR_WARNING           0.00000E+00
! S LIMITS.I.ERR_FAULT             0.00000E+00
! S LIMITS.V.POS                   0.00000E+00
! S LIMITS.V.NEG                   -1.20000E+05
! S LIMITS.V.ERR_FAULT             0.00000E+00
! S LIMITS.V.ERR_WARNING           0.00000E+00
! S LOG.OASIS.SUBSAMPLE            1
! S MEAS.FAST_ACQ                  0,0
! S MEAS.UNITS.V                   V
! S MEAS.UNITS.I                   A
! S REF.EVENT_CYC                  INJECTION
! S REGFGC3.PARAMS                 65536,0,0,0,0,0,0,0,0,0,0,0,0,0,2560,134875154,1703962,1704474,1835036,1835036,1835036,1835036,1835036,1835036,1835036,1835036,1835036,1835036,1835036,1835036,1835036,1835036,1835036,1835036,1835036,1835036,1835036,1835036,1835036,1835036,1835036,1835036,1835036,1835036,1835036,1835036,1835036,1835036,1835036,1835036,1835036,1835036,1835036,1835036,1835036,1835036,1835036,1835036,1835036,1835036,1835036,1835036,1835036,1840924,355664456,4849738,4849738,4849738,4849738,4849738,4849738,4849738,4849738,4849738,4849738,4849738,4849738,4849738,4849738,4849738,4849738,4849738,4849738,4849738,4849738,4849738,4849738,4849738,4849738,4849738,4849738,4850250,4980812,4980812,4980812,4980812,4980812,4980812,4980812,4980812,4980812,4980812,4980812,4980812,4980812,4980812,4980812,4980812,4980812,4980812,4980812,4980812,4980812,4980812,4980812,4980812,4980812,4980812,4980812,4980812,4980812,4980812,4980812,4980812,4980812,4980812,4980812,4980812,4980812,4980812,4980812,4980812,4980812,4980812,4980812,4980812,4980812,4980812,4980812,4980812,4980812,4980812,4980812,4980812,4980812,4980812,4980812,4980812,4980812,4980812,4980812,4980812,4980812,4980812,4980812,4980812,4980812,4980812,4980812,4980812,4980812,4980812,4980812,4980812,4980812,4980812,4980812,4980812,4980812,4980812,4980812,4980812,4980812,4980812,4980812,4980812,4980812,4980812,4980812,4980812,4980812,4980812,4980812,4980812,4980812,4980812,4980812,4980812,4980812,4980812,4980812,4980812,4980812,4980812,4980812,4980812,4980812,4980812,4980812,4980812,4980812,4980812,4980812,4980812,4980812,4980812,4980812,4980812,4980812,4980812,4980812,4980812,4980812,4980812,4980812,4980812,4980812,4980812,4980812,4980812,4980812,4980812,4980812,4980812,5026059,0,0,0,8,400000,0,0,0,8000,240000,2,500,100,100,5000,200,10,2000,2000000,4,10720,0,0,2000000,3520,7200,0,0,11632,15774,15774,15774,15774,8948,8638,8948,14037,8638,8638,8638,8638,12795,8948,15774,15774,12671,8948,15774,15774,15774,15774,11632,15774,15774,15774,15774,8948,8638,8948,14037,8638,8638,8638,8638,12795,8948,15774,15774,12671,8948,15774,15774,102,614,0,0,0
! S STATE.PC_ON                    CYCLING
! S VS.OFFSET                      0.00000E+00
! S VS.PULSE.TIMING                -496000,-1300,-1580,1100
! S V_PROBE.CAPA.POSITION          LOAD
! S V_PROBE.LOAD.POSITION          LOAD
