HCRAKUW003,DCCT.A.GAIN,5.00000E+00
HCRAKUW003,DCCT.B.GAIN,7.86000E-01
HCRAKUW003,DCCT.TAU_TEMP,5.00000E+02
HCRPZEG___,DCCT.PRIMARY_TURNS,1
HCRPZEG___,LIMITS.I.EARTH,1.00000E-03
HCRPZEG___,SWITCH.POLARITY.TIMEOUT,0
HCRPZEG___,V_PROBE.CAPA.GAIN,4.20000E+02
HCRPZEG___,V_PROBE.LOAD.GAIN,1.20000E+04
HCRPZEG___,VS.BLOCKABLE,ENABLED
HCRPZEG___,VS.GAIN,1.20000E+04
HCRPZEG___,VS.VSRUN_TIMEOUT,1.00000E+01
HCRPZEG___,VS.VSRDY_TIMEOUT,10
