source:ccrt device:rst-1 epoch:1673450418 timeOrigin:2.160000000 firstSampleTime:0.960000000 period:0.010000000 name:B_REG type:analog,B_MEAS_REG_(G),B_REF_USER_(G) STEP +0.009000000,B_REF_ADV_(G) STEP,B_REF_LIMITED_(G) STEP,B_REF_CLOSED_(G) STEP,V_REF_(V) STEP,V_MEAS_(V)
0.960000000,0,0,0,0,0,0,0
0.970000000,0,0,0,0,0,0,0
0.980000000,0,0,0,0,0,0,0
0.990000000,0,0,0,0,0,0,0
1.000000000,0,0,0,0,0,0,0
1.010000000,0,0,0,0,0,0,0
1.020000000,0,0,0,0,0,0,0
1.030000000,0,0,0,0,0,0,0
1.040000000,0,0,0,0,0,0,0
1.050000000,0,0,0,0,0,0,0
1.060000000,0,0.44999984,0.44999984,0.44999984,0.44999984,4.6855283,0
1.070000000,0.47989851,0.94999987,0.94999987,0.94999987,0.94999987,3.5145452,4.6855531
1.080000000,0.93640739,1.4499998,1.4499998,1.4499998,1.4499998,4.2709084,3.5145392
1.090000000,1.439091,1.9499998,1.9499998,1.9499998,1.9499998,4.1284657,4.2709122
1.100000000,1.9374845,2.4499998,2.4499998,2.4499998,2.4499998,4.3045812,4.1284647
1.110000000,2.4446049,2.9499998,2.9499998,2.9499998,2.9499998,4.3034229,4.3045821
1.120000000,2.949156,3.4499998,3.4499998,3.4499998,3.4499998,4.3567662,4.3034229
1.130000000,3.4527023,3.9499998,3.9499998,3.9499998,3.9499998,4.3841248,4.3567662
1.140000000,3.9534717,4.4499998,4.4499998,4.4499998,4.4499998,4.4316936,4.3841248
1.150000000,4.4528303,4.9499998,4.9499998,4.9499998,4.9499998,4.4822211,4.4316936
1.160000000,4.9512105,5.4499998,5.4499998,5.4499998,5.4499998,4.5435967,4.4822216
1.170000000,5.4495711,5.9499998,5.9499998,5.9499998,5.9499998,4.6088209,4.5435972
1.180000000,5.9482503,6.4499998,6.4499998,6.4499998,6.4499998,4.6780691,4.6088214
1.190000000,6.4470372,6.9499998,6.9499998,6.9499998,6.9499998,4.7540898,4.6780696
1.200000000,6.9457603,7.4499998,7.4499998,7.4499998,7.4499998,4.8393383,4.7540898
1.210000000,7.4444189,7.9499998,7.9499998,7.9499998,7.9499998,4.9351931,4.8393388
1.220000000,7.9449477,8.4499998,8.4499998,8.4499998,8.4499998,5.0191765,4.9351931
1.230000000,8.4467525,8.9499998,8.9499998,8.9499998,8.9499998,5.0948439,5.019177
1.240000000,8.9463863,9.4499998,9.4499998,9.4499998,9.4499998,5.1952281,5.0948439
1.250000000,9.4455414,9.9499998,9.9499998,9.9499998,9.9499998,5.3012528,5.1952286
1.260000000,9.9453392,10,10,10,10,0.722588,5.3012528
1.270000000,9.9682665,10,10,10,10,1.969697,0.72256374
1.280000000,10.018648,10,10,10,10,1.2352886,1.9697037
1.290000000,10.019908,10,10,10,10,1.4096048,1.2352847
1.300000000,10.023009,10,10,10,10,1.2601711,1.4096059
1.310000000,10.014572,10,10,10,10,1.302528,1.2601702
1.320000000,10.007427,10,10,10,10,1.2963636,1.3025283
1.330000000,10.000747,10,10,10,10,1.3256735,1.2963636
1.340000000,9.9970875,10,10,10,10,1.3405309,1.3256736
1.350000000,9.9956675,10,10,10,10,1.3546641,1.3405311
1.360000000,9.9960461,10,10,10,10,1.3598381,1.3546642
1.370000000,9.9972467,10,10,10,10,1.3608049,1.3598382
1.380000000,9.9986296,10,10,10,10,1.3582487,1.3608049
1.390000000,9.9997387,10,10,10,10,1.3548287,1.3582487
1.400000000,10.000416,10,10,10,10,1.35165,1.3548287
1.410000000,10.000678,10,10,10,10,1.3494951,1.35165
1.420000000,10.000647,10,10,10,10,1.3484195,1.3494952
1.430000000,10.000458,10,10,10,10,1.3482738,1.3484195
1.440000000,10.000237,10,10,10,10,1.3486166,1.3482738
1.450000000,10.000052,10,10,10,10,1.3491786,1.3486166
1.460000000,9.9999371,9.1000013,9.1000013,9.1000013,9.1000013,-8.0213423,1.3491786
1.470000000,9.0444794,8.1000013,8.1000013,8.1000013,8.1000013,-5.7340102,-8.0213919
1.480000000,8.1428795,7.1000009,7.1000009,7.1000009,7.1000009,-7.4024849,-5.7339983
1.490000000,7.1292176,6.1000013,6.1000013,6.1000013,6.1000013,-7.0777092,-7.4024944
1.500000000,6.1318841,5.1000013,5.1000013,5.1000013,5.1000013,-7.5115194,-7.0777078
1.510000000,5.1182451,4.1000013,4.1000013,4.1000013,4.1000013,-7.5761242,-7.5115213
1.520000000,4.1068158,3.1000013,3.1000013,3.1000013,3.1000013,-7.730721,-7.5761242
1.530000000,3.095854,2.1000016,2.1000016,2.1000016,2.1000016,-7.8145032,-7.730722
1.540000000,2.0878389,1.1000016,1.1000016,1.1000016,1.1000016,-7.8930836,-7.8145037
1.550000000,1.0825024,0.10000161,0.10000161,0.10000161,0.10000161,-7.9481816,-7.8930836
1.560000000,0.082299523,-0.89999831,-0.89999831,-0.89999831,-0.89999831,-8.0225744,-7.9481821
1.570000000,-0.91429573,-1.8999982,-1.8999982,-1.8999982,-1.8999982,-8.1110907,-8.0225744
1.580000000,-1.9091969,-2.8999982,-2.8999982,-2.8999982,-2.8999982,-8.214777,-8.1110916
1.590000000,-2.9042876,-3.8999982,-3.8999982,-3.8999982,-3.8999982,-8.325573,-8.214777
1.600000000,-3.8992634,-4.8999982,-4.8999982,-4.8999982,-4.8999982,-8.4554377,-8.325573
1.610000000,-4.8932557,-5.8999977,-5.8999977,-5.8999977,-5.8999977,-8.6192703,-8.4554386
1.620000000,-5.8889699,-6.8999977,-6.8999977,-6.8999977,-6.8999977,-8.7921963,-8.6192713
1.630000000,-6.8864398,-7.8999977,-7.8999977,-7.8999977,-7.8999977,-8.9780025,-8.7921972
1.640000000,-7.884573,-8.8999977,-8.8999977,-8.8999977,-8.8999977,-9.1835995,-8.9780025
1.650000000,-8.8985643,-9.8999977,-9.8999977,-9.8999977,-9.8999977,-9.215538,-9.1836004
1.660000000,-9.8973064,-10,-10,-10,-10,-0.047555536,-9.215538
1.670000000,-9.9373407,-10,-10,-10,-10,-2.5389788,-0.047506984
1.680000000,-10.031914,-10,-10,-10,-10,-1.0989736,-2.5389919
1.690000000,-10.031273,-10,-10,-10,-10,-1.4688793,-1.098966
1.700000000,-10.037185,-10,-10,-10,-10,-1.1857828,-1.4688812
1.710000000,-10.022097,-10,-10,-10,-10,-1.2755275,-1.1857812
1.720000000,-10.010402,-10,-10,-10,-10,-1.2616277,-1.275528
1.730000000,-9.9995232,-10,-10,-10,-10,-1.3146154,-1.2616277
1.740000000,-9.9940147,-10,-10,-10,-10,-1.338078,-1.3146157
1.750000000,-9.9921808,-10,-10,-10,-10,-1.3611281,-1.3380781
1.760000000,-9.9932499,-10,-10,-10,-10,-1.3682445,-1.3611281
1.770000000,-9.9955177,-10,-10,-10,-10,-1.3687255,-1.3682446
1.780000000,-9.9979324,-10,-10,-10,-10,-1.3636507,-1.3687255
1.790000000,-9.9997807,-10,-10,-10,-10,-1.3575542,-1.3636507
1.800000000,-10.000853,-10,-10,-10,-10,-1.3521466,-1.3575542
1.810000000,-10.001214,-10,-10,-10,-10,-1.348676,-1.3521466
1.820000000,-10.001095,-10,-10,-10,-10,-1.3471044,-1.348676
1.830000000,-10.000744,-10,-10,-10,-10,-1.3469951,-1.3471045
1.840000000,-10.000357,-10,-10,-10,-10,-1.347718,-1.3469951
1.850000000,-10.00005,-10,-10,-10,-10,-1.3487217,-1.347718
1.860000000,-9.9998693,-9.5500011,-9.5500011,-9.5500011,-9.5500011,3.3359308,-1.3487217
1.870000000,-9.5220976,-9.0500011,-9.0500011,-9.0500011,-9.0500011,2.1918492,3.3359556
1.880000000,-9.0713587,-8.5500002,-8.5500002,-8.5500002,-8.5500002,3.0265036,2.191843
1.890000000,-8.5714359,-8.0500002,-8.0500002,-8.0500002,-8.0500002,2.9503486,3.0265079
1.900000000,-8.0733824,-7.5500007,-7.5500007,-7.5500007,-7.5500007,3.1948323,2.9503481
1.910000000,-7.561666,-7.0500007,-7.0500007,-7.0500007,-7.0500007,3.2162907,3.1948338
1.920000000,-7.0522223,-6.5500007,-6.5500007,-6.5500007,-6.5500007,3.2866058,3.216291
1.930000000,-6.5459056,-6.0500007,-6.0500007,-6.0500007,-6.0500007,3.3355637,3.2866063
1.940000000,-6.0429387,-5.5500002,-5.5500002,-5.5500002,-5.5500002,3.3941834,3.3355639
1.950000000,-5.5416365,-5.0500002,-5.0500002,-5.0500002,-5.0500002,3.4456205,3.3941839
1.960000000,-5.0417185,-4.5500002,-4.5500002,-4.5500002,-4.5500002,3.4982026,3.4456208
1.970000000,-4.5427613,-4.0500002,-4.0500002,-4.0500002,-4.0500002,3.5515134,3.4982026
1.980000000,-4.0444942,-3.5500002,-3.5500002,-3.5500002,-3.5500002,3.608731,3.5515137
1.990000000,-3.5461171,-3.0500002,-3.0500002,-3.0500002,-3.0500002,3.6648819,3.6087313
2.000000000,-3.0474484,-2.5500002,-2.5500002,-2.5500002,-2.5500002,3.7208099,3.6648822
2.010000000,-2.5482948,-2.0500002,-2.0500002,-2.0500002,-2.0500002,3.7741554,3.7208104
2.020000000,-2.0486624,-1.5500001,-1.5500001,-1.5500001,-1.5500001,3.8243246,3.7741556
2.030000000,-1.5489347,-1.0500001,-1.0500001,-1.0500001,-1.0500001,3.8743045,3.8243246
2.040000000,-1.0492018,-0.55000007,-0.55000007,-0.55000007,-0.55000007,3.9242291,3.8743048
2.050000000,-0.549474,-0.050000004,-0.050000004,-0.050000004,-0.050000004,3.9745278,3.9242294
2.060000000,-0.049713783,0,0,0,0,-0.66052407,3.9745281
2.070000000,-0.029793801,0,0,0,0,0.56101125,-0.66054863
2.080000000,0.013585131,0,0,0,0,-0.14488949,0.56101769
2.090000000,0.01085021,0,0,0,0,0.047875077,-0.14489321
2.100000000,0.012448889,0,0,0,0,-0.078075178,0.047876097
2.110000000,0.0053449869,0,0,0,0,-0.026877865,-0.078075841
2.120000000,0.0008175628,0,0,0,0,-0.030253697,-0.026877595
2.130000000,-0.0028792531,0,0,0,0,-0.0055259429,-0.030253714
2.140000000,-0.0040713232,0,0,0,0,0.0028111516,-0.005525812
2.150000000,-0.0038536892,0,0,0,0,0.010113322,0.0028111958
2.160000000,-0.0027084651,0,0,0,0,0.010261933,0.01011336
