source:ccrt device:log epoch:1673450397 timeOrigin:5.900000000 firstSampleTime:0.900000000 period:0.010000000 name:I_REG type:analog,I_MEAS_REG_(A),I_REF_USER_(A) STEP +0.010000000,I_REF_ADV_(A) STEP,I_REF_LIMITED_(A) STEP,I_REF_CLOSED_(A) STEP,V_REF_(V) STEP,V_MEAS_(V)
0.900000000,5.7321049e-06,0,0,0,0,-0.0005069176,-0.00024994349
0.910000000,-5.6817743e-07,0,0,0,0,0.00016425381,-0.0004698938
0.920000000,8.185166e-08,0,0,0,0,-5.8806821e-05,0.00018996504
0.930000000,8.185166e-08,0,0,0,0,8.0453001e-06,-2.9993222e-05
0.940000000,8.185166e-08,0,0,0,0,-2.0906857e-06,0.00018996504
0.950000000,8.185166e-08,0,0,0,0,6.4801388e-06,0.00018996504
0.960000000,1.1381511e-05,0,0,0,0,-0.0017184736,0.00018996504
0.970000000,-1.2181091e-06,0,0,0,0,-0.00024709923,-0.0015796429
0.980000000,-1.121779e-05,0,0,0,0,0.00081435678,-2.9993222e-05
0.990000000,1.3818103e-06,0,0,0,0,-0.0006481086,0.00084984355
1.000000000,8.185166e-08,0.0015413463,0.0015413463,0.0015413463,0.0015413463,0.19525525,-0.0004698938
1.010000000,0.0015594241,0.0061558187,0.0061558187,0.0061558187,0.0061558187,0.53314507,0.19529404
1.020000000,0.0062726699,0.013815045,0.013815045,0.013815045,0.013815045,0.8208726,0.53320181
1.030000000,0.013947039,0.02447173,0.02447173,0.02447173,0.02447173,1.1244563,0.8210088
1.040000000,0.024507795,0.038060248,0.038060248,0.038060248,0.038060248,1.4335436,1.124423
1.050000000,0.038019892,0.054496735,0.054496735,0.054496735,0.054496735,1.737139,1.4335361
1.060000000,0.054425966,0.073679924,0.073679924,0.073679924,0.073679924,2.0317793,1.7370503
1.070000000,0.073590644,0.095491499,0.095491499,0.095491499,0.095491499,2.3188658,2.0317359
1.080000000,0.095417179,0.11979702,0.11979702,0.11979702,0.11979702,2.5920818,2.3186731
1.090000000,0.11974341,0.14644662,0.14644662,0.14644662,0.14644662,2.8527915,2.5920529
1.100000000,0.14642566,0.17527598,0.17527598,0.17527598,0.17527598,3.0969403,2.852735
1.110000000,0.17526244,0.20610738,0.20610738,0.20610738,0.20610738,3.3280346,3.0968399
1.120000000,0.20610397,0.23875073,0.23875073,0.23875073,0.23875073,3.5405526,3.3280275
1.130000000,0.2387557,0.27300477,0.27300477,0.27300477,0.27300477,3.7345939,3.5404882
1.140000000,0.2730107,0.3086583,0.3086583,0.3086583,0.3086583,3.9094317,3.7344325
1.150000000,0.30865824,0.34549153,0.34549153,0.34549153,0.34549153,4.0642557,3.9092205
1.160000000,0.34548849,0.38327736,0.38327736,0.38327736,0.38327736,4.1970673,4.0642118
1.170000000,0.38326877,0.42178279,0.42178279,0.42178279,0.42178279,4.3080349,4.1970272
1.180000000,0.42178041,0.46077049,0.46077049,0.46077049,0.46077049,4.3943095,4.3078871
1.190000000,0.46075824,0.50000006,0.50000006,0.50000006,0.50000006,4.4593196,4.3942013
1.200000000,0.49999875,0.53922957,0.53922957,0.53922957,0.53922957,4.4971919,4.459209
1.210000000,0.53922409,0.57821727,0.57821727,0.57821727,0.57821727,4.5131297,4.4970922
1.220000000,0.5782153,0.6167227,0.6167227,0.6167227,0.6167227,4.5031519,4.5130191
1.230000000,0.61671895,0.65450853,0.65450853,0.65450853,0.65450853,4.4697948,4.5031209
1.240000000,0.65450782,0.69134176,0.69134176,0.69134176,0.69134176,4.4114375,4.4697571
1.250000000,0.69134057,0.72699529,0.72699529,0.72699529,0.72699529,4.3298459,4.411418
1.260000000,0.72699404,0.7612493,0.7612493,0.7612493,0.7612493,4.2247963,4.329843
1.270000000,0.76124895,0.79389262,0.79389262,0.79389262,0.79389262,4.0970302,4.224792
1.280000000,0.79388547,0.82472408,0.82472408,0.82472408,0.82472408,3.9485765,4.0969257
1.290000000,0.82472301,0.85355341,0.85355341,0.85355341,0.85355341,3.7774692,3.9484029
1.300000000,0.85355961,0.88020301,0.88020301,0.88020301,0.88020301,3.5864246,3.7772646
1.310000000,0.8802067,0.90450853,0.90450853,0.90450853,0.90450853,3.3776517,3.5863397
1.320000000,0.90450805,0.92632008,0.92632008,0.92632008,0.92632008,3.1515994,3.3775382
1.330000000,0.92632645,0.94550329,0.94550329,0.94550329,0.94550329,2.9081502,3.1515098
1.340000000,0.94550472,0.96193981,0.96193981,0.96193981,0.96193981,2.6518474,2.9080546
1.350000000,0.96194452,0.97552824,0.97552824,0.97552824,0.97552824,2.3812671,2.6516819
1.360000000,0.97553527,0.98618495,0.98618495,0.98618495,0.98618495,2.0997174,2.3811016
1.370000000,0.98618382,0.99384415,0.99384415,0.99384415,0.99384415,1.8099582,2.0995436
1.380000000,0.9938572,0.99845868,0.99845868,0.99845868,0.99845868,1.5093271,1.8098068
1.390000000,0.99846476,1,1,1,1,1.2058033,1.5093021
1.400000000,1.0000063,0.99845862,0.99845862,0.99845862,0.99845862,0.89680898,1.205788
1.410000000,0.99846601,0.99384415,0.99384415,0.99384415,0.99384415,0.58593398,0.89692485
1.420000000,0.99385142,0.98618495,0.98618495,0.98618495,0.98618495,0.27487436,0.58595216
1.430000000,0.98619044,0.97552824,0.97552824,0.97552824,0.97552824,-0.034234416,0.27496937
1.440000000,0.97553605,0.96193969,0.96193969,0.96193969,0.96193969,-0.34028906,-0.034022309
1.450000000,0.96194392,0.94550323,0.94550323,0.94550323,0.94550323,-0.6399436,-0.34014311
1.460000000,0.94551432,0.92632008,0.92632008,0.92632008,0.92632008,-0.93382442,-0.63986534
1.470000000,0.92632526,0.90450847,0.90450847,0.90450847,0.90450847,-1.2167003,-0.93362898
1.480000000,0.90451902,0.88020289,0.88020289,0.88020289,0.88020289,-1.4904785,-1.216575
1.490000000,0.88020772,0.8535533,0.8535533,0.8535533,0.8535533,-1.7498996,-1.490473
1.500000000,0.85355181,0.82472396,0.82472396,0.82472396,0.82472396,-1.9951168,-1.7498045
1.510000000,0.82473427,0.79389256,0.79389256,0.79389256,0.79389256,-2.2268791,-1.9950091
1.520000000,0.79390156,0.76124918,0.76124918,0.76124918,0.76124918,-2.4397483,-2.2267566
1.530000000,0.76125979,0.72699517,0.72699517,0.72699517,0.72699517,-2.6350465,-2.4397385
1.540000000,0.72700357,0.69134164,0.69134164,0.69134164,0.69134164,-2.8100934,-2.6348445
1.550000000,0.69135028,0.65450841,0.65450841,0.65450841,0.65450841,-2.9648693,-2.8100946
1.560000000,0.65450937,0.61672258,0.61672258,0.61672258,0.61672258,-3.0967264,-2.9648099
1.570000000,0.61673045,0.57821715,0.57821715,0.57821715,0.57821715,-3.2081037,-3.09657
1.580000000,0.57822436,0.53922945,0.53922945,0.53922945,0.53922945,-3.2951448,-3.2080247
1.590000000,0.53923464,0.49999991,0.49999991,0.49999991,0.49999991,-3.3585927,-3.2949851
1.600000000,0.50000674,0.46077034,0.46077034,0.46077034,0.46077034,-3.3983915,-3.3585505
1.610000000,0.46076876,0.42178267,0.42178267,0.42178267,0.42178267,-3.41237,-3.3982816
1.620000000,0.42178452,0.38327721,0.38327721,0.38327721,0.38327721,-3.4035313,-3.4121788
1.630000000,0.3832745,0.34549141,0.34549141,0.34549141,0.34549141,-3.3688979,-3.4033508
1.640000000,0.3455033,0.30865818,0.30865818,0.30865818,0.30865818,-3.3130612,-3.3686984
1.650000000,0.30865738,0.27300465,0.27300465,0.27300465,0.27300465,-3.2295942,-3.312861
1.660000000,0.27300519,0.23875061,0.23875061,0.23875061,0.23875061,-3.1251583,-3.2294397
1.670000000,0.2387502,0.20610729,0.20610729,0.20610729,0.20610729,-2.997216,-3.1250434
1.680000000,0.20610806,0.17527589,0.17527589,0.17527589,0.17527589,-2.8479209,-2.9970324
1.690000000,0.17527683,0.14644653,0.14644653,0.14644653,0.14644653,-2.6775136,-2.8478262
1.700000000,0.14644521,0.11979693,0.11979693,0.11979693,0.11979693,-2.4869599,-2.6774449
1.710000000,0.11979185,0.095491439,0.095491439,0.095491439,0.095491439,-2.2774072,-2.4867477
1.720000000,0.095485471,0.073679864,0.073679864,0.073679864,0.073679864,-2.0506814,-2.2772951
1.730000000,0.073679097,0.054496676,0.054496676,0.054496676,0.054496676,-1.8087023,-2.0506363
1.740000000,0.054493815,0.038060188,0.038060188,0.038060188,0.038060188,-1.5512594,-1.8085111
1.750000000,0.038060289,0.0244717,0.0244717,0.0244717,0.0244717,-1.2817898,-1.5511693
1.760000000,0.024468947,0.013815016,0.013815016,0.013815016,0.013815016,-1.0001836,-1.2816803
1.770000000,0.013803497,0.0061558187,0.0061558187,0.0061558187,0.0061558187,-0.70821822,-1.0000639
1.780000000,0.0061545754,0.0015413165,0.0015413165,0.0015413165,0.0015413165,-0.41097304,-0.70805997
1.790000000,0.0015387336,0,0,0,0,-0.10612696,-0.41076714
1.800000000,-1.341707e-05,0,0,0,0,0.008373376,-0.10596604
1.810000000,-3.1117004e-05,0,0,0,0,-0.018782595,0.0085784206
1.820000000,-0.0001242147,0,0,0,0,0.0041804276,-0.018565802
1.830000000,-0.00013251451,0,0,0,0,0.0091096908,0.004389192
1.840000000,-3.9517057e-05,0,0,0,0,0.0060087726,0.009238299
1.850000000,2.9180905e-05,0,0,0,0,0.003469446,0.0061488682
1.860000000,6.5279484e-05,0,0,0,0,0.00091131206,0.0034993559
1.870000000,8.2678787e-05,0,0,0,0,-0.0021728629,0.001069803
1.880000000,6.8779358e-05,0,0,0,0,-0.0028283354,-0.0020195434
1.890000000,3.6180532e-05,0,0,0,0,-0.0015293997,-0.0026793943
1.900000000,2.8780812e-05,0,0,0,0,-0.0031274066,-0.0013496949
1.910000000,-3.8180069e-06,0,0,0,0,-0.00013045849,-0.0031192948
1.920000000,-1.121779e-05,0,0,0,0,-4.8109316e-05,-2.9993222e-05
1.930000000,-9.9178305e-06,0,0,0,0,0.000123049,-2.9993222e-05
1.940000000,-9.9178305e-06,0,0,0,0,0.00055352831,0.00018996504
1.950000000,1.3818103e-06,0,0,0,0,-0.0006445102,0.00062988402
1.960000000,-1.121779e-05,0,0,0,0,0.0014941478,-0.0004698938
1.970000000,1.3818103e-06,0,0,0,0,-0.00010049939,0.0015197203
1.980000000,1.1381511e-05,0,0,0,0,-0.0011479254,-2.9993222e-05
1.990000000,-1.2181091e-06,0,0,0,0,0.00029001705,-0.0011297446
2.000000000,8.185166e-08,0.0061653852,0.0061653852,0.0061653852,0.0061653852,0.7814033,0.00040992454
2.010000000,0.0062769223,0.024623275,0.024623275,0.024623275,0.024623275,2.1275661,0.78149617
2.020000000,0.025085762,0.055260181,0.055260181,0.055260181,0.055260181,3.2834501,2.1275284
2.030000000,0.055759549,0.09788692,0.09788692,0.09788692,0.09788692,4.4998155,3.2832456
2.040000000,0.098011471,0.15224099,0.15224099,0.15224099,0.15224099,5.7359667,4.4996815
2.050000000,0.15209308,0.21798694,0.21798694,0.21798694,0.21798694,6.9467788,5.7359142
2.060000000,0.2176909,0.2947197,0.2947197,0.2947197,0.2947197,8.1294374,6.9467411
2.070000000,0.29437482,0.38196599,0.38196599,0.38196599,0.38196599,9.27388,8.1293736
2.080000000,0.38167265,0.47918808,0.47918808,0.47918808,0.47918808,10.368245,9.2736931
2.090000000,0.47897825,0.58578646,0.58578646,0.57928818,0.57928818,10.586432,10.368061
2.100000000,0.57906324,0.70110393,0.70110393,0.67938828,0.67938828,10.685558,10.58633
2.110000000,0.67894888,0.82442951,0.82442951,0.77948844,0.77948844,10.850952,10.685353
2.120000000,0.77921003,0.9550029,0.9550029,0.8795886,0.8795886,10.962664,10.850892
2.130000000,0.87960517,1.0920191,1.0920191,0.97968882,0.97968882,11.062342,10.962611
2.140000000,0.97991174,1.2346332,1.2346332,1.079789,1.079789,11.159674,11.062274
2.150000000,1.0800793,1.3819661,1.3819661,1.1798893,1.1798893,11.262018,11.159575
2.160000000,1.1801564,1.5331094,1.5331094,1.2799896,1.2799896,11.367746,11.261817
2.170000000,1.2801892,1.6871312,1.6871312,1.38009,1.38009,11.476365,11.367727
2.180000000,1.3802004,1.843082,1.843082,1.4801904,1.4801904,11.588471,11.476217
2.190000000,1.4802374,2.0000002,2.0000002,1.5015001,1.53204,5.5824695,11.588367
2.200000000,1.5311477,2.1569183,2.1569183,1.5015001,1.5224981,-0.42353153,5.5824323
2.210000000,1.5194896,1.4627767,1.4627767,1.4627767,1.4627767,-4.8387017,-0.42334431
2.220000000,1.4609684,1.4268922,1.4268922,1.4268922,1.416306,-2.0188711,-4.8386164
2.230000000,1.4178371,1.3809777,1.3809777,1.3809777,1.3702153,-3.0723677,-2.0188537
2.240000000,1.3748178,1.3250333,1.3250333,1.3250333,1.3179981,-4.1369095,-3.0722954
2.250000000,1.320253,1.2590588,1.2590588,1.2590588,1.2552264,-5.2124844,-4.1367645
2.260000000,1.2556112,1.1830543,1.1830543,1.1830543,1.1816032,-6.2990923,-5.2122822
2.270000000,1.1808786,1.0970199,1.0970199,1.0970199,1.0971683,-7.3967214,-6.2990465
2.280000000,1.0960567,1.0009553,1.0009553,1.0009553,1.0021491,-8.5054073,-7.3966274
2.290000000,1.0011454,0.89486092,0.89486092,0.89486092,0.89680743,-9.6250963,-8.5052471
2.300000000,0.8961615,0.77873647,0.77873647,0.77873647,0.78136903,-10.755836,-9.6249046
2.310000000,0.78107494,0.65911007,0.65911007,0.65911007,0.66112721,-11.23762,-10.755819
2.320000000,0.66121662,0.54913932,0.54913932,0.54913932,0.54810762,-10.393023,-11.2374
2.330000000,0.54876447,0.4491984,0.4491984,0.4491984,0.44576809,-9.4999752,-10.392971
2.340000000,0.44682884,0.3592875,0.3592875,0.3592875,0.35435283,-8.5958738,-9.4997625
2.350000000,0.3549957,0.2794067,0.2794067,0.2794067,0.27320412,-7.6807337,-8.5957365
2.360000000,0.27325764,0.2095558,0.2095558,0.2095558,0.20198809,-6.7545786,-7.6806836
2.370000000,0.20161402,0.1497349,0.1497349,0.1497349,0.1406125,-5.8173828,-6.7543736
2.380000000,0.14006482,0.099944085,0.099944085,0.099944085,0.089121908,-4.8691435,-5.8172445
2.390000000,0.088615701,0.060183201,0.060183201,0.060183201,0.047617629,-3.9098871,-4.8690791
2.400000000,0.047243424,0.030452359,0.030452359,0.030452359,0.016163152,-2.9395869,-3.9098761
2.410000000,0.015967522,0.010751479,0.010751479,0.010751479,-0.0051689716,-1.9582615,-2.9394255
2.420000000,-0.0052140309,0.0010806103,0.0010806103,0.0010806103,-0.016349865,-0.96589833,-1.9581573
2.430000000,-0.016312517,0,0,0,-0.018541668,-0.10806112,-0.9658516
2.440000000,-0.01848462,-0.018062985,-0.018062985,-0.018062985,-0.018062985,-1.0806112e-08,-0.1079556
2.450000000,-0.018173436,-0.013047994,-0.013047994,-0.013047994,-0.013047994,0.57026988,0.00018996504
2.460000000,-0.013356848,-0.0032155092,-0.0032155092,-0.0032155092,-0.0032155092,1.0791481,0.57028502
2.470000000,-0.0032425923,0,0,0,0,0.10548662,1.0790013
2.480000000,-9.6823322e-05,0,0,0,0,-0.023170743,0.10569055
2.490000000,-0.00043040654,0,0,0,0,0.077358037,-0.022984803
2.500000000,0.00010377862,0,0,0,0,0.013883886,0.077435739
2.510000000,0.000401667,0,0,0,0,-0.0063845636,0.014097404
2.520000000,0.00034876895,0,0,0,0,-0.0099706966,-0.0062085968
2.530000000,0.00024837267,0,0,0,0,-0.013136647,-0.0099577485
2.540000000,0.00011317772,0,0,0,0,-0.0088792481,-0.013047051
2.550000000,1.7081242e-05,0,0,0,0,-0.0058413604,-0.0088579971
2.560000000,-4.9016762e-05,0,0,0,0,-0.0012503654,-0.0057686958
2.570000000,-6.2516388e-05,0,0,0,0,-8.1631355e-05,-0.0011297446
2.580000000,-5.9916463e-05,0,0,0,0,0.0014254586,-2.9993222e-05
2.590000000,-4.8616814e-05,0,0,0,0,0.0023544168,0.0015197203
2.600000000,-2.7317308e-05,0,0,0,0,0.0020030821,0.0023995582
2.610000000,-7.3179067e-06,0,0,0,0,0.0012890595,0.0021795989
2.620000000,1.268147e-05,0,0,0,0,-0.00047860818,0.0012897626
2.630000000,1.008155e-05,0,0,0,0,-6.8863585e-07,-0.0004698938
2.640000000,1.008155e-05,0,0,0,0,-0.0005097898,0.00018996504
2.650000000,1.008155e-05,0,0,0,0,-0.00093059085,-0.0004698938
2.660000000,-1.2181091e-06,0,0,0,0,0.00018371578,-0.00090979435
2.670000000,8.185166e-08,0,0,0,0,-0.00028978984,0.00018996504
2.680000000,8.185166e-08,0,0,0,0,-0.00023443937,-0.00024994349
2.690000000,-1.121779e-05,0,0,0,0,0.0014088714,-2.9993222e-05
2.700000000,1.268147e-05,0,0,0,0,-0.0018361942,0.0015197203
2.710000000,-1.2181091e-06,0,0,0,0,0.00024006308,-0.0017995932
2.720000000,-5.5680284e-06,0,0,0,0,0.00037243956,0.00040992454
2.730000000,7.3183787e-07,0,0,0,0,-0.00024625257,0.00040992454
2.740000000,8.185166e-08,0,0,0,0,-1.9343841e-05,-2.9993222e-05
2.750000000,8.185166e-08,0,0,0,0,-7.2406459e-05,0.00018996504
2.760000000,8.185166e-08,0,0,0,0,-5.3820269e-05,-2.9993222e-05
2.770000000,8.185166e-08,0,0,0,0,-5.529468e-05,-2.9993222e-05
2.780000000,8.185166e-08,0,0,0,0,-5.2910087e-05,-2.9993222e-05
2.790000000,8.185166e-08,0,0,0,0,-5.290519e-05,-2.9993222e-05
2.800000000,8.185166e-08,0,0,0,0,-5.3652813e-05,-2.9993222e-05
2.810000000,8.185166e-08,0,0,0,0,-5.5577355e-05,-2.9993222e-05
2.820000000,8.185166e-08,0,0,0,0,-5.8568126e-05,-2.9993222e-05
2.830000000,8.185166e-08,0,0,0,0,-6.2653999e-05,-2.9993222e-05
2.840000000,8.185166e-08,0,0,0,0,-6.7827437e-05,-2.9993222e-05
2.850000000,8.185166e-08,0,0,0,0,-7.4090407e-05,-2.9993222e-05
2.860000000,8.185166e-08,0,0,0,0,-8.1442398e-05,-2.9993222e-05
2.870000000,8.185166e-08,0,0,0,0,-8.9883542e-05,-2.9993222e-05
2.880000000,8.185166e-08,0,0,0,0,-9.9413803e-05,-2.9993222e-05
2.890000000,8.185166e-08,0,0,0,0,-0.00011003319,-2.9993222e-05
2.900000000,8.185166e-08,0,0,0,0,-0.00012174171,-2.9993222e-05
2.910000000,8.185166e-08,0,0,0,0,-0.00013453935,-2.9993222e-05
2.920000000,8.185166e-08,0,0,0,0,-0.00014842613,-2.9993222e-05
2.930000000,8.185166e-08,0,0,0,0,-0.00016340203,-2.9993222e-05
2.940000000,8.185166e-08,0,0,0,0,-0.00017946705,-2.9993222e-05
2.950000000,8.185166e-08,0,0,0,0,-0.0001966212,-2.9993222e-05
2.960000000,8.185166e-08,0,0,0,0,-0.00021486447,-2.9993222e-05
2.970000000,8.185166e-08,0,0,0,0,-0.00023419686,-2.9993222e-05
2.980000000,8.185166e-08,0,0,0,0,-0.00025461838,-2.9993222e-05
2.990000000,-1.121779e-05,0,0,0,0,0.0014511404,-0.00024994349
3.000000000,1.3818103e-06,0.0015413463,0.0015413463,0.0015413463,0.0015413463,0.19536652,0.0015197203
3.010000000,0.0015820232,0.0061558187,0.0061558187,0.0061558187,0.0061558187,0.53057688,0.19551399
3.020000000,0.0062700701,0.013815045,0.013815045,0.013815045,0.013815045,0.82118028,0.53077227
3.030000000,0.013941389,0.02447173,0.02447173,0.02447173,0.02447173,1.1244504,0.82122886
3.040000000,0.024502795,0.038060248,0.038060248,0.038060248,0.038060248,1.4337789,1.124423
3.050000000,0.03802054,0.054496735,0.054496735,0.054496735,0.054496735,1.7367495,1.4337461
3.060000000,0.054414667,0.073679924,0.073679924,0.073679924,0.073679924,2.0333107,1.7366204
3.070000000,0.073597603,0.095491499,0.095491499,0.095491499,0.095491499,2.3179858,2.0332458
3.080000000,0.095416524,0.11979702,0.11979702,0.11979702,0.11979702,2.5925982,2.3178134
3.090000000,0.11974341,0.14644662,0.14644662,0.14644662,0.14644662,2.852942,2.5924828
3.100000000,0.14642566,0.17527598,0.17527598,0.17527598,0.17527598,3.0972431,2.852735
3.110000000,0.1752681,0.20610738,0.20610738,0.20610738,0.20610738,3.3274891,3.09705
3.120000000,0.20610331,0.23875073,0.23875073,0.23875073,0.23875073,3.5407963,3.3273773
3.130000000,0.2387557,0.27300477,0.27300477,0.27300477,0.27300477,3.7345462,3.5406983
3.140000000,0.2730107,0.3086583,0.3086583,0.3086583,0.3086583,3.9094329,3.7344325
3.150000000,0.30865824,0.34549153,0.34549153,0.34549153,0.34549153,4.0642171,3.9092205
3.160000000,0.34548849,0.38327736,0.38327736,0.38327736,0.38327736,4.1970119,4.0642118
3.170000000,0.38326877,0.42178279,0.42178279,0.42178279,0.42178279,4.3079572,4.1968074
3.180000000,0.42178041,0.46077049,0.46077049,0.46077049,0.46077049,4.3942108,4.3078871
3.190000000,0.46075824,0.50000006,0.50000006,0.50000006,0.50000006,4.4591994,4.3942013
3.200000000,0.49999875,0.53922957,0.53922957,0.53922957,0.53922957,4.4970508,4.4589891
3.210000000,0.53921854,0.57821727,0.57821727,0.57821727,0.57821727,4.5138149,4.4968824
3.220000000,0.57821596,0.6167227,0.6167227,0.6167227,0.6167227,4.5030928,4.513669
3.230000000,0.61671895,0.65450853,0.65450853,0.65450853,0.65450853,4.4700441,4.5029111
3.240000000,0.65450782,0.69134176,0.69134176,0.69134176,0.69134176,4.4116626,4.4699769
3.250000000,0.69134057,0.72699529,0.72699529,0.72699529,0.72699529,4.3301334,4.4116378
3.260000000,0.72699404,0.7612493,0.7612493,0.7612493,0.7612493,4.2251239,4.3300529
3.270000000,0.76124895,0.79389262,0.79389262,0.79389262,0.79389262,4.097404,4.2250118
3.280000000,0.79389679,0.82472408,0.82472408,0.82472408,0.82472408,3.9472637,4.0973558
3.290000000,0.82472169,0.85355341,0.85355341,0.85355341,0.85355341,3.7776747,3.9471135
3.300000000,0.85355395,0.88020301,0.88020301,0.88020301,0.88020301,3.5868711,3.7774847
3.310000000,0.88020736,0.90450853,0.90450853,0.90450853,0.90450853,3.377413,3.5867696
3.320000000,0.90450805,0.92632008,0.92632008,0.92632008,0.92632008,3.1515706,3.3773184
3.330000000,0.92632645,0.94550329,0.94550329,0.94550329,0.94550329,2.9080393,3.1515098
3.340000000,0.94550472,0.96193981,0.96193981,0.96193981,0.96193981,2.6517305,2.9078345
3.350000000,0.96194452,0.97552824,0.97552824,0.97552824,0.97552824,2.3811245,2.6516819
3.360000000,0.97553527,0.98618495,0.98618495,0.98618495,0.98618495,2.0995541,2.3811016
3.370000000,0.98618382,0.99384415,0.99384415,0.99384415,0.99384415,1.8097728,2.0995436
3.380000000,0.99385154,0.99845868,0.99845868,0.99845868,0.99845868,1.5099856,1.8095869
3.390000000,0.99846542,1,1,1,1,1.2057033,1.5099521
3.400000000,1.0000063,0.99845862,0.99845862,0.99845862,0.99845862,0.89702183,1.2055681
3.410000000,0.99846601,0.99384415,0.99384415,0.99384415,0.99384415,0.58612174,0.89715481
3.420000000,0.99385709,0.98618495,0.98618495,0.98618495,0.98618495,0.2742596,0.5861721
3.430000000,0.98618978,0.97552824,0.97552824,0.97552824,0.97552824,-0.034072436,0.27430949
3.440000000,0.97553605,0.96193969,0.96193969,0.96193969,0.96193969,-0.34041572,-0.034022309
3.450000000,0.96194392,0.94550323,0.94550323,0.94550323,0.94550323,-0.64002252,-0.34036306
3.460000000,0.94550872,0.92632008,0.92632008,0.92632008,0.92632008,-0.93308687,-0.63986534
3.470000000,0.92633158,0.90450847,0.90450847,0.90450847,0.90450847,-1.2175754,-0.93296909
3.480000000,0.9045127,0.88020289,0.88020289,0.88020289,0.88020289,-1.4894425,-1.2174548
3.490000000,0.88020837,0.8535533,0.8535533,0.8535533,0.8535533,-1.7499599,-1.4893733
3.500000000,0.85356313,0.82472396,0.82472396,0.82472396,0.82472396,-1.9965081,-1.7498045
3.510000000,0.82473302,0.79389256,0.79389256,0.79389256,0.79389256,-2.2268548,-1.9963386
3.520000000,0.7938959,0.76124918,0.76124918,0.76124918,0.76124918,-2.4394526,-2.2267566
3.530000000,0.76126045,0.72699517,0.72699517,0.72699517,0.72699517,-2.6354458,-2.4392986
3.540000000,0.72700357,0.69134164,0.69134164,0.69134164,0.69134164,-2.8102822,-2.6352844
3.550000000,0.69134462,0.65450841,0.65450841,0.65450841,0.65450841,-2.9642768,-2.8100946
3.560000000,0.65451002,0.61672258,0.61672258,0.61672258,0.61672258,-3.0968781,-2.9641399
3.570000000,0.61673045,0.57821715,0.57821715,0.57821715,0.57821715,-3.207948,-3.0967901
3.580000000,0.57822436,0.53922945,0.53922945,0.53922945,0.53922945,-3.2950146,-3.2078049
3.590000000,0.53923464,0.49999991,0.49999991,0.49999991,0.49999991,-3.3584013,-3.2949851
3.600000000,0.50000674,0.46077034,0.46077034,0.46077034,0.46077034,-3.3981614,-3.3583307
3.610000000,0.46076876,0.42178267,0.42178267,0.42178267,0.42178267,-3.4120955,-3.3980618
3.620000000,0.42179015,0.38327721,0.38327721,0.38327721,0.38327721,-3.4040751,-3.4119587
3.630000000,0.3832795,0.34549141,0.34549141,0.34549141,0.34549141,-3.3695307,-3.4040203
3.640000000,0.34549135,0.30865818,0.30865818,0.30865818,0.30865818,-3.3115208,-3.3693683
3.650000000,0.30865869,0.27300465,0.27300465,0.27300465,0.27300465,-3.2298119,-3.3113215
3.660000000,0.27301079,0.23875061,0.23875061,0.23875061,0.23875061,-3.1256025,-3.2296598
3.670000000,0.2387552,0.20610729,0.20610729,0.20610729,0.20610729,-2.9979036,-3.1254835
3.680000000,0.20610741,0.17527589,0.17527589,0.17527589,0.17527589,-2.8481224,-2.9976921
3.690000000,0.17526554,0.14644653,0.14644653,0.14644653,0.14644653,-2.6762862,-2.8480563
3.700000000,0.14644651,0.11979693,0.11979693,0.11979693,0.11979693,-2.4872351,-2.676115
3.710000000,0.11979185,0.095491439,0.095491439,0.095491439,0.095491439,-2.2771194,-2.4871976
3.720000000,0.095496766,0.073679864,0.073679864,0.073679864,0.073679864,-2.0522118,-2.2770753
3.730000000,0.073672138,0.054496676,0.054496676,0.054496676,0.054496676,-1.8078203,-2.0521762
3.740000000,0.054494463,0.038060188,0.038060188,0.038060188,0.038060188,-1.5517446,-1.8076314
3.750000000,0.038054638,0.0244717,0.0244717,0.0244717,0.0244717,-1.2810249,-1.5516092
3.760000000,0.024463948,0.013815016,0.013815016,0.013815016,0.013815016,-0.9994188,-1.2810204
3.770000000,0.013815446,0.0061558187,0.0061558187,0.0061558187,0.0061558187,-0.70957607,-0.99939406
3.780000000,0.0061532753,0.0015413165,0.0015413165,0.0015413165,0.0015413165,-0.41056153,-0.70938957
3.790000000,0.0015274343,0,0,0,0,-0.10459416,-0.4105472
3.800000000,-8.1761391e-07,0,0,0,0,0.0068398979,-0.1044264
3.810000000,-3.2416949e-05,0,0,0,0,-0.018242516,0.0070287059
3.820000000,-0.0001242147,0,0,0,0,0.0040352652,-0.018125903
3.830000000,-0.00013251451,0,0,0,0,0.0091149304,0.0041592345
3.840000000,-3.9517057e-05,0,0,0,0,0.005946462,0.009238299
3.850000000,2.9180905e-05,0,0,0,0,0.0033964312,0.0061488682
3.860000000,6.5279484e-05,0,0,0,0,0.00081276661,0.0034993559
3.870000000,8.2678787e-05,0,0,0,0,-0.0022930719,0.00084984355
3.880000000,5.7479781e-05,0,0,0,0,-0.0012439571,-0.0022394937
3.890000000,4.8780101e-05,0,0,0,0,-0.0031634839,-0.0011297446
3.900000000,1.6181319e-05,0,0,0,0,-0.00092097797,-0.0031192948
3.910000000,8.7815997e-06,0,0,0,0,-0.0018156836,-0.00090979435
3.920000000,-1.251775e-05,0,0,0,0,0.00055550848,-0.0017995932
3.930000000,-9.9178305e-06,0,0,0,0,-1.4729997e-05,0.00062988402
3.940000000,-9.9178305e-06,0,0,0,0,0.00058079511,0.00018996504
3.950000000,1.3818103e-06,0,0,0,0,-0.00068861555,0.00062988402
3.960000000,8.185166e-08,0,0,0,0,-0.0002869367,-0.0004698938
3.970000000,-1.121779e-05,0,0,0,0,0.001288689,-0.00024994349
3.980000000,1.3818103e-06,0,0,0,0,-0.00018880656,0.0012897626
3.990000000,1.1381511e-05,0,0,0,0,-0.0012964862,-2.9993222e-05
4.000000000,-1.2181091e-06,0.0061653852,0.0061653852,0.0061653852,0.0061653852,0.78175455,-0.0011297446
4.010000000,0.0062712734,0.024623275,0.024623275,0.024623275,0.024623275,2.1281312,0.78193605
4.020000000,0.025086412,0.055260181,0.055260181,0.055260181,0.055260181,3.283422,2.1279583
4.030000000,0.055759549,0.09788692,0.09788692,0.09788692,0.09788692,4.5000558,3.2832456
4.040000000,0.098017119,0.15224099,0.15224099,0.15224099,0.15224099,5.7353292,4.4998918
4.050000000,0.15209244,0.21798694,0.21798694,0.21798694,0.21798694,6.9469333,5.7352643
4.060000000,0.21767962,0.2947197,0.2947197,0.2947197,0.2947197,8.1310244,6.9467411
4.070000000,0.2943818,0.38196599,0.38196599,0.38196599,0.38196599,9.273181,8.1308832
4.080000000,0.38167769,0.47918808,0.47918808,0.47918808,0.47918808,10.368039,9.2730427
4.090000000,0.47898892,0.58578646,0.58578646,0.57928818,0.57928818,10.584876,10.367851
4.100000000,0.57906193,0.70110393,0.70110393,0.67938828,0.67938828,10.685288,10.584831
4.110000000,0.67893195,0.82442951,0.82442951,0.77948844,0.77948844,10.85262,10.685143
4.120000000,0.779212,0.9550029,0.9550029,0.8795886,0.8795886,10.962101,10.852612
4.130000000,0.87960517,1.0920191,1.0920191,0.97968882,0.97968882,11.062591,10.961962
4.140000000,0.97991174,1.2346332,1.2346332,1.079789,1.079789,11.159765,11.062493
4.150000000,1.0800793,1.3819661,1.3819661,1.1798893,1.1798893,11.262205,11.159575
4.160000000,1.180162,1.5331094,1.5331094,1.2799896,1.2799896,11.367106,11.262036
4.170000000,1.2801884,1.6871312,1.6871312,1.38009,1.38009,11.476511,11.367078
4.180000000,1.3802004,1.843082,1.843082,1.4801904,1.4801904,11.588321,11.476437
4.190000000,1.4802262,2.0000002,2.0000002,1.5015001,1.5320261,5.5823188,11.588146
4.200000000,1.531149,2.1569183,2.1569183,1.5015001,1.5224954,-0.42368221,5.5822124
4.210000000,1.5194784,1.4627804,1.4627804,1.4627804,1.4627804,-4.8368769,-0.42357427
4.220000000,1.4609753,1.4268943,1.4268943,1.4268943,1.416314,-2.0190237,-4.8368564
4.230000000,1.4178479,1.3809783,1.3809783,1.3809783,1.3702245,-3.0725219,-2.0188537
4.240000000,1.374828,1.3250324,1.3250324,1.3250324,1.3180079,-4.1370654,-3.0725155
4.250000000,1.320263,1.2590563,1.2590563,1.2590563,1.2552369,-5.2126422,-4.1369848
4.260000000,1.2556155,1.1830503,1.1830503,1.1830503,1.1816071,-6.299252,-5.212502
4.270000000,1.1808838,1.0970143,1.0970143,1.0970143,1.0971712,-7.3968825,-6.2990465
4.280000000,1.0960561,1.0009482,1.0009482,1.0009482,1.0021456,-8.5055704,-7.3968477
4.290000000,1.0011454,0.89485228,0.89485228,0.89485228,0.89680368,-9.6252546,-8.5054674
4.300000000,0.89615017,0.77872628,0.77872628,0.77872628,0.78135312,-10.756002,-9.625124
4.310000000,0.78107625,0.65910035,0.65910035,0.65910035,0.66112572,-11.237583,-10.755819
4.320000000,0.66121095,0.54913044,0.54913044,0.54913044,0.54810494,-10.392949,-11.2374
4.330000000,0.54876512,0.44919035,0.44919035,0.44919035,0.44577172,-9.4999008,-10.392751
4.340000000,0.44681755,0.35928029,0.35928029,0.35928029,0.35434327,-8.5957985,-9.4997625
4.350000000,0.35499701,0.27940035,0.27940035,0.27940035,0.27320409,-7.680654,-8.5957365
4.360000000,0.27325764,0.20955029,0.20955029,0.20955029,0.20199022,-6.7545009,-7.6804638
4.370000000,0.20161402,0.14973025,0.14973025,0.14973025,0.14061457,-5.8173013,-6.7543736
4.380000000,0.14006482,0.099940285,0.099940285,0.099940285,0.089123011,-4.8690624,-5.8172445
4.390000000,0.088615701,0.060180247,0.060180247,0.060180247,0.047617711,-3.9098058,-4.8688593
4.400000000,0.047243424,0.03045026,0.03045026,0.03045026,0.016162578,-2.9395037,-3.909656
4.410000000,0.015973173,0.010750232,0.010750232,0.010750232,-0.0051629725,-1.9581777,-2.9394255
4.420000000,-0.0052146809,0.0010802149,0.0010802149,0.0010802149,-0.016349286,-0.96581364,-1.9581573
4.430000000,-0.016301217,0,0,0,-0.018529598,-0.10802157,-0.96563166
4.440000000,-0.018485921,-0.018062616,-0.018062616,-0.018062616,-0.018062616,-1.0802157e-08,-0.1079556
4.450000000,-0.018162137,-0.013047625,-0.013047625,-0.013047625,-0.013047625,0.56897855,0.00018996504
4.460000000,-0.013358147,-0.0032153076,-0.0032153076,-0.0032153076,-0.0032153076,1.079316,0.56917524
4.470000000,-0.0032425923,0,0,0,0,0.10509179,1.0792114
4.480000000,-9.6823322e-05,0,0,0,0,-0.023467563,0.10525063
4.490000000,-0.00044170619,0,0,0,0,0.078706875,-0.023424704
4.500000000,9.9429257e-05,0,0,0,0,0.014592722,0.078765497
4.510000000,0.00040231692,0,0,0,0,-0.0057900944,0.014757283
4.520000000,0.00036006854,0,0,0,0,-0.010820033,-0.0057686958
4.530000000,0.00024707272,0,0,0,0,-0.01239554,-0.010627598
4.540000000,0.00012447729,0,0,0,0,-0.010368489,-0.0123872
4.550000000,1.5781292e-05,0,0,0,0,-0.005702775,-0.010177699
4.560000000,-3.7716985e-05,0,0,0,0,-0.0035196696,-0.0055487454
4.570000000,-7.5116055e-05,0,0,0,0,0.00088273408,-0.0033392452
4.580000000,-6.991619e-05,0,0,0,0,0.0018316064,0.001069803
4.590000000,-5.8616497e-05,0,0,0,0,0.0035912953,0.0019596391
4.600000000,-1.4717698e-05,0,0,0,0,0.00042165059,0.0037193154
4.610000000,-8.6178661e-06,0,0,0,0,0.0017726724,0.00062988402
4.620000000,1.268147e-05,0,0,0,0,-0.00062187057,0.0019596391
4.630000000,1.008155e-05,0,0,0,0,4.7375663e-05,-0.0004698938
4.640000000,1.008155e-05,0,0,0,0,-0.00048380188,0.00018996504
4.650000000,1.008155e-05,0,0,0,0,-0.00087101961,-0.0004698938
4.660000000,-1.2181091e-06,0,0,0,0,0.00026235319,-0.00068984402
4.670000000,8.185166e-08,0,0,0,0,-0.00018829989,0.00040992454
4.680000000,8.185166e-08,0,0,0,0,-0.00011108445,-2.9993222e-05
4.690000000,8.185166e-08,0,0,0,0,-0.00017292063,-2.9993222e-05
4.700000000,8.185166e-08,0,0,0,0,-0.00019986261,-2.9993222e-05
4.710000000,8.185166e-08,0,0,0,0,-0.00023727887,-2.9993222e-05
4.720000000,8.185166e-08,0,0,0,0,-0.00027333642,-2.9993222e-05
4.730000000,8.185166e-08,0,0,0,0,-0.00031112155,-0.00024994349
4.740000000,8.185166e-08,0,0,0,0,-0.00034982926,-0.00024994349
4.750000000,-1.121779e-05,0,0,0,0,0.0013375999,-0.00024994349
4.760000000,1.3818103e-06,0,0,0,0,-0.00017211404,0.0015197203
4.770000000,1.1381511e-05,0,0,0,0,-0.0012744485,-2.9993222e-05
4.780000000,-1.2181091e-06,0,0,0,0,0.00014505896,-0.0011297446
4.790000000,8.185166e-08,0,0,0,0,-0.00039670221,0.00018996504
4.800000000,8.185166e-08,0,0,0,0,-0.00031220258,-0.00024994349
4.810000000,-1.121779e-05,0,0,0,0,0.0013348522,-0.00024994349
4.820000000,1.3818103e-06,0,0,0,0,-0.0001725709,0.0015197203
4.830000000,1.1381511e-05,0,0,0,0,-0.0012837424,-2.9993222e-05
4.840000000,-1.2181091e-06,0,0,0,0,0.00012983041,-0.0011297446
4.850000000,8.185166e-08,0,0,0,0,-0.0004186224,0.00018996504
4.860000000,8.185166e-08,0,0,0,0,-0.00034061697,-0.00024994349
4.870000000,-1.121779e-05,0,0,0,0,0.0012998922,-0.00024994349
4.880000000,1.3818103e-06,0,0,0,0,-0.00021406308,0.0015197203
4.890000000,1.1381511e-05,0,0,0,0,-0.0013317702,-2.9993222e-05
4.900000000,-1.2181091e-06,0,0,0,0,7.526781e-05,-0.0011297446
4.910000000,8.185166e-08,0,0,0,0,-0.00047972001,0.00018996504
4.920000000,8.185166e-08,0,0,0,0,-0.00040824953,-0.0004698938
4.930000000,-1.121779e-05,0,0,0,0,0.0012257246,-0.00024994349
4.940000000,1.3818103e-06,0,0,0,0,-0.00029476572,0.0012897626
4.950000000,8.185166e-08,0,0,0,0,0.0003082644,-0.00024994349
4.960000000,1.1381511e-05,0,0,0,0,-0.0014873032,0.00040992454
4.970000000,-1.2181091e-06,0,0,0,0,8.6921449e-05,-0.0013496949
4.980000000,-1.121779e-05,0,0,0,0,0.0012059849,0.00018996504
4.990000000,1.3818103e-06,0,0,0,0,-0.00018707293,0.0012897626
5.000000000,1.1381511e-05,0.0015413463,0.0015413463,0.0015413463,0.0015413463,0.19405535,-2.9993222e-05
5.010000000,0.0015694237,0.0061558187,0.0061558187,0.0061558187,0.0061558187,0.53175384,0.19419424
5.020000000,0.0062657194,0.013815045,0.013815045,0.013815045,0.013815045,0.8212139,0.53188211
5.030000000,0.013936389,0.02447173,0.02447173,0.02447173,0.02447173,1.1251967,0.82122886
5.040000000,0.024503445,0.038060248,0.038060248,0.038060248,0.038060248,1.4339161,1.1250628
5.050000000,0.03802054,0.054496735,0.054496735,0.054496735,0.054496735,1.7372154,1.4337461
5.060000000,0.054425966,0.073679924,0.073679924,0.073679924,0.073679924,2.0320754,1.7370503
5.070000000,0.073590644,0.095491499,0.095491499,0.095491499,0.095491499,2.3191891,2.031956
5.080000000,0.095417179,0.11979702,0.11979702,0.11979702,0.11979702,2.5924826,2.319103
5.090000000,0.1197547,0.14644662,0.14644662,0.14644662,0.14644662,2.8515301,2.5922728
5.100000000,0.14641872,0.17527598,0.17527598,0.17527598,0.17527598,3.0980778,2.8514452
5.110000000,0.17526874,0.20610738,0.20610738,0.20610738,0.20610738,3.3269744,3.0979097
5.120000000,0.20610331,0.23875073,0.23875073,0.23875073,0.23875073,3.5406346,3.3269475
5.130000000,0.2387557,0.27300477,0.27300477,0.27300477,0.27300477,3.7342365,3.5404882
5.140000000,0.27300504,0.3086583,0.3086583,0.3086583,0.3086583,3.9099715,3.7342227
5.150000000,0.30865327,0.34549153,0.34549153,0.34549153,0.34549153,4.0648289,3.9098701
5.160000000,0.34549481,0.38327736,0.38327736,0.38327736,0.38327736,4.1963172,4.0646415
5.170000000,0.38326812,0.42178279,0.42178279,0.42178279,0.42178279,4.3082843,4.1961675
5.180000000,0.42178041,0.46077049,0.46077049,0.46077049,0.46077049,4.3942404,4.3080969
5.190000000,0.46075824,0.50000006,0.50000006,0.50000006,0.50000006,4.4593344,4.3942013
5.200000000,0.49999875,0.53922957,0.53922957,0.53922957,0.53922957,4.4971857,4.459209
5.210000000,0.53922409,0.57821727,0.57821727,0.57821727,0.57821727,4.5131297,4.4970922
5.220000000,0.5782153,0.6167227,0.6167227,0.6167227,0.6167227,4.5031509,4.5130191
5.230000000,0.61671895,0.65450853,0.65450853,0.65450853,0.65450853,4.4697948,4.5031209
5.240000000,0.65450221,0.69134176,0.69134176,0.69134176,0.69134176,4.4122944,4.4697571
5.250000000,0.69134122,0.72699529,0.72699529,0.72699529,0.72699529,4.3299732,4.4122877
5.260000000,0.72699404,0.7612493,0.7612493,0.7612493,0.7612493,4.225256,4.329843
5.270000000,0.76125467,0.79389262,0.79389262,0.79389262,0.79389262,4.096612,4.2252221
5.280000000,0.79389048,0.82472408,0.82472408,0.82472408,0.82472408,3.9481204,4.0964956
5.290000000,0.82472235,0.85355341,0.85355341,0.85355341,0.85355341,3.7774737,3.9479733
5.300000000,0.85355961,0.88020301,0.88020301,0.88020301,0.88020301,3.586165,3.7772646
5.310000000,0.8802067,0.90450853,0.90450853,0.90450853,0.90450853,3.3773756,3.5861197
5.320000000,0.90450805,0.92632008,0.92632008,0.92632008,0.92632008,3.1512423,3.3773184
5.330000000,0.92631507,0.94550329,0.94550329,0.94550329,0.94550329,2.9094691,3.1510801
5.340000000,0.94550604,0.96193981,0.96193981,0.96193981,0.96193981,2.6516178,2.9093444
5.350000000,0.96194452,0.97552824,0.97552824,0.97552824,0.97552824,2.3816423,2.6514621
5.360000000,0.97554094,0.98618495,0.98618495,0.98618495,0.98618495,2.099153,2.3815317
5.370000000,0.98619437,0.99384415,0.99384415,0.99384415,0.99384415,1.8085207,2.0991137
5.380000000,0.99384469,0.99845868,0.99845868,0.99845868,0.99845868,1.5107845,1.8085171
5.390000000,0.99846607,1,1,1,1,1.205209,1.510592
5.400000000,1.0000063,0.99845862,0.99845862,0.99845862,0.99845862,0.89686662,1.2051381
5.410000000,0.99846035,0.99384415,0.99384415,0.99384415,0.99384415,0.58668685,0.89692485
5.420000000,0.99385208,0.98618495,0.98618495,0.98618495,0.98618495,0.27493465,0.58683199
5.430000000,0.9861961,0.97552824,0.97552824,0.97552824,0.97552824,-0.034716822,0.27496937
5.440000000,0.97553539,0.96193969,0.96193969,0.96193969,0.96193969,-0.34003532,-0.034682158
5.450000000,0.96194392,0.94550323,0.94550323,0.94550323,0.94550323,-0.6399408,-0.33992317
5.460000000,0.94551432,0.92632008,0.92632008,0.92632008,0.92632008,-0.93375659,-0.63986534
5.470000000,0.92633092,0.90450847,0.90450847,0.90450847,0.90450847,-1.2175153,-0.93362898
5.480000000,0.90450704,0.88020289,0.88020289,0.88020289,0.88020289,-1.4888215,-1.2174548
5.490000000,0.88020897,0.8535533,0.8535533,0.8535533,0.8535533,-1.7500429,-1.4887035
5.500000000,0.85356313,0.82472396,0.82472396,0.82472396,0.82472396,-1.9963251,-1.7500244
5.510000000,0.82473302,0.79389256,0.79389256,0.79389256,0.79389256,-2.2267122,-1.9961188
5.520000000,0.79390156,0.76124918,0.76124918,0.76124918,0.76124918,-2.4401362,-2.2265368
5.530000000,0.76125979,0.72699517,0.72699517,0.72699517,0.72699517,-2.6353741,-2.4399586
5.540000000,0.72699785,0.69134164,0.69134164,0.69134164,0.69134164,-2.8096464,-2.6352844
5.550000000,0.69135094,0.65450841,0.65450841,0.65450841,0.65450841,-2.9652238,-2.8094249
5.560000000,0.65450937,0.61672258,0.61672258,0.61672258,0.61672258,-3.0968127,-2.9650297
5.570000000,0.61673045,0.57821715,0.57821715,0.57821715,0.57821715,-3.2082593,-3.0967901
5.580000000,0.5782187,0.53922945,0.53922945,0.53922945,0.53922945,-3.2944162,-3.2082448
5.590000000,0.53923529,0.49999991,0.49999991,0.49999991,0.49999991,-3.3586051,-3.2943251
5.600000000,0.50000107,0.46077034,0.46077034,0.46077034,0.46077034,-3.397202,-3.3585505
5.610000000,0.46077505,0.42178267,0.42178267,0.42178267,0.42178267,-3.4127815,-3.397172
5.620000000,0.4217895,0.38327721,0.38327721,0.38327721,0.38327721,-3.4036505,-3.4126284
5.630000000,0.38328516,0.34549141,0.34549141,0.34549141,0.34549141,-3.3702893,-3.4035707
5.640000000,0.34549069,0.30865818,0.30865818,0.30865818,0.30865818,-3.3114295,-3.3702481
5.650000000,0.30865869,0.27300465,0.27300465,0.27300465,0.27300465,-3.2300544,-3.3113215
5.660000000,0.27300519,0.23875061,0.23875061,0.23875061,0.23875061,-3.1249549,-3.2298799
5.670000000,0.2387502,0.20610729,0.20610729,0.20610729,0.20610729,-2.997185,-3.1248236
5.680000000,0.20610806,0.17527589,0.17527589,0.17527589,0.17527589,-2.8478441,-2.9970324
5.690000000,0.17527683,0.14644653,0.14644653,0.14644653,0.14644653,-2.677448,-2.8478262
5.700000000,0.14644521,0.11979693,0.11979693,0.11979693,0.11979693,-2.4868906,-2.6774449
5.710000000,0.11979185,0.095491439,0.095491439,0.095491439,0.095491439,-2.2773378,-2.4867477
5.720000000,0.095485471,0.073679864,0.073679864,0.073679864,0.073679864,-2.050611,-2.2772951
5.730000000,0.073684737,0.054496676,0.054496676,0.054496676,0.054496676,-1.8094934,-2.0504065
5.740000000,0.054493167,0.038060188,0.038060188,0.038060188,0.038060188,-1.5513166,-1.8094009
5.750000000,0.038054638,0.0244717,0.0244717,0.0244717,0.0244717,-1.2813152,-1.5511693
5.760000000,0.024463948,0.013815016,0.013815016,0.013815016,0.013815016,-0.99957621,-1.2812402
5.770000000,0.013815446,0.0061558187,0.0061558187,0.0061558187,0.0061558187,-0.7098226,-0.99939406
5.780000000,0.0061476249,0.0015413165,0.0015413165,0.0015413165,0.0015413165,-0.40997556,-0.70960963
5.790000000,0.0015337333,0,0,0,0,-0.10565247,-0.40988731
5.800000000,-1.4675024e-06,0,0,0,0,0.0068070027,-0.10552614
5.810000000,-4.3716587e-05,0,0,0,0,-0.016928066,0.0068087461
5.820000000,-0.00012291475,0,0,0,0,0.0039255768,-0.016806202
5.830000000,-0.00013251451,0,0,0,0,0.0096061071,0.0039392747
5.840000000,-3.9517057e-05,0,0,0,0,0.0063942471,0.0096782185
5.850000000,4.0480445e-05,0,0,0,0,0.0022416052,0.0065887868
5.860000000,6.3979533e-05,0,0,0,0,0.0012075404,0.0023995582
5.870000000,8.2678787e-05,0,0,0,0,-0.0024729935,0.0012897626
5.880000000,5.7479781e-05,0,0,0,0,-0.0013284202,-0.0024594439
5.890000000,4.8780101e-05,0,0,0,0,-0.003327278,-0.0011297446
5.900000000,1.6181319e-05,0,0,0,0,-0.0011185143,-0.0031192948
