QD/IREF,QD/IREF
X,Y
0.0,55.5269
6.0,55.5523
12.0,55.6284
18.0,55.7552
24.0,55.9328
30.0,56.1611
35.0,56.5503
36.0,56.443
42.0,56.2062
48.0,56.3445
50.0,56.5149
54.0,56.8648
60.0,57.7298
66.0,58.9007
72.0,60.354
78.0,62.0662
84.0,63.8942
90.0,65.4416
96.0,66.6895
100.0,67.3421
102.0,68.185
108.0,70.548
114.0,72.7452
120.0,74.7768
126.0,76.6425
132.0,78.3423
138.0,79.8762
144.0,81.2441
150.0,82.446
156.0,83.4818
162.0,84.3514
168.0,85.0548
174.0,85.5919
180.0,85.9627
186.0,86.1671
192.0,86.2143
253.0,86.318
507.0,86.7179
1015.0,86.6911
1017.0,86.6725
1020.0,86.6445
1026.0,86.5887
1037.0,86.4889
1038.0,86.4798
1046.0,86.4073
1051.0,86.3619
1057.0,86.3075
1066.0,86.2259
1070.0,86.1896
1075.0,86.1442
1076.0,86.1433
1077.0,86.1424
1081.0,86.1387
1086.0,86.1391
1087.0,86.1392
1091.0,86.1435
1093.0,86.1457
1097.0,86.1542
1099.0,86.1584
1100.0,86.1615
1101.0,86.1647
1105.0,86.1777
1106.0,86.1819
1111.0,86.2015
1116.0,86.2262
1117.0,86.2312
1120.0,86.249
1123.0,86.2669
1126.0,86.2877
1129.0,86.3083
1135.0,86.3554
1137.0,86.3731
1141.0,86.4086
1146.0,86.458
1147.0,86.4678
1148.0,86.4787
1151.0,86.5114
1152.0,86.5223
1153.0,86.5332
1155.0,86.557
1157.0,86.5807
1159.0,86.6045
1160.0,86.6174
1165.0,86.682
1166.0,86.6959
1171.0,86.7655
1176.0,86.8401
1177.0,86.855
1180.0,86.9028
1183.0,86.9506
1186.0,87.0015
1189.0,87.0523
1191.0,87.0882
1195.0,87.16
1201.0,87.2738
1206.0,87.3736
1207.0,87.3936
1213.0,87.5194
1216.0,87.5853
1217.0,87.6073
1219.0,87.6513
1220.0,87.6743
1225.0,87.7892
1226.0,87.8132
1231.0,87.9405
1236.0,88.0728
1237.0,88.0993
1240.0,88.1817
1241.0,88.2092
1243.0,88.2641
1246.0,88.3496
1249.0,88.4356
1251.0,88.495
1252.0,88.5246
1255.0,88.6134
1257.0,88.6745
1261.0,88.7969
1266.0,88.9549
1267.0,88.9865
1270.0,89.0844
1273.0,89.1822
1276.0,89.2831
1277.0,89.3167
1279.0,89.3839
1280.0,89.4186
1285.0,89.5917
1286.0,89.6274
1291.0,89.8064
1296.0,89.9905
1297.0,90.0273
1301.0,90.1786
1303.0,90.2543
1306.0,90.3708
1309.0,90.4869
1315.0,90.7253
1316.0,90.766
1317.0,90.8068
1320.0,90.929
1321.0,90.9697
1326.0,91.1784
1327.0,91.2202
1333.0,91.4767
1336.0,91.6081
1337.0,91.6518
1339.0,91.7394
1341.0,91.8289
1345.0,92.008
1346.0,92.0538
1351.0,92.2836
1352.0,92.3306
1356.0,92.5185
1357.0,92.5654
1363.0,92.8533
1366.0,93.0003
1369.0,93.1473
1375.0,93.4473
1376.0,93.4983
1377.0,93.5493
1381.0,93.7534
1386.0,94.0135
1387.0,94.065
1393.0,94.3798
1397.0,94.5937
1399.0,94.7007
1401.0,94.8097
1405.0,95.0276
1406.0,95.0831
1411.0,95.3633
1416.0,95.6484
1417.0,95.7055
1423.0,96.0537
1426.0,96.2309
1429.0,96.4077
1435.0,96.7674
1437.0,96.8893
1441.0,97.1331
1446.0,97.443
1447.0,97.5049
1451.0,97.7568
1452.0,97.8198
1453.0,97.8828
1456.0,98.0748
1457.0,98.1387
1459.0,98.2663
1465.0,98.655
1466.0,98.7208
1470.0,98.984
1471.0,99.0498
1476.0,99.3843
1477.0,99.4512
1483.0,99.8657
1486.0,100.0805
1489.0,100.2953
1491.0,100.4435
1495.0,100.74
1496.0,100.8167
1497.0,100.8934
1501.0,101.2
1506.0,101.5958
1507.0,101.6748
1513.0,102.1635
1516.0,102.4155
1517.0,102.4995
1519.0,102.6674
1520.0,102.7539
1525.0,103.1864
1526.0,103.2755
1531.0,103.7207
1536.0,104.1785
1537.0,104.2701
1543.0,104.8347
1546.0,105.1245
1549.0,105.4154
1551.0,105.6144
1552.0,105.7139
1555.0,106.0124
1557.0,106.2165
1561.0,106.6246
1566.0,107.1473
1567.0,107.2518
1573.0,107.8942
1576.0,108.223
1577.0,108.3324
1579.0,108.5513
1585.0,109.2229
1586.0,109.3374
1591.0,109.9096
1596.0,110.4945
1597.0,110.6115
1601.0,111.0895
1603.0,111.3282
1606.0,111.6939
1609.0,112.0595
1615.0,112.806
1616.0,112.9329
1617.0,113.0598
1620.0,113.4406
1621.0,113.5675
1626.0,114.2147
1627.0,114.3443
1633.0,115.1376
1636.0,115.5418
1637.0,115.6765
1639.0,115.946
1645.0,116.7695
1646.0,116.9093
1651.0,117.6081
1652.0,117.7501
1656.0,118.3182
1657.0,118.4603
1663.0,119.3275
1666.0,119.7687
1669.0,120.2099
1670.0,120.3594
1675.0,121.1073
1676.0,121.2593
1677.0,121.4114
1681.0,122.0197
1686.0,122.7927
1687.0,122.9474
1691.0,123.5761
1693.0,123.8905
1697.0,124.5293
1699.0,124.8487
1701.0,125.1731
1705.0,125.822
1706.0,125.9867
1711.0,126.8104
1716.0,127.6466
1717.0,127.8138
1723.0,128.8324
1726.0,129.3492
1729.0,129.867
1735.0,130.9176
1737.0,131.2728
1741.0,131.9833
1746.0,132.884
1747.0,133.0641
1751.0,133.7948
1752.0,133.9772
1753.0,134.1596
1756.0,134.7143
1757.0,134.8992
1759.0,135.269
1765.0,136.3935
1766.0,136.5834
1771.0,137.533
1776.0,138.4953
1777.0,138.6877
1783.0,139.8574
1786.0,140.4498
1789.0,141.0422
1791.0,141.4422
1795.0,142.2421
1801.0,143.4571
1806.0,144.4823
1807.0,144.6873
1811.0,145.5174
1813.0,145.9325
1816.0,146.5626
1817.0,146.7727
1819.0,147.1928
1825.0,148.4681
1826.0,148.6832
1831.0,149.758
1836.0,150.8453
1837.0,151.0627
1841.0,151.9426
1843.0,152.3826
1846.0,153.05
1849.0,153.7174
1851.0,154.1674
1852.0,154.3924
1855.0,155.0674
1856.0,155.2949
1857.0,155.5224
1861.0,156.4324
1866.0,157.5824
1867.0,157.8124
1870.0,158.5099
1873.0,159.2075
1876.0,159.9125
1877.0,160.1477
1879.0,160.6179
1885.0,162.0438
1886.0,162.2839
1891.0,163.4847
1896.0,164.698
1897.0,164.9407
1901.0,165.9213
1903.0,166.4117
1906.0,167.1547
1909.0,167.8977
1915.0,169.3987
1916.0,169.6514
1920.0,170.6621
1921.0,170.9147
1926.0,172.1907
1927.0,172.4458
1933.0,173.9916
1937.0,175.0322
1939.0,175.5524
1941.0,176.0778
1945.0,177.1283
1946.0,177.3935
1951.0,178.7195
1952.0,178.9872
1956.0,180.0581
1957.0,180.3258
1963.0,181.947
1966.0,182.7652
1969.0,183.5834
1970.0,183.8586
1975.0,185.2347
1976.0,185.5125
1977.0,185.7902
1981.0,186.9011
1986.0,188.3023
1987.0,188.5825
1991.0,189.7135
1993.0,190.279
1997.0,191.42
1999.0,191.9904
2001.0,192.5659
2005.0,193.7169
2006.0,194.0072
2011.0,195.458
2016.0,196.9214
2017.0,197.214
2020.0,198.0996
2023.0,198.9851
2026.0,199.8781
2029.0,200.7714
2035.0,202.5729
2037.0,203.1785
2041.0,204.3895
2046.0,205.9158
2047.0,206.2211
2051.0,207.4524
2052.0,207.7603
2053.0,208.0681
2056.0,208.9991
2057.0,209.3094
2059.0,209.93
2065.0,211.807
2066.0,212.1223
2071.0,213.6989
2076.0,215.2881
2077.0,215.6059
2083.0,217.5279
2086.0,218.4964
2089.0,219.4649
2091.0,220.1156
2095.0,221.417
2097.0,222.0726
2101.0,223.384
2106.0,225.0357
2107.0,225.366
2113.0,227.3631
2116.0,228.3691
2117.0,228.7044
2119.0,229.3751
2120.0,229.713
2125.0,231.4022
2126.0,231.7425
2127.0,232.0829
2131.0,233.4443
2136.0,235.1586
2137.0,235.5015
2143.0,237.5737
2146.0,238.6173
2149.0,239.6607
2151.0,240.3613
2152.0,240.7116
2155.0,241.7625
2157.0,242.4682
2161.0,243.8794
2166.0,245.6559
2167.0,246.0112
2173.0,248.158
2176.0,249.239
2177.0,249.5993
2179.0,250.3199
2185.0,252.4967
2186.0,252.862
2191.0,254.6885
2196.0,256.5274
2197.0,256.8952
2201.0,258.3764
2203.0,259.117
2206.0,260.2355
2209.0,261.354
2215.0,263.6059
2216.0,263.9838
2217.0,264.3616
2221.0,265.8728
2226.0,267.7744
2227.0,268.1547
2233.0,270.4516
2236.0,271.6076
2237.0,271.9929
2239.0,272.7635
2245.0,275.0903
2246.0,275.4806
2251.0,277.4321
2252.0,277.825
2256.0,279.3964
2257.0,279.7892
2263.0,282.1613
2266.0,283.3557
2269.0,284.5502
2275.0,286.9542
2276.0,287.3566
2277.0,287.7591
2281.0,289.3689
2286.0,291.3867
2287.0,291.7902
2291.0,293.4088
2293.0,294.218
2297.0,295.841
2299.0,296.6524
2301.0,297.4661
2305.0,299.0933
2306.0,299.5013
2311.0,301.5408
2316.0,303.5858
2317.0,303.9948
2323.0,306.4554
2326.0,307.6889
2329.0,308.9225
2335.0,311.3961
2336.0,311.8095
2337.0,312.2228
2341.0,313.8763
2346.0,315.9485
2347.0,316.363
2351.0,318.0254
2353.0,318.8565
2357.0,320.5232
2359.0,321.3565
2365.0,323.8631
2366.0,324.2819
2371.0,326.3763
2372.0,326.7962
2376.0,328.4761
2377.0,328.896
2383.0,331.4223
2386.0,332.6887
2389.0,333.9549
2395.0,336.4939
2397.0,337.3424
2401.0,339.0394
2406.0,341.1661
2407.0,341.5914
2413.0,344.15
2416.0,345.4326
2417.0,345.8601
2419.0,346.7151
2420.0,347.1437
2425.0,349.2868
2426.0,349.7165
2431.0,351.8649
2436.0,354.0189
2437.0,354.4496
2441.0,356.1771
2443.0,357.0409
2446.0,358.3398
2449.0,359.6386
2451.0,360.5068
2452.0,360.9408
2455.0,362.2429
2457.0,363.1132
2461.0,364.8538
2466.0,367.0349
2467.0,367.4711
2473.0,370.095
2476.0,371.4103
2477.0,371.8487
2479.0,372.7255
2485.0,375.3625
2486.0,375.8031
2491.0,378.0061
2496.0,380.2145
2497.0,380.6562
2501.0,382.4273
2503.0,383.3128
2506.0,384.6444
2509.0,385.9759
2515.0,388.6456
2516.0,389.0917
2517.0,389.5377
2520.0,390.8758
2521.0,391.3218
2526.0,393.5574
2527.0,394.0046
2533.0,396.6938
2537.0,398.491
2539.0,399.3896
2545.0,402.0919
2546.0,402.5434
2551.0,404.8007
2552.0,405.2533
2556.0,407.0635
2557.0,407.5161
2563.0,410.238
2566.0,411.6022
2569.0,412.9673
2575.0,415.704
2576.0,416.1613
2577.0,416.6185
2581.0,418.4473
2586.0,420.7389
2587.0,421.1972
2593.0,423.9536
2597.0,425.7956
2599.0,426.7165
2601.0,427.6397
2605.0,429.4862
2606.0,429.9489
2611.0,432.2625
2616.0,434.5816
2617.0,435.0454
2623.0,437.8348
2626.0,439.2328
2629.0,440.6308
2635.0,443.4333
2637.0,444.3696
2641.0,446.2423
2646.0,448.5887
2647.0,449.0579
2651.0,450.9394
2652.0,451.4098
2653.0,451.8802
2656.0,453.2948
2659.0,454.7093
2665.0,457.545
2666.0,458.0187
2670.0,459.9123
2671.0,460.3857
2676.0,462.7582
2677.0,463.2327
2680.0,464.6595
2683.0,466.0863
2686.0,467.5163
2689.0,468.9472
2691.0,469.9034
2695.0,471.8156
2697.0,472.774
2701.0,474.6906
2706.0,477.0911
2707.0,477.5712
2713.0,480.4583
2716.0,481.9051
2719.0,483.3519
2725.0,486.252
2726.0,486.7365
2731.0,489.1586
2736.0,491.5862
2737.0,492.0717
2741.0,494.0181
2743.0,494.9913
2746.0,496.4544
2749.0,497.9175
2751.0,498.8951
2752.0,499.3839
2755.0,500.8502
2757.0,501.83
2761.0,503.7894
2766.0,506.2442
2767.0,506.7352
2770.0,508.2113
2773.0,509.6875
2776.0,511.1669
2777.0,511.66
2779.0,512.6463
2785.0,515.6117
2786.0,516.107
2791.0,518.5836
2796.0,521.0656
2797.0,521.562
2801.0,523.552
2803.0,524.547
2806.0,526.0427
2809.0,527.5383
2815.0,530.5361
2816.0,531.0368
2817.0,531.5375
2821.0,533.5404
2826.0,536.0494
2827.0,536.5512
2833.0,539.5686
2837.0,541.5845
2839.0,542.5925
2841.0,543.6026
2845.0,545.6229
2846.0,546.129
2851.0,548.6598
2852.0,549.1673
2856.0,551.1987
2857.0,551.7065
2863.0,554.7601
2866.0,556.2902
2869.0,557.8203
2870.0,558.3314
2875.0,560.887
2876.0,561.3993
2877.0,561.9115
2881.0,563.9603
2886.0,566.5269
2887.0,567.0402
2891.0,569.0978
2893.0,570.1266
2897.0,572.1886
2899.0,573.2196
2901.0,574.2528
2905.0,576.3192
2906.0,576.8369
2911.0,579.4259
2916.0,582.0204
2917.0,582.5393
2920.0,584.0993
2923.0,585.6593
2926.0,587.2225
2929.0,588.7858
2935.0,591.9189
2936.0,592.4422
2937.0,592.9655
2941.0,595.0586
2946.0,597.6805
2947.0,598.2049
2951.0,600.3067
2952.0,600.8322
2953.0,601.3576
2957.0,603.4639
2959.0,604.517
2965.0,607.683
2966.0,608.2117
2971.0,610.8512
2976.0,613.4961
2977.0,614.0251
2983.0,617.2055
2986.0,618.799
2989.0,620.3924
2991.0,621.4569
2995.0,623.5858
2997.0,624.6525
3001.0,626.7858
3006.0,629.4578
3007.0,629.9922
3013.0,633.2052
3017.0,635.3515
3019.0,636.4246
3020.0,636.9623
3025.0,639.6506
3026.0,640.1894
3031.0,642.8884
3037.0,646.1339
3043.0,649.3859
3046.0,651.0151
3049.0,652.6444
3051.0,653.7328
3052.0,654.277
3055.0,655.9096
3056.0,656.4549
3057.0,657.0002
3061.0,659.1813
3066.0,661.9132
3067.0,662.4594
3073.0,665.7433
3076.0,667.3877
3077.0,667.9359
3079.0,669.0322
3086.0,672.8696
3091.0,675.6106
3096.0,678.3515
3097.0,678.8997
3101.0,681.0924
3103.0,682.1887
3106.0,683.8331
3113.0,687.6702
3116.0,689.3153
3126.0,694.7986
3127.0,695.3469
3133.0,698.6368
3137.0,700.8301
3139.0,701.9267
3141.0,703.0233
3145.0,705.2165
3146.0,705.7648
3151.0,708.5052
3152.0,709.0534
3156.0,711.2457
3157.0,711.7938
3163.0,715.0823
3166.0,716.7265
3169.0,718.3719
3175.0,721.6627
3176.0,722.2112
3186.0,727.6958
3191.0,730.4369
3193.0,731.5333
3197.0,733.7261
3199.0,734.8225
3201.0,735.9188
3205.0,738.1116
3206.0,738.6597
3211.0,741.4006
3216.0,744.1415
3217.0,744.6896
3223.0,747.9785
3226.0,749.623
3229.0,751.2674
3235.0,754.5562
3237.0,755.6525
3241.0,757.845
3246.0,760.5856
3247.0,761.1337
3251.0,763.3261
3252.0,763.8742
3253.0,764.4223
3256.0,766.0666
3257.0,766.6147
3259.0,767.7109
3266.0,771.5475
3276.0,777.0269
3277.0,777.5748
3283.0,780.8624
3286.0,782.5062
3289.0,784.1499
3291.0,785.2457
3295.0,787.4373
3296.0,787.9852
3301.0,790.7246
3306.0,793.464
3307.0,794.0119
3313.0,797.2991
3316.0,798.9427
3317.0,799.4905
3319.0,800.5863
3320.0,801.1341
3325.0,803.8733
3326.0,804.4212
3331.0,807.1603
3336.0,809.8995
3337.0,810.4473
3341.0,812.6386
3346.0,815.3776
3349.0,817.021
3351.0,818.1166
3352.0,818.6644
3355.0,820.3077
3357.0,821.4033
3361.0,823.5944
3366.0,826.3333
3367.0,826.8811
3373.0,830.1676
3376.0,831.8109
3379.0,833.4527
3385.0,836.7364
3386.0,837.2836
3391.0,840.0199
3396.0,842.7561
3397.0,843.3034
3401.0,845.4923
3406.0,848.2284
3409.0,849.87
3415.0,853.1532
3416.0,853.7004
3421.0,856.4364
3426.0,859.1722
3427.0,859.7194
3437.0,865.1909
3445.0,869.5679
3446.0,870.1151
3451.0,872.848
3452.0,873.3946
3456.0,875.581
3457.0,876.1276
3466.0,881.0466
3469.0,882.6862
3475.0,885.9654
3476.0,886.5119
3477.0,887.0584
3481.0,889.2445
3486.0,891.9769
3491.0,894.7093
3493.0,895.8023
3497.0,897.9881
3499.0,899.081
3501.0,900.1739
3506.0,902.9045
3511.0,905.635
3516.0,908.3655
3517.0,908.9115
3523.0,912.188
3526.0,913.8261
3536.0,919.2864
3537.0,919.8324
3541.0,922.0165
3546.0,924.7464
3551.0,927.4762
3552.0,928.0222
3553.0,928.5681
3557.0,930.7519
3559.0,931.8438
3565.0,935.1194
3566.0,935.6653
3576.0,941.1242
3577.0,941.6701
3583.0,944.9452
3586.0,946.5828
3589.0,948.2203
3595.0,951.4952
3597.0,952.5868
3601.0,954.77
3606.0,957.4989
3607.0,958.0436
3616.0,962.946
3617.0,963.4907
3625.0,967.848
3626.0,968.3926
3636.0,973.8389
3637.0,974.3835
3641.0,976.5618
3642.0,977.1064
3643.0,977.6509
3646.0,979.2846
3649.0,980.9183
3651.0,982.0074
3657.0,985.2744
3666.0,990.1747
3673.0,993.9837
3676.0,995.6161
3677.0,996.1599
3684.0,999.9664
3686.0,1001.0539
3691.0,1003.7727
3693.0,1004.8601
3696.0,1006.4913
3697.0,1007.035
3701.0,1009.2097
3706.0,1011.9281
3715.0,1016.8207
3716.0,1017.3643
3717.0,1017.9108
3721.0,1020.1035
3726.0,1022.8428
3727.0,1023.3922
3733.0,1026.675
3737.0,1028.8528
3739.0,1029.9416
3745.0,1033.1922
3746.0,1033.7313
3751.0,1036.4267
3752.0,1036.9631
3756.0,1039.1087
3757.0,1039.6451
3763.0,1042.8474
3766.0,1044.4404
3769.0,1046.0335
3775.0,1049.2036
3776.0,1049.7293
3777.0,1050.2549
3781.0,1052.3576
3786.0,1054.9725
3787.0,1055.4954
3791.0,1057.5763
3793.0,1058.6167
3799.0,1061.7219
3801.0,1062.7517
3805.0,1064.8111
3806.0,1065.3232
3811.0,1067.8952
3816.0,1070.4539
3817.0,1070.9656
3823.0,1074.02
3826.0,1075.5392
3829.0,1077.0584
3835.0,1080.0807
3836.0,1080.5818
3837.0,1081.0828
3841.0,1083.087
3846.0,1085.5789
3847.0,1086.0773
3851.0,1088.0601
3852.0,1088.5558
3853.0,1089.0515
3857.0,1091.0236
3859.0,1092.0203
3865.0,1094.9943
3866.0,1095.4874
3871.0,1097.9606
3876.0,1100.4205
3877.0,1100.9125
3883.0,1103.8487
3886.0,1105.3088
3889.0,1106.769
3891.0,1107.7372
3895.0,1109.6736
3897.0,1110.6364
3901.0,1112.5622
3906.0,1114.9563
3907.0,1115.4351
3913.0,1118.2921
3916.0,1119.7127
3917.0,1120.1862
3919.0,1121.1333
3925.0,1123.9586
3926.0,1124.4269
3931.0,1126.7681
3936.0,1129.096
3937.0,1129.5616
3941.0,1131.4134
3943.0,1132.3393
3946.0,1133.7202
3949.0,1135.1012
3951.0,1136.0165
3955.0,1137.8472
3957.0,1138.7572
3961.0,1140.5773
3966.0,1142.8392
3967.0,1143.2916
3973.0,1145.99
3976.0,1147.3313
3977.0,1147.7784
3979.0,1148.6726
3985.0,1151.3393
3986.0,1151.781
3991.0,1153.9901
3996.0,1156.1858
3997.0,1156.625
3999.0,1157.498
4001.0,1158.371
4003.0,1159.2441
4006.0,1160.5456
4009.0,1161.8447
4015.0,1164.4269
4016.0,1164.8546
4017.0,1165.2823
4021.0,1166.9931
4026.0,1169.1184
4027.0,1169.5429
4033.0,1172.074
4037.0,1173.7508
4039.0,1174.5892
4041.0,1175.4222
4045.0,1177.0884
4046.0,1177.5022
4051.0,1179.5716
4056.0,1181.6277
4057.0,1182.039
4063.0,1184.4904
4066.0,1185.708
4069.0,1186.9258
4075.0,1189.3453
4076.0,1189.7459
4077.0,1190.141
4081.0,1191.7217
4086.0,1193.6841
4087.0,1194.0766
4091.0,1195.6357
4093.0,1196.4153
4097.0,1197.9638
4099.0,1198.738
4101.0,1199.5068
4105.0,1201.0446
4106.0,1201.4264
4111.0,1203.3352
4116.0,1205.2305
4117.0,1205.6096
4123.0,1207.868
4126.0,1208.9891
4129.0,1210.1059
4135.0,1212.3233
4137.0,1213.057
4141.0,1214.5246
4146.0,1216.3455
4147.0,1216.7097
4151.0,1218.1558
4153.0,1218.8788
4157.0,1220.3141
4159.0,1221.0317
4164.0,1222.8124
4165.0,1223.1686
4166.0,1223.522
4171.0,1225.2893
4176.0,1227.0431
4177.0,1227.3939
4183.0,1229.4823
4186.0,1230.5184
4189.0,1231.5546
4195.0,1233.6108
4197.0,1234.2908
4201.0,1235.6509
4206.0,1237.3136
4207.0,1237.6461
4213.0,1239.625
4216.0,1240.6064
4217.0,1240.9335
4219.0,1241.5877
4225.0,1243.5342
4226.0,1243.8559
4231.0,1245.4583
4236.0,1247.0472
4237.0,1247.365
4241.0,1248.6253
4243.0,1249.2554
4246.0,1250.1925
4249.0,1251.1296
4251.0,1251.7489
4255.0,1252.9875
4256.0,1253.2945
4257.0,1253.6014
4261.0,1254.8292
4266.0,1256.3504
4267.0,1256.6547
4273.0,1258.4703
4276.0,1259.3708
4277.0,1259.671
4279.0,1260.2713
4285.0,1262.056
4286.0,1262.3508
4291.0,1263.8244
4296.0,1265.2845
4297.0,1265.5765
4301.0,1266.7336
4303.0,1267.3122
4306.0,1268.172
4309.0,1269.0317
4315.0,1270.7439
4316.0,1271.0276
4317.0,1271.3083
4321.0,1272.424
4326.0,1273.8048
4327.0,1274.0797
4333.0,1275.7127
4337.0,1276.7904
4339.0,1277.3292
4345.0,1278.9291
4346.0,1279.193
4351.0,1280.5124
4356.0,1281.8181
4357.0,1282.0793
4363.0,1283.6403
4366.0,1284.4141
4369.0,1285.1878
4375.0,1286.7186
4376.0,1286.971
4377.0,1287.2233
4381.0,1288.2327
4386.0,1289.4806
4387.0,1289.7302
4393.0,1291.2109
4397.0,1292.187
4399.0,1292.675
4401.0,1293.1575
4405.0,1294.1225
4406.0,1294.361
4411.0,1295.5572
4416.0,1296.7463
4417.0,1296.9841
4423.0,1298.3941
4426.0,1299.0896
4429.0,1299.7849
4435.0,1301.1488
4441.0,1302.4853
4446.0,1303.5763
4447.0,1303.7944
4451.0,1304.6489
4453.0,1305.0762
4456.0,1305.7034
4457.0,1305.9124
4459.0,1306.3305
4465.0,1307.5575
4466.0,1307.7575
4471.0,1308.7657
4476.0,1309.7514
4477.0,1309.9485
4483.0,1311.1038
4486.0,1311.6676
4489.0,1312.2314
4495.0,1313.3315
4496.0,1313.5102
4497.0,1313.689
4501.0,1314.404
4506.0,1315.2747
4507.0,1315.4488
4513.0,1316.4662
4516.0,1316.961
4517.0,1317.1281
4519.0,1317.4621
4525.0,1318.4365
4526.0,1318.5943
4531.0,1319.3835
4536.0,1320.1496
4537.0,1320.3028
4543.0,1321.2008
4546.0,1321.6368
4549.0,1322.0728
4555.0,1322.9171
4557.0,1323.1892
4561.0,1323.7336
4566.0,1324.3909
4567.0,1324.523
4573.0,1325.2878
4576.0,1325.657
4579.0,1326.0262
4585.0,1326.7423
4586.0,1326.858
4591.0,1327.4365
4596.0,1327.9967
4597.0,1328.1088
4601.0,1328.5424
4603.0,1328.7592
4606.0,1329.0735
4609.0,1329.3916
4615.0,1330.006
4616.0,1330.1047
4617.0,1330.2035
4621.0,1330.5984
4626.0,1331.0739
4627.0,1331.1697
4633.0,1331.7221
4639.0,1332.2527
4641.0,1332.4223
4645.0,1332.7613
4646.0,1332.8425
4651.0,1333.2485
4656.0,1333.6394
4657.0,1333.7176
4663.0,1334.1647
4666.0,1334.3772
4669.0,1334.5897
4675.0,1334.9926
4676.0,1335.0561
4677.0,1335.1195
4681.0,1335.3735
4686.0,1335.6725
4687.0,1335.7323
4691.0,1335.9568
4693.0,1336.0764
4696.0,1336.2448
4697.0,1336.301
4699.0,1336.4133
4701.0,1336.5183
4705.0,1336.7281
4706.0,1336.7769
4711.0,1337.0209
4716.0,1337.2465
4717.0,1337.2916
4723.0,1337.5403
4726.0,1337.6536
4729.0,1337.7686
4735.0,1337.9766
4737.0,1338.0386
4741.0,1338.1625
4746.0,1338.299
4747.0,1338.3264
4751.0,1338.4209
4753.0,1338.4682
4757.0,1338.548
4759.0,1338.5879
4765.0,1338.6856
4766.0,1338.6982
4771.0,1338.7613
4776.0,1338.806
4777.0,1338.8149
4783.0,1338.8464
4786.0,1338.8512
4789.0,1338.856
4790.0,1338.8555
4797.0,1338.8494
4801.0,1338.846
4806.0,1338.8417
4817.0,1338.8425
4826.0,1338.8433
4837.0,1338.8249
4846.0,1338.8099
4851.0,1338.8016
4857.0,1338.7915
4866.0,1338.7765
4876.0,1338.7597
4877.0,1338.7581
4886.0,1338.743
4897.0,1338.7246
4901.0,1338.7179
4906.0,1338.7095
4917.0,1338.6911
4926.0,1338.6761
4937.0,1338.6819
4946.0,1338.6867
4951.0,1338.6894
4957.0,1338.6926
4966.0,1338.6974
4976.0,1338.693
4977.0,1338.6926
4986.0,1338.6885
5001.0,1338.6819
5006.0,1338.6797
5017.0,1338.6749
5026.0,1338.6709
5037.0,1338.6661
5046.0,1338.6621
5051.0,1338.6599
5057.0,1338.6573
5066.0,1338.6533
5076.0,1338.6489
5086.0,1338.6445
5097.0,1338.6397
5101.0,1338.6378
5106.0,1338.6358
5117.0,1338.6315
5126.0,1338.6279
5137.0,1338.6234
5146.0,1338.6198
5151.0,1338.6178
5157.0,1338.6155
5166.0,1338.6118
5176.0,1338.6078
5177.0,1338.6074
5186.0,1338.6038
5197.0,1338.6042
5201.0,1338.6044
5206.0,1338.6046
5217.0,1338.6049
5226.0,1338.6052
5237.0,1338.6057
5251.0,1338.6062
5257.0,1338.6064
5266.0,1338.6067
5276.0,1338.6057
5277.0,1338.6056
5286.0,1338.6046
5297.0,1338.5974
5301.0,1338.5949
5306.0,1338.5917
5317.0,1338.5912
5326.0,1338.5909
5337.0,1338.5771
5346.0,1338.5657
5351.0,1338.5659
5366.0,1338.5664
5376.0,1338.5667
5377.0,1338.5667
5386.0,1338.5669
5397.0,1338.5606
5401.0,1338.5582
5406.0,1338.5553
5426.0,1338.5518
5446.0,1338.5425
5451.0,1338.5398
5466.0,1338.5319
5476.0,1338.5306
5477.0,1338.5304
5486.0,1338.5292
5501.0,1338.4431
5506.0,1338.4143
5517.0,1338.3512
5526.0,1338.2995
5546.0,1338.1982
5551.0,1338.1976
5557.0,1338.1968
5566.0,1338.1957
5586.0,1338.2137
5606.0,1338.1893
5617.0,1338.1759
5626.0,1338.165
5637.0,1338.1516
5646.0,1338.1406
5666.0,1338.1163
5670.0,1338.0746
5676.0,1338.0119
5677.0,1338.2784
5680.0,1338.6401
5686.0,1339.3638
5690.0,1339.4316
5700.0,1336.8588
5730.0,1315.3305
5760.0,1273.5269
5790.0,1231.5269
5820.0,1189.5269
5850.0,1147.5269
5880.0,1105.5269
5910.0,1063.5269
5940.0,1021.5269
5970.0,979.5269
6000.0,937.5269
6030.0,895.5269
6060.0,853.5269
6090.0,811.5269
6120.0,769.5269
6150.0,727.5269
6180.0,685.5269
6210.0,643.5269
6240.0,601.5269
6270.0,559.5269
6300.0,517.5269
6330.0,475.5269
6360.0,433.5269
6390.0,391.5269
6420.0,349.5269
6450.0,307.5269
6480.0,265.5269
6510.0,223.5269
6540.0,181.5269
6570.0,139.5269
6600.0,99.8238
6630.0,71.2769
6660.0,55.5269
7200.0,55.5269
