QD/IREF,QD/IREF
X,Y
0.0,55.5391
6.0,55.5645
12.0,55.6406
15.0,55.704
18.0,55.7674
24.0,55.945
30.0,56.1733
35.0,56.5625
36.0,56.4587
42.0,56.2431
48.0,56.4035
50.0,56.5817
54.0,56.9183
60.0,57.7625
66.0,58.9111
72.0,60.3402
78.0,62.0259
84.0,63.8246
90.0,65.3405
96.0,66.5547
100.0,67.1839
102.0,68.022
108.0,70.3708
114.0,72.5538
120.0,74.5709
126.0,76.4223
132.0,78.1079
138.0,79.6277
144.0,80.9817
150.0,82.1699
156.0,83.1922
162.0,84.0488
168.0,84.7396
174.0,85.2646
180.0,85.6239
186.0,85.8173
192.0,85.8541
253.0,85.854
507.0,85.8543
515.0,85.8541
911.0,85.8541
1015.0,85.8542
1056.0,85.8542
1086.0,85.8542
1116.0,85.8542
1146.0,85.8542
1151.0,85.8542
1176.0,85.8542
1206.0,85.8542
1226.0,85.8542
1515.0,85.8542
1536.0,85.8542
1566.0,85.8542
1746.0,85.8542
1836.0,85.8542
1896.0,85.8542
1986.0,85.8542
2076.0,85.8542
2256.0,85.8542
2406.0,85.8542
2556.0,85.8542
2706.0,85.8542
2826.0,85.8542
2856.0,85.8542
2886.0,85.8542
2916.0,85.8542
2946.0,85.8542
2976.0,85.8542
3036.0,85.8542
3156.0,85.8542
3306.0,85.8542
3396.0,85.8542
3426.0,85.8542
3486.0,85.8542
3516.0,85.8542
3546.0,85.8542
3576.0,85.8542
3606.0,85.8542
3666.0,85.8542
3696.0,85.8542
3726.0,85.8542
3816.0,85.8542
3846.0,85.8542
3876.0,85.8542
3906.0,85.8542
3936.0,85.8542
3966.0,85.8542
3996.0,85.8542
4015.0,85.8542
4026.0,85.8542
4086.0,85.8542
4116.0,85.8542
4146.0,85.8542
4176.0,85.8542
4206.0,85.8542
4215.0,85.8542
4227.0,85.8784
4239.0,85.9513
4251.0,86.0726
4263.0,86.2426
4275.0,86.4611
4287.0,86.7281
4292.0,86.8596
4299.0,87.0437
4311.0,87.4078
4315.0,87.5454
4323.0,87.8205
4335.0,88.2818
4347.0,88.7915
4359.0,89.3499
4371.0,89.9568
4383.0,90.6122
4395.0,91.3162
4407.0,92.0688
4416.0,92.6696
4419.0,92.8699
4431.0,93.7195
4443.0,94.6177
4455.0,95.5645
4467.0,96.5598
4479.0,97.6037
4491.0,98.6961
4503.0,99.8371
4515.0,101.0266
4527.0,102.2668
4539.0,103.5597
4551.0,104.9053
4563.0,106.3038
4575.0,107.7549
4587.0,109.2588
4599.0,110.8154
4611.0,112.4248
4616.0,113.1174
4623.0,114.0869
4635.0,115.8018
4647.0,117.5694
4659.0,119.3898
4671.0,121.2629
4683.0,123.1887
4695.0,125.1673
4707.0,127.1987
4719.0,129.2828
4731.0,131.4196
4743.0,133.6092
4755.0,135.8515
4767.0,138.1465
4779.0,140.4944
4791.0,142.8949
4803.0,145.3482
4815.0,147.8542
4827.0,150.413
4839.0,153.0246
4851.0,155.6888
4863.0,158.4059
4875.0,161.1756
4887.0,163.9981
4899.0,166.8734
4911.0,169.8014
4923.0,172.7821
4935.0,175.8156
4947.0,178.9019
4959.0,182.0408
4971.0,185.2326
4983.0,188.477
4995.0,191.7742
5007.0,195.1242
5015.0,197.3927
5019.0,198.5269
5031.0,201.9823
5043.0,205.4905
5055.0,209.0515
5067.0,212.6652
5079.0,216.3316
5091.0,220.0508
5103.0,223.8227
5115.0,227.6473
5127.0,231.5247
5139.0,235.4549
5151.0,239.4378
5163.0,243.4734
5175.0,247.5618
5187.0,251.7029
5199.0,255.8968
5211.0,260.1434
5223.0,264.4428
5235.0,268.7949
5247.0,273.1997
5259.0,277.6573
5271.0,282.1677
5283.0,286.7308
5295.0,291.3466
5307.0,296.0152
5319.0,300.7365
5331.0,305.5105
5343.0,310.3374
5355.0,315.2169
5367.0,320.1492
5379.0,325.1342
5391.0,330.172
5403.0,335.2626
5415.0,340.4058
5427.0,345.6019
5439.0,350.8506
5451.0,356.1521
5463.0,361.5064
5475.0,366.9134
5487.0,372.3731
5499.0,377.8856
5511.0,383.4509
5515.0,385.3235
5523.0,389.0688
5535.0,394.7396
5547.0,400.463
5559.0,406.2393
5571.0,412.0682
5583.0,417.9499
5595.0,423.8844
5607.0,429.8716
5619.0,435.9115
5631.0,442.0042
5643.0,448.1496
5655.0,454.3478
5667.0,460.5987
5679.0,466.9024
5691.0,473.2588
5703.0,479.6679
5715.0,486.1298
5727.0,492.6444
5739.0,499.2118
5751.0,505.832
5763.0,512.5048
5775.0,519.2305
5787.0,526.0088
5799.0,532.8399
5811.0,539.7238
5823.0,546.6079
5835.0,553.3216
5847.0,559.8518
5859.0,566.1984
5871.0,572.3616
5883.0,578.3412
5895.0,584.1373
5907.0,589.7499
5919.0,595.179
5931.0,600.4245
5943.0,605.4866
5955.0,610.3651
5967.0,615.0601
5979.0,619.5716
5991.0,623.8996
6003.0,628.044
6015.0,632.0049
6027.0,635.7824
6039.0,639.3763
6051.0,642.7866
6063.0,646.0135
6075.0,649.0568
6087.0,651.9167
6099.0,654.593
6111.0,657.0858
6123.0,659.395
6135.0,661.5208
6147.0,663.463
6159.0,665.2217
6171.0,666.7969
6183.0,668.1886
6195.0,669.3968
6207.0,670.4214
6219.0,671.2625
6231.0,671.9201
6243.0,672.3942
6255.0,672.6848
6267.0,672.7919
6268.0,672.7925
6318.0,672.2206
6328.0,672.2206
6358.0,668.5474
6388.0,643.5391
6418.0,601.5391
6448.0,559.5391
6478.0,517.5391
6508.0,475.5391
6538.0,433.5391
6568.0,391.5391
6598.0,349.5391
6628.0,307.5391
6658.0,265.5391
6688.0,223.5391
6718.0,181.5391
6748.0,139.5391
6778.0,99.836
6808.0,71.2891
6838.0,55.5391
7200.0,55.5391
