source:ccrt device:log epoch:1673450177 timeOrigin:19.500000000 firstSampleTime:0.000000000 period:1.000000000 name:ILC_CYC type:analog,RMS_ERR_ILC STEP,INIT_RMS_ERR_ILC STEP,RMS_V_RATE_(V/s) STEP,RMS_V_RATE_LIM_(V/s) STEP
0.000000000,0,0,0,0
1.000000000,0,0,0,0
2.000000000,0,0,0,0
3.000000000,0,0,0,0
4.000000000,0,0,0,0
5.000000000,0,0,0,0
6.000000000,0,0,0,0
7.000000000,0.0026898899,0.0026898899,1.8546239,5.5638719
8.000000000,0.0001077269,0.0026898899,1.9409831,5.8229494
9.000000000,2.1543619e-05,0.0026898899,1.9141679,5.7425036
10.000000000,9.8211676e-06,0.0026898899,1.9017295,5.7051883
11.000000000,6.1821106e-06,0.0026898899,1.9009293,5.7027879
12.000000000,5.1998932e-06,0.0026898899,1.9024661,5.7027879
13.000000000,5.0465437e-06,0.0026898899,1.8984151,5.6952453
14.000000000,4.9401633e-06,0.0026898899,1.9039205,5.6952453
15.000000000,5.1233196e-06,0.0026898899,1.8959677,5.6879034
