#,Libsig definition of CCRT,,,,
,,,,,
cal_limit,adc_a,,,,
,nominal_offset_ppm,const,10,,
,offset_warning_ppm,const,100,-90,110
,offset_fault_ppm,const,1000,-990,1010
,gain_err_warning_ppm,const,200,,
,gain_err_fault_ppm,const,2000,,
,,,,,
cal_limit,adc_b,,,,
,nominal_offset_ppm,const,-20,,
,offset_warning_ppm,const,105,-125,85
,offset_fault_ppm,const,1100,-1120,1080
,gain_err_warning_ppm,const,210,,
,gain_err_fault_ppm,const,2100,,
,,,,,
cal_limit,adc_c,,,,
,nominal_offset_ppm,const,30,,
,offset_warning_ppm,const,110,-80,140
,offset_fault_ppm,const,1200,-1170,1230
,gain_err_warning_ppm,const,220,,
,gain_err_fault_ppm,const,2200,,
,,,,,
cal_limit,adc_d,,,,
,nominal_offset_ppm,const,-40,,
,offset_warning_ppm,const,115,-155,75
,offset_fault_ppm,const,1300,-1340,1260
,gain_err_warning_ppm,const,230,,
,gain_err_fault_ppm,const,2300,,
,,,,,
cal_limit,dcct_a,,,,
,nominal_offset_ppm,const,15,,
,offset_warning_ppm,const,200,-185,215
,offset_fault_ppm,const,1400,-1385,1415
,gain_err_warning_ppm,const,205,,
,gain_err_fault_ppm,const,2005,,
,,,,,
cal_limit,dcct_b,,,,
,nominal_offset_ppm,const,-25,,
,offset_warning_ppm,const,205,-230,180
,offset_fault_ppm,const,1500,-1525,1475
,gain_err_warning_ppm,const,215,,
,gain_err_fault_ppm,const,2105,,
,,,,,
cal_limit,v_probe,,,,
,nominal_offset_ppm,const,35,,
,offset_warning_ppm,const,210,-175,245
,offset_fault_ppm,const,1600,-1565,1635
,gain_err_warning_ppm,const,245,,
,gain_err_fault_ppm,const,2405,,
,,,,,
cal_limit,b_probe,,,,
,nominal_offset_ppm,const,-45,,
,offset_warning_ppm,const,215,-260,170
,offset_fault_ppm,const,1700,-1745,1655
,gain_err_warning_ppm,const,225,,
,gain_err_fault_ppm,const,2205,,
,,,,,
cal_limit,i_probe,,,,
,nominal_offset_ppm,const,55,,
,offset_warning_ppm,const,220,-165,275
,offset_fault_ppm,const,1800,-1745,1855
,gain_err_warning_ppm,const,255,,
,gain_err_fault_ppm,const,2505,,
,,,,,
temp_filter,internal,,,,
,filter_period_s,const,0.2,,
,time_constant_s,const,1,,
,warning.min_c,const,15,,
,warning.max_c,const,35,,
,invalid.min_c,const,5,,
,invalid.max_c,const,60,,
,max_delta_temp_c,const,1,,
,,,,,
temp_filter,dcct_a,,,,
,filter_period_s,const,0.2,,
,time_constant_s,const,1.5,,
,warning.min_c,const,16,,
,warning.max_c,const,36,,
,invalid.min_c,const,6,,
,invalid.max_c,const,61,,
,max_delta_temp_c,const,2,,
,,,,,
temp_filter,dcct_b,,,,
,filter_period_s,const,0.2,,
,time_constant_s,const,2,,
,warning.min_c,const,17,,
,warning.max_c,const,37,,
,invalid.min_c,const,7,,
,invalid.max_c,const,62,,
,max_delta_temp_c,const,3,,
,,,,,
cal_ref,internal,,,,
,temp_c,const,NULL,,
,,,,,
cal_ref,external,,,,
,temp_c,const,NULL,,
,,,,,
adc,adc_a,,,,
,nominal_gain,const,10000000,,
,cal.cal_ref_index,cal_ref,internal,,
,cal.temp_filter_index,temp_filter,internal,,
,cal.cal_limit_index,cal_limit,adc_a,,
,,,,,
adc,adc_b,,,,
,nominal_gain,const,10001000,,
,cal.cal_ref_index,cal_ref,internal,,
,cal.temp_filter_index,temp_filter,internal,,
,cal.cal_limit_index,cal_limit,adc_b,,
,,,,,
adc,adc_c,,,,
,nominal_gain,const,10002000,,
,cal.cal_ref_index,cal_ref,internal,,
,cal.temp_filter_index,temp_filter,internal,,
,cal.cal_limit_index,cal_limit,adc_c,,
,,,,,
adc,adc_d,,,,
,nominal_gain,const,10003000,,
,cal.cal_ref_index,cal_ref,internal,,
,cal.temp_filter_index,temp_filter,internal,,
,cal.cal_limit_index,cal_limit,adc_d,,
,,,,,
transducer,dcct_a,,,,
,position,const,SIG_TRANSDUCER_POSITION_CONVERTER,,
,nominal_gain,const,10,,
,cal.cal_ref_index,cal_ref,external,,
,cal.temp_filter_index,temp_filter,dcct_a,,
,cal.cal_limit_index,cal_limit,dcct_a,,
,,,,,
transducer,dcct_b,,,,
,position,const,SIG_TRANSDUCER_POSITION_LOAD,,
,nominal_gain,const,10,,
,cal.cal_ref_index,cal_ref,external,,
,cal.temp_filter_index,temp_filter,dcct_b,,
,cal.cal_limit_index,cal_limit,dcct_b,,
,,,,,
transducer,v_probe,,,,
,position,const,SIG_TRANSDUCER_POSITION_LOAD,,
,nominal_gain,const,10,,
,cal.cal_ref_index,const,SIG_NOT_IN_USE,,
,cal.temp_filter_index,const,SIG_NOT_IN_USE,,
,cal.cal_limit_index,cal_limit,v_probe,,
,,,,,
transducer,b_probe,,,,
,position,const,SIG_TRANSDUCER_POSITION_LOAD,,
,nominal_gain,const,1,,
,cal.cal_ref_index,const,SIG_NOT_IN_USE,,
,cal.temp_filter_index,const,SIG_NOT_IN_USE,,
,cal.cal_limit_index,cal_limit,b_probe,,
,,,,,
transducer,i_probe,,,,
,position,const,SIG_TRANSDUCER_POSITION_LOAD,,
,nominal_gain,const,1,,
,cal.cal_ref_index,const,SIG_NOT_IN_USE,,
,cal.temp_filter_index,const,SIG_NOT_IN_USE,,
,cal.cal_limit_index,cal_limit,i_probe,,
,,,,,
transducer,v_ac,,,,
,position,const,SIG_TRANSDUCER_POSITION_NORMAL,,
,nominal_gain,const,1,,
,cal.cal_ref_index,const,SIG_NOT_IN_USE,,
,cal.temp_filter_index,const,SIG_NOT_IN_USE,,
,cal.cal_limit_index,const,SIG_NOT_IN_USE,,
,,,,,
select,i_meas,,,,
,selector,const,SIG_AB,,
,transducer_a_index,transducer,dcct_a,,
,transducer_b_index,transducer,dcct_b,,
,diff_warn_limit,const,0.5,,
,diff_fault_warn_ratio,const,3,,
,,,,,
#,EOF,,,,
