source:ccrt device:log(02) epoch:1673450029 timeOrigin:0.000000000 firstSampleTime:0.000000000 period:0.020000000 name:CODIM1(2) type:analog,CODIM1_ANA_1 +0.003000000,CODIM1_ANA_2 +0.004000000,CODIM1_ANA_3 +0.005000000,CODIM1_ANA_4 +0.006000000
0.000000000,0.003,0.0040000002,0.0049999999,0.0060000001
0.020000000,0.023,0.024,0.025,0.026000001
0.040000000,0.043000001,0.044,0.045000002,0.046
0.060000000,0.063000001,0.064000003,0.064999998,0.066
0.080000000,0.082999997,0.083999999,0.085000001,0.086000003
0.100000000,0.103,0.104,0.105,0.106
0.120000000,0.123,0.124,0.125,0.126
0.140000000,0.14300001,0.14399999,0.145,0.146
0.160000000,0.163,0.164,0.16500001,0.16599999
0.180000000,0.183,0.184,0.185,0.186
0.200000000,0.20299999,0.204,0.205,0.206
0.220000000,0.223,0.22400001,0.22499999,0.226
0.240000000,0.243,0.244,0.245,0.24600001
0.260000000,0.26300001,0.264,0.26499999,0.266
0.280000000,0.28299999,0.28400001,0.285,0.28600001
0.300000000,0.303,0.30399999,0.30500001,0.30599999
0.320000000,0.32300001,0.324,0.32499999,0.32600001
0.340000000,0.34299999,0.34400001,0.345,0.34599999
0.360000000,0.36300001,0.36399999,0.36500001,0.366
0.380000000,0.38299999,0.384,0.38499999,0.38600001
0.400000000,0.403,0.40400001,0.405,0.40599999
0.420000000,0.42300001,0.42399999,0.42500001,0.426
0.440000000,0.44299999,0.44400001,0.44499999,0.44600001
0.460000000,0.463,0.46399999,0.465,0.46599999
0.480000000,0.48300001,0.484,0.48500001,0.486
0.500000000,0.50300002,0.50400001,0.505,0.50599998
0.520000000,0.523,0.52399999,0.52499998,0.52600002
0.540000000,0.54299998,0.54400003,0.54500002,0.546
0.560000000,0.56300002,0.56400001,0.565,0.56599998
0.580000000,0.583,0.58399999,0.58499998,0.58600003
0.600000000,0.60299999,0.60399997,0.60500002,0.60600001
0.620000000,0.62300003,0.62400001,0.625,0.62599999
0.640000000,0.64300001,0.64399999,0.64499998,0.64600003
0.660000000,0.66299999,0.66399997,0.66500002,0.66600001
0.680000000,0.68300003,0.68400002,0.685,0.68599999
0.700000000,0.70300001,0.704,0.70499998,0.70599997
0.720000000,0.72299999,0.72399998,0.72500002,0.72600001
0.740000000,0.74299997,0.74400002,0.745,0.74599999
0.760000000,0.76300001,0.764,0.76499999,0.76599997
0.780000000,0.78299999,0.78399998,0.78500003,0.78600001
0.800000000,0.80299997,0.80400002,0.80500001,0.80599999
0.820000000,0.82300001,0.824,0.82499999,0.82599998
0.840000000,0.84299999,0.84399998,0.84500003,0.84600002
0.860000000,0.86299998,0.86400002,0.86500001,0.866
0.880000000,0.88300002,0.884,0.88499999,0.88599998
0.900000000,0.903,0.90399998,0.90499997,0.90600002
0.920000000,0.92299998,0.92400002,0.92500001,0.926
0.940000000,0.94300002,0.94400001,0.94499999,0.94599998
0.960000000,0.963,0.96399999,0.96499997,0.96600002
0.980000000,0.98299998,0.98400003,0.98500001,0.986
