time,Temperature_1,Temperature_2,Voltage_1,Voltage_2,Power,Current
0,28.0,40.0,0.00,1.04,3.70,3.62
2,28.0,40.2,0.00,1.04,3.64,3.57
4,28.0,40.5,0.00,1.04,3.68,3.46
6,28.0,40.8,0.00,1.04,3.64,3.53
8,28.0,41.0,0.00,1.03,3.76,3.51
10,28.0,41.2,0.00,1.04,3.74,3.44
12,29.0,41.5,0.01,1.04,3.68,3.50
14,29.0,41.8,0.00,1.04,3.64,3.60
16,29.0,42.2,0.00,1.04,3.64,3.59
18,29.0,42.2,0.00,1.04,3.70,3.59
20,29.0,42.5,0.00,1.04,3.70,3.53
22,29.0,42.8,0.00,1.04,3.76,3.49
24,29.0,43.0,0.00,1.04,3.64,3.59
26,29.0,43.2,0.00,1.04,3.76,3.59
28,30.0,43.2,0.00,1.04,3.70,3.60
30,30.0,43.8,0.00,1.04,3.74,3.61
32,30.0,44.0,0.00,1.04,3.74,3.70
34,30.0,44.2,0.00,1.04,3.84,3.53
36,30.0,44.2,0.00,1.04,3.86,3.60
38,30.0,44.5,0.00,1.04,3.80,3.54
40,30.0,44.8,0.00,1.03,3.68,3.54
42,30.0,44.8,0.00,1.04,3.80,3.74
44,30.0,45.0,0.00,1.04,3.74,3.65
46,30.0,45.2,0.00,1.04,3.74,3.65
48,31.0,45.5,0.00,1.04,3.80,3.62
50,30.0,45.8,0.00,1.03,3.90,3.69
52,31.0,45.8,0.00,1.04,3.86,3.71
54,31.0,46.0,0.00,1.04,3.74,3.57
56,31.0,46.2,0.00,1.04,3.80,3.69
58,31.0,46.5,0.00,1.04,3.70,3.72
60,31.0,46.5,0.00,1.04,3.84,3.70
62,31.0,46.8,0.00,1.04,3.90,3.66
64,31.0,47.0,0.00,1.04,3.74,3.75
66,31.0,47.0,0.00,1.04,3.90,3.86
68,31.0,47.2,0.00,1.04,3.74,3.55
70,31.0,47.2,0.00,1.04,3.74,3.63
72,31.0,47.2,0.00,1.04,3.76,3.67
74,32.0,47.8,0.00,1.04,3.96,3.70
76,32.0,47.8,0.00,1.04,3.74,3.65
79,32.0,48.0,0.00,1.04,3.94,3.72
81,32.0,47.8,0.00,1.04,3.80,3.65
83,32.0,48.0,0.01,1.04,3.80,3.62
85,32.0,48.2,0.00,1.04,3.76,3.69
87,32.0,48.5,0.01,1.04,3.76,3.68
89,32.0,48.5,0.00,1.04,3.76,3.74
91,32.0,48.8,0.00,1.04,3.84,3.77
93,32.0,48.8,0.00,1.04,3.74,3.82
95,32.0,48.8,0.00,1.04,3.80,3.60
97,32.0,49.0,0.00,1.04,3.84,3.62
99,32.0,49.0,0.00,1.03,3.90,3.77
101,32.0,49.2,0.00,1.04,3.90,3.61
103,32.0,49.2,0.00,1.04,3.86,3.82
105,33.0,49.5,0.00,1.04,4.04,3.76
107,33.0,49.5,0.00,1.04,3.94,3.94
109,33.0,49.8,0.00,1.04,3.80,3.72
111,33.0,49.8,0.00,1.04,3.76,3.62
113,33.0,50.0,0.00,1.04,3.76,3.60
115,33.0,50.0,0.00,1.04,3.84,3.77
117,33.0,50.0,0.00,1.04,3.80,3.69
119,33.0,50.2,0.00,1.04,3.94,3.76
121,33.0,50.5,0.01,1.04,3.96,3.67
123,33.0,50.5,0.00,1.04,4.04,3.70
125,33.0,50.5,0.00,1.04,3.86,3.76
127,33.0,50.8,0.00,1.04,3.80,3.77
129,33.0,50.8,0.00,1.04,3.76,3.68
131,33.0,50.8,0.00,1.04,3.96,3.74
133,33.0,51.0,0.01,1.04,3.86,3.77
135,34.0,51.0,0.00,1.04,3.94,3.77
137,34.0,51.0,0.00,1.04,4.00,3.76
139,34.0,51.2,0.00,1.04,3.84,3.83
141,34.0,51.5,0.00,1.04,3.76,3.69
143,34.0,51.5,0.00,1.04,3.96,3.75
145,34.0,51.5,0.01,1.04,3.86,3.77
147,34.0,51.8,0.00,1.04,3.94,3.65
149,34.0,51.8,0.00,1.04,4.00,3.73
151,34.0,52.0,0.00,1.04,4.06,3.74
153,34.0,52.0,0.01,1.04,3.86,3.89
156,34.0,52.2,0.00,1.04,3.84,3.81
158,34.0,52.2,0.00,1.04,3.94,3.67
160,34.0,52.2,0.01,1.04,3.84,3.77
162,34.0,52.2,0.00,1.04,4.04,3.79
164,34.0,52.5,0.00,1.04,3.86,3.78
166,34.0,52.5,0.00,1.04,3.90,3.80
168,34.0,52.8,0.00,1.04,3.90,3.71
170,35.0,52.8,0.01,1.04,3.80,3.83
172,35.0,53.0,0.00,1.04,4.00,3.88
174,35.0,53.0,0.00,1.04,4.04,3.73
176,35.0,53.0,0.01,1.04,3.90,3.88
178,35.0,53.2,0.00,1.04,3.86,3.84
180,35.0,53.2,0.00,1.04,3.94,3.75
182,35.0,53.2,0.00,1.04,4.10,3.73
184,35.0,53.5,0.00,1.04,4.10,3.93
186,35.0,53.5,0.00,1.04,4.20,3.84
188,35.0,53.8,0.00,1.04,4.06,3.83
190,35.0,54.0,0.00,1.04,3.90,3.91
192,35.0,54.0,0.00,1.04,4.22,3.75
194,35.0,54.2,0.00,1.04,4.04,3.78
196,35.0,54.2,0.00,1.04,4.06,3.83
198,36.0,54.5,0.00,1.04,4.12,3.83
200,36.0,54.5,0.00,1.04,4.10,3.89
202,36.0,54.5,0.00,1.04,4.04,3.92
204,36.0,54.8,0.00,1.04,4.04,3.81
206,36.0,54.8,0.00,1.04,4.12,3.92
208,36.0,55.2,0.00,1.04,3.90,3.76
210,36.0,55.0,0.00,1.04,3.96,3.84
212,36.0,55.2,0.00,1.04,4.10,3.90
214,36.0,55.2,0.01,1.04,4.12,3.94
216,36.0,55.5,0.01,1.04,4.04,3.93
218,36.0,55.8,0.01,1.04,3.96,3.76
220,36.0,55.8,0.00,1.04,4.04,3.90
222,36.0,55.8,0.00,1.04,3.90,3.78
224,36.0,56.0,0.00,1.04,4.16,3.86
226,37.0,56.0,0.00,1.04,4.04,3.92
228,37.0,56.2,0.00,1.04,4.06,3.89
231,37.0,56.5,0.01,1.04,4.04,3.83
233,37.0,56.5,0.00,1.04,4.06,3.86
235,37.0,56.5,0.00,1.04,4.06,3.96
237,37.0,56.5,0.00,1.04,4.10,4.01
239,37.0,56.8,0.00,1.04,3.96,3.82
241,37.0,56.8,0.01,1.04,4.06,3.83
243,37.0,57.0,0.00,1.04,4.10,3.80
245,37.0,57.0,0.01,1.04,4.10,3.93
247,37.0,57.2,0.00,1.04,4.12,3.99
249,37.0,57.2,0.00,1.04,4.16,3.89
251,37.0,57.5,0.00,1.04,4.06,3.82
253,37.0,57.5,0.01,1.04,4.04,3.83
255,37.0,57.5,0.00,1.04,4.10,4.03
257,37.0,57.8,0.01,1.04,3.96,3.96
259,37.0,57.8,0.00,1.04,4.00,3.84
261,38.0,57.8,0.01,1.04,4.04,3.90
263,38.0,58.0,0.00,1.04,4.00,3.82
265,38.0,58.0,0.00,1.04,4.10,3.96
267,38.0,58.0,0.00,1.04,4.32,3.90
269,38.0,58.2,0.00,1.04,4.16,3.96
271,38.0,58.2,0.01,1.04,4.12,3.99
273,38.0,58.2,0.01,1.04,4.06,3.98
275,38.0,58.5,0.00,1.04,4.06,3.89
277,38.0,58.5,0.00,1.04,4.26,3.86
279,38.0,58.5,0.01,1.04,4.04,3.95
281,38.0,58.8,0.01,1.04,4.10,3.91
283,38.0,58.8,0.01,1.04,4.10,3.93
285,38.0,58.8,0.00,1.04,4.04,3.91
287,38.0,58.8,0.00,1.04,4.12,3.87
289,38.0,59.0,0.00,1.04,4.20,4.08
291,38.0,59.0,0.00,1.04,4.22,4.04
293,39.0,59.0,0.00,1.04,4.16,3.97
295,38.0,59.2,0.00,1.04,4.16,3.91
297,39.0,59.2,0.00,1.04,4.16,3.99
299,39.0,59.5,0.00,1.04,4.10,4.22
301,39.0,59.5,0.00,1.04,4.16,3.85
303,39.0,59.2,0.00,1.04,4.16,3.99
305,39.0,59.5,0.01,1.04,4.10,4.06
308,39.0,59.5,0.00,1.04,4.06,3.90
310,39.0,59.8,0.01,1.04,4.10,4.02
312,39.0,59.8,0.00,1.04,4.06,3.92
314,39.0,59.8,0.00,1.04,4.20,3.90
316,39.0,59.8,0.00,1.04,4.10,3.94
318,39.0,60.0,0.01,1.04,4.12,3.90
320,39.0,60.0,0.01,1.04,4.06,4.04
322,39.0,60.0,0.01,1.04,4.10,3.98
324,39.0,60.2,0.00,1.04,4.10,3.88
326,39.0,60.2,0.01,1.04,4.10,4.07
328,39.0,60.2,0.00,1.04,4.20,4.00
330,39.0,60.2,0.01,1.04,4.10,4.12
332,39.0,60.2,0.01,1.04,4.12,3.92
334,39.0,60.2,0.01,1.04,4.12,3.99
336,39.0,60.5,0.01,1.04,4.16,3.93
338,40.0,60.8,0.01,1.04,4.16,4.07
340,39.0,60.8,0.00,1.04,4.10,3.90
342,40.0,60.5,0.00,1.04,4.16,3.96
344,39.0,60.8,0.01,1.04,4.20,4.05
346,39.0,60.8,0.00,1.04,4.32,3.92
348,39.0,60.8,0.00,1.04,4.16,4.09
350,40.0,60.8,0.00,1.04,4.20,3.94
352,40.0,60.5,0.01,1.04,4.16,4.06
354,39.0,60.5,0.00,1.04,4.26,3.96
356,39.0,60.8,0.01,1.04,4.12,4.04
358,39.0,60.8,0.00,1.04,4.16,4.01
360,39.0,60.8,0.01,1.04,4.12,4.10
362,40.0,60.8,0.00,1.04,4.16,3.94
364,39.0,60.8,0.00,1.04,4.10,3.98
366,39.0,60.8,0.01,1.04,4.22,4.06
368,40.0,60.8,0.01,1.04,4.06,4.04
370,40.0,60.8,0.00,1.04,4.12,3.91
372,40.0,61.0,0.01,1.04,4.06,3.95
374,39.0,60.8,0.00,1.04,4.22,3.94
376,40.0,61.0,0.01,1.04,4.10,4.01
378,40.0,60.8,0.00,1.04,4.20,4.06
380,40.0,61.0,0.01,1.04,4.22,3.98
382,40.0,61.0,0.01,1.04,4.20,4.07
385,40.0,61.0,0.00,1.04,4.20,4.02
387,39.0,61.0,0.00,1.04,4.10,3.92
389,39.0,60.8,0.01,1.04,4.10,3.98
391,40.0,60.8,0.00,1.04,4.32,4.05
393,39.0,60.8,0.00,1.04,4.06,3.90
395,39.0,60.8,0.01,1.04,4.12,4.01
397,40.0,60.8,0.00,1.04,4.10,3.91
399,39.0,60.5,0.00,1.04,4.26,4.06
401,39.0,60.8,0.00,1.04,4.22,3.92
403,40.0,60.8,0.01,1.04,4.12,4.09
405,39.0,60.8,0.00,1.04,4.10,3.98
407,39.0,60.8,0.01,1.04,4.16,3.93
409,40.0,60.8,0.01,1.04,4.12,4.07
411,40.0,60.8,0.01,1.04,4.04,4.71
413,40.0,60.8,0.00,1.04,4.10,4.04
415,39.0,60.5,0.00,1.04,4.26,4.03
417,40.0,60.8,0.00,1.04,4.12,3.94
419,40.0,60.5,0.00,1.04,4.22,4.01
421,39.0,60.8,0.01,1.04,4.10,4.09
423,39.0,60.5,0.01,1.04,4.12,4.08
425,40.0,60.8,0.00,1.04,4.32,4.08
427,39.0,60.5,0.00,1.04,4.22,3.98
429,39.0,60.5,0.00,1.04,4.06,3.89
431,39.0,60.5,0.00,1.04,4.12,4.04
433,39.0,60.5,0.01,1.04,4.16,4.13
435,39.0,60.5,0.01,1.04,4.22,3.90
437,39.0,60.5,0.00,1.04,4.22,3.96
439,39.0,60.2,0.01,1.04,4.20,4.01
441,39.0,60.2,0.01,1.04,4.10,4.09
443,39.0,60.2,0.01,1.04,4.10,3.98
445,39.0,60.2,0.01,1.04,4.12,3.93
447,39.0,60.2,0.00,1.04,4.20,4.12
449,39.0,60.0,0.00,1.04,4.22,4.55
451,39.0,60.2,0.00,1.04,4.10,4.00
453,39.0,60.0,0.00,1.04,4.32,3.91
455,39.0,60.2,0.01,1.04,4.30,3.95
457,39.0,60.2,0.00,1.04,4.32,3.91
460,39.0,60.0,0.00,1.04,4.22,3.92
462,39.0,60.2,0.00,1.04,4.22,4.04
464,39.0,60.2,0.00,1.04,4.20,3.92
466,39.0,60.2,0.00,1.04,4.16,4.17
468,39.0,60.2,0.01,1.04,4.10,4.07
470,39.0,60.2,0.00,1.04,4.22,3.86
472,39.0,60.0,0.01,1.04,4.12,4.09
474,39.0,60.0,0.01,1.04,4.10,3.99
476,39.0,60.2,0.00,1.04,4.12,3.89
478,39.0,60.0,0.00,1.04,4.16,4.10
480,39.0,60.0,0.00,1.04,4.16,4.01
482,39.0,60.0,0.01,1.04,4.22,4.04
484,39.0,60.0,0.00,1.04,4.20,3.95
486,39.0,60.0,0.01,1.04,4.16,4.00
488,39.0,60.0,0.01,1.04,4.10,3.92
490,39.0,60.0,0.01,1.04,4.06,3.92
492,39.0,59.8,0.00,1.04,4.16,3.86
494,39.0,59.8,0.00,1.04,4.20,4.03
496,39.0,59.8,0.01,1.04,4.04,4.01
498,39.0,59.8,0.01,1.04,4.06,3.92
500,39.0,59.5,0.00,1.04,4.10,3.91
502,39.0,59.8,0.00,1.04,4.16,3.91
504,39.0,59.5,0.00,1.04,4.22,3.91
506,39.0,59.5,0.00,1.04,4.26,3.99
508,39.0,59.5,0.00,1.04,4.06,4.10
510,39.0,59.5,0.01,1.04,4.10,4.03
512,39.0,59.8,0.01,1.04,4.12,4.04
514,39.0,59.5,0.01,1.04,4.10,4.00
516,38.0,59.5,0.00,1.04,4.00,3.87
518,38.0,59.5,0.00,1.04,4.04,3.91
520,39.0,59.5,0.01,1.04,4.12,3.99
522,39.0,59.5,0.01,1.04,4.22,3.97
524,39.0,59.5,0.00,1.04,4.20,3.98
526,39.0,59.5,0.01,1.04,4.12,4.06
528,39.0,59.5,0.00,1.04,4.20,3.89
530,39.0,59.5,0.00,1.04,4.22,4.09
532,39.0,59.5,0.01,1.04,4.10,3.92
534,39.0,59.5,0.00,1.04,4.20,3.90
537,39.0,59.5,0.01,1.04,4.06,3.97
539,38.0,59.8,0.01,1.04,4.12,3.92
541,39.0,59.5,0.00,1.04,4.16,4.07
543,39.0,59.5,0.01,1.04,4.06,3.89
545,39.0,59.8,0.00,1.04,4.22,3.92
547,39.0,59.5,0.00,1.04,4.26,4.07
549,39.0,59.5,0.01,1.04,4.12,3.94
551,39.0,59.8,0.00,1.04,4.20,3.95
553,39.0,59.8,0.00,1.04,4.04,3.99
555,39.0,59.5,0.00,1.04,4.04,3.89
557,39.0,59.5,0.00,1.04,4.10,3.99
559,39.0,59.5,0.01,1.04,4.16,4.09
561,39.0,59.5,0.01,1.04,4.06,4.19
563,39.0,59.5,0.00,1.04,4.04,3.89
565,39.0,59.5,0.01,1.04,4.06,3.99
567,39.0,59.5,0.01,1.04,4.06,3.88
569,38.0,59.5,0.01,1.04,4.06,3.96
571,39.0,59.5,0.00,1.04,4.22,4.04
573,38.0,59.5,0.00,1.04,4.16,3.87
575,39.0,59.5,0.00,1.04,4.30,3.98
577,39.0,59.5,0.00,1.04,4.16,3.87
579,38.0,59.5,0.00,1.04,4.22,3.94
581,38.0,59.5,0.00,1.04,4.10,3.93
583,39.0,59.5,0.01,1.04,4.12,3.89
585,38.0,59.5,0.00,1.04,4.10,3.90
587,39.0,59.5,0.01,1.04,4.20,4.00
589,38.0,59.5,0.01,1.04,4.06,3.94
591,38.0,59.5,0.00,1.04,4.04,3.89
593,38.0,59.5,0.00,1.04,4.22,3.88
595,38.0,59.2,0.01,1.04,4.16,4.00
597,39.0,59.5,0.00,1.04,4.12,3.89
599,38.0,59.5,0.00,1.04,4.06,3.83
601,38.0,59.5,0.01,1.04,4.06,4.02
603,39.0,59.5,0.00,1.04,4.06,3.88
605,38.0,59.2,0.01,1.04,4.12,3.96
607,37.0,58.8,0.00,1.04,4.10,4.09
609,37.0,58.0,0.01,1.04,4.06,4.11
612,36.0,57.2,0.01,1.04,4.06,3.89
614,36.0,56.8,0.01,1.04,3.94,3.90
616,36.0,55.8,0.00,1.04,4.04,3.96
618,35.0,55.2,0.01,1.04,4.00,3.90
620,35.0,54.5,0.00,1.04,4.06,3.76
622,35.0,53.8,0.00,1.04,3.90,3.72
624,34.0,53.2,0.01,1.04,3.86,3.87
626,34.0,52.8,0.00,1.04,3.90,3.72
628,34.0,52.2,0.00,1.04,3.94,3.87
630,33.0,51.5,0.00,1.04,4.04,3.63
632,33.0,51.2,0.00,1.04,3.80,3.68
634,33.0,50.5,0.00,1.04,4.00,3.67
636,33.0,50.0,0.00,1.04,4.00,3.80
638,32.0,49.5,0.01,1.04,3.80,3.69
640,32.0,49.2,0.00,1.04,3.86,3.72
642,32.0,49.0,0.01,1.04,3.86,3.74
644,32.0,48.5,0.00,1.04,3.84,3.60
646,32.0,48.0,0.00,1.04,3.84,3.63
648,32.0,47.8,0.00,1.04,3.74,3.60
650,31.0,47.5,0.00,1.04,3.86,3.70
652,31.0,47.2,0.00,1.04,3.94,3.77
654,31.0,46.8,0.00,1.04,3.80,3.71
656,31.0,46.5,0.00,1.04,3.76,3.57
658,31.0,46.2,0.00,1.04,3.74,3.66
660,31.0,46.0,0.00,1.04,3.70,3.63
662,30.0,45.8,0.00,1.04,3.90,3.60
664,30.0,45.2,0.00,1.04,3.74,3.70
666,30.0,45.0,0.00,1.04,3.70,3.64
668,30.0,45.0,0.00,1.04,3.68,3.62
670,30.0,44.8,0.00,1.04,3.70,3.71
672,30.0,44.5,0.00,1.04,3.70,3.64
674,30.0,44.2,0.00,1.04,3.76,3.60
676,30.0,44.0,0.00,1.04,3.70,3.59
678,29.0,43.8,0.00,1.04,3.74,3.71
680,29.0,43.8,0.00,1.04,3.74,3.74
682,29.0,43.5,0.00,1.04,3.90,3.54
684,29.0,43.2,0.00,1.04,3.70,3.66
686,29.0,43.0,0.00,1.03,3.84,3.58
689,29.0,43.0,0.00,1.04,3.70,3.49
691,29.0,42.8,0.00,1.04,3.76,3.53
693,29.0,42.5,0.00,1.04,3.74,3.45
695,29.0,42.5,0.00,1.04,3.64,3.61
697,29.0,42.5,0.00,1.04,3.90,3.59
699,29.0,42.2,0.00,1.03,3.70,3.51
701,28.0,42.2,0.00,1.04,3.84,3.58
703,28.0,42.0,0.00,1.04,3.68,3.47
705,28.0,42.0,0.00,1.04,3.64,3.59
707,28.0,41.8,0.00,1.04,3.84,3.57
709,28.0,41.8,0.00,1.04,3.68,3.57
711,28.0,41.8,0.00,1.04,3.74,3.64
713,28.0,41.5,0.00,1.04,3.68,3.46
715,28.0,41.5,0.00,1.04,3.70,3.43
717,28.0,41.5,0.00,1.04,3.70,3.66
719,28.0,41.2,0.00,1.04,3.60,3.53
721,28.0,41.5,0.00,1.04,3.68,3.52
723,28.0,41.2,0.00,1.04,3.70,3.44
725,28.0,41.0,0.00,1.04,3.60,3.66
727,28.0,41.0,0.00,1.04,3.64,3.54
729,28.0,40.8,0.00,1.04,3.84,3.48
731,28.0,40.8,0.00,1.04,3.64,3.57
733,28.0,41.0,0.00,1.04,3.64,3.46
735,28.0,40.8,0.00,1.04,3.68,3.54
737,28.0,40.8,0.00,1.04,3.70,3.45
739,28.0,40.8,0.00,1.04,3.60,3.53
741,28.0,41.0,0.00,1.04,3.64,3.48
743,28.0,40.8,0.00,1.04,3.70,3.47
745,28.0,40.8,0.00,1.04,3.68,3.58
747,27.0,40.5,0.01,1.04,3.60,3.55
749,27.0,40.8,0.00,1.04,3.74,3.66
751,28.0,40.8,0.00,1.04,3.70,3.61
753,27.0,40.8,0.00,1.04,4.12,3.52
755,28.0,40.8,0.00,1.04,3.74,3.47
757,28.0,40.5,0.00,1.04,3.68,3.43
759,27.0,40.8,0.00,1.04,3.68,3.61
761,27.0,40.5,0.00,1.04,3.76,3.53
763,27.0,40.8,0.00,1.04,3.60,3.43
766,27.0,40.5,0.00,1.04,3.76,3.42
768,27.0,40.5,0.00,1.04,3.68,3.74
770,27.0,40.5,0.00,1.04,3.58,3.61
772,27.0,40.2,0.00,1.04,3.70,3.47
774,27.0,40.2,0.00,1.04,3.68,3.45
776,27.0,40.5,0.01,1.04,3.60,3.47
778,27.0,40.2,0.00,1.04,3.64,3.54
780,27.0,40.2,0.00,1.04,3.74,3.46
782,27.0,40.0,0.00,1.04,3.60,3.54
784,27.0,40.0,0.00,1.04,3.74,3.45
786,27.0,40.0,0.01,1.04,3.60,3.55
788,27.0,40.0,0.00,1.04,3.70,3.59
790,27.0,39.8,0.00,1.04,3.60,3.47
792,27.0,39.8,0.00,1.04,3.68,3.57
794,27.0,39.8,0.00,1.04,3.58,3.44
796,27.0,39.8,0.00,1.04,3.60,3.58
798,28.0,39.5,0.00,1.04,3.60,3.41
800,28.0,39.5,0.00,1.04,3.58,3.54
802,27.0,39.5,0.00,1.04,3.58,3.44
804,27.0,39.5,0.00,1.03,3.74,3.60
806,27.0,39.5,0.00,1.04,3.58,3.50
808,28.0,39.5,0.00,1.04,3.70,3.56
810,28.0,39.5,0.00,1.04,3.60,3.44
812,27.0,39.5,0.00,1.04,3.60,3.52
814,28.0,39.5,0.00,1.04,3.70,3.49
816,28.0,39.5,0.00,1.04,3.58,3.57
818,28.0,39.5,0.00,1.04,3.64,3.41
820,28.0,39.5,0.00,1.04,3.74,3.55
822,28.0,39.2,0.00,1.03,3.70,3.51
824,28.0,39.2,0.00,1.04,3.80,3.55
826,28.0,39.5,0.00,1.03,3.58,3.45
828,28.0,39.2,0.00,1.04,3.60,3.53
830,28.0,39.2,0.00,1.04,3.70,3.45
832,28.0,39.2,0.00,1.03,3.54,3.40
834,28.0,39.5,0.00,1.04,3.60,3.45
836,28.0,39.2,0.00,1.04,3.68,3.49
838,28.0,39.5,0.00,1.04,3.54,3.52
841,28.0,39.2,0.00,1.04,3.74,3.63
843,28.0,39.5,0.00,1.04,3.58,3.61
845,28.0,39.2,0.00,1.04,3.58,3.59
847,28.0,39.5,0.00,1.04,3.64,3.44
849,28.0,39.2,0.00,1.04,3.74,3.58
851,28.0,39.5,0.00,1.04,3.68,3.68
853,28.0,39.2,0.00,1.04,3.54,3.50
855,28.0,39.2,0.00,1.04,3.68,3.59
857,28.0,39.5,0.00,1.04,3.80,3.63
859,28.0,39.5,0.00,1.04,3.60,3.43
861,28.0,39.5,0.00,1.04,3.60,3.62
863,28.0,39.8,0.00,1.04,3.60,3.65
865,28.0,39.5,0.00,1.04,3.60,3.70
867,28.0,39.5,0.00,1.04,3.60,3.52
869,28.0,39.5,0.00,1.04,3.70,3.49
871,28.0,39.5,0.00,1.04,3.54,3.47
873,28.0,39.5,0.00,1.04,3.64,3.52
875,28.0,39.5,0.00,1.04,3.74,3.44
877,28.0,39.5,0.00,1.04,3.60,3.57
879,28.0,39.8,0.00,1.04,3.68,3.43
881,28.0,39.5,0.00,1.04,3.74,3.45
883,28.0,39.5,0.00,1.04,3.60,3.44
885,28.0,39.5,0.00,1.03,3.64,3.53
887,28.0,39.8,0.00,1.04,3.80,3.57
889,28.0,39.5,0.00,1.04,3.68,3.43
891,28.0,39.5,0.00,1.04,3.58,3.60
893,28.0,39.8,0.00,1.04,3.80,3.48
895,28.0,39.5,0.00,1.04,3.58,3.60
897,28.0,39.8,0.00,1.04,3.58,3.46
899,28.0,39.8,0.00,1.04,3.64,3.44
901,28.0,39.5,0.00,1.04,3.76,3.45
903,28.0,39.8,0.00,1.04,3.58,3.49
905,28.0,40.0,0.00,1.03,3.58,3.45
907,28.0,39.8,0.00,1.04,3.60,3.65
909,29.0,39.8,0.00,1.04,3.64,3.46
911,28.0,39.8,0.00,1.04,3.64,3.41
913,29.0,39.8,0.00,1.04,3.60,3.58
915,28.0,39.8,0.00,1.04,3.64,3.51
918,29.0,39.8,0.00,1.04,3.60,3.57
920,28.0,39.8,0.00,1.04,3.60,3.80
922,28.0,40.0,0.00,1.04,3.60,3.43
924,29.0,39.8,0.00,1.04,3.60,3.51
926,29.0,39.8,0.00,1.04,3.58,3.43
928,29.0,40.0,0.00,1.04,3.60,3.43
930,29.0,40.0,0.00,1.04,3.60,3.54
