{
    "staticChecks": {
        "source_dir": "source",
        "build_path": "build/targets/fecs/14",
        "checkers":[
            {
                "name": "CPP-Check",
                "params": "--enable=all --inconclusive --force --suppress=missingIncludeSystem"
            }
        ]
    }
}