source:ccrt device:L3_Q0 epoch:1673450314 timeOrigin:10.900000000 firstSampleTime:0.600000000 period:0.010000000 name:I_REG_MPX type:analog,I_REF_ADV_(A) STEP,I_REF_ILC_(A) STEP,I_REF_OPEN_(A) STEP,I_ERR_ILC_(A) STEP
0.600000000,0,0,0,0
0.610000000,0,0,0,0
0.620000000,0,0,0,0
0.630000000,0,0,0,0
0.640000000,0,0,0,0
0.650000000,0,0,0,0
0.660000000,0,0,0,0
0.670000000,0,0,0,0
0.680000000,0,0,0,0
0.690000000,0,0,0,0
0.700000000,0,0,0,0
0.710000000,0,0,0,0
0.720000000,0,0,0,0
0.730000000,0,0,0,0
0.740000000,0,0,0,0
0.750000000,0.049999904,0,0.049999904,0
0.760000000,0.12999995,0,0.12999995,0
0.770000000,0.20999987,0,0.20999987,0
0.780000000,0.2899999,0,0.2899999,0
0.790000000,0.36999995,0,0.36999995,0
0.800000000,0.44999987,0,0.44999987,0
0.810000000,0.52999991,0,0.52999991,0
0.820000000,0.60999984,0,0.60999984,0
0.830000000,0.68999988,0,0.68999988,0
0.840000000,0.76999992,0,0.76999992,0
0.850000000,0.84999985,0,0.84999985,0
0.860000000,0.92999989,0,0.92999989,0
0.870000000,1.01,0,1.01,0
0.880000000,1.0251524,0,1.0899999,0.22333205
0.890000000,1.1051524,0,1.1721555,0.22816622
0.900000000,1.1851523,0,1.2554018,0.23288548
0.910000000,1.2651522,0,1.3392718,0.2373879
0.920000000,1.3451523,0,1.4236062,0.2396574
0.930000000,1.4251523,0,1.5082762,0.24090421
0.940000000,1.5051523,0,1.5930986,0.24150777
0.950000000,1.5851524,0,1.6778667,0.24157512
0.960000000,1.6651524,0,1.7624358,0.24124563
0.970000000,1.7451525,0,1.8467268,0.24068213
0.980000000,1.8251525,0,1.9307139,0.24007821
0.990000000,1.9051526,0,2.0144041,0.23955631
1.000000000,2,0,2.1113315,0.2540257
1.010000000,1.98,0,2.1081932,0.15382814
1.020000000,1.96,0,2.088856,0.053178072
1.030000000,1.9399999,0,2.0765245,-0.055806637
1.040000000,1.92,0,2.0590427,-0.066934586
1.050000000,1.9,0,2.0304,-0.070712447
1.060000000,1.88,0,1.9939868,-0.082589865
1.070000000,1.86,0,1.9559689,-0.088463902
1.080000000,1.8399999,0,1.9204282,-0.08358264
1.090000000,1.8199999,0,1.8887206,-0.071997762
1.100000000,1.8,0,1.860742,-0.059560418
1.110000000,1.8099999,0,1.8632483,-0.01974535
1.120000000,1.8199999,0,1.8706031,0.016483665
1.130000000,1.8299999,0,1.8788184,0.048145771
1.140000000,1.8399999,0,1.8898576,0.05065608
1.150000000,1.8499999,0,1.904115,0.050936341
1.160000000,1.86,0,1.9198695,0.050771117
1.170000000,1.87,0,1.9350591,0.047833443
1.180000000,1.88,0,1.9484704,0.04196918
1.190000000,1.89,0,1.959793,0.034954786
1.200000000,1.9,0,1.969221,0.028691888
1.210000000,1.8499994,0,1.9225452,0
1.220000000,1.7699995,0,1.8428553,0
1.230000000,1.6899996,0,1.7620043,0
1.240000000,1.6099997,0,1.678012,0
1.250000000,1.5299997,0,1.5860714,0
1.260000000,1.4499993,0,1.4874887,0
1.270000000,1.3699994,0,1.386884,0
1.280000000,1.2899995,0,1.2881138,0
1.290000000,1.2099996,0,1.1928771,0
1.300000000,1.1299996,0,1.1013527,0
1.310000000,1.0499997,0,1.0130751,0
1.320000000,0.96999931,0,0.92737561,0
1.330000000,0.88999939,0,0.88999939,0
1.340000000,0.80999947,0,0.80999947,0
1.350000000,0.72999954,0,0.72999954,0
1.360000000,0.64999962,0,0.64999962,0
1.370000000,0.56999969,0,0.56999969,0
1.380000000,0.48999929,0,0.48999929,0
1.390000000,0.40999937,0,0.40999937,0
1.400000000,0.32999945,0,0.32999945,0
1.410000000,0.24999952,0,0.24999952,0
1.420000000,0.1699996,0,0.1699996,0
1.430000000,0.089999676,0,0.089999676,0
1.440000000,0.0099992752,0,0.0099992752,0
1.450000000,0,0,0,0
1.460000000,0,0,0,0
1.470000000,0,0,0,0
1.480000000,0,0,0,0
1.490000000,0,0,0,0
1.500000000,0,0,0,0
1.510000000,0,0,0,0
1.520000000,0,0,0,0
1.530000000,0,0,0,0
1.540000000,0,0,0,0
1.550000000,0,0,0,0
1.560000000,0,0,0,0
1.570000000,0,0,0,0
1.580000000,0,0,0,0
1.590000000,0,0,0,0
1.600000000,0,0,0,0
1.610000000,0,0,0,0
1.620000000,0,0,0,0
1.630000000,0,0,0,0
1.640000000,0,0,0,0
1.650000000,0,0,0,0
1.660000000,0,0,0,0
1.670000000,0,0,0,0
1.680000000,0,0,0,0
1.690000000,0,0,0,0
1.700000000,0,0,0,0
1.710000000,0,0,0,0
1.720000000,0,0,0,0
1.730000000,0,0,0,0
1.740000000,0,0,0,0
1.750000000,0.049999904,0,0.049999904,0
1.760000000,0.12999995,0,0.12999995,0
1.770000000,0.20999987,0,0.20999987,0
1.780000000,0.2899999,0,0.2899999,0
1.790000000,0.36999995,0,0.36999995,0
1.800000000,0.44999987,0,0.44999987,0
1.810000000,0.52999991,0,0.52999991,0
1.820000000,0.60999984,0,0.60999984,0
1.830000000,0.68999988,0,0.68999988,0
1.840000000,0.76999992,0,0.76999992,0
1.850000000,0.84999985,0,0.84999985,0
1.860000000,0.92999989,0,0.92999989,0
1.870000000,1.01,0,1.01,0
1.880000000,1.0705289,0.2373879,1.0899999,0.22208333
1.890000000,0.91314095,0.2396574,1.1746086,-0.010041654
1.900000000,0.993141,0.24090421,1.2595761,-0.0049093962
1.910000000,1.0731411,0.24150777,1.3444184,-9.3340874e-05
1.920000000,1.1531411,0.24157512,1.4293829,0.00015068054
1.930000000,1.2331412,0.24124563,1.5145026,0.00029814243
1.940000000,1.3131412,0.24068213,1.599571,0.0004837513
1.950000000,1.3931413,0.24007821,1.6844,0.00040769577
1.960000000,1.4731413,0.23955631,1.7689047,7.9751015e-05
1.970000000,1.5531414,0.2540257,1.8666005,-0.0003002882
1.980000000,1.6331414,0.15382814,1.8642225,-0.00055801868
1.990000000,1.7169951,0.053178072,1.8485585,0.0026129484
2.000000000,2,-0.055806637,1.9320759,0.19663215
2.010000000,1.98,-0.066934586,1.994658,0.18537486
2.020000000,1.96,-0.070712447,1.9663863,0.17448771
2.030000000,1.9399999,-0.082589865,1.9241754,0.067814469
2.040000000,1.92,-0.088463902,1.8966485,-0.0068559647
2.050000000,1.9,-0.08358264,1.880847,0.0050475597
2.060000000,1.88,-0.071997762,1.8657969,0.022428751
2.070000000,1.86,-0.059560418,1.8465759,0.023815393
2.080000000,1.8399999,-0.01974535,1.8520584,0.015082717
2.090000000,1.8199999,0.016483665,1.8600832,0.0068545341
2.100000000,1.8,0.048145771,1.8671182,0.0016561747
2.110000000,1.8099999,0.05065608,1.879374,0.0023293495
2.120000000,1.8199999,0.050936341,1.8938957,0.0025589466
2.130000000,1.8299999,0.050771117,1.9095153,0.0038100481
2.140000000,1.8399999,0.047833443,1.9222493,-0.0001219511
2.150000000,1.8499999,0.04196918,1.930596,-0.0058785677
2.160000000,1.86,0.034954786,1.9358549,-0.012357473
2.170000000,1.87,0.028691888,1.939826,-0.015778184
2.180000000,1.88,0.028691888,1.9476352,-0.015074134
2.190000000,1.89,0.028691888,1.9542736,-0.011685848
2.200000000,1.9,0.028691888,1.9597758,-0.0074903965
2.210000000,1.8499994,0,1.8847582,0
2.220000000,1.7699995,0,1.8025954,0
2.230000000,1.6899996,0,1.7238996,0
2.240000000,1.6099997,0,1.6402477,0
2.250000000,1.5299997,0,1.5478191,0
2.260000000,1.4499993,0,1.449723,0
2.270000000,1.3699994,0,1.3508863,0
2.280000000,1.2899995,0,1.2544264,0
2.290000000,1.2099996,0,1.1613177,0
2.300000000,1.1299996,0,1.0714175,0
2.310000000,1.0499997,0,0.98423272,0
2.320000000,0.96999931,0,0.89916724,0
2.330000000,0.88999939,0,0.88999939,0
2.340000000,0.80999947,0,0.80999947,0
2.350000000,0.72999954,0,0.72999954,0
2.360000000,0.64999962,0,0.64999962,0
2.370000000,0.56999969,0,0.56999969,0
2.380000000,0.48999929,0,0.48999929,0
2.390000000,0.40999937,0,0.40999937,0
2.400000000,0.32999945,0,0.32999945,0
2.410000000,0.24999952,0,0.24999952,0
2.420000000,0.1699996,0,0.1699996,0
2.430000000,0.089999676,0,0.089999676,0
2.440000000,0.0099992752,0,0.0099992752,0
2.450000000,0,0,0,0
2.460000000,0,0,0,0
2.470000000,0,0,0,0
2.480000000,0,0,0,0
2.490000000,0,0,0,0
2.500000000,0,0,0,0
2.510000000,0,0,0,0
2.520000000,0,0,0,0
2.530000000,0,0,0,0
2.540000000,0,0,0,0
2.550000000,0,0,0,0
2.560000000,0,0,0,0
2.570000000,0,0,0,0
2.580000000,0,0,0,0
2.590000000,0,0,0,0
2.600000000,0,0,0,0
2.610000000,0,0,0,0
2.620000000,0,0,0,0
2.630000000,0,0,0,0
2.640000000,0,0,0,0
2.650000000,0,0,0,0
2.660000000,0,0,0,0
2.670000000,0,0,0,0
2.680000000,0,0,0,0
2.690000000,0,0,0,0
2.700000000,0,0,0,0
2.710000000,0,0,0,0
2.720000000,0,0,0,0
2.730000000,0,0,0,0
2.740000000,0,0,0,0
2.750000000,0.049999904,0,0.049999904,0
2.760000000,0.12999995,0,0.12999995,0
2.770000000,0.20999987,0,0.20999987,0
2.780000000,0.2899999,0,0.2899999,0
2.790000000,0.36999995,0,0.36999995,0
2.800000000,0.44999987,0,0.44999987,0
2.810000000,0.52999991,0,0.52999991,0
2.820000000,0.60999984,0,0.60999984,0
2.830000000,0.68999988,0,0.68999988,0
2.840000000,0.76999992,0,0.76999992,0
2.850000000,0.84999985,0,0.84999985,0
2.860000000,0.92999989,0,0.92999989,0
2.870000000,1.01,0,1.01,0
2.880000000,1.0717992,0.23729455,1.0899999,0.222045
2.890000000,0.91450459,0.23980808,1.1748365,-0.009976685
2.900000000,0.99450451,0.24120235,1.2599723,-0.0048231483
2.910000000,1.0745044,0.24199152,1.3450032,-1.001358e-05
2.920000000,1.1545044,0.24198282,1.4299376,1.9431114e-05
2.930000000,1.2345045,0.24132538,1.514791,2.1934509e-05
2.940000000,1.3145045,0.24038184,1.599546,5.7697296e-05
2.950000000,1.3945045,0.23952019,1.6841601,4.6253204e-05
2.960000000,1.4745046,0.24216926,1.7715303,-4.4107437e-06
2.970000000,1.5545046,0.45065784,1.9569608,-7.7962875e-05
2.980000000,1.5367016,0.339203,2.0413628,-0.098081708
2.990000000,1.7191859,0.22766578,2.0258355,-0.003008604
3.000000000,2,0.012007833,2.0894911,0.10078502
3.010000000,1.98,-0.07379055,2.0534432,0.012971044
3.020000000,1.96,-0.065664887,2.005312,0.0098183155
3.030000000,1.9399999,-0.060161114,1.9848589,-0.073240399
3.040000000,1.92,-0.064648509,1.9481325,-0.054022074
3.050000000,1.9,-0.068499923,1.9016008,-0.032026052
3.060000000,1.88,-0.065143228,1.8612865,-0.037134767
3.070000000,1.86,-0.057904243,1.8302915,-0.023921728
3.080000000,1.8399999,-0.017416,1.8358451,-0.0026932955
3.090000000,1.8199999,0.019042611,1.8457707,0.011403918
3.100000000,1.8,0.051955819,1.8559488,0.015429258
3.110000000,1.8099999,0.050534129,1.8676964,0.014958739
3.120000000,1.8199999,0.045057774,1.8806312,0.013231874
3.130000000,1.8299999,0.038413644,1.8942747,0.011676073
3.140000000,1.8399999,0.032055259,1.9068917,0.0085953474
3.150000000,1.8499999,0.026895046,1.9174104,0.0044701099
3.160000000,1.86,0.023268938,1.9257766,-0.00019180775
3.170000000,1.87,0.021201491,1.9326171,-0.0037195683
3.180000000,1.88,0.021201491,1.939353,-0.0052162409
3.190000000,1.89,0.021201491,1.9451197,-0.0047291517
3.200000000,1.9,0.021201491,1.9505441,-0.002961874
3.210000000,1.8499994,0,1.8824606,0
3.220000000,1.7699995,0,1.8007905,0
3.230000000,1.6899996,0,1.7215917,0
3.240000000,1.6099997,0,1.6381168,0
3.250000000,1.5299997,0,1.5462437,0
3.260000000,1.4499993,0,1.448527,0
3.270000000,1.3699994,0,1.3497288,0
3.280000000,1.2899995,0,1.2530974,0
3.290000000,1.2099996,0,1.1597691,0
3.300000000,1.1299996,0,1.0696824,0
3.310000000,1.0499997,0,0.98236144,0
3.320000000,0.96999931,0,0.89721203,0
3.330000000,0.88999939,0,0.88999939,0
3.340000000,0.80999947,0,0.80999947,0
3.350000000,0.72999954,0,0.72999954,0
3.360000000,0.64999962,0,0.64999962,0
3.370000000,0.56999969,0,0.56999969,0
3.380000000,0.48999929,0,0.48999929,0
3.390000000,0.40999937,0,0.40999937,0
3.400000000,0.32999945,0,0.32999945,0
3.410000000,0.24999952,0,0.24999952,0
3.420000000,0.1699996,0,0.1699996,0
3.430000000,0.089999676,0,0.089999676,0
3.440000000,0.0099992752,0,0.0099992752,0
3.450000000,0,0,0,0
3.460000000,0,0,0,0
3.470000000,0,0,0,0
3.480000000,0,0,0,0
3.490000000,0,0,0,0
3.500000000,0,0,0,0
3.510000000,0,0,0,0
3.520000000,0,0,0,0
3.530000000,0,0,0,0
3.540000000,0,0,0,0
3.550000000,0,0,0,0
3.560000000,0,0,0,0
3.570000000,0,0,0,0
3.580000000,0,0,0,0
3.590000000,0,0,0,0
3.600000000,0,0,0,0
3.610000000,0,0,0,0
3.620000000,0,0,0,0
3.630000000,0,0,0,0
3.640000000,0,0,0,0
3.650000000,0,0,0,0
3.660000000,0,0,0,0
3.670000000,0,0,0,0
3.680000000,0,0,0,0
3.690000000,0,0,0,0
3.700000000,0,0,0,0
3.710000000,0,0,0,0
3.720000000,0,0,0,0
3.730000000,0,0,0,0
3.740000000,0,0,0,0
3.750000000,0.049999904,0,0.049999904,0
3.760000000,0.12999995,0,0.12999995,0
3.770000000,0.20999987,0,0.20999987,0
3.780000000,0.2899999,0,0.2899999,0
3.790000000,0.36999995,0,0.36999995,0
3.800000000,0.44999987,0,0.44999987,0
3.810000000,0.52999991,0,0.52999991,0
3.820000000,0.60999984,0,0.60999984,0
3.830000000,0.68999988,0,0.68999988,0
3.840000000,0.76999992,0,0.76999992,0
3.850000000,0.84999985,0,0.84999985,0
3.860000000,0.92999989,0,0.92999989,0
3.870000000,1.01,0,1.01,0
3.880000000,1.0716305,0.23728454,1.0899999,0.22204053
3.890000000,0.91434592,0.23982751,1.1748581,-0.0099759698
3.900000000,0.99434584,0.24122429,1.2599921,-0.0048218369
3.910000000,1.0743458,0.24204922,1.3450525,-8.5830688e-06
3.920000000,1.1543459,0.24202907,1.4299755,-7.390976e-06
3.930000000,1.2343459,0.24132097,1.5147845,4.0531158e-06
3.940000000,1.314346,0.24030387,1.5994726,5.2452087e-06
3.950000000,1.394346,0.14143848,1.5949173,8.9406967e-06
3.960000000,1.474346,0.23916066,1.6894224,2.3841858e-06
3.970000000,1.4754726,0.55144286,1.8819101,-0.074859858
3.980000000,1.3570902,0.35217404,1.9732926,-0.18804359
3.990000000,1.6422391,0.2374841,1.9646699,-0.0044561625
4.000000000,2,-0.061232567,2.0012288,0.16956115
4.010000000,1.98,-0.12781262,1.9446211,0.075430274
4.020000000,1.96,-0.09769094,1.9581299,0.067557335
4.030000000,1.9399999,-0.09729588,1.9428678,0.012136221
4.040000000,1.92,-0.088570237,1.9160241,0.046338558
4.050000000,1.9,-0.071193218,1.8922528,0.007270813
4.060000000,1.88,-0.053739309,1.8713454,0.0016371012
4.070000000,1.86,-0.042474985,1.8494101,0.0050131083
4.080000000,1.8399999,-0.0024572611,1.8583944,0.004334569
4.090000000,1.8199999,0.032274485,1.8696724,0.0012178421
4.100000000,1.8,0.063631892,1.8797799,-0.0020182133
4.110000000,1.8099999,0.059129477,1.887935,-0.005096674
4.120000000,1.8199999,0.049527884,1.894398,-0.0078604221
4.130000000,1.8299999,0.038221836,1.9002355,-0.0091065168
4.140000000,1.8399999,0.02833569,1.9060616,-0.0084972382
4.150000000,1.8499999,0.021678805,1.9121262,-0.0063766241
4.160000000,1.86,0.018539786,1.9185207,-0.0037894249
4.170000000,1.87,0.018239617,1.9253805,-0.0012506247
4.180000000,1.88,0.018239617,1.9315176,0.0010530949
4.190000000,1.89,0.018239617,1.9375383,0.003044486
4.200000000,1.9,0.018239617,1.9441649,0.0046570301
4.210000000,1.8499994,0,1.8803889,0
4.220000000,1.7699995,0,1.8004736,0
4.230000000,1.6899996,0,1.722387,0
4.240000000,1.6099997,0,1.6399194,0
4.250000000,1.5299997,0,1.5487989,0
4.260000000,1.4499993,0,1.4514065,0
4.270000000,1.3699994,0,1.3525126,0
4.280000000,1.2899995,0,1.2555156,0
4.290000000,1.2099996,0,1.161706,0
4.300000000,1.1299996,0,1.0711302,0
4.310000000,1.0499997,0,0.98337609,0
4.320000000,0.96999931,0,0.89789081,0
4.330000000,0.88999939,0,0.88999939,0
4.340000000,0.80999947,0,0.80999947,0
4.350000000,0.72999954,0,0.72999954,0
4.360000000,0.64999962,0,0.64999962,0
4.370000000,0.56999969,0,0.56999969,0
4.380000000,0.48999929,0,0.48999929,0
4.390000000,0.40999937,0,0.40999937,0
4.400000000,0.32999945,0,0.32999945,0
4.410000000,0.24999952,0,0.24999952,0
4.420000000,0.1699996,0,0.1699996,0
4.430000000,0.089999676,0,0.089999676,0
4.440000000,0.0099992752,0,0.0099992752,0
4.450000000,0,0,0,0
4.460000000,0,0,0,0
4.470000000,0,0,0,0
4.480000000,0,0,0,0
4.490000000,0,0,0,0
4.500000000,0,0,0,0
4.510000000,0,0,0,0
4.520000000,0,0,0,0
4.530000000,0,0,0,0
4.540000000,0,0,0,0
4.550000000,0,0,0,0
4.560000000,0,0,0,0
4.570000000,0,0,0,0
4.580000000,0,0,0,0
4.590000000,0,0,0,0
4.600000000,0,0,0,0
4.610000000,0,0,0,0
4.620000000,0,0,0,0
4.630000000,0,0,0,0
4.640000000,0,0,0,0
4.650000000,0,0,0,0
4.660000000,0,0,0,0
4.670000000,0,0,0,0
4.680000000,0,0,0,0
4.690000000,0,0,0,0
4.700000000,0,0,0,0
4.710000000,0,0,0,0
4.720000000,0,0,0,0
4.730000000,0,0,0,0
4.740000000,0,0,0,0
4.750000000,0.049999904,0,0.049999904,0
4.760000000,0.12999995,0,0.12999995,0
4.770000000,0.20999987,0,0.20999987,0
4.780000000,0.2899999,0,0.2899999,0
4.790000000,0.36999995,0,0.36999995,0
4.800000000,0.44999987,0,0.44999987,0
4.810000000,0.52999991,0,0.52999991,0
4.820000000,0.60999984,0,0.60999984,0
4.830000000,0.68999988,0,0.68999988,0
4.840000000,0.76999992,0,0.76999992,0
4.850000000,0.84999985,0,0.84999985,0
4.860000000,0.92999989,0,0.92999989,0
4.870000000,1.01,0,1.01,0
4.880000000,1.0714023,0.23727596,1.0899999,0.22204685
4.890000000,0.91412634,0.23982012,1.1748581,-0.0099605918
4.900000000,0.99412626,0.24122834,1.259999,-0.0048120618
4.910000000,1.0741262,0.24205446,1.3450544,-3.695488e-06
4.920000000,1.1541263,0.24203801,1.4299817,3.695488e-06
4.930000000,1.2341263,0.24132335,1.514788,3.2186508e-06
4.940000000,1.3141264,0.16544402,1.5313627,5.4836273e-06
4.950000000,1.3941264,-0.04660511,1.4487461,9.5367432e-06
4.960000000,1.5078927,0.23470449,1.4660393,0.036842465
4.970000000,1.2449135,0.72100401,1.5821552,-0.23311794
4.980000000,0.87814814,0.42760432,1.5979968,-0.52147287
4.990000000,1.1922302,0.30504143,1.5372813,-0.23751926
5.000000000,2,-0.049096346,1.5762372,0.45726502
5.010000000,1.98,-0.081474066,1.7137802,0.43220687
5.020000000,1.96,-0.090420127,1.8181047,0.46859312
5.030000000,1.9399999,-0.095658779,1.8645811,0.39834344
5.040000000,1.92,-0.083557129,1.8678282,0.24244642
5.050000000,1.9,-0.066858649,1.884325,0.12912691
5.060000000,1.88,-0.052521467,1.9013338,0.070932031
5.070000000,1.86,-0.044493198,1.9009725,0.048900366
5.080000000,1.8399999,-0.0075539351,1.913026,0.010461688
5.090000000,1.8199999,0.024414062,1.914796,-0.026787162
5.100000000,1.8,0.054525375,1.9105778,-0.047812223
5.110000000,1.8099999,0.050632238,1.9044067,-0.051673889
5.120000000,1.8199999,0.043151259,1.8987385,-0.044442773
5.130000000,1.8299999,0.034432411,1.8952845,-0.03213346
5.140000000,1.8399999,0.027085066,1.8952743,-0.018453956
5.150000000,1.8499999,0.0227319,1.8992586,-0.0055055618
5.160000000,1.86,0.021584272,1.9069506,0.0052169561
5.170000000,1.87,0.022896647,1.9175383,0.012653708
5.180000000,1.88,0.022896647,1.9276059,0.016386032
5.190000000,1.89,0.022896647,1.938104,0.016766548
5.200000000,1.9,0.022896647,1.9491009,0.014705658
5.210000000,1.8499994,0,1.8846532,0
5.220000000,1.7699995,0,1.8067995,0
5.230000000,1.6899996,0,1.7301272,0
5.240000000,1.6099997,0,1.6476779,0
5.250000000,1.5299997,0,1.5556892,0
5.260000000,1.4499993,0,1.4571455,0
5.270000000,1.3699994,0,1.3571447,0
5.280000000,1.2899995,0,1.2591923,0
5.290000000,1.2099996,0,1.1646265,0
5.300000000,1.1299996,0,1.0735151,0
5.310000000,1.0499997,0,0.98546475,0
5.320000000,0.96999931,0,0.89989066,0
5.330000000,0.88999939,0,0.88999939,0
5.340000000,0.80999947,0,0.80999947,0
5.350000000,0.72999954,0,0.72999954,0
5.360000000,0.64999962,0,0.64999962,0
5.370000000,0.56999969,0,0.56999969,0
5.380000000,0.48999929,0,0.48999929,0
5.390000000,0.40999937,0,0.40999937,0
5.400000000,0.32999945,0,0.32999945,0
5.410000000,0.24999952,0,0.24999952,0
5.420000000,0.1699996,0,0.1699996,0
5.430000000,0.089999676,0,0.089999676,0
5.440000000,0.0099992752,0,0.0099992752,0
5.450000000,0,0,0,0
5.460000000,0,0,0,0
5.470000000,0,0,0,0
5.480000000,0,0,0,0
5.490000000,0,0,0,0
5.500000000,0,0,0,0
5.510000000,0,0,0,0
5.520000000,0,0,0,0
5.530000000,0,0,0,0
5.540000000,0,0,0,0
5.550000000,0,0,0,0
5.560000000,0,0,0,0
5.570000000,0,0,0,0
5.580000000,0,0,0,0
5.590000000,0,0,0,0
5.600000000,0,0,0,0
5.610000000,0,0,0,0
5.620000000,0,0,0,0
5.630000000,0,0,0,0
5.640000000,0,0,0,0
5.650000000,0,0,0,0
5.660000000,0,0,0,0
5.670000000,0,0,0,0
5.680000000,0,0,0,0
5.690000000,0.049999904,0,0.049999904,0
5.700000000,0.12999983,0,0.12999983,0
5.710000000,0.20999999,0,0.20999999,0
5.720000000,0.2899999,0,0.2899999,0
5.730000000,0.36999995,0,0.36999995,0
5.740000000,0.44999987,0,0.44999987,0
5.750000000,0.52999991,0,0.52999991,0
5.760000000,0.60999995,0,0.60999995,0
5.770000000,0.68999988,0,0.68999988,0
5.780000000,0.76999992,0,0.76999992,0
5.790000000,0.84999985,0,0.84999985,0
5.800000000,0.92999989,0,0.92999989,0
5.810000000,1.01,0,1.01,0
5.820000000,1.0734726,0,1.0899999,0
5.830000000,1.1534727,0,1.1725656,0
5.840000000,1.2334727,0,1.2562486,0
5.850000000,1.3134727,0,1.340539,0
5.860000000,1.3934727,0,1.4253134,0
5.870000000,1.4734726,0,1.5104566,0
5.880000000,1.5534725,0,1.595778,0
5.890000000,1.6334726,0,1.6810528,0
5.900000000,1.7134726,0,1.7661141,0
5.910000000,1.7934726,0,1.8508708,0
5.920000000,1.8734727,0,1.9353044,0
5.930000000,1.9534727,0,2.0194192,0
5.940000000,1.9944824,0,2.0677779,0
5.950000000,2,0,2.0805957,0
5.960000000,2,0,2.0866199,0
5.970000000,2,0,2.0906279,0
5.980000000,1.98,0,2.0702078,0
5.990000000,1.96,0,2.0415895,0
6.000000000,1.9399999,0,2.0102346,0
6.010000000,1.92,0,1.9778664,0
6.020000000,1.9,0,1.9457295,0
6.030000000,1.88,0,1.9151317,0
6.040000000,1.86,0,1.8870122,0
6.050000000,1.8399999,0,1.8616283,0
6.060000000,1.8199999,0,1.8386303,0
6.070000000,1.8,0,1.8173596,0
6.080000000,1.8099999,0,1.8243715,0
6.090000000,1.8199999,0,1.8340318,0
6.100000000,1.8299999,0,1.8426075,0
6.110000000,1.8399999,0,1.8525524,0
6.120000000,1.8499999,0,1.8648536,0
6.130000000,1.86,0,1.87835,0
6.140000000,1.87,0,1.8914307,0
6.150000000,1.88,0,1.903195,0
6.160000000,1.89,0,1.9134841,0
6.170000000,1.9,0,1.9225149,0
6.180000000,1.85,0,1.8760164,0
6.190000000,1.7699996,0,1.7969486,0
6.200000000,1.6899997,0,1.7170148,0
6.210000000,1.6099998,0,1.6340866,0
6.220000000,1.5299999,0,1.5432271,0
6.230000000,1.4499999,0,1.4456537,0
6.240000000,1.37,0,1.3459296,0
6.250000000,1.2900001,0,1.2478731,0
6.260000000,1.2099997,0,1.1532022,0
6.270000000,1.1299998,0,1.062111,0
6.280000000,1.0499998,0,0.97417545,0
6.290000000,0.96999991,0,0.88875717,0
6.300000000,0.88999999,0,0.88999999,0
6.310000000,0.81000006,0,0.81000006,0
6.320000000,0.72999966,0,0.72999966,0
6.330000000,0.64999974,0,0.64999974,0
6.340000000,0.56999981,0,0.56999981,0
6.350000000,0.48999989,0,0.48999989,0
6.360000000,0.40999997,0,0.40999997,0
6.370000000,0.33000004,0,0.33000004,0
6.380000000,0.24999964,0,0.24999964,0
6.390000000,0.16999972,0,0.16999972,0
6.400000000,0.089999795,0,0.089999795,0
6.410000000,0.0099998713,0,0.0099998713,0
6.420000000,0,0,0,0
6.430000000,0,0,0,0
6.440000000,0,0,0,0
6.450000000,0,0,0,0
6.460000000,0,0,0,0
6.470000000,0,0,0,0
6.480000000,0,0,0,0
6.490000000,0,0,0,0
6.500000000,0,0,0,0
6.510000000,0,0,0,0
6.520000000,0,0,0,0
6.530000000,0,0,0,0
6.540000000,0,0,0,0
6.550000000,0,0,0,0
6.560000000,0,0,0,0
6.570000000,0,0,0,0
6.580000000,0,0,0,0
6.590000000,0,0,0,0
6.600000000,0,0,0,0
6.610000000,0,0,0,0
6.620000000,0,0,0,0
6.630000000,0,0,0,0
6.640000000,0,0,0,0
6.650000000,0,0,0,0
6.660000000,0,0,0,0
6.670000000,0,0,0,0
6.680000000,0,0,0,0
6.690000000,0.049999904,0,0.049999904,0
6.700000000,0.12999983,0,0.12999983,0
6.710000000,0.20999999,0,0.20999999,0
6.720000000,0.2899999,0,0.2899999,0
6.730000000,0.36999995,0,0.36999995,0
6.740000000,0.44999987,0,0.44999987,0
6.750000000,0.52999991,0,0.52999991,0
6.760000000,0.60999995,0,0.60999995,0
6.770000000,0.68999988,0,0.68999988,0
6.780000000,0.76999992,0,0.76999992,0
6.790000000,0.84999985,0,0.84999985,0
6.800000000,0.92999989,0,0.92999989,0
6.810000000,1.01,0,1.01,0
6.820000000,1.0719334,0,1.0899999,0
6.830000000,1.1519334,0,1.1725531,0
6.840000000,1.2319335,0,1.2562213,0
6.850000000,1.3119335,0,1.3404962,0
6.860000000,1.3919334,0,1.4252574,0
6.870000000,1.4719334,0,1.5103883,0
6.880000000,1.5519333,0,1.5956951,0
6.890000000,1.6319333,0,1.6809555,0
6.900000000,1.7119334,0,1.7659993,0
6.910000000,1.7919334,0,1.8507432,0
6.920000000,1.8719335,0,1.9351559,0
6.930000000,1.9519335,0,2.0192552,0
6.940000000,1.9939442,0,2.0685143,0
6.950000000,2,0,2.0818892,0
6.960000000,2,0,2.0879133,0
6.970000000,2,0,2.0919614,0
6.980000000,1.98,0,2.0716667,0
6.990000000,1.96,0,2.0431561,0
7.000000000,1.9399999,0,2.0118315,0
7.010000000,1.92,0,1.9794301,0
7.020000000,1.9,0,1.9472263,0
7.030000000,1.88,0,1.9165523,0
7.040000000,1.86,0,1.8883677,0
7.050000000,1.8399999,0,1.8629301,0
7.060000000,1.8199999,0,1.8398948,0
7.070000000,1.8,0,1.8185985,0
7.080000000,1.8099999,0,1.8255936,0
7.090000000,1.8199999,0,1.8352491,0
7.100000000,1.8299999,0,1.8438212,0
7.110000000,1.8399999,0,1.8537606,0
7.120000000,1.8499999,0,1.8660606,0
7.130000000,1.86,0,1.879557,0
7.140000000,1.87,0,1.8926433,0
7.150000000,1.88,0,1.9044017,0
7.160000000,1.89,0,1.9146732,0
7.170000000,1.9,0,1.9236857,0
7.180000000,1.85,0,1.8771682,0
7.190000000,1.7699996,0,1.7980887,0
7.200000000,1.6899997,0,1.7181457,0
7.210000000,1.6099998,0,1.6352062,0
7.220000000,1.5299999,0,1.5443339,0
7.230000000,1.4499999,0,1.4467453,0
7.240000000,1.37,0,1.3470018,0
7.250000000,1.2900001,0,1.2489361,0
7.260000000,1.2099997,0,1.1542579,0
7.270000000,1.1299998,0,1.0631605,0
7.280000000,1.0499998,0,0.97521442,0
7.290000000,0.96999991,0,0.88978678,0
7.300000000,0.88999999,0,0.88999999,0
7.310000000,0.81000006,0,0.81000006,0
7.320000000,0.72999966,0,0.72999966,0
7.330000000,0.64999974,0,0.64999974,0
7.340000000,0.56999981,0,0.56999981,0
7.350000000,0.48999989,0,0.48999989,0
7.360000000,0.40999997,0,0.40999997,0
7.370000000,0.33000004,0,0.33000004,0
7.380000000,0.24999964,0,0.24999964,0
7.390000000,0.16999972,0,0.16999972,0
7.400000000,0.089999795,0,0.089999795,0
7.410000000,0.0099998713,0,0.0099998713,0
7.420000000,0,0,0,0
7.430000000,0,0,0,0
7.440000000,0,0,0,0
7.450000000,0,0,0,0
7.460000000,0,0,0,0
7.470000000,0,0,0,0
7.480000000,0,0,0,0
7.490000000,0,0,0,0
7.500000000,0,0,0,0
7.510000000,0,0,0,0
7.520000000,0,0,0,0
7.530000000,0,0,0,0
7.540000000,0,0,0,0
7.550000000,0,0,0,0
7.560000000,0,0,0,0
7.570000000,0,0,0,0
7.580000000,0,0,0,0
7.590000000,0,0,0,0
7.600000000,0,0,0,0
7.610000000,0,0,0,0
7.620000000,0,0,0,0
7.630000000,0,0,0,0
7.640000000,0,0,0,0
7.650000000,0,0,0,0
7.660000000,0,0,0,0
7.670000000,0,0,0,0
7.680000000,0,0,0,0
7.690000000,0.049999904,0,0.049999904,0
7.700000000,0.12999983,0,0.12999983,0
7.710000000,0.20999999,0,0.20999999,0
7.720000000,0.2899999,0,0.2899999,0
7.730000000,0.36999995,0,0.36999995,0
7.740000000,0.44999987,0,0.44999987,0
7.750000000,0.52999991,0,0.52999991,0
7.760000000,0.60999995,0,0.60999995,0
7.770000000,0.68999988,0,0.68999988,0
7.780000000,0.76999992,0,0.76999992,0
7.790000000,0.84999985,0,0.84999985,0
7.800000000,0.92999989,0,0.92999989,0
7.810000000,1.01,0,1.01,0
7.820000000,1.0719398,0,1.0899999,0
7.830000000,1.1519399,0,1.1725481,0
7.840000000,1.2319399,0,1.2562168,0
7.850000000,1.31194,0,1.3404902,0
7.860000000,1.3919399,0,1.4252549,0
7.870000000,1.4719398,0,1.5103911,0
7.880000000,1.5519397,0,1.5957007,0
7.890000000,1.6319398,0,1.6809642,0
7.900000000,1.7119398,0,1.7660102,0
7.910000000,1.7919399,0,1.8507519,0
7.920000000,1.8719399,0,1.9351634,0
7.930000000,1.9519399,0,2.0192592,0
7.940000000,1.9939464,0,2.0685141,0
7.950000000,2,0,2.0818815,0
7.960000000,2,0,2.0879016,0
7.970000000,2,0,2.0919445,0
7.980000000,1.98,0,2.0716493,0
7.990000000,1.96,0,2.0431421,0
8.000000000,1.9399999,0,2.0118222,0
8.010000000,1.92,0,1.9794239,0
8.020000000,1.9,0,1.9472247,0
8.030000000,1.88,0,1.9165592,0
8.040000000,1.86,0,1.8883742,0
8.050000000,1.8399999,0,1.8629302,0
8.060000000,1.8199999,0,1.8398911,0
8.070000000,1.8,0,1.8185887,0
8.080000000,1.8099999,0,1.8255824,0
8.090000000,1.8199999,0,1.835236,0
8.100000000,1.8299999,0,1.8438058,0
8.110000000,1.8399999,0,1.8537529,0
8.120000000,1.8499999,0,1.8660563,0
8.130000000,1.86,0,1.8795547,0
8.140000000,1.87,0,1.892639,0
8.150000000,1.88,0,1.9043975,0
8.160000000,1.89,0,1.9146724,0
8.170000000,1.9,0,1.9236863,0
8.180000000,1.85,0,1.8771679,0
8.190000000,1.7699996,0,1.7980899,0
8.200000000,1.6899997,0,1.718145,0
8.210000000,1.6099998,0,1.6352063,0
8.220000000,1.5299999,0,1.544337,0
8.230000000,1.4499999,0,1.446744,0
8.240000000,1.37,0,1.346999,0
8.250000000,1.2900001,0,1.2489326,0
8.260000000,1.2099997,0,1.1542548,0
8.270000000,1.1299998,0,1.0631568,0
8.280000000,1.0499998,0,0.97521412,0
8.290000000,0.96999991,0,0.88978601,0
8.300000000,0.88999999,0,0.88999999,0
8.310000000,0.81000006,0,0.81000006,0
8.320000000,0.72999966,0,0.72999966,0
8.330000000,0.64999974,0,0.64999974,0
8.340000000,0.56999981,0,0.56999981,0
8.350000000,0.48999989,0,0.48999989,0
8.360000000,0.40999997,0,0.40999997,0
8.370000000,0.33000004,0,0.33000004,0
8.380000000,0.24999964,0,0.24999964,0
8.390000000,0.16999972,0,0.16999972,0
8.400000000,0.089999795,0,0.089999795,0
8.410000000,0.0099998713,0,0.0099998713,0
8.420000000,0,0,0,0
8.430000000,0,0,0,0
8.440000000,0,0,0,0
8.450000000,0,0,0,0
8.460000000,0,0,0,0
8.470000000,0,0,0,0
8.480000000,0,0,0,0
8.490000000,0,0,0,0
8.500000000,0,0,0,0
8.510000000,0,0,0,0
8.520000000,0,0,0,0
8.530000000,0,0,0,0
8.540000000,0,0,0,0
8.550000000,0,0,0,0
8.560000000,0,0,0,0
8.570000000,0,0,0,0
8.580000000,0,0,0,0
8.590000000,0,0,0,0
8.600000000,0,0,0,0
8.610000000,0,0,0,0
8.620000000,0,0,0,0
8.630000000,0,0,0,0
8.640000000,0,0,0,0
8.650000000,0,0,0,0
8.660000000,0,0,0,0
8.670000000,0,0,0,0
8.680000000,0,0,0,0
8.690000000,0.049999904,0,0.049999904,0
8.700000000,0.12999983,0,0.12999983,0
8.710000000,0.20999999,0,0.20999999,0
8.720000000,0.2899999,0,0.2899999,0
8.730000000,0.36999995,0,0.36999995,0
8.740000000,0.44999987,0,0.44999987,0
8.750000000,0.52999991,0,0.52999991,0
8.760000000,0.60999995,0,0.60999995,0
8.770000000,0.68999988,0,0.68999988,0
8.780000000,0.76999992,0,0.76999992,0
8.790000000,0.84999985,0,0.84999985,0
8.800000000,0.92999989,0,0.92999989,0
8.810000000,1.01,0,1.01,0
8.820000000,1.0719393,0,1.0899999,0
8.830000000,1.1519394,0,1.1725481,0
8.840000000,1.2319394,0,1.2562166,0
8.850000000,1.3119395,0,1.34049,0
8.860000000,1.3919394,0,1.4252546,0
8.870000000,1.4719393,0,1.5103906,0
8.880000000,1.5519392,0,1.5956999,0
8.890000000,1.6319393,0,1.680963,0
8.900000000,1.7119393,0,1.7660086,0
8.910000000,1.7919394,0,1.8507499,0
8.920000000,1.8719394,0,1.9351608,0
8.930000000,1.9519395,0,2.0192609,0
8.940000000,1.9939462,0,2.0685155,0
8.950000000,2,0,2.0818796,0
8.960000000,2,0,2.0878904,0
8.970000000,2,0,2.0919352,0
8.980000000,1.98,0,2.0716448,0
8.990000000,1.96,0,2.0431378,0
9.000000000,1.9399999,0,2.0118172,0
9.010000000,1.92,0,1.979418,0
9.020000000,1.9,0,1.947219,0
9.030000000,1.88,0,1.9165536,0
9.040000000,1.86,0,1.8883729,0
9.050000000,1.8399999,0,1.8629339,0
9.060000000,1.8199999,0,1.8398925,0
9.070000000,1.8,0,1.8185887,0
9.080000000,1.8099999,0,1.8255823,0
9.090000000,1.8199999,0,1.8352388,0
9.100000000,1.8299999,0,1.8438102,0
9.110000000,1.8399999,0,1.8537565,0
9.120000000,1.8499999,0,1.866056,0
9.130000000,1.86,0,1.8795518,0
9.140000000,1.87,0,1.8926347,0
9.150000000,1.88,0,1.904394,0
9.160000000,1.89,0,1.9146732,0
9.170000000,1.9,0,1.9236901,0
9.180000000,1.85,0,1.8771782,0
9.190000000,1.7699996,0,1.7980995,0
9.200000000,1.6899997,0,1.7181528,0
9.210000000,1.6099998,0,1.6352134,0
9.220000000,1.5299999,0,1.5443386,0
9.230000000,1.4499999,0,1.4467472,0
9.240000000,1.37,0,1.3470067,0
9.250000000,1.2900001,0,1.2489382,0
9.260000000,1.2099997,0,1.1542569,0
9.270000000,1.1299998,0,1.063161,0
9.280000000,1.0499998,0,0.97521561,0
9.290000000,0.96999991,0,0.88978481,0
9.300000000,0.88999999,0,0.88999999,0
9.310000000,0.81000006,0,0.81000006,0
9.320000000,0.72999966,0,0.72999966,0
9.330000000,0.64999974,0,0.64999974,0
9.340000000,0.56999981,0,0.56999981,0
9.350000000,0.48999989,0,0.48999989,0
9.360000000,0.40999997,0,0.40999997,0
9.370000000,0.33000004,0,0.33000004,0
9.380000000,0.24999964,0,0.24999964,0
9.390000000,0.16999972,0,0.16999972,0
9.400000000,0.089999795,0,0.089999795,0
9.410000000,0.0099998713,0,0.0099998713,0
9.420000000,0,0,0,0
9.430000000,0,0,0,0
9.440000000,0,0,0,0
9.450000000,0,0,0,0
9.460000000,0,0,0,0
9.470000000,0,0,0,0
9.480000000,0,0,0,0
9.490000000,0,0,0,0
9.500000000,0,0,0,0
9.510000000,0,0,0,0
9.520000000,0,0,0,0
9.530000000,0,0,0,0
9.540000000,0,0,0,0
9.550000000,0,0,0,0
9.560000000,0,0,0,0
9.570000000,0,0,0,0
9.580000000,0,0,0,0
9.590000000,0,0,0,0
9.600000000,0,0,0,0
9.610000000,0,0,0,0
9.620000000,0,0,0,0
9.630000000,0,0,0,0
9.640000000,0,0,0,0
9.650000000,0,0,0,0
9.660000000,0,0,0,0
9.670000000,0,0,0,0
9.680000000,0,0,0,0
9.690000000,0.049999904,0,0.049999904,0
9.700000000,0.12999983,0,0.12999983,0
9.710000000,0.20999999,0,0.20999999,0
9.720000000,0.2899999,0,0.2899999,0
9.730000000,0.36999995,0,0.36999995,0
9.740000000,0.44999987,0,0.44999987,0
9.750000000,0.52999991,0,0.52999991,0
9.760000000,0.60999995,0,0.60999995,0
9.770000000,0.68999988,0,0.68999988,0
9.780000000,0.76999992,0,0.76999992,0
9.790000000,0.84999985,0,0.84999985,0
9.800000000,0.92999989,0,0.92999989,0
9.810000000,1.01,0,1.01,0
9.820000000,1.071936,0,1.0899999,0
9.830000000,1.1519361,0,1.1725534,0
9.840000000,1.2319361,0,1.2562226,0
9.850000000,1.3119361,0,1.3404984,0
9.860000000,1.3919361,0,1.425261,0
9.870000000,1.471936,0,1.5103936,0
9.880000000,1.5519359,0,1.5956978,0
9.890000000,1.631936,0,1.6809602,0
9.900000000,1.711936,0,1.7660098,0
9.910000000,1.791936,0,1.8507557,0
9.920000000,1.8719361,0,1.9351689,0
9.930000000,1.9519361,0,2.0192626,0
9.940000000,1.993945,0,2.0685158,0
9.950000000,2,0,2.0818834,0
9.960000000,2,0,2.0879025,0
9.970000000,2,0,2.0919533,0
9.980000000,1.98,0,2.0716624,0
9.990000000,1.96,0,2.0431497,0
10.000000000,1.9399999,0,2.0118239,0
10.010000000,1.92,0,1.979422,0
10.020000000,1.9,0,1.9472167,0
10.030000000,1.88,0,1.9165509,0
10.040000000,1.86,0,1.8883711,0
10.050000000,1.8399999,0,1.8629324,0
10.060000000,1.8199999,0,1.8398962,0
10.070000000,1.8,0,1.8185945,0
10.080000000,1.8099999,0,1.8255926,0
10.090000000,1.8199999,0,1.8352486,0
10.100000000,1.8299999,0,1.8438185,0
10.110000000,1.8399999,0,1.8537582,0
10.120000000,1.8499999,0,1.8660604,0
10.130000000,1.86,0,1.8795567,0
10.140000000,1.87,0,1.8926417,0
10.150000000,1.88,0,1.9044006,0
10.160000000,1.89,0,1.9146786,0
10.170000000,1.9,0,1.9236964,0
10.180000000,1.85,0,1.8771858,0
10.190000000,1.7699996,0,1.7981068,0
10.200000000,1.6899997,0,1.7181545,0
10.210000000,1.6099998,0,1.6352057,0
10.220000000,1.5299999,0,1.5443338,0
10.230000000,1.4499999,0,1.4467463,0
10.240000000,1.37,0,1.3470041,0
10.250000000,1.2900001,0,1.2489346,0
10.260000000,1.2099997,0,1.154253,0
10.270000000,1.1299998,0,1.063156,0
10.280000000,1.0499998,0,0.97521394,0
10.290000000,0.96999991,0,0.88978755,0
10.300000000,0.88999999,0,0.88999999,0
10.310000000,0.81000006,0,0.81000006,0
10.320000000,0.72999966,0,0.72999966,0
10.330000000,0.64999974,0,0.64999974,0
10.340000000,0.56999981,0,0.56999981,0
10.350000000,0.48999989,0,0.48999989,0
10.360000000,0.40999997,0,0.40999997,0
10.370000000,0.33000004,0,0.33000004,0
10.380000000,0.24999964,0,0.24999964,0
10.390000000,0.16999972,0,0.16999972,0
10.400000000,0.089999795,0,0.089999795,0
10.410000000,0.0099998713,0,0.0099998713,0
10.420000000,0,0,0,0
10.430000000,0,0,0,0
10.440000000,0,0,0,0
10.450000000,0,0,0,0
10.460000000,0,0,0,0
10.470000000,0,0,0,0
10.480000000,0,0,0,0
10.490000000,0,0,0,0
10.500000000,0,0,0,0
10.510000000,0,0,0,0
10.520000000,0,0,0,0
10.530000000,0,0,0,0
10.540000000,0,0,0,0
10.550000000,0,0,0,0
10.560000000,0,0,0,0
10.570000000,0,0,0,0
10.580000000,0,0,0,0
10.590000000,0,0,0,0
10.600000000,0,0,0,0
10.610000000,0,0,0,0
10.620000000,0,0,0,0
10.630000000,0,0,0,0
10.640000000,0,0,0,0
10.650000000,0,0,0,0
10.660000000,0,0,0,0
10.670000000,0,0,0,0
10.680000000,0,0,0,0
10.690000000,0.049999904,0,0.049999904,0
10.700000000,0.12999983,0,0.12999983,0
10.710000000,0.20999999,0,0.20999999,0
10.720000000,0.2899999,0,0.2899999,0
10.730000000,0.36999995,0,0.36999995,0
10.740000000,0.44999987,0,0.44999987,0
10.750000000,0.52999991,0,0.52999991,0
10.760000000,0.60999995,0,0.60999995,0
10.770000000,0.68999988,0,0.68999988,0
10.780000000,0.76999992,0,0.76999992,0
10.790000000,0.84999985,0,0.84999985,0
10.800000000,0.92999989,0,0.92999989,0
10.810000000,1.01,0,1.01,0
10.820000000,1.0719384,0,1.0899999,0
10.830000000,1.1519384,0,1.1725478,0
10.840000000,1.2319385,0,1.2562163,0
10.850000000,1.3119385,0,1.3404946,0
10.860000000,1.3919384,0,1.4252594,0
10.870000000,1.4719384,0,1.5103921,0
10.880000000,1.5519383,0,1.5956974,0
10.890000000,1.6319383,0,1.6809533,0
10.900000000,1.7119384,0,1.766,0
