source:ccrt device:log(03)_03 epoch:1673450022 timeOrigin:2.000000000 firstSampleTime:0.500000000 period:0.001000000 name:ACQ(3) type:analog,I_A_(A),I_B_(A)
0.500000000,0.17872749,0.17872269
0.501000000,0.1735573,0.17356351
0.502000000,0.16844706,0.16845429
0.503000000,0.16353688,0.16353503
0.504000000,0.15886667,0.15887576
0.505000000,0.15436648,0.15436646
0.506000000,0.14989629,0.14989714
0.507000000,0.14543611,0.14543782
0.508000000,0.14097592,0.14096852
0.509000000,0.13651574,0.13650919
0.510000000,0.13206555,0.13205989
0.511000000,0.12761535,0.12761058
0.512000000,0.12322517,0.12322125
0.513000000,0.119025,0.1190219
0.514000000,0.11507483,0.1150725
0.515000000,0.11128467,0.11128309
0.516000000,0.10753451,0.10753366
0.517000000,0.10378436,0.10378425
0.518000000,0.1000342,0.10003482
0.519000000,0.096294045,0.096295401
0.520000000,0.092553891,0.09255597
0.521000000,0.088823728,0.088816546
0.522000000,0.085143574,0.085137114
0.523000000,0.081653431,0.081647649
0.524000000,0.0784133,0.078418151
0.525000000,0.075333171,0.075338624
0.526000000,0.072293036,0.0722991
0.527000000,0.069252916,0.069259562
0.528000000,0.066212788,0.06622003
0.529000000,0.063182659,0.063180499
0.530000000,0.060142532,0.060150966
0.531000000,0.057122406,0.057121433
0.532000000,0.054142281,0.05414189
0.533000000,0.051362168,0.051362321
0.534000000,0.048832059,0.048832711
0.535000000,0.04645196,0.046453077
0.536000000,0.044121861,0.044113439
0.537000000,0.041781764,0.041783795
0.538000000,0.039441667,0.039444156
0.539000000,0.037101567,0.037104513
0.540000000,0.034771465,0.034774873
0.541000000,0.03244137,0.032445233
0.542000000,0.030171275,0.030165583
0.543000000,0.028081188,0.028085902
0.544000000,0.026251111,0.026256185
0.545000000,0.024581039,0.024586441
0.546000000,0.022950971,0.022946693
0.547000000,0.021310903,0.021306945
0.548000000,0.019670835,0.019667199
0.549000000,0.018030768,0.018037451
0.550000000,0.0164007,0.016397703
0.551000000,0.014770632,0.014767954
0.552000000,0.013190566,0.013188197
0.553000000,0.011800507,0.011808409
0.554000000,0.010680459,0.010678584
0.555000000,0.0097004184,0.0097087324
0.556000000,0.0087703792,0.008768877
0.557000000,0.0078303404,0.0078290226
0.558000000,0.0068903007,0.0068991655
0.559000000,0.0059602619,0.0059593101
0.560000000,0.0050202222,0.0050194548
0.561000000,0.0040801829,0.0040895981
0.562000000,0.0032001459,0.003199735
0.563000000,0.0025201174,0.0025198397
0.564000000,0.0020900995,0.002089906
0.565000000,0.0018200881,0.0018199406
0.566000000,0.0015800779,0.0015799685
0.567000000,0.0013500685,0.0013499951
0.568000000,0.0011100585,0.0011100231
0.569000000,0.00087004848,0.00087005092
0.570000000,0.00063003827,0.00063007878
0.571000000,0.00039002826,0.00039010652
0.572000000,0.00017001905,0.00017013215
0.573000000,2.0012829e-05,2.014952e-05
0.574000000,-2.998687e-05,-2.9847622e-05
0.575000000,-1.9987294e-05,-1.9847819e-05
0.576000000,1.1932928e-08,1.5177039e-07
0.577000000,1.0012382e-05,1.0150718e-05
0.578000000,3.0013205e-05,3.0148323e-05
0.579000000,5.001403e-05,5.0146074e-05
0.580000000,6.0014478e-05,6.0144877e-05
0.581000000,8.0015299e-05,8.0142483e-05
0.582000000,9.0015747e-05,9.0141431e-05
0.583000000,8.0015299e-05,8.0142483e-05
0.584000000,6.0014478e-05,6.0144877e-05
0.585000000,2.0012829e-05,2.014952e-05
0.586000000,-1.9987294e-05,-1.9847819e-05
0.587000000,-6.9985392e-05,-6.9846981e-05
0.588000000,-0.00010998385,-0.00010984634
0.589000000,-0.00014998237,-0.0001498457
0.590000000,-0.00018998083,-0.00018984506
0.591000000,-0.00023997892,-0.00023984436
0.592000000,-0.00026997778,-0.00026984391
0.593000000,-0.00029997659,-0.00029984332
0.594000000,-0.00030997625,-0.00030984328
0.595000000,-0.00029997659,-0.00029984332
0.596000000,-0.00028997703,-0.00029984332
0.597000000,-0.00028997703,-0.00028984351
0.598000000,-0.00027997736,-0.00027984372
0.599000000,-0.00027997736,-0.00027984372
0.600000000,-0.00026997778,-0.00026984391
0.601000000,-0.00025997814,-0.00025984398
0.602000000,-0.0002499785,-0.00025984398
0.603000000,-0.00023997892,-0.00023984436
0.604000000,-0.00022997927,-0.0002298444
0.605000000,-0.00020998005,-0.0002098448
0.606000000,-0.00017998117,-0.00018984506
0.607000000,-0.00015998195,-0.00015984564
0.608000000,-0.00013998272,-0.00013984588
0.609000000,-0.0001199835,-0.00011984629
0.610000000,-9.9984267e-05,-9.9846533e-05
0.611000000,-7.9984973e-05,-7.9846926e-05
0.612000000,-5.9985745e-05,-5.9847178e-05
0.613000000,-3.998652e-05,-3.9847571e-05
0.614000000,-2.998687e-05,-2.9847622e-05
0.615000000,-9.9876443e-06,-9.8480168e-06
0.616000000,1.1932928e-08,1.5177039e-07
0.617000000,1.0012382e-05,1.0150718e-05
0.618000000,2.0012829e-05,2.014952e-05
0.619000000,4.0013652e-05,4.0147126e-05
0.620000000,5.001403e-05,5.0146074e-05
0.621000000,6.0014478e-05,6.0144877e-05
0.622000000,7.0014925e-05,7.014368e-05
0.623000000,9.0015747e-05,9.0141431e-05
0.624000000,9.0015747e-05,9.0141431e-05
0.625000000,0.00010001613,0.00010014023
0.626000000,0.00011001658,0.00011013904
0.627000000,0.00012001695,0.00012013799
0.628000000,0.00012001695,0.00012013799
0.629000000,0.0001300174,0.00013013679
0.630000000,0.00014001784,0.00014013558
0.631000000,0.00015001823,0.00015013439
0.632000000,0.00015001823,0.00015013439
0.633000000,0.00016001867,0.00016013334
0.634000000,0.00016001867,0.00016013334
0.635000000,0.00016001867,0.00016013334
0.636000000,0.00016001867,0.00016013334
0.637000000,0.00016001867,0.00016013334
0.638000000,0.00016001867,0.00016013334
0.639000000,0.00016001867,0.00016013334
0.640000000,0.00016001867,0.00016013334
0.641000000,0.00016001867,0.00016013334
0.642000000,0.00017001905,0.00017013215
0.643000000,0.00016001867,0.00016013334
0.644000000,0.00016001867,0.00016013334
0.645000000,0.00016001867,0.00016013334
0.646000000,0.00016001867,0.00016013334
0.647000000,0.00016001867,0.00016013334
0.648000000,0.00015001823,0.00015013439
0.649000000,0.00015001823,0.00015013439
0.650000000,0.00015001823,0.00015013439
0.651000000,0.00015001823,0.00015013439
0.652000000,0.00014001784,0.00014013558
0.653000000,0.00014001784,0.00014013558
0.654000000,0.00014001784,0.00014013558
0.655000000,0.0001300174,0.00013013679
0.656000000,0.00012001695,0.00012013799
0.657000000,0.00012001695,0.00012013799
0.658000000,0.00011001658,0.00011013904
0.659000000,0.00011001658,0.00011013904
0.660000000,0.00010001613,0.00010014023
0.661000000,9.0015747e-05,9.0141431e-05
0.662000000,9.0015747e-05,9.0141431e-05
0.663000000,8.0015299e-05,8.0142483e-05
0.664000000,8.0015299e-05,8.0142483e-05
0.665000000,7.0014925e-05,7.014368e-05
0.666000000,7.0014925e-05,7.014368e-05
0.667000000,6.0014478e-05,6.0144877e-05
0.668000000,6.0014478e-05,6.0144877e-05
0.669000000,5.001403e-05,5.0146074e-05
0.670000000,5.001403e-05,5.0146074e-05
0.671000000,4.0013652e-05,4.0147126e-05
0.672000000,4.0013652e-05,4.0147126e-05
0.673000000,4.0013652e-05,4.0147126e-05
0.674000000,3.0013205e-05,3.0148323e-05
0.675000000,3.0013205e-05,3.0148323e-05
0.676000000,2.0012829e-05,2.014952e-05
0.677000000,2.0012829e-05,2.014952e-05
0.678000000,2.0012829e-05,2.014952e-05
0.679000000,1.0012382e-05,1.0150718e-05
0.680000000,1.0012382e-05,1.0150718e-05
0.681000000,1.0012382e-05,1.0150718e-05
0.682000000,1.1932928e-08,1.5177039e-07
0.683000000,1.1932928e-08,1.5177039e-07
0.684000000,1.1932928e-08,1.5177039e-07
0.685000000,1.1932928e-08,1.5177039e-07
0.686000000,1.1932928e-08,-9.8480168e-06
0.687000000,-9.9876443e-06,-9.8480168e-06
0.688000000,-9.9876443e-06,-9.8480168e-06
0.689000000,-9.9876443e-06,-9.8480168e-06
0.690000000,-9.9876443e-06,-9.8480168e-06
0.691000000,-9.9876443e-06,-9.8480168e-06
0.692000000,-9.9876443e-06,-9.8480168e-06
0.693000000,-1.9987294e-05,-1.9847819e-05
0.694000000,-1.9987294e-05,-1.9847819e-05
0.695000000,-1.9987294e-05,-1.9847819e-05
0.696000000,-1.9987294e-05,-1.9847819e-05
0.697000000,-1.9987294e-05,-1.9847819e-05
0.698000000,-1.9987294e-05,-1.9847819e-05
0.699000000,-1.9987294e-05,-1.9847819e-05
0.700000000,-1.9987294e-05,-1.9847819e-05
0.701000000,-1.9987294e-05,-1.9847819e-05
0.702000000,-1.9987294e-05,-1.9847819e-05
0.703000000,-1.9987294e-05,-1.9847819e-05
0.704000000,-1.9987294e-05,-1.9847819e-05
0.705000000,-1.9987294e-05,-1.9847819e-05
0.706000000,-1.9987294e-05,-1.9847819e-05
0.707000000,-1.9987294e-05,-1.9847819e-05
0.708000000,-1.9987294e-05,-1.9847819e-05
0.709000000,-1.9987294e-05,-1.9847819e-05
0.710000000,-1.9987294e-05,-1.9847819e-05
0.711000000,-1.9987294e-05,-1.9847819e-05
0.712000000,-1.9987294e-05,-1.9847819e-05
0.713000000,-1.9987294e-05,-1.9847819e-05
0.714000000,-1.9987294e-05,-1.9847819e-05
0.715000000,-1.9987294e-05,-1.9847819e-05
0.716000000,-1.9987294e-05,-1.9847819e-05
0.717000000,-1.9987294e-05,-1.9847819e-05
0.718000000,-1.9987294e-05,-1.9847819e-05
0.719000000,-1.9987294e-05,-1.9847819e-05
0.720000000,-1.9987294e-05,-1.9847819e-05
0.721000000,-1.9987294e-05,-1.9847819e-05
0.722000000,-1.9987294e-05,-1.9847819e-05
0.723000000,-1.9987294e-05,-1.9847819e-05
0.724000000,-9.9876443e-06,-9.8480168e-06
0.725000000,-9.9876443e-06,-9.8480168e-06
0.726000000,-9.9876443e-06,-9.8480168e-06
0.727000000,-9.9876443e-06,-9.8480168e-06
0.728000000,-9.9876443e-06,-9.8480168e-06
0.729000000,-9.9876443e-06,-9.8480168e-06
0.730000000,1.1932928e-08,-9.8480168e-06
0.731000000,1.1932928e-08,1.5177039e-07
0.732000000,1.1932928e-08,1.5177039e-07
0.733000000,1.1932928e-08,1.5177039e-07
0.734000000,1.1932928e-08,1.5177039e-07
0.735000000,1.1932928e-08,1.5177039e-07
0.736000000,1.1932928e-08,1.5177039e-07
0.737000000,1.1932928e-08,1.5177039e-07
0.738000000,1.1932928e-08,1.5177039e-07
0.739000000,1.1932928e-08,1.5177039e-07
0.740000000,1.1932928e-08,1.5177039e-07
0.741000000,1.1932928e-08,1.5177039e-07
0.742000000,1.1932928e-08,1.5177039e-07
0.743000000,1.1932928e-08,1.5177039e-07
0.744000000,1.1932928e-08,1.5177039e-07
0.745000000,1.1932928e-08,1.5177039e-07
0.746000000,1.1932928e-08,1.5177039e-07
0.747000000,1.1932928e-08,1.5177039e-07
0.748000000,1.1932928e-08,1.5177039e-07
0.749000000,1.1932928e-08,1.5177039e-07
0.750000000,1.1932928e-08,1.5177039e-07
0.751000000,1.1932928e-08,1.5177039e-07
0.752000000,1.1932928e-08,1.5177039e-07
0.753000000,1.1932928e-08,1.5177039e-07
0.754000000,1.1932928e-08,1.5177039e-07
0.755000000,1.1932928e-08,1.5177039e-07
0.756000000,1.1932928e-08,1.5177039e-07
0.757000000,1.1932928e-08,1.5177039e-07
0.758000000,1.1932928e-08,1.5177039e-07
0.759000000,1.1932928e-08,1.5177039e-07
0.760000000,1.1932928e-08,1.5177039e-07
0.761000000,1.1932928e-08,1.5177039e-07
0.762000000,1.1932928e-08,1.5177039e-07
0.763000000,1.0012382e-05,1.0150718e-05
0.764000000,1.0012382e-05,1.0150718e-05
0.765000000,1.0012382e-05,1.0150718e-05
0.766000000,1.0012382e-05,1.0150718e-05
0.767000000,1.0012382e-05,1.0150718e-05
0.768000000,1.0012382e-05,1.0150718e-05
0.769000000,1.0012382e-05,1.0150718e-05
0.770000000,1.0012382e-05,1.0150718e-05
0.771000000,1.0012382e-05,1.0150718e-05
0.772000000,1.0012382e-05,1.0150718e-05
0.773000000,1.0012382e-05,1.0150718e-05
0.774000000,1.0012382e-05,1.0150718e-05
0.775000000,1.0012382e-05,1.0150718e-05
0.776000000,1.0012382e-05,1.0150718e-05
0.777000000,1.0012382e-05,1.0150718e-05
0.778000000,1.0012382e-05,1.0150718e-05
0.779000000,1.0012382e-05,1.0150718e-05
0.780000000,1.1932928e-08,1.5177039e-07
0.781000000,1.1932928e-08,1.5177039e-07
0.782000000,1.1932928e-08,1.5177039e-07
0.783000000,1.1932928e-08,1.5177039e-07
0.784000000,1.1932928e-08,1.5177039e-07
0.785000000,1.1932928e-08,1.5177039e-07
0.786000000,1.1932928e-08,1.5177039e-07
0.787000000,1.1932928e-08,1.5177039e-07
0.788000000,1.0012382e-05,1.0150718e-05
0.789000000,1.0012382e-05,1.0150718e-05
0.790000000,1.0012382e-05,1.0150718e-05
0.791000000,1.0012382e-05,1.0150718e-05
0.792000000,1.0012382e-05,1.0150718e-05
0.793000000,1.0012382e-05,1.0150718e-05
0.794000000,1.0012382e-05,1.0150718e-05
0.795000000,1.0012382e-05,1.5177039e-07
0.796000000,1.1932928e-08,1.5177039e-07
0.797000000,1.1932928e-08,1.5177039e-07
0.798000000,1.1932928e-08,1.5177039e-07
0.799000000,1.1932928e-08,1.5177039e-07
0.800000000,1.1932928e-08,1.5177039e-07
0.801000000,1.1932928e-08,1.5177039e-07
0.802000000,-9.9876443e-06,-9.8480168e-06
0.803000000,-9.9876443e-06,-9.8480168e-06
0.804000000,-9.9876443e-06,-9.8480168e-06
0.805000000,-9.9876443e-06,-9.8480168e-06
0.806000000,-9.9876443e-06,-9.8480168e-06
0.807000000,-9.9876443e-06,-9.8480168e-06
0.808000000,-9.9876443e-06,-9.8480168e-06
0.809000000,-9.9876443e-06,-9.8480168e-06
0.810000000,-9.9876443e-06,-9.8480168e-06
0.811000000,-9.9876443e-06,-9.8480168e-06
0.812000000,-9.9876443e-06,-9.8480168e-06
0.813000000,-9.9876443e-06,-9.8480168e-06
0.814000000,-9.9876443e-06,-9.8480168e-06
0.815000000,-9.9876443e-06,-9.8480168e-06
0.816000000,1.1932928e-08,1.5177039e-07
0.817000000,1.1932928e-08,1.5177039e-07
0.818000000,1.1932928e-08,1.5177039e-07
0.819000000,1.1932928e-08,1.5177039e-07
0.820000000,1.1932928e-08,1.5177039e-07
0.821000000,1.1932928e-08,1.5177039e-07
0.822000000,1.1932928e-08,1.5177039e-07
0.823000000,1.1932928e-08,1.5177039e-07
0.824000000,1.1932928e-08,1.5177039e-07
0.825000000,1.1932928e-08,1.5177039e-07
0.826000000,1.1932928e-08,1.5177039e-07
0.827000000,1.1932928e-08,1.5177039e-07
0.828000000,1.1932928e-08,1.5177039e-07
0.829000000,1.1932928e-08,1.5177039e-07
0.830000000,1.1932928e-08,1.5177039e-07
0.831000000,1.1932928e-08,1.5177039e-07
0.832000000,1.1932928e-08,1.5177039e-07
0.833000000,1.1932928e-08,1.5177039e-07
0.834000000,1.1932928e-08,1.5177039e-07
0.835000000,1.1932928e-08,1.5177039e-07
0.836000000,1.1932928e-08,1.5177039e-07
0.837000000,1.1932928e-08,1.5177039e-07
0.838000000,1.1932928e-08,1.5177039e-07
0.839000000,1.1932928e-08,1.5177039e-07
0.840000000,1.1932928e-08,1.5177039e-07
0.841000000,1.1932928e-08,1.5177039e-07
0.842000000,1.1932928e-08,1.5177039e-07
0.843000000,1.1932928e-08,1.5177039e-07
0.844000000,1.1932928e-08,1.5177039e-07
0.845000000,1.1932928e-08,1.5177039e-07
0.846000000,1.1932928e-08,1.5177039e-07
0.847000000,1.1932928e-08,1.5177039e-07
0.848000000,1.1932928e-08,1.5177039e-07
0.849000000,1.1932928e-08,1.5177039e-07
0.850000000,1.1932928e-08,1.5177039e-07
0.851000000,1.1932928e-08,1.5177039e-07
0.852000000,1.1932928e-08,1.5177039e-07
0.853000000,1.1932928e-08,1.5177039e-07
0.854000000,1.1932928e-08,1.5177039e-07
0.855000000,1.1932928e-08,1.5177039e-07
0.856000000,1.1932928e-08,1.5177039e-07
0.857000000,1.1932928e-08,1.5177039e-07
0.858000000,1.1932928e-08,1.5177039e-07
0.859000000,1.1932928e-08,1.5177039e-07
0.860000000,1.1932928e-08,1.5177039e-07
0.861000000,1.1932928e-08,1.5177039e-07
0.862000000,1.1932928e-08,1.5177039e-07
0.863000000,1.1932928e-08,1.5177039e-07
0.864000000,1.1932928e-08,1.5177039e-07
0.865000000,1.1932928e-08,1.5177039e-07
0.866000000,1.1932928e-08,1.5177039e-07
0.867000000,1.1932928e-08,1.5177039e-07
0.868000000,1.1932928e-08,1.5177039e-07
0.869000000,1.1932928e-08,1.5177039e-07
0.870000000,1.1932928e-08,1.5177039e-07
0.871000000,1.1932928e-08,1.5177039e-07
0.872000000,1.1932928e-08,1.5177039e-07
0.873000000,1.1932928e-08,1.5177039e-07
0.874000000,1.1932928e-08,1.5177039e-07
0.875000000,1.1932928e-08,1.5177039e-07
0.876000000,1.1932928e-08,1.5177039e-07
0.877000000,1.1932928e-08,1.5177039e-07
0.878000000,1.1932928e-08,1.5177039e-07
0.879000000,1.1932928e-08,1.5177039e-07
0.880000000,1.1932928e-08,1.5177039e-07
0.881000000,1.1932928e-08,1.5177039e-07
0.882000000,1.1932928e-08,1.5177039e-07
0.883000000,1.1932928e-08,1.5177039e-07
0.884000000,1.1932928e-08,1.5177039e-07
0.885000000,1.1932928e-08,1.5177039e-07
0.886000000,1.1932928e-08,1.5177039e-07
0.887000000,1.1932928e-08,1.5177039e-07
0.888000000,1.1932928e-08,1.5177039e-07
0.889000000,1.1932928e-08,1.5177039e-07
0.890000000,1.1932928e-08,1.5177039e-07
0.891000000,1.1932928e-08,1.5177039e-07
0.892000000,1.1932928e-08,1.5177039e-07
0.893000000,1.1932928e-08,1.5177039e-07
0.894000000,1.1932928e-08,1.5177039e-07
0.895000000,1.1932928e-08,1.5177039e-07
0.896000000,1.1932928e-08,1.5177039e-07
0.897000000,1.1932928e-08,1.5177039e-07
0.898000000,1.1932928e-08,1.5177039e-07
0.899000000,1.1932928e-08,1.5177039e-07
0.900000000,1.1932928e-08,1.5177039e-07
0.901000000,1.1932928e-08,1.5177039e-07
0.902000000,1.1932928e-08,1.5177039e-07
0.903000000,1.1932928e-08,1.5177039e-07
0.904000000,1.1932928e-08,1.5177039e-07
0.905000000,1.1932928e-08,1.5177039e-07
0.906000000,1.1932928e-08,1.5177039e-07
0.907000000,1.1932928e-08,1.5177039e-07
0.908000000,1.1932928e-08,1.5177039e-07
0.909000000,1.1932928e-08,1.5177039e-07
0.910000000,1.1932928e-08,1.5177039e-07
0.911000000,1.1932928e-08,1.5177039e-07
0.912000000,1.1932928e-08,1.5177039e-07
0.913000000,1.1932928e-08,1.5177039e-07
0.914000000,1.1932928e-08,1.5177039e-07
0.915000000,1.1932928e-08,1.5177039e-07
0.916000000,1.1932928e-08,1.5177039e-07
0.917000000,1.1932928e-08,1.5177039e-07
0.918000000,-9.9876443e-06,-9.8480168e-06
0.919000000,-9.9876443e-06,-9.8480168e-06
0.920000000,-9.9876443e-06,-9.8480168e-06
0.921000000,-9.9876443e-06,-9.8480168e-06
0.922000000,-9.9876443e-06,-9.8480168e-06
0.923000000,-9.9876443e-06,-9.8480168e-06
0.924000000,1.1932928e-08,1.5177039e-07
0.925000000,1.1932928e-08,1.5177039e-07
0.926000000,1.1932928e-08,1.5177039e-07
0.927000000,1.1932928e-08,1.5177039e-07
0.928000000,1.1932928e-08,1.5177039e-07
0.929000000,1.1932928e-08,1.5177039e-07
0.930000000,1.1932928e-08,1.5177039e-07
0.931000000,1.0012382e-05,1.0150718e-05
0.932000000,1.0012382e-05,1.0150718e-05
0.933000000,1.0012382e-05,1.0150718e-05
0.934000000,1.0012382e-05,1.0150718e-05
0.935000000,1.0012382e-05,1.0150718e-05
0.936000000,1.0012382e-05,1.0150718e-05
0.937000000,1.0012382e-05,1.0150718e-05
0.938000000,1.0012382e-05,1.0150718e-05
0.939000000,1.0012382e-05,1.0150718e-05
0.940000000,1.0012382e-05,1.0150718e-05
0.941000000,1.0012382e-05,1.0150718e-05
0.942000000,1.0012382e-05,1.0150718e-05
0.943000000,1.0012382e-05,1.0150718e-05
0.944000000,1.0012382e-05,1.0150718e-05
0.945000000,1.0012382e-05,1.0150718e-05
0.946000000,1.0012382e-05,1.0150718e-05
0.947000000,1.0012382e-05,1.0150718e-05
0.948000000,1.0012382e-05,1.0150718e-05
0.949000000,1.0012382e-05,1.5177039e-07
0.950000000,1.1932928e-08,1.5177039e-07
0.951000000,1.1932928e-08,1.5177039e-07
0.952000000,1.1932928e-08,1.5177039e-07
0.953000000,1.1932928e-08,1.5177039e-07
0.954000000,1.1932928e-08,1.5177039e-07
0.955000000,1.1932928e-08,1.5177039e-07
0.956000000,1.1932928e-08,1.5177039e-07
0.957000000,1.1932928e-08,1.5177039e-07
0.958000000,1.1932928e-08,1.5177039e-07
0.959000000,1.1932928e-08,1.5177039e-07
0.960000000,1.1932928e-08,1.5177039e-07
0.961000000,1.1932928e-08,1.5177039e-07
0.962000000,1.0012382e-05,1.0150718e-05
0.963000000,1.0012382e-05,1.0150718e-05
0.964000000,1.0012382e-05,1.0150718e-05
0.965000000,1.0012382e-05,1.0150718e-05
0.966000000,1.0012382e-05,1.0150718e-05
0.967000000,1.0012382e-05,1.0150718e-05
0.968000000,1.0012382e-05,1.0150718e-05
0.969000000,1.0012382e-05,1.0150718e-05
0.970000000,1.0012382e-05,1.0150718e-05
0.971000000,1.0012382e-05,1.0150718e-05
0.972000000,1.0012382e-05,1.5177039e-07
0.973000000,1.1932928e-08,1.5177039e-07
0.974000000,1.1932928e-08,1.5177039e-07
0.975000000,1.1932928e-08,1.5177039e-07
0.976000000,1.1932928e-08,1.5177039e-07
0.977000000,1.1932928e-08,1.5177039e-07
0.978000000,1.1932928e-08,1.5177039e-07
0.979000000,1.1932928e-08,1.5177039e-07
0.980000000,-9.9876443e-06,-9.8480168e-06
0.981000000,-9.9876443e-06,-9.8480168e-06
0.982000000,-9.9876443e-06,-9.8480168e-06
0.983000000,-9.9876443e-06,-9.8480168e-06
0.984000000,-9.9876443e-06,-9.8480168e-06
0.985000000,-9.9876443e-06,-9.8480168e-06
0.986000000,-9.9876443e-06,-9.8480168e-06
0.987000000,1.1932928e-08,1.5177039e-07
0.988000000,1.1932928e-08,1.5177039e-07
0.989000000,1.1932928e-08,1.5177039e-07
0.990000000,1.1932928e-08,1.5177039e-07
0.991000000,1.1932928e-08,1.5177039e-07
0.992000000,1.1932928e-08,1.5177039e-07
0.993000000,1.1932928e-08,1.5177039e-07
0.994000000,1.1932928e-08,1.5177039e-07
0.995000000,1.1932928e-08,1.5177039e-07
0.996000000,1.1932928e-08,1.5177039e-07
0.997000000,1.1932928e-08,1.5177039e-07
0.998000000,1.1932928e-08,1.5177039e-07
0.999000000,1.1932928e-08,1.5177039e-07
1.000000000,1.1932928e-08,1.5177039e-07
1.001000000,1.1932928e-08,1.5177039e-07
1.002000000,1.1932928e-08,1.5177039e-07
1.003000000,1.1932928e-08,1.5177039e-07
1.004000000,1.1932928e-08,1.5177039e-07
1.005000000,1.1932928e-08,1.5177039e-07
1.006000000,1.1932928e-08,1.5177039e-07
1.007000000,1.1932928e-08,1.5177039e-07
1.008000000,1.1932928e-08,1.5177039e-07
1.009000000,1.1932928e-08,1.5177039e-07
1.010000000,1.1932928e-08,1.5177039e-07
1.011000000,1.1932928e-08,1.5177039e-07
1.012000000,1.1932928e-08,1.5177039e-07
1.013000000,1.1932928e-08,1.5177039e-07
1.014000000,1.1932928e-08,1.5177039e-07
1.015000000,1.1932928e-08,1.5177039e-07
1.016000000,1.1932928e-08,1.5177039e-07
1.017000000,1.1932928e-08,1.5177039e-07
1.018000000,1.1932928e-08,1.5177039e-07
1.019000000,1.1932928e-08,1.5177039e-07
1.020000000,1.1932928e-08,1.5177039e-07
1.021000000,1.1932928e-08,1.5177039e-07
1.022000000,1.1932928e-08,1.5177039e-07
1.023000000,1.1932928e-08,-9.8480168e-06
1.024000000,-9.9876443e-06,-9.8480168e-06
1.025000000,-9.9876443e-06,-9.8480168e-06
1.026000000,-9.9876443e-06,-9.8480168e-06
1.027000000,-9.9876443e-06,-9.8480168e-06
1.028000000,-9.9876443e-06,-9.8480168e-06
1.029000000,-9.9876443e-06,-9.8480168e-06
1.030000000,-9.9876443e-06,-9.8480168e-06
1.031000000,-9.9876443e-06,-9.8480168e-06
1.032000000,-9.9876443e-06,-9.8480168e-06
1.033000000,-9.9876443e-06,-9.8480168e-06
1.034000000,-9.9876443e-06,-9.8480168e-06
1.035000000,1.1932928e-08,1.5177039e-07
1.036000000,1.1932928e-08,1.5177039e-07
1.037000000,1.1932928e-08,1.5177039e-07
1.038000000,1.1932928e-08,1.5177039e-07
1.039000000,1.1932928e-08,1.5177039e-07
1.040000000,1.1932928e-08,1.5177039e-07
1.041000000,1.1932928e-08,1.5177039e-07
1.042000000,1.0012382e-05,1.0150718e-05
1.043000000,1.0012382e-05,1.0150718e-05
1.044000000,1.0012382e-05,1.0150718e-05
1.045000000,1.0012382e-05,1.0150718e-05
1.046000000,1.0012382e-05,1.0150718e-05
1.047000000,1.0012382e-05,1.0150718e-05
1.048000000,1.0012382e-05,1.0150718e-05
1.049000000,1.0012382e-05,1.0150718e-05
1.050000000,1.0012382e-05,1.0150718e-05
1.051000000,1.0012382e-05,1.0150718e-05
1.052000000,1.0012382e-05,1.0150718e-05
1.053000000,1.0012382e-05,1.0150718e-05
1.054000000,1.0012382e-05,1.0150718e-05
1.055000000,1.1932928e-08,1.5177039e-07
1.056000000,1.1932928e-08,1.5177039e-07
1.057000000,1.1932928e-08,1.5177039e-07
1.058000000,1.1932928e-08,1.5177039e-07
1.059000000,1.1932928e-08,1.5177039e-07
1.060000000,1.1932928e-08,1.5177039e-07
1.061000000,1.1932928e-08,1.5177039e-07
1.062000000,1.1932928e-08,1.5177039e-07
1.063000000,1.1932928e-08,1.5177039e-07
1.064000000,1.1932928e-08,1.5177039e-07
1.065000000,1.1932928e-08,1.5177039e-07
1.066000000,1.1932928e-08,1.5177039e-07
1.067000000,1.1932928e-08,1.5177039e-07
1.068000000,1.1932928e-08,1.5177039e-07
1.069000000,1.1932928e-08,1.5177039e-07
1.070000000,1.1932928e-08,1.5177039e-07
1.071000000,1.1932928e-08,1.5177039e-07
1.072000000,1.1932928e-08,1.5177039e-07
1.073000000,1.1932928e-08,1.5177039e-07
1.074000000,1.1932928e-08,1.5177039e-07
1.075000000,1.1932928e-08,1.5177039e-07
1.076000000,1.1932928e-08,1.5177039e-07
1.077000000,1.1932928e-08,1.5177039e-07
1.078000000,1.1932928e-08,1.5177039e-07
1.079000000,1.1932928e-08,1.5177039e-07
1.080000000,1.1932928e-08,1.5177039e-07
1.081000000,1.1932928e-08,1.5177039e-07
1.082000000,1.1932928e-08,1.5177039e-07
1.083000000,1.1932928e-08,1.5177039e-07
1.084000000,1.1932928e-08,1.5177039e-07
1.085000000,1.1932928e-08,1.5177039e-07
1.086000000,1.1932928e-08,1.5177039e-07
1.087000000,1.1932928e-08,1.5177039e-07
1.088000000,1.1932928e-08,1.5177039e-07
1.089000000,1.1932928e-08,1.5177039e-07
1.090000000,1.1932928e-08,1.5177039e-07
1.091000000,1.1932928e-08,1.5177039e-07
1.092000000,1.1932928e-08,1.5177039e-07
1.093000000,1.1932928e-08,1.5177039e-07
1.094000000,1.1932928e-08,1.5177039e-07
1.095000000,1.1932928e-08,1.5177039e-07
1.096000000,1.1932928e-08,1.5177039e-07
1.097000000,1.1932928e-08,1.5177039e-07
1.098000000,1.1932928e-08,1.5177039e-07
1.099000000,1.1932928e-08,1.5177039e-07
1.100000000,1.1932928e-08,1.5177039e-07
1.101000000,1.1932928e-08,1.5177039e-07
1.102000000,1.1932928e-08,1.5177039e-07
1.103000000,1.1932928e-08,1.5177039e-07
1.104000000,1.1932928e-08,1.5177039e-07
1.105000000,1.1932928e-08,1.5177039e-07
1.106000000,1.1932928e-08,1.5177039e-07
1.107000000,1.1932928e-08,1.5177039e-07
1.108000000,1.1932928e-08,1.5177039e-07
1.109000000,1.1932928e-08,1.5177039e-07
1.110000000,1.1932928e-08,1.5177039e-07
1.111000000,1.1932928e-08,-9.8480168e-06
1.112000000,-9.9876443e-06,-9.8480168e-06
1.113000000,-9.9876443e-06,-9.8480168e-06
1.114000000,-9.9876443e-06,-9.8480168e-06
1.115000000,-9.9876443e-06,-9.8480168e-06
1.116000000,-9.9876443e-06,-9.8480168e-06
1.117000000,-9.9876443e-06,-9.8480168e-06
1.118000000,-9.9876443e-06,-9.8480168e-06
1.119000000,-9.9876443e-06,-9.8480168e-06
1.120000000,-9.9876443e-06,-9.8480168e-06
1.121000000,-9.9876443e-06,-9.8480168e-06
1.122000000,-9.9876443e-06,-9.8480168e-06
1.123000000,-9.9876443e-06,-9.8480168e-06
1.124000000,-9.9876443e-06,-9.8480168e-06
1.125000000,1.1932928e-08,1.5177039e-07
1.126000000,1.1932928e-08,1.5177039e-07
1.127000000,1.1932928e-08,1.5177039e-07
1.128000000,1.1932928e-08,1.5177039e-07
1.129000000,1.1932928e-08,1.5177039e-07
1.130000000,1.1932928e-08,1.5177039e-07
1.131000000,1.1932928e-08,1.5177039e-07
1.132000000,1.0012382e-05,1.0150718e-05
1.133000000,1.0012382e-05,1.0150718e-05
1.134000000,1.0012382e-05,1.0150718e-05
1.135000000,1.0012382e-05,1.0150718e-05
1.136000000,1.0012382e-05,1.0150718e-05
1.137000000,1.0012382e-05,1.0150718e-05
1.138000000,1.0012382e-05,1.0150718e-05
1.139000000,1.0012382e-05,1.0150718e-05
1.140000000,1.0012382e-05,1.0150718e-05
1.141000000,1.0012382e-05,1.0150718e-05
1.142000000,1.0012382e-05,1.0150718e-05
1.143000000,1.0012382e-05,1.0150718e-05
1.144000000,1.0012382e-05,1.0150718e-05
1.145000000,1.1932928e-08,1.5177039e-07
1.146000000,1.1932928e-08,1.5177039e-07
1.147000000,1.1932928e-08,1.5177039e-07
1.148000000,1.1932928e-08,1.5177039e-07
1.149000000,1.1932928e-08,1.5177039e-07
1.150000000,1.1932928e-08,1.5177039e-07
1.151000000,1.1932928e-08,1.5177039e-07
1.152000000,1.1932928e-08,1.5177039e-07
1.153000000,1.1932928e-08,1.5177039e-07
1.154000000,1.1932928e-08,1.5177039e-07
1.155000000,1.1932928e-08,1.5177039e-07
1.156000000,1.1932928e-08,1.5177039e-07
1.157000000,1.1932928e-08,1.5177039e-07
1.158000000,1.1932928e-08,1.5177039e-07
1.159000000,1.1932928e-08,1.5177039e-07
1.160000000,1.1932928e-08,1.5177039e-07
1.161000000,1.1932928e-08,1.5177039e-07
1.162000000,1.1932928e-08,1.5177039e-07
1.163000000,1.1932928e-08,1.5177039e-07
1.164000000,1.1932928e-08,1.5177039e-07
1.165000000,1.1932928e-08,1.5177039e-07
1.166000000,1.1932928e-08,1.5177039e-07
1.167000000,1.1932928e-08,1.5177039e-07
1.168000000,1.1932928e-08,1.5177039e-07
1.169000000,1.1932928e-08,1.5177039e-07
1.170000000,1.1932928e-08,1.5177039e-07
1.171000000,1.1932928e-08,1.5177039e-07
1.172000000,1.1932928e-08,1.5177039e-07
1.173000000,1.1932928e-08,1.5177039e-07
1.174000000,1.1932928e-08,1.5177039e-07
1.175000000,1.1932928e-08,1.5177039e-07
1.176000000,1.1932928e-08,1.5177039e-07
1.177000000,1.1932928e-08,1.5177039e-07
1.178000000,1.1932928e-08,1.5177039e-07
1.179000000,1.1932928e-08,1.5177039e-07
1.180000000,1.1932928e-08,1.5177039e-07
1.181000000,1.1932928e-08,1.5177039e-07
1.182000000,1.1932928e-08,1.5177039e-07
1.183000000,1.1932928e-08,1.5177039e-07
1.184000000,1.1932928e-08,1.5177039e-07
1.185000000,1.1932928e-08,1.5177039e-07
1.186000000,1.1932928e-08,1.5177039e-07
1.187000000,1.1932928e-08,1.5177039e-07
1.188000000,1.1932928e-08,1.5177039e-07
1.189000000,1.1932928e-08,1.5177039e-07
1.190000000,1.1932928e-08,1.5177039e-07
1.191000000,1.1932928e-08,-9.8480168e-06
1.192000000,-9.9876443e-06,-9.8480168e-06
1.193000000,-9.9876443e-06,-9.8480168e-06
1.194000000,-9.9876443e-06,-9.8480168e-06
1.195000000,-9.9876443e-06,-9.8480168e-06
1.196000000,-9.9876443e-06,-9.8480168e-06
1.197000000,-9.9876443e-06,-9.8480168e-06
1.198000000,-9.9876443e-06,-9.8480168e-06
1.199000000,-9.9876443e-06,-9.8480168e-06
1.200000000,-9.9876443e-06,-9.8480168e-06
1.201000000,-9.9876443e-06,-9.8480168e-06
1.202000000,-9.9876443e-06,-9.8480168e-06
1.203000000,-9.9876443e-06,-9.8480168e-06
1.204000000,-9.9876443e-06,-9.8480168e-06
1.205000000,1.1932928e-08,1.5177039e-07
1.206000000,1.1932928e-08,1.5177039e-07
1.207000000,1.1932928e-08,1.5177039e-07
1.208000000,1.1932928e-08,1.5177039e-07
1.209000000,1.1932928e-08,1.5177039e-07
1.210000000,1.1932928e-08,1.5177039e-07
1.211000000,1.1932928e-08,1.5177039e-07
1.212000000,1.0012382e-05,1.0150718e-05
1.213000000,1.0012382e-05,1.0150718e-05
1.214000000,1.0012382e-05,1.0150718e-05
1.215000000,1.0012382e-05,1.0150718e-05
1.216000000,1.0012382e-05,1.0150718e-05
1.217000000,1.0012382e-05,1.0150718e-05
1.218000000,1.0012382e-05,1.0150718e-05
1.219000000,1.0012382e-05,1.0150718e-05
1.220000000,1.0012382e-05,1.0150718e-05
1.221000000,1.0012382e-05,1.0150718e-05
1.222000000,1.0012382e-05,1.0150718e-05
1.223000000,1.0012382e-05,1.0150718e-05
1.224000000,1.0012382e-05,1.0150718e-05
1.225000000,1.1932928e-08,1.5177039e-07
1.226000000,1.1932928e-08,1.5177039e-07
1.227000000,1.1932928e-08,1.5177039e-07
1.228000000,1.1932928e-08,1.5177039e-07
1.229000000,1.1932928e-08,1.5177039e-07
1.230000000,1.1932928e-08,1.5177039e-07
1.231000000,1.1932928e-08,1.5177039e-07
1.232000000,1.1932928e-08,1.5177039e-07
1.233000000,1.1932928e-08,1.5177039e-07
1.234000000,1.1932928e-08,1.5177039e-07
1.235000000,1.1932928e-08,1.5177039e-07
1.236000000,1.1932928e-08,1.5177039e-07
1.237000000,1.1932928e-08,1.5177039e-07
1.238000000,1.1932928e-08,1.5177039e-07
1.239000000,1.1932928e-08,1.5177039e-07
1.240000000,1.1932928e-08,1.5177039e-07
1.241000000,1.1932928e-08,1.5177039e-07
1.242000000,1.1932928e-08,1.5177039e-07
1.243000000,1.1932928e-08,1.5177039e-07
1.244000000,1.1932928e-08,1.5177039e-07
1.245000000,1.1932928e-08,1.5177039e-07
1.246000000,1.1932928e-08,1.5177039e-07
1.247000000,1.1932928e-08,1.5177039e-07
1.248000000,1.1932928e-08,1.5177039e-07
1.249000000,1.1932928e-08,1.5177039e-07
1.250000000,1.1932928e-08,1.5177039e-07
1.251000000,1.1932928e-08,1.5177039e-07
1.252000000,1.1932928e-08,1.5177039e-07
1.253000000,-9.9876443e-06,-9.8480168e-06
1.254000000,-9.9876443e-06,-9.8480168e-06
1.255000000,-9.9876443e-06,-9.8480168e-06
1.256000000,-9.9876443e-06,-9.8480168e-06
1.257000000,-9.9876443e-06,-9.8480168e-06
1.258000000,-9.9876443e-06,-9.8480168e-06
1.259000000,-9.9876443e-06,-9.8480168e-06
1.260000000,-9.9876443e-06,-9.8480168e-06
1.261000000,-9.9876443e-06,-9.8480168e-06
1.262000000,-9.9876443e-06,-9.8480168e-06
1.263000000,-9.9876443e-06,-9.8480168e-06
1.264000000,-9.9876443e-06,-9.8480168e-06
1.265000000,1.1932928e-08,1.5177039e-07
1.266000000,1.1932928e-08,1.5177039e-07
1.267000000,1.1932928e-08,1.5177039e-07
1.268000000,1.1932928e-08,1.5177039e-07
1.269000000,1.1932928e-08,1.5177039e-07
1.270000000,1.1932928e-08,1.5177039e-07
1.271000000,1.1932928e-08,1.5177039e-07
1.272000000,1.0012382e-05,1.0150718e-05
1.273000000,1.0012382e-05,1.0150718e-05
1.274000000,1.0012382e-05,1.0150718e-05
1.275000000,1.0012382e-05,1.0150718e-05
1.276000000,1.0012382e-05,1.0150718e-05
1.277000000,1.0012382e-05,1.0150718e-05
1.278000000,1.0012382e-05,1.0150718e-05
1.279000000,1.0012382e-05,1.0150718e-05
1.280000000,1.0012382e-05,1.0150718e-05
1.281000000,1.0012382e-05,1.0150718e-05
1.282000000,1.0012382e-05,1.0150718e-05
1.283000000,1.0012382e-05,1.0150718e-05
1.284000000,1.0012382e-05,1.0150718e-05
1.285000000,1.1932928e-08,1.5177039e-07
1.286000000,1.1932928e-08,1.5177039e-07
1.287000000,1.1932928e-08,1.5177039e-07
1.288000000,1.1932928e-08,1.5177039e-07
1.289000000,1.1932928e-08,1.5177039e-07
1.290000000,1.1932928e-08,1.5177039e-07
1.291000000,1.1932928e-08,1.5177039e-07
1.292000000,1.1932928e-08,1.5177039e-07
1.293000000,1.1932928e-08,1.5177039e-07
1.294000000,1.1932928e-08,1.5177039e-07
1.295000000,1.1932928e-08,1.5177039e-07
1.296000000,1.1932928e-08,1.5177039e-07
1.297000000,1.1932928e-08,1.5177039e-07
1.298000000,1.1932928e-08,1.5177039e-07
1.299000000,1.1932928e-08,1.5177039e-07
1.300000000,1.1932928e-08,1.5177039e-07
1.301000000,1.1932928e-08,1.5177039e-07
1.302000000,1.1932928e-08,1.5177039e-07
1.303000000,1.1932928e-08,1.5177039e-07
1.304000000,1.1932928e-08,1.5177039e-07
1.305000000,1.1932928e-08,1.5177039e-07
1.306000000,1.1932928e-08,1.5177039e-07
1.307000000,1.1932928e-08,1.5177039e-07
1.308000000,1.1932928e-08,1.5177039e-07
1.309000000,1.1932928e-08,1.5177039e-07
1.310000000,1.1932928e-08,1.5177039e-07
1.311000000,1.1932928e-08,1.5177039e-07
1.312000000,1.1932928e-08,1.5177039e-07
1.313000000,1.1932928e-08,1.5177039e-07
1.314000000,1.1932928e-08,1.5177039e-07
1.315000000,-9.9876443e-06,-9.8480168e-06
1.316000000,-9.9876443e-06,-9.8480168e-06
1.317000000,-9.9876443e-06,-9.8480168e-06
1.318000000,-9.9876443e-06,-9.8480168e-06
1.319000000,-9.9876443e-06,-9.8480168e-06
1.320000000,-9.9876443e-06,-9.8480168e-06
1.321000000,-9.9876443e-06,-9.8480168e-06
1.322000000,-9.9876443e-06,-9.8480168e-06
1.323000000,-9.9876443e-06,-9.8480168e-06
1.324000000,-9.9876443e-06,-9.8480168e-06
1.325000000,1.1932928e-08,1.5177039e-07
1.326000000,1.1932928e-08,1.5177039e-07
1.327000000,1.1932928e-08,1.5177039e-07
1.328000000,1.1932928e-08,1.5177039e-07
1.329000000,1.1932928e-08,1.5177039e-07
1.330000000,1.1932928e-08,1.5177039e-07
1.331000000,1.1932928e-08,1.5177039e-07
1.332000000,1.1932928e-08,1.5177039e-07
1.333000000,1.0012382e-05,1.0150718e-05
1.334000000,1.0012382e-05,1.0150718e-05
1.335000000,1.0012382e-05,1.0150718e-05
1.336000000,1.0012382e-05,1.0150718e-05
1.337000000,1.0012382e-05,1.0150718e-05
1.338000000,1.0012382e-05,1.0150718e-05
1.339000000,1.0012382e-05,1.0150718e-05
1.340000000,1.0012382e-05,1.0150718e-05
1.341000000,1.0012382e-05,1.0150718e-05
1.342000000,1.0012382e-05,1.0150718e-05
1.343000000,1.0012382e-05,1.5177039e-07
1.344000000,1.1932928e-08,1.5177039e-07
1.345000000,1.1932928e-08,1.5177039e-07
1.346000000,1.1932928e-08,1.5177039e-07
1.347000000,1.1932928e-08,1.5177039e-07
1.348000000,1.1932928e-08,1.5177039e-07
1.349000000,1.1932928e-08,1.5177039e-07
1.350000000,1.1932928e-08,1.5177039e-07
1.351000000,-9.9876443e-06,-9.8480168e-06
1.352000000,-9.9876443e-06,-9.8480168e-06
1.353000000,-9.9876443e-06,-9.8480168e-06
1.354000000,-9.9876443e-06,-9.8480168e-06
1.355000000,-9.9876443e-06,-9.8480168e-06
1.356000000,-9.9876443e-06,-9.8480168e-06
1.357000000,-9.9876443e-06,-9.8480168e-06
1.358000000,-9.9876443e-06,-9.8480168e-06
1.359000000,-9.9876443e-06,-9.8480168e-06
1.360000000,-9.9876443e-06,-9.8480168e-06
1.361000000,-9.9876443e-06,-9.8480168e-06
1.362000000,-9.9876443e-06,-9.8480168e-06
1.363000000,-9.9876443e-06,-9.8480168e-06
1.364000000,1.1932928e-08,1.5177039e-07
1.365000000,1.1932928e-08,1.5177039e-07
1.366000000,1.1932928e-08,1.5177039e-07
1.367000000,1.1932928e-08,1.5177039e-07
1.368000000,1.1932928e-08,1.5177039e-07
1.369000000,1.1932928e-08,1.5177039e-07
1.370000000,1.1932928e-08,1.5177039e-07
1.371000000,1.1932928e-08,1.5177039e-07
1.372000000,1.0012382e-05,1.0150718e-05
1.373000000,1.0012382e-05,1.0150718e-05
1.374000000,1.0012382e-05,1.0150718e-05
1.375000000,1.0012382e-05,1.0150718e-05
1.376000000,1.0012382e-05,1.0150718e-05
1.377000000,1.0012382e-05,1.0150718e-05
1.378000000,1.0012382e-05,1.0150718e-05
1.379000000,1.0012382e-05,1.0150718e-05
1.380000000,1.0012382e-05,1.0150718e-05
1.381000000,1.0012382e-05,1.0150718e-05
1.382000000,1.0012382e-05,1.0150718e-05
1.383000000,1.0012382e-05,1.0150718e-05
1.384000000,1.0012382e-05,1.0150718e-05
1.385000000,1.1932928e-08,1.5177039e-07
1.386000000,1.1932928e-08,1.5177039e-07
1.387000000,1.1932928e-08,1.5177039e-07
1.388000000,1.1932928e-08,1.5177039e-07
1.389000000,1.1932928e-08,1.5177039e-07
1.390000000,1.1932928e-08,1.5177039e-07
1.391000000,1.1932928e-08,1.5177039e-07
1.392000000,1.1932928e-08,1.5177039e-07
1.393000000,1.1932928e-08,1.5177039e-07
1.394000000,1.1932928e-08,1.5177039e-07
1.395000000,1.1932928e-08,1.5177039e-07
1.396000000,1.1932928e-08,1.5177039e-07
1.397000000,1.1932928e-08,1.5177039e-07
1.398000000,1.1932928e-08,1.5177039e-07
1.399000000,1.1932928e-08,1.5177039e-07
1.400000000,1.1932928e-08,1.5177039e-07
1.401000000,1.1932928e-08,1.5177039e-07
1.402000000,1.1932928e-08,1.5177039e-07
1.403000000,1.1932928e-08,1.5177039e-07
1.404000000,1.1932928e-08,1.5177039e-07
1.405000000,1.1932928e-08,1.5177039e-07
1.406000000,1.1932928e-08,1.5177039e-07
1.407000000,1.1932928e-08,1.5177039e-07
1.408000000,-9.9876443e-06,-9.8480168e-06
1.409000000,-9.9876443e-06,-9.8480168e-06
1.410000000,-9.9876443e-06,-9.8480168e-06
1.411000000,-9.9876443e-06,-9.8480168e-06
1.412000000,-9.9876443e-06,-9.8480168e-06
1.413000000,-9.9876443e-06,-9.8480168e-06
1.414000000,-9.9876443e-06,-9.8480168e-06
1.415000000,1.1932928e-08,1.5177039e-07
1.416000000,1.1932928e-08,1.5177039e-07
1.417000000,1.1932928e-08,1.5177039e-07
1.418000000,1.1932928e-08,1.5177039e-07
1.419000000,1.1932928e-08,1.5177039e-07
1.420000000,1.1932928e-08,1.5177039e-07
1.421000000,1.1932928e-08,1.5177039e-07
1.422000000,1.0012382e-05,1.0150718e-05
1.423000000,1.0012382e-05,1.0150718e-05
1.424000000,1.0012382e-05,1.0150718e-05
1.425000000,1.0012382e-05,1.0150718e-05
1.426000000,1.0012382e-05,1.0150718e-05
1.427000000,1.0012382e-05,1.0150718e-05
1.428000000,1.0012382e-05,1.0150718e-05
1.429000000,1.0012382e-05,1.0150718e-05
1.430000000,1.0012382e-05,1.0150718e-05
1.431000000,1.0012382e-05,1.0150718e-05
1.432000000,1.0012382e-05,1.0150718e-05
1.433000000,1.1932928e-08,1.5177039e-07
1.434000000,1.1932928e-08,1.5177039e-07
1.435000000,1.1932928e-08,1.5177039e-07
1.436000000,1.1932928e-08,1.5177039e-07
1.437000000,1.1932928e-08,1.5177039e-07
1.438000000,1.1932928e-08,1.5177039e-07
1.439000000,1.1932928e-08,1.5177039e-07
1.440000000,1.1932928e-08,1.5177039e-07
1.441000000,-9.9876443e-06,-9.8480168e-06
1.442000000,-9.9876443e-06,-9.8480168e-06
1.443000000,-9.9876443e-06,-9.8480168e-06
1.444000000,-9.9876443e-06,-9.8480168e-06
1.445000000,-9.9876443e-06,-9.8480168e-06
1.446000000,-9.9876443e-06,-9.8480168e-06
1.447000000,-9.9876443e-06,-9.8480168e-06
1.448000000,-9.9876443e-06,-9.8480168e-06
1.449000000,-9.9876443e-06,-9.8480168e-06
1.450000000,-9.9876443e-06,-9.8480168e-06
1.451000000,-9.9876443e-06,-9.8480168e-06
1.452000000,-9.9876443e-06,-9.8480168e-06
1.453000000,-9.9876443e-06,-9.8480168e-06
1.454000000,1.1932928e-08,-9.8480168e-06
1.455000000,1.1932928e-08,1.5177039e-07
1.456000000,1.1932928e-08,1.5177039e-07
1.457000000,1.1932928e-08,1.5177039e-07
1.458000000,1.1932928e-08,1.5177039e-07
1.459000000,1.1932928e-08,1.5177039e-07
1.460000000,1.1932928e-08,1.5177039e-07
1.461000000,1.1932928e-08,1.5177039e-07
1.462000000,1.0012382e-05,1.0150718e-05
1.463000000,1.0012382e-05,1.0150718e-05
1.464000000,1.0012382e-05,1.0150718e-05
1.465000000,1.0012382e-05,1.0150718e-05
1.466000000,1.0012382e-05,1.0150718e-05
1.467000000,1.0012382e-05,1.0150718e-05
1.468000000,1.0012382e-05,1.0150718e-05
1.469000000,1.1932928e-08,1.5177039e-07
1.470000000,1.1932928e-08,1.5177039e-07
1.471000000,1.1932928e-08,1.5177039e-07
1.472000000,1.1932928e-08,1.5177039e-07
1.473000000,1.1932928e-08,1.5177039e-07
1.474000000,1.1932928e-08,1.5177039e-07
1.475000000,1.1932928e-08,1.5177039e-07
1.476000000,1.0012382e-05,1.0150718e-05
1.477000000,1.0012382e-05,1.0150718e-05
1.478000000,1.0012382e-05,1.0150718e-05
1.479000000,1.0012382e-05,1.0150718e-05
1.480000000,1.0012382e-05,1.0150718e-05
1.481000000,1.0012382e-05,1.0150718e-05
1.482000000,1.0012382e-05,1.0150718e-05
1.483000000,1.0012382e-05,1.0150718e-05
1.484000000,1.0012382e-05,1.0150718e-05
1.485000000,1.0012382e-05,1.5177039e-07
1.486000000,1.1932928e-08,1.5177039e-07
1.487000000,1.1932928e-08,1.5177039e-07
1.488000000,1.1932928e-08,1.5177039e-07
1.489000000,1.1932928e-08,1.5177039e-07
1.490000000,1.1932928e-08,1.5177039e-07
1.491000000,1.1932928e-08,1.5177039e-07
1.492000000,1.1932928e-08,1.5177039e-07
1.493000000,-9.9876443e-06,-9.8480168e-06
1.494000000,-9.9876443e-06,-9.8480168e-06
1.495000000,-9.9876443e-06,-9.8480168e-06
1.496000000,1.1932928e-08,-9.8480168e-06
1.497000000,1.1932928e-08,1.5177039e-07
1.498000000,1.1932928e-08,1.5177039e-07
1.499000000,1.1932928e-08,1.5177039e-07
1.500000000,1.1932928e-08,1.5177039e-07
1.501000000,1.1932928e-08,1.5177039e-07
1.502000000,1.1932928e-08,1.5177039e-07
1.503000000,1.1932928e-08,1.5177039e-07
1.504000000,1.1932928e-08,1.5177039e-07
1.505000000,1.1932928e-08,1.5177039e-07
1.506000000,-9.9876443e-06,-9.8480168e-06
1.507000000,-9.9876443e-06,-9.8480168e-06
1.508000000,-9.9876443e-06,-9.8480168e-06
1.509000000,-9.9876443e-06,-9.8480168e-06
1.510000000,-9.9876443e-06,-9.8480168e-06
1.511000000,-9.9876443e-06,-9.8480168e-06
1.512000000,-9.9876443e-06,-9.8480168e-06
1.513000000,-9.9876443e-06,-9.8480168e-06
1.514000000,-9.9876443e-06,-9.8480168e-06
1.515000000,-9.9876443e-06,-9.8480168e-06
1.516000000,1.1932928e-08,1.5177039e-07
1.517000000,1.1932928e-08,1.5177039e-07
1.518000000,1.1932928e-08,1.5177039e-07
1.519000000,1.1932928e-08,1.5177039e-07
1.520000000,1.1932928e-08,1.5177039e-07
1.521000000,1.1932928e-08,1.5177039e-07
1.522000000,1.1932928e-08,1.5177039e-07
1.523000000,1.1932928e-08,1.5177039e-07
1.524000000,1.1932928e-08,1.5177039e-07
1.525000000,1.1932928e-08,1.5177039e-07
1.526000000,1.1932928e-08,1.5177039e-07
1.527000000,1.1932928e-08,1.5177039e-07
1.528000000,1.1932928e-08,1.5177039e-07
1.529000000,1.1932928e-08,1.5177039e-07
1.530000000,1.1932928e-08,1.5177039e-07
1.531000000,1.1932928e-08,1.5177039e-07
1.532000000,1.1932928e-08,1.5177039e-07
1.533000000,1.1932928e-08,1.5177039e-07
1.534000000,1.1932928e-08,1.5177039e-07
1.535000000,1.1932928e-08,1.5177039e-07
1.536000000,1.1932928e-08,1.5177039e-07
1.537000000,1.1932928e-08,1.5177039e-07
1.538000000,1.1932928e-08,1.5177039e-07
1.539000000,1.1932928e-08,1.5177039e-07
1.540000000,1.0012382e-05,1.5177039e-07
1.541000000,1.0012382e-05,1.0150718e-05
1.542000000,1.0012382e-05,1.0150718e-05
1.543000000,1.0012382e-05,1.0150718e-05
1.544000000,1.0012382e-05,1.0150718e-05
1.545000000,1.0012382e-05,1.0150718e-05
1.546000000,1.1932928e-08,1.5177039e-07
1.547000000,1.1932928e-08,1.5177039e-07
1.548000000,1.1932928e-08,1.5177039e-07
1.549000000,1.1932928e-08,1.5177039e-07
1.550000000,1.1932928e-08,1.5177039e-07
1.551000000,1.1932928e-08,1.5177039e-07
1.552000000,1.1932928e-08,1.5177039e-07
1.553000000,1.1932928e-08,1.5177039e-07
1.554000000,1.1932928e-08,1.5177039e-07
1.555000000,1.1932928e-08,1.5177039e-07
1.556000000,1.1932928e-08,1.5177039e-07
1.557000000,1.1932928e-08,1.5177039e-07
1.558000000,1.1932928e-08,1.5177039e-07
1.559000000,1.1932928e-08,1.5177039e-07
1.560000000,1.1932928e-08,1.5177039e-07
1.561000000,1.1932928e-08,1.5177039e-07
1.562000000,1.1932928e-08,1.5177039e-07
1.563000000,1.1932928e-08,1.5177039e-07
1.564000000,1.1932928e-08,1.5177039e-07
1.565000000,1.1932928e-08,1.5177039e-07
1.566000000,1.1932928e-08,1.5177039e-07
1.567000000,1.1932928e-08,1.5177039e-07
1.568000000,1.1932928e-08,1.5177039e-07
1.569000000,1.1932928e-08,1.5177039e-07
1.570000000,1.1932928e-08,1.5177039e-07
1.571000000,1.1932928e-08,1.5177039e-07
1.572000000,1.1932928e-08,1.5177039e-07
1.573000000,1.1932928e-08,1.5177039e-07
1.574000000,1.1932928e-08,1.5177039e-07
1.575000000,1.1932928e-08,1.5177039e-07
1.576000000,1.1932928e-08,1.5177039e-07
1.577000000,1.1932928e-08,1.5177039e-07
1.578000000,1.1932928e-08,1.5177039e-07
1.579000000,1.1932928e-08,1.5177039e-07
1.580000000,1.1932928e-08,1.5177039e-07
1.581000000,1.1932928e-08,1.5177039e-07
1.582000000,1.1932928e-08,1.5177039e-07
1.583000000,1.1932928e-08,1.5177039e-07
1.584000000,1.1932928e-08,1.5177039e-07
1.585000000,1.1932928e-08,1.5177039e-07
1.586000000,1.1932928e-08,1.5177039e-07
1.587000000,1.1932928e-08,1.5177039e-07
1.588000000,1.1932928e-08,1.5177039e-07
1.589000000,1.1932928e-08,1.5177039e-07
1.590000000,1.1932928e-08,1.5177039e-07
1.591000000,1.1932928e-08,1.5177039e-07
1.592000000,1.1932928e-08,1.5177039e-07
1.593000000,1.1932928e-08,1.5177039e-07
1.594000000,1.1932928e-08,1.5177039e-07
1.595000000,1.1932928e-08,1.5177039e-07
1.596000000,1.1932928e-08,1.5177039e-07
1.597000000,1.1932928e-08,1.5177039e-07
1.598000000,1.1932928e-08,1.5177039e-07
1.599000000,1.1932928e-08,1.5177039e-07
1.600000000,1.1932928e-08,1.5177039e-07
1.601000000,1.1932928e-08,1.5177039e-07
1.602000000,1.1932928e-08,1.5177039e-07
1.603000000,1.1932928e-08,1.5177039e-07
1.604000000,1.1932928e-08,1.5177039e-07
1.605000000,1.1932928e-08,1.5177039e-07
1.606000000,1.1932928e-08,1.5177039e-07
1.607000000,1.1932928e-08,1.5177039e-07
1.608000000,1.1932928e-08,1.5177039e-07
1.609000000,1.1932928e-08,1.5177039e-07
1.610000000,1.1932928e-08,1.5177039e-07
1.611000000,1.1932928e-08,1.5177039e-07
1.612000000,1.1932928e-08,1.5177039e-07
1.613000000,1.1932928e-08,1.5177039e-07
1.614000000,1.1932928e-08,1.5177039e-07
1.615000000,1.1932928e-08,1.5177039e-07
1.616000000,1.1932928e-08,1.5177039e-07
1.617000000,1.1932928e-08,1.5177039e-07
1.618000000,1.1932928e-08,1.5177039e-07
1.619000000,1.1932928e-08,1.5177039e-07
1.620000000,1.1932928e-08,1.5177039e-07
1.621000000,1.1932928e-08,1.5177039e-07
1.622000000,1.1932928e-08,1.5177039e-07
1.623000000,1.1932928e-08,1.5177039e-07
1.624000000,1.1932928e-08,1.5177039e-07
1.625000000,1.1932928e-08,1.5177039e-07
1.626000000,1.1932928e-08,1.5177039e-07
1.627000000,1.1932928e-08,1.5177039e-07
1.628000000,1.1932928e-08,1.5177039e-07
1.629000000,1.1932928e-08,1.5177039e-07
1.630000000,1.1932928e-08,1.5177039e-07
1.631000000,1.1932928e-08,1.5177039e-07
1.632000000,1.1932928e-08,1.5177039e-07
1.633000000,1.1932928e-08,1.5177039e-07
1.634000000,1.1932928e-08,1.5177039e-07
1.635000000,1.1932928e-08,1.5177039e-07
1.636000000,1.1932928e-08,1.5177039e-07
1.637000000,1.1932928e-08,1.5177039e-07
1.638000000,1.1932928e-08,1.5177039e-07
1.639000000,1.1932928e-08,1.5177039e-07
1.640000000,1.1932928e-08,1.5177039e-07
1.641000000,1.1932928e-08,1.5177039e-07
1.642000000,1.1932928e-08,1.5177039e-07
1.643000000,1.1932928e-08,1.5177039e-07
1.644000000,1.1932928e-08,1.5177039e-07
1.645000000,1.1932928e-08,1.5177039e-07
1.646000000,1.1932928e-08,1.5177039e-07
1.647000000,1.1932928e-08,1.5177039e-07
1.648000000,1.1932928e-08,1.5177039e-07
1.649000000,1.1932928e-08,1.5177039e-07
1.650000000,1.1932928e-08,1.5177039e-07
1.651000000,1.1932928e-08,1.5177039e-07
1.652000000,1.1932928e-08,1.5177039e-07
1.653000000,1.1932928e-08,1.5177039e-07
1.654000000,1.1932928e-08,1.5177039e-07
1.655000000,1.1932928e-08,1.5177039e-07
1.656000000,1.1932928e-08,1.5177039e-07
1.657000000,1.1932928e-08,1.5177039e-07
1.658000000,1.1932928e-08,1.5177039e-07
1.659000000,1.1932928e-08,1.5177039e-07
1.660000000,1.1932928e-08,1.5177039e-07
1.661000000,1.1932928e-08,1.5177039e-07
1.662000000,1.1932928e-08,1.5177039e-07
1.663000000,1.1932928e-08,1.5177039e-07
1.664000000,1.1932928e-08,1.5177039e-07
1.665000000,1.1932928e-08,1.5177039e-07
1.666000000,1.1932928e-08,-9.8480168e-06
1.667000000,-9.9876443e-06,-9.8480168e-06
1.668000000,-9.9876443e-06,-9.8480168e-06
1.669000000,-9.9876443e-06,-9.8480168e-06
1.670000000,-9.9876443e-06,-9.8480168e-06
1.671000000,-9.9876443e-06,-9.8480168e-06
1.672000000,-9.9876443e-06,-9.8480168e-06
1.673000000,-9.9876443e-06,-9.8480168e-06
1.674000000,1.1932928e-08,-9.8480168e-06
1.675000000,1.1932928e-08,1.5177039e-07
1.676000000,1.1932928e-08,1.5177039e-07
1.677000000,1.1932928e-08,1.5177039e-07
1.678000000,1.1932928e-08,1.5177039e-07
1.679000000,1.1932928e-08,1.5177039e-07
1.680000000,1.1932928e-08,1.5177039e-07
1.681000000,1.0012382e-05,1.0150718e-05
1.682000000,1.0012382e-05,1.0150718e-05
1.683000000,1.0012382e-05,1.0150718e-05
1.684000000,1.0012382e-05,1.0150718e-05
1.685000000,1.0012382e-05,1.0150718e-05
1.686000000,1.0012382e-05,1.0150718e-05
1.687000000,1.0012382e-05,1.0150718e-05
1.688000000,1.0012382e-05,1.0150718e-05
1.689000000,1.0012382e-05,1.0150718e-05
1.690000000,1.0012382e-05,1.0150718e-05
1.691000000,1.0012382e-05,1.0150718e-05
1.692000000,1.0012382e-05,1.0150718e-05
1.693000000,1.0012382e-05,1.0150718e-05
1.694000000,1.0012382e-05,1.0150718e-05
1.695000000,1.0012382e-05,1.0150718e-05
1.696000000,1.1932928e-08,1.5177039e-07
1.697000000,1.1932928e-08,1.5177039e-07
1.698000000,1.1932928e-08,1.5177039e-07
1.699000000,1.1932928e-08,1.5177039e-07
1.700000000,1.1932928e-08,1.5177039e-07
1.701000000,1.1932928e-08,1.5177039e-07
1.702000000,1.1932928e-08,1.5177039e-07
1.703000000,1.1932928e-08,1.5177039e-07
1.704000000,1.1932928e-08,1.5177039e-07
1.705000000,1.1932928e-08,1.5177039e-07
1.706000000,1.1932928e-08,1.5177039e-07
1.707000000,1.1932928e-08,1.5177039e-07
1.708000000,1.1932928e-08,1.5177039e-07
1.709000000,1.1932928e-08,1.5177039e-07
1.710000000,1.1932928e-08,1.5177039e-07
1.711000000,1.1932928e-08,1.5177039e-07
1.712000000,1.1932928e-08,1.5177039e-07
1.713000000,1.1932928e-08,1.5177039e-07
1.714000000,1.1932928e-08,1.5177039e-07
1.715000000,1.1932928e-08,1.5177039e-07
1.716000000,1.1932928e-08,1.5177039e-07
1.717000000,1.1932928e-08,1.5177039e-07
1.718000000,1.1932928e-08,1.5177039e-07
1.719000000,1.1932928e-08,1.5177039e-07
1.720000000,1.1932928e-08,1.5177039e-07
1.721000000,1.1932928e-08,1.5177039e-07
1.722000000,1.1932928e-08,1.5177039e-07
1.723000000,1.1932928e-08,1.5177039e-07
1.724000000,1.1932928e-08,1.5177039e-07
1.725000000,1.1932928e-08,1.5177039e-07
1.726000000,1.1932928e-08,1.5177039e-07
1.727000000,1.1932928e-08,1.5177039e-07
1.728000000,1.1932928e-08,1.5177039e-07
1.729000000,1.1932928e-08,1.5177039e-07
1.730000000,1.1932928e-08,1.5177039e-07
1.731000000,1.1932928e-08,1.5177039e-07
1.732000000,1.1932928e-08,1.5177039e-07
1.733000000,1.1932928e-08,1.5177039e-07
1.734000000,1.1932928e-08,1.5177039e-07
1.735000000,1.1932928e-08,1.5177039e-07
1.736000000,1.1932928e-08,1.5177039e-07
1.737000000,1.1932928e-08,1.5177039e-07
1.738000000,1.1932928e-08,1.5177039e-07
1.739000000,1.1932928e-08,1.5177039e-07
1.740000000,1.1932928e-08,1.5177039e-07
1.741000000,1.1932928e-08,1.5177039e-07
1.742000000,1.1932928e-08,1.5177039e-07
1.743000000,1.1932928e-08,1.5177039e-07
1.744000000,1.1932928e-08,1.5177039e-07
1.745000000,1.1932928e-08,-9.8480168e-06
1.746000000,-9.9876443e-06,-9.8480168e-06
1.747000000,-9.9876443e-06,-9.8480168e-06
1.748000000,-9.9876443e-06,-9.8480168e-06
1.749000000,-9.9876443e-06,-9.8480168e-06
1.750000000,-9.9876443e-06,-9.8480168e-06
1.751000000,-9.9876443e-06,-9.8480168e-06
1.752000000,-9.9876443e-06,-9.8480168e-06
1.753000000,-9.9876443e-06,-9.8480168e-06
1.754000000,-9.9876443e-06,-9.8480168e-06
1.755000000,1.1932928e-08,1.5177039e-07
1.756000000,1.1932928e-08,1.5177039e-07
1.757000000,1.1932928e-08,1.5177039e-07
1.758000000,1.1932928e-08,1.5177039e-07
1.759000000,1.1932928e-08,1.5177039e-07
1.760000000,1.1932928e-08,1.5177039e-07
1.761000000,1.0012382e-05,1.0150718e-05
1.762000000,1.0012382e-05,1.0150718e-05
1.763000000,1.0012382e-05,1.0150718e-05
1.764000000,1.0012382e-05,1.0150718e-05
1.765000000,1.0012382e-05,1.0150718e-05
1.766000000,1.0012382e-05,1.0150718e-05
1.767000000,1.0012382e-05,1.0150718e-05
1.768000000,1.0012382e-05,1.0150718e-05
1.769000000,1.0012382e-05,1.0150718e-05
1.770000000,1.0012382e-05,1.0150718e-05
1.771000000,1.0012382e-05,1.0150718e-05
1.772000000,1.0012382e-05,1.0150718e-05
1.773000000,1.0012382e-05,1.0150718e-05
1.774000000,1.0012382e-05,1.0150718e-05
1.775000000,1.0012382e-05,1.0150718e-05
1.776000000,1.1932928e-08,1.5177039e-07
1.777000000,1.1932928e-08,1.5177039e-07
1.778000000,1.1932928e-08,1.5177039e-07
1.779000000,1.1932928e-08,1.5177039e-07
1.780000000,1.1932928e-08,1.5177039e-07
1.781000000,1.1932928e-08,1.5177039e-07
1.782000000,1.1932928e-08,1.5177039e-07
1.783000000,1.1932928e-08,1.5177039e-07
1.784000000,1.1932928e-08,1.5177039e-07
1.785000000,1.1932928e-08,1.5177039e-07
1.786000000,1.1932928e-08,1.5177039e-07
1.787000000,1.1932928e-08,1.5177039e-07
1.788000000,1.1932928e-08,1.5177039e-07
1.789000000,1.1932928e-08,1.5177039e-07
1.790000000,1.1932928e-08,1.5177039e-07
1.791000000,1.1932928e-08,1.5177039e-07
1.792000000,1.1932928e-08,1.5177039e-07
1.793000000,1.1932928e-08,1.5177039e-07
1.794000000,1.1932928e-08,1.5177039e-07
1.795000000,1.1932928e-08,1.5177039e-07
1.796000000,1.1932928e-08,1.5177039e-07
1.797000000,1.1932928e-08,1.5177039e-07
1.798000000,1.1932928e-08,1.5177039e-07
1.799000000,1.1932928e-08,1.5177039e-07
1.800000000,1.1932928e-08,1.5177039e-07
1.801000000,1.1932928e-08,1.5177039e-07
1.802000000,1.1932928e-08,1.5177039e-07
1.803000000,1.1932928e-08,1.5177039e-07
1.804000000,1.1932928e-08,1.5177039e-07
1.805000000,1.1932928e-08,1.5177039e-07
1.806000000,1.1932928e-08,1.5177039e-07
1.807000000,1.1932928e-08,1.5177039e-07
1.808000000,1.1932928e-08,1.5177039e-07
1.809000000,1.1932928e-08,1.5177039e-07
1.810000000,1.1932928e-08,1.5177039e-07
1.811000000,1.1932928e-08,1.5177039e-07
1.812000000,1.1932928e-08,1.5177039e-07
1.813000000,1.1932928e-08,1.5177039e-07
1.814000000,1.1932928e-08,1.5177039e-07
1.815000000,1.1932928e-08,1.5177039e-07
1.816000000,1.1932928e-08,1.5177039e-07
1.817000000,1.1932928e-08,1.5177039e-07
1.818000000,1.1932928e-08,1.5177039e-07
1.819000000,1.1932928e-08,1.5177039e-07
1.820000000,1.1932928e-08,1.5177039e-07
1.821000000,1.1932928e-08,1.5177039e-07
1.822000000,1.1932928e-08,1.5177039e-07
1.823000000,1.1932928e-08,1.5177039e-07
1.824000000,1.1932928e-08,1.5177039e-07
1.825000000,-9.9876443e-06,-9.8480168e-06
1.826000000,-9.9876443e-06,-9.8480168e-06
1.827000000,-9.9876443e-06,-9.8480168e-06
1.828000000,-9.9876443e-06,-9.8480168e-06
1.829000000,-9.9876443e-06,-9.8480168e-06
1.830000000,-9.9876443e-06,-9.8480168e-06
1.831000000,-9.9876443e-06,-9.8480168e-06
1.832000000,-9.9876443e-06,-9.8480168e-06
1.833000000,-9.9876443e-06,-9.8480168e-06
1.834000000,-9.9876443e-06,-9.8480168e-06
1.835000000,1.1932928e-08,1.5177039e-07
1.836000000,1.1932928e-08,1.5177039e-07
1.837000000,1.1932928e-08,1.5177039e-07
1.838000000,1.1932928e-08,1.5177039e-07
1.839000000,1.1932928e-08,1.5177039e-07
1.840000000,1.1932928e-08,1.5177039e-07
1.841000000,1.0012382e-05,1.0150718e-05
1.842000000,1.0012382e-05,1.0150718e-05
1.843000000,1.0012382e-05,1.0150718e-05
1.844000000,1.0012382e-05,1.0150718e-05
1.845000000,1.0012382e-05,1.0150718e-05
1.846000000,1.0012382e-05,1.0150718e-05
1.847000000,1.0012382e-05,1.0150718e-05
1.848000000,1.0012382e-05,1.0150718e-05
1.849000000,1.0012382e-05,1.0150718e-05
1.850000000,1.0012382e-05,1.0150718e-05
1.851000000,1.0012382e-05,1.0150718e-05
1.852000000,1.0012382e-05,1.0150718e-05
1.853000000,1.0012382e-05,1.0150718e-05
1.854000000,1.0012382e-05,1.0150718e-05
1.855000000,1.0012382e-05,1.0150718e-05
1.856000000,1.1932928e-08,1.5177039e-07
1.857000000,1.1932928e-08,1.5177039e-07
1.858000000,1.1932928e-08,1.5177039e-07
1.859000000,1.1932928e-08,1.5177039e-07
1.860000000,1.1932928e-08,1.5177039e-07
1.861000000,1.1932928e-08,1.5177039e-07
1.862000000,1.1932928e-08,1.5177039e-07
1.863000000,1.1932928e-08,1.5177039e-07
1.864000000,1.1932928e-08,1.5177039e-07
1.865000000,1.1932928e-08,1.5177039e-07
1.866000000,1.1932928e-08,1.5177039e-07
1.867000000,1.1932928e-08,1.5177039e-07
1.868000000,1.1932928e-08,1.5177039e-07
1.869000000,1.1932928e-08,1.5177039e-07
1.870000000,1.1932928e-08,1.5177039e-07
1.871000000,1.1932928e-08,1.5177039e-07
1.872000000,1.1932928e-08,1.5177039e-07
1.873000000,1.1932928e-08,1.5177039e-07
1.874000000,1.1932928e-08,1.5177039e-07
1.875000000,1.1932928e-08,1.5177039e-07
1.876000000,1.1932928e-08,1.5177039e-07
1.877000000,1.1932928e-08,1.5177039e-07
1.878000000,1.1932928e-08,1.5177039e-07
1.879000000,1.1932928e-08,1.5177039e-07
1.880000000,1.1932928e-08,1.5177039e-07
1.881000000,1.1932928e-08,1.5177039e-07
1.882000000,1.1932928e-08,1.5177039e-07
1.883000000,1.1932928e-08,1.5177039e-07
1.884000000,1.1932928e-08,1.5177039e-07
1.885000000,1.1932928e-08,1.5177039e-07
1.886000000,1.1932928e-08,-9.8480168e-06
1.887000000,-9.9876443e-06,-9.8480168e-06
1.888000000,-9.9876443e-06,-9.8480168e-06
1.889000000,-9.9876443e-06,-9.8480168e-06
1.890000000,-9.9876443e-06,-9.8480168e-06
1.891000000,-9.9876443e-06,-9.8480168e-06
1.892000000,-9.9876443e-06,-9.8480168e-06
1.893000000,-9.9876443e-06,-9.8480168e-06
1.894000000,1.1932928e-08,1.5177039e-07
1.895000000,1.1932928e-08,1.5177039e-07
1.896000000,1.1932928e-08,1.5177039e-07
1.897000000,1.1932928e-08,1.5177039e-07
1.898000000,1.1932928e-08,1.5177039e-07
1.899000000,1.1932928e-08,1.5177039e-07
1.900000000,1.1932928e-08,1.5177039e-07
1.901000000,1.0012382e-05,1.0150718e-05
1.902000000,1.0012382e-05,1.0150718e-05
1.903000000,1.0012382e-05,1.0150718e-05
1.904000000,1.0012382e-05,1.0150718e-05
1.905000000,1.0012382e-05,1.0150718e-05
1.906000000,1.0012382e-05,1.0150718e-05
1.907000000,1.0012382e-05,1.0150718e-05
1.908000000,1.0012382e-05,1.0150718e-05
1.909000000,1.0012382e-05,1.0150718e-05
1.910000000,1.0012382e-05,1.0150718e-05
1.911000000,1.0012382e-05,1.0150718e-05
1.912000000,1.0012382e-05,1.0150718e-05
1.913000000,1.0012382e-05,1.0150718e-05
1.914000000,1.0012382e-05,1.0150718e-05
1.915000000,1.0012382e-05,1.0150718e-05
1.916000000,1.1932928e-08,1.5177039e-07
1.917000000,1.1932928e-08,1.5177039e-07
1.918000000,1.1932928e-08,1.5177039e-07
1.919000000,1.1932928e-08,1.5177039e-07
1.920000000,1.1932928e-08,1.5177039e-07
1.921000000,1.1932928e-08,1.5177039e-07
1.922000000,1.1932928e-08,1.5177039e-07
1.923000000,1.1932928e-08,1.5177039e-07
1.924000000,1.1932928e-08,1.5177039e-07
1.925000000,1.1932928e-08,1.5177039e-07
1.926000000,1.1932928e-08,1.5177039e-07
1.927000000,1.1932928e-08,1.5177039e-07
1.928000000,1.1932928e-08,1.5177039e-07
1.929000000,1.1932928e-08,1.5177039e-07
1.930000000,1.1932928e-08,1.5177039e-07
1.931000000,1.1932928e-08,1.5177039e-07
1.932000000,1.1932928e-08,1.5177039e-07
1.933000000,1.1932928e-08,1.5177039e-07
1.934000000,1.1932928e-08,1.5177039e-07
1.935000000,1.1932928e-08,1.5177039e-07
1.936000000,1.1932928e-08,1.5177039e-07
1.937000000,1.1932928e-08,1.5177039e-07
1.938000000,1.1932928e-08,1.5177039e-07
1.939000000,1.1932928e-08,1.5177039e-07
1.940000000,1.1932928e-08,1.5177039e-07
1.941000000,1.1932928e-08,1.5177039e-07
1.942000000,1.1932928e-08,1.5177039e-07
1.943000000,1.1932928e-08,1.5177039e-07
1.944000000,1.1932928e-08,1.5177039e-07
1.945000000,1.1932928e-08,1.5177039e-07
1.946000000,1.1932928e-08,1.5177039e-07
1.947000000,1.1932928e-08,1.5177039e-07
1.948000000,1.1932928e-08,-9.8480168e-06
1.949000000,-9.9876443e-06,-9.8480168e-06
1.950000000,-9.9876443e-06,-9.8480168e-06
1.951000000,-9.9876443e-06,-9.8480168e-06
1.952000000,-9.9876443e-06,-9.8480168e-06
1.953000000,-9.9876443e-06,-9.8480168e-06
1.954000000,1.1932928e-08,1.5177039e-07
1.955000000,1.1932928e-08,1.5177039e-07
1.956000000,1.1932928e-08,1.5177039e-07
1.957000000,1.1932928e-08,1.5177039e-07
1.958000000,1.1932928e-08,1.5177039e-07
1.959000000,1.1932928e-08,1.5177039e-07
1.960000000,1.1932928e-08,1.5177039e-07
1.961000000,1.1932928e-08,1.5177039e-07
1.962000000,1.0012382e-05,1.0150718e-05
1.963000000,1.0012382e-05,1.0150718e-05
1.964000000,1.0012382e-05,1.0150718e-05
1.965000000,1.0012382e-05,1.0150718e-05
1.966000000,1.0012382e-05,1.0150718e-05
1.967000000,1.0012382e-05,1.0150718e-05
1.968000000,1.0012382e-05,1.0150718e-05
1.969000000,1.0012382e-05,1.5177039e-07
1.970000000,1.1932928e-08,1.5177039e-07
1.971000000,1.1932928e-08,1.5177039e-07
1.972000000,1.1932928e-08,1.5177039e-07
1.973000000,1.1932928e-08,1.5177039e-07
1.974000000,1.1932928e-08,1.5177039e-07
1.975000000,1.0012382e-05,1.5177039e-07
1.976000000,1.0012382e-05,1.0150718e-05
1.977000000,1.0012382e-05,1.0150718e-05
1.978000000,1.0012382e-05,1.0150718e-05
1.979000000,1.0012382e-05,1.0150718e-05
1.980000000,1.0012382e-05,1.0150718e-05
1.981000000,1.0012382e-05,1.0150718e-05
1.982000000,1.0012382e-05,1.0150718e-05
1.983000000,1.0012382e-05,1.0150718e-05
1.984000000,1.0012382e-05,1.0150718e-05
1.985000000,1.0012382e-05,1.0150718e-05
1.986000000,1.1932928e-08,1.5177039e-07
1.987000000,1.1932928e-08,1.5177039e-07
1.988000000,1.1932928e-08,1.5177039e-07
1.989000000,1.1932928e-08,1.5177039e-07
1.990000000,1.1932928e-08,1.5177039e-07
1.991000000,1.1932928e-08,1.5177039e-07
1.992000000,1.1932928e-08,1.5177039e-07
1.993000000,1.1932928e-08,-9.8480168e-06
1.994000000,-9.9876443e-06,-9.8480168e-06
1.995000000,1.1932928e-08,-9.8480168e-06
1.996000000,1.1932928e-08,1.5177039e-07
1.997000000,1.1932928e-08,1.5177039e-07
1.998000000,1.1932928e-08,1.5177039e-07
1.999000000,1.1932928e-08,1.5177039e-07
2.000000000,1.1932928e-08,1.5177039e-07
2.001000000,1.1932928e-08,1.5177039e-07
2.002000000,2.0012829e-05,2.014952e-05
2.003000000,0.0001300174,0.00013013679
2.004000000,0.00036002698,0.00036011011
2.005000000,0.00067004008,0.00067007414
2.006000000,0.00098005298,0.00098003808
2.007000000,0.0013000662,0.0013000011
2.008000000,0.0016200797,0.0016199639
2.009000000,0.0019300926,0.001929928
2.010000000,0.0022501061,0.0022498814
2.011000000,0.0025601191,0.0025598337
2.012000000,0.0029201342,0.002919778
2.013000000,0.0034201553,0.003419701
2.014000000,0.0041401852,0.0041395905
2.015000000,0.0049702199,0.0049694628
2.016000000,0.0058402568,0.0058393287
2.017000000,0.0067002922,0.0066991961
2.018000000,0.0075603286,0.0075590638
2.019000000,0.0084103644,0.0084089329
2.020000000,0.0092703998,0.0092688007
2.021000000,0.010120436,0.01011867
2.022000000,0.011010475,0.011008533
2.023000000,0.012030516,0.012038374
2.024000000,0.013230567,0.01323819
2.025000000,0.014540622,0.014537989
2.026000000,0.015870677,0.015867785
2.027000000,0.017190732,0.017197579
2.028000000,0.018520787,0.018517377
2.029000000,0.019840842,0.019837173
2.030000000,0.021160897,0.021156969
2.031000000,0.022470953,0.022476766
2.032000000,0.02383101,0.023826558
2.033000000,0.025321072,0.025326326
2.034000000,0.027011143,0.027006069
2.035000000,0.028811216,0.028805792
2.036000000,0.030631294,0.030625511
2.037000000,0.03244137,0.032445233
2.038000000,0.034261446,0.034254953
2.039000000,0.036071524,0.036074672
2.040000000,0.037881598,0.037884396
2.041000000,0.039691675,0.039684121
2.042000000,0.041531753,0.041533832
2.043000000,0.043521836,0.043523528
2.044000000,0.045711927,0.04571319
2.045000000,0.048012026,0.048012834
2.046000000,0.050342124,0.050342478
2.047000000,0.052672219,0.052672118
2.048000000,0.054982316,0.054991763
2.049000000,0.057302412,0.057301406
2.050000000,0.059612513,0.059621047
2.051000000,0.061932608,0.061930694
2.052000000,0.064282708,0.064280331
2.053000000,0.066772811,0.066769943
2.054000000,0.069462918,0.069469534
2.055000000,0.072273038,0.072279096
2.056000000,0.075113162,0.075108662
2.057000000,0.07794328,0.077938229
2.058000000,0.0807634,0.080767781
2.059000000,0.08359351,0.083587348
2.060000000,0.086403638,0.086406916
2.061000000,0.08922375,0.089226492
2.062000000,0.092073865,0.092076041
2.063000000,0.095073998,0.095075585
2.064000000,0.098274127,0.098275088
2.065000000,0.10159427,0.10159458
2.066000000,0.10493441,0.10493407
2.067000000,0.10826454,0.10826355
2.068000000,0.11159468,0.11159304
2.069000000,0.11491483,0.11492253
2.070000000,0.11824496,0.11824201
2.071000000,0.1215551,0.1215615
2.072000000,0.12491525,0.124911
2.073000000,0.12841539,0.12842044
2.074000000,0.13211554,0.13211988
2.075000000,0.13593571,0.13593929
2.076000000,0.13978587,0.1397787
2.077000000,0.14362603,0.14361811
2.078000000,0.1474562,0.14744753
2.079000000,0.15127635,0.15127693
2.080000000,0.15510651,0.15510635
2.081000000,0.15891667,0.15891574
2.082000000,0.16277683,0.16277516
2.083000000,0.166777,0.16678455
2.084000000,0.17098717,0.1709839
2.085000000,0.17530735,0.17531322
2.086000000,0.17965755,0.17965257
2.087000000,0.18399774,0.18399189
2.088000000,0.18832789,0.18833123
2.089000000,0.19265808,0.19266056
2.090000000,0.19697826,0.1969799
2.091000000,0.20129845,0.20129924
2.092000000,0.20565863,0.20565856
2.093000000,0.21015882,0.21015786
2.094000000,0.21486902,0.21486714
2.095000000,0.21969922,0.2196964
2.096000000,0.22453941,0.22454564
2.097000000,0.22938962,0.2293849
2.098000000,0.23421982,0.23422416
2.099000000,0.23905002,0.2390534
2.100000000,0.24387023,0.24387267
2.101000000,0.24869043,0.24869193
2.102000000,0.25352064,0.25352117
2.103000000,0.25842085,0.25842044
2.104000000,0.26339105,0.26338965
2.105000000,0.26841125,0.26841891
2.106000000,0.27344146,0.27344811
2.107000000,0.27847168,0.27846733
2.108000000,0.2834819,0.28348657
2.109000000,0.2885021,0.28849581
2.110000000,0.2935023,0.29350501
2.111000000,0.2985025,0.29850426
2.112000000,0.30350271,0.30350348
2.113000000,0.30849293,0.30849272
2.114000000,0.31348315,0.31349197
2.115000000,0.31847331,0.31848121
2.116000000,0.32346353,0.3234604
2.117000000,0.32844377,0.32843965
2.118000000,0.33341396,0.33341888
2.119000000,0.33838418,0.33838812
2.120000000,0.34334436,0.34334734
2.121000000,0.34830457,0.34830657
2.122000000,0.35326481,0.35326582
2.123000000,0.35824499,0.35824507
2.124000000,0.36324519,0.3632443
2.125000000,0.36826545,0.36827353
2.126000000,0.37328565,0.37329274
2.127000000,0.37830585,0.37830198
2.128000000,0.38331607,0.38331121
2.129000000,0.38831624,0.38832045
2.130000000,0.39331645,0.39331967
2.131000000,0.39830667,0.39830887
2.132000000,0.40329689,0.40329811
2.133000000,0.40830711,0.40830734
2.134000000,0.41332731,0.41332656
2.135000000,0.41835752,0.41835579
2.136000000,0.42337772,0.42338505
2.137000000,0.42840794,0.42840427
2.138000000,0.43341812,0.43342349
2.139000000,0.43842834,0.43843272
2.140000000,0.44343856,0.44343194
2.141000000,0.44843876,0.44844118
2.142000000,0.453439,0.45343038
2.143000000,0.4584392,0.45843962
2.144000000,0.4634594,0.46345884
2.145000000,0.46848962,0.4684881
2.146000000,0.47350982,0.47350731
2.147000000,0.47853002,0.47852653
2.148000000,0.48354024,0.48354578
2.149000000,0.48855045,0.488545
2.150000000,0.49355066,0.49355423
2.151000000,0.49854088,0.49854344
2.152000000,0.50354105,0.50354266
2.153000000,0.50854129,0.50854194
2.154000000,0.51355147,0.51356113
2.155000000,0.51858169,0.51858038
2.156000000,0.52359194,0.52358961
2.157000000,0.52860212,0.5286088
2.158000000,0.53361231,0.53360808
2.159000000,0.53861254,0.53861731
2.160000000,0.54361278,0.54360652
2.161000000,0.54859293,0.54859573
2.162000000,0.55358315,0.55358499
2.163000000,0.55858338,0.55858421
2.164000000,0.56359357,0.56359345
2.165000000,0.56861383,0.56861264
2.166000000,0.57362401,0.57362187
2.167000000,0.5786342,0.5786311
2.168000000,0.58363444,0.58363032
2.169000000,0.58863467,0.5886296
2.170000000,0.59362489,0.59361881
2.171000000,0.59860504,0.59860802
2.172000000,0.60359526,0.60359728
2.173000000,0.60858548,0.60858649
2.174000000,0.61359572,0.61359572
2.175000000,0.61860591,0.61860496
2.176000000,0.6236161,0.62361419
2.177000000,0.62862635,0.62862343
2.178000000,0.63362658,0.63362265
2.179000000,0.63861674,0.63862193
2.180000000,0.64360696,0.64361119
2.181000000,0.64858717,0.64859033
2.182000000,0.65356737,0.65356958
2.183000000,0.65855753,0.65855885
2.184000000,0.66356778,0.66356808
2.185000000,0.66857797,0.66857731
2.186000000,0.67358822,0.67358655
2.187000000,0.67858845,0.67859578
2.188000000,0.68358856,0.68358499
2.189000000,0.68857884,0.68858421
2.190000000,0.693569,0.69356346
2.191000000,0.69854927,0.69855267
2.192000000,0.70352948,0.70353192
2.193000000,0.70851964,0.70852119
2.194000000,0.71352988,0.71353036
2.195000000,0.71854007,0.71853966
2.196000000,0.72355032,0.72354883
2.197000000,0.72855055,0.72855812
2.198000000,0.73355073,0.73355734
2.199000000,0.73855096,0.73854655
2.200000000,0.74354112,0.74353576
2.201000000,0.74852139,0.74851501
2.202000000,0.75347155,0.75347424
2.203000000,0.75835174,0.75835347
2.204000000,0.76313198,0.76313275
2.205000000,0.76784211,0.76784199
2.206000000,0.77253234,0.77253133
2.207000000,0.77722251,0.77722061
2.208000000,0.78190279,0.78189987
2.209000000,0.78658289,0.78657913
2.210000000,0.79125315,0.79124844
2.211000000,0.79592329,0.79591769
2.212000000,0.80054355,0.800547
2.213000000,0.80502373,0.80502629
2.214000000,0.80932391,0.80932564
2.215000000,0.8135041,0.81350505
2.216000000,0.81765425,0.81765437
2.217000000,0.82179445,0.82179368
2.218000000,0.8259446,0.82594305
2.219000000,0.83008474,0.83008242
2.220000000,0.83421493,0.83421183
2.221000000,0.83834511,0.83834112
2.222000000,0.84243524,0.84244049
2.223000000,0.84641546,0.84640992
2.224000000,0.85022557,0.85021937
2.225000000,0.85393578,0.85392874
2.226000000,0.85761589,0.85761821
2.227000000,0.86129606,0.86129761
2.228000000,0.86497623,0.86497706
2.229000000,0.86865634,0.86865646
2.230000000,0.87232655,0.8723259
2.231000000,0.87599665,0.8759954
2.232000000,0.87962681,0.87962478
2.233000000,0.88312697,0.88312429
2.234000000,0.88644713,0.88644373
2.235000000,0.88966721,0.88966322
2.236000000,0.89285737,0.89286274
2.237000000,0.89604753,0.8960523
2.238000000,0.89923763,0.89923179
2.239000000,0.90241778,0.9024213
2.240000000,0.90559793,0.90560079
2.241000000,0.90877801,0.90878034
2.242000000,0.91191816,0.91191983
2.243000000,0.9149183,0.91491938
2.244000000,0.91774845,0.91774893
2.245000000,0.9204585,0.9204585
2.246000000,0.92314863,0.9231481
2.247000000,0.92582875,0.92582774
2.248000000,0.92850888,0.92851728
2.249000000,0.93119901,0.93119681
2.250000000,0.93386912,0.93387645
2.251000000,0.93654919,0.93654609
2.252000000,0.9391793,0.93918562
2.253000000,0.94167942,0.94168526
2.254000000,0.94399953,0.94399494
2.255000000,0.94620961,0.94620454
2.256000000,0.9483797,0.94838417
2.257000000,0.95055985,0.95056391
2.258000000,0.95273983,0.95274359
2.259000000,0.95491993,0.95491326
2.260000000,0.95709008,0.95709288
2.261000000,0.95926011,0.95926255
2.262000000,0.96139026,0.96139222
2.263000000,0.96339035,0.9633919
2.264000000,0.96520042,0.96520162
2.265000000,0.96690047,0.96690136
2.266000000,0.96857059,0.96857113
2.267000000,0.97025067,0.97025084
2.268000000,0.97192067,0.97192061
2.269000000,0.97359079,0.97359037
2.270000000,0.97526079,0.97526014
2.271000000,0.97693092,0.97692978
2.272000000,0.97856098,0.97855955
2.273000000,0.98005098,0.98004937
2.274000000,0.98136109,0.98135912
2.275000000,0.9825511,0.98255891
2.276000000,0.9837212,0.98371881
2.277000000,0.9848913,0.98488855
2.278000000,0.98606128,0.98606837
2.279000000,0.98723131,0.98723823
2.280000000,0.98840141,0.98839808
2.281000000,0.98957139,0.98956788
2.282000000,0.99069148,0.99069768
2.283000000,0.99168158,0.99168754
2.284000000,0.99249154,0.99248743
2.285000000,0.99318153,0.99318737
2.286000000,0.9938516,0.99384725
2.287000000,0.99451166,0.99451709
2.288000000,0.99518162,0.99518698
2.289000000,0.9958517,0.99584687
2.290000000,0.99652177,0.99651682
2.291000000,0.99718171,0.99718666
2.292000000,0.99781179,0.99781656
2.293000000,0.9983018,0.99830651
2.294000000,0.99860179,0.99860644
2.295000000,0.99879187,0.99879646
2.296000000,0.99896181,0.99895638
2.297000000,0.99912184,0.99912643
2.298000000,0.99929184,0.99929637
2.299000000,0.99946183,0.99945635
2.300000000,0.99963188,0.99962634
2.301000000,0.99979186,0.99979627
2.302000000,0.99990189,0.99989629
2.303000000,0.99978185,0.9997763
2.304000000,0.99935186,0.99934638
2.305000000,0.99873179,0.9987365
2.306000000,0.9980818,0.99807662
2.307000000,0.99742174,0.99742663
2.308000000,0.99678171,0.99677676
2.309000000,0.99613172,0.99612689
2.310000000,0.99548167,0.99548697
2.311000000,0.99484169,0.99483705
2.312000000,0.99411166,0.99410719
2.313000000,0.99309152,0.99309736
2.314000000,0.99168158,0.99167758
2.315000000,0.99002147,0.99002784
2.316000000,0.98832142,0.98831809
2.317000000,0.98662132,0.98662835
2.318000000,0.98493129,0.98492855
2.319000000,0.98324114,0.98323882
2.320000000,0.98155105,0.98154914
2.321000000,0.97987109,0.97986937
2.322000000,0.97810096,0.9781096
2.323000000,0.97607088,0.97606999
2.324000000,0.97367078,0.9736703
2.325000000,0.97104067,0.97104073
2.326000000,0.9683705,0.96837115
2.327000000,0.96571046,0.96571153
2.328000000,0.96305037,0.96305192
2.329000000,0.96039021,0.96039242
2.330000000,0.95774007,0.95774281
2.331000000,0.95508999,0.95509315
2.332000000,0.95236987,0.95236361
2.333000000,0.94935971,0.94935405
2.334000000,0.94596958,0.94596457
2.335000000,0.94234949,0.94234514
2.336000000,0.93867928,0.9386757
2.337000000,0.93500918,0.93501627
2.338000000,0.93135905,0.93135685
2.339000000,0.92770886,0.92770743
2.340000000,0.92406869,0.92406797
2.341000000,0.92041856,0.9204185
2.342000000,0.91670835,0.91670907
2.343000000,0.91269821,0.9126997
2.344000000,0.90829808,0.9083004
2.345000000,0.90366781,0.90367109
2.346000000,0.89898765,0.89899182
2.347000000,0.89431745,0.89431256
2.348000000,0.88965726,0.88965327
2.349000000,0.88499707,0.88499397
2.350000000,0.88034689,0.88034469
2.351000000,0.87569666,0.87569547
2.352000000,0.87097645,0.87097615
2.353000000,0.86596626,0.86596692
2.354000000,0.86055607,0.86055773
2.355000000,0.8549158,0.8549186
2.356000000,0.84922552,0.84922951
2.357000000,0.84354538,0.84355038
2.358000000,0.83787507,0.83788121
2.359000000,0.83221483,0.83221209
2.360000000,0.8265546,0.826563
2.361000000,0.82090437,0.82091391
2.362000000,0.81518418,0.81518477
2.363000000,0.80916393,0.80916566
2.364000000,0.80274361,0.80274665
2.365000000,0.79609334,0.7960977
2.366000000,0.78939307,0.78938872
2.367000000,0.78270274,0.78269976
2.368000000,0.77602249,0.77603078
2.369000000,0.7693522,0.76935184
2.370000000,0.76269192,0.76269281
2.371000000,0.75604165,0.75603384
2.372000000,0.74931139,0.74930489
2.373000000,0.74228108,0.74228597
2.374000000,0.73486078,0.73485708
2.375000000,0.72719049,0.7271983
2.376000000,0.71948016,0.71948946
2.377000000,0.71178979,0.71179062
2.378000000,0.70409948,0.7041018
2.379000000,0.69642913,0.69643301
2.380000000,0.68875885,0.68876421
2.381000000,0.68109852,0.68110538
2.382000000,0.67336816,0.67336655
2.383000000,0.66533786,0.66533786
2.384000000,0.6569075,0.65690911
2.385000000,0.64823711,0.64824039
2.386000000,0.63951677,0.63952178
2.387000000,0.6308164,0.63081318
2.388000000,0.62212604,0.62212443
2.389000000,0.6134457,0.61344576
2.390000000,0.60477531,0.6047771
2.391000000,0.59611493,0.59611845
2.392000000,0.58745462,0.58744973
2.393000000,0.57875425,0.5787611
2.394000000,0.57001388,0.57001245
2.395000000,0.56123352,0.56123382
2.396000000,0.55246311,0.55246514
2.397000000,0.54370278,0.54370648
2.398000000,0.5349524,0.53495789
2.399000000,0.52621204,0.52620918
2.400000000,0.51748168,0.51748055
2.401000000,0.50876129,0.50876188
2.402000000,0.50011092,0.50010324
2.403000000,0.49168059,0.4916845
2.404000000,0.48357025,0.48356575
2.405000000,0.47563991,0.47563696
2.406000000,0.46775958,0.46775818
2.407000000,0.45987925,0.4598794
2.408000000,0.45200893,0.45201063
2.409000000,0.4441486,0.44414183
2.410000000,0.43628827,0.43629304
2.411000000,0.42844793,0.42844424
2.412000000,0.42064759,0.42064548
2.413000000,0.41299731,0.41299662
2.414000000,0.40553695,0.40553778
2.415000000,0.39820668,0.39819893
2.416000000,0.39089635,0.39090002
2.417000000,0.38360605,0.38360116
2.418000000,0.37630576,0.37631226
2.419000000,0.36902547,0.36902338
2.420000000,0.36175513,0.36175454
2.421000000,0.35448483,0.35448566
2.422000000,0.34727454,0.34726673
2.423000000,0.34022427,0.34022781
2.424000000,0.33341396,0.33341888
2.425000000,0.32674366,0.32673991
2.426000000,0.32011339,0.32011095
2.427000000,0.31348315,0.31348196
2.428000000,0.30685285,0.30685297
2.429000000,0.30024257,0.30024397
2.430000000,0.29363233,0.293625
2.431000000,0.28703204,0.28702602
2.432000000,0.28048176,0.28048703
2.433000000,0.27413151,0.27412802
2.434000000,0.26802126,0.26801896
2.435000000,0.26207098,0.26207986
2.436000000,0.25617075,0.25617078
2.437000000,0.2502605,0.25026169
2.438000000,0.24436025,0.24436259
2.439000000,0.23846999,0.23847349
2.440000000,0.23257977,0.23258442
2.441000000,0.22669952,0.22670531
2.442000000,0.22087926,0.2208762
2.443000000,0.21523902,0.21524706
2.444000000,0.20985879,0.20985791
2.445000000,0.20462857,0.20462871
2.446000000,0.19944836,0.19944951
2.447000000,0.19425815,0.19426031
2.448000000,0.18907793,0.1890811
2.449000000,0.18389772,0.18390191
2.450000000,0.17872749,0.17873269
2.451000000,0.17356728,0.17356351
2.452000000,0.16845706,0.16845429
2.453000000,0.16353688,0.16353503
2.454000000,0.15887667,0.15887576
2.455000000,0.15437648,0.15437645
2.456000000,0.14990629,0.14990714
2.457000000,0.14543611,0.14543782
2.458000000,0.14097592,0.14097852
2.459000000,0.13651574,0.13651921
2.460000000,0.13206555,0.13206989
2.461000000,0.12761535,0.12762056
2.462000000,0.12322517,0.12323125
2.463000000,0.119025,0.11903189
2.464000000,0.11508483,0.11508251
2.465000000,0.11129468,0.11129308
2.466000000,0.10754452,0.10754367
2.467000000,0.10379436,0.10379424
2.468000000,0.10004421,0.10004482
2.469000000,0.096304052,0.096305393
2.470000000,0.09256389,0.092565969
2.471000000,0.088823728,0.088826545
2.472000000,0.085143574,0.085147113
2.473000000,0.081653431,0.081657656
2.474000000,0.078423291,0.078418151
2.475000000,0.075343169,0.075338624
2.476000000,0.072303042,0.0722991
2.477000000,0.069252916,0.069259562
2.478000000,0.066212788,0.06622003
2.479000000,0.063182659,0.063180499
2.480000000,0.060142532,0.060140967
2.481000000,0.057112403,0.057111431
2.482000000,0.054142281,0.05414189
2.483000000,0.051352166,0.051352322
2.484000000,0.048822057,0.048822708
2.485000000,0.04645196,0.046453077
2.486000000,0.044111859,0.044113439
2.487000000,0.041781764,0.041773796
2.488000000,0.039441667,0.039444156
2.489000000,0.037101567,0.037104513
2.490000000,0.034771465,0.034774873
2.491000000,0.03244137,0.032445233
2.492000000,0.030171275,0.03017558
2.493000000,0.028091189,0.028085902
2.494000000,0.026261112,0.026256185
2.495000000,0.024581039,0.024586441
2.496000000,0.022950971,0.022946693
2.497000000,0.021310903,0.021316946
2.498000000,0.019670835,0.019677196
2.499000000,0.018040769,0.018037451
2.500000000,0.0164007,0.016397703
2.501000000,0.014770632,0.014767954
2.502000000,0.013190566,0.013188197
2.503000000,0.011800507,0.011808409
2.504000000,0.010680459,0.010678584
2.505000000,0.0097004184,0.0097087324
2.506000000,0.0087703792,0.008768877
2.507000000,0.0078303404,0.0078290226
2.508000000,0.0068903007,0.0068991655
2.509000000,0.0059602619,0.0059593101
2.510000000,0.0050202222,0.0050194548
2.511000000,0.0040801829,0.0040795994
2.512000000,0.0032001459,0.003199735
2.513000000,0.0025201174,0.0025198397
2.514000000,0.0020900995,0.002089906
2.515000000,0.0018200881,0.0018199406
2.516000000,0.0015800779,0.0015799685
2.517000000,0.0013500685,0.0013499951
2.518000000,0.0011100585,0.0011100231
2.519000000,0.00087004848,0.00087005092
2.520000000,0.00063003827,0.00063007878
2.521000000,0.00039002826,0.00039010652
2.522000000,0.00017001905,0.00017013215
2.523000000,2.0012829e-05,2.014952e-05
2.524000000,-2.998687e-05,-2.9847622e-05
2.525000000,-1.9987294e-05,-1.9847819e-05
2.526000000,-9.9876443e-06,-9.8480168e-06
2.527000000,1.0012382e-05,1.0150718e-05
2.528000000,3.0013205e-05,3.0148323e-05
2.529000000,4.0013652e-05,4.0147126e-05
2.530000000,6.0014478e-05,6.0144877e-05
2.531000000,8.0015299e-05,8.0142483e-05
2.532000000,9.0015747e-05,9.0141431e-05
2.533000000,8.0015299e-05,8.0142483e-05
2.534000000,6.0014478e-05,6.0144877e-05
2.535000000,2.0012829e-05,2.014952e-05
2.536000000,-2.998687e-05,-2.9847622e-05
2.537000000,-6.9985392e-05,-6.9846981e-05
2.538000000,-0.00010998385,-0.00010984634
2.539000000,-0.00014998237,-0.0001498457
2.540000000,-0.00019998039,-0.000199845
2.541000000,-0.00023997892,-0.00023984436
2.542000000,-0.00027997736,-0.00027984372
2.543000000,-0.00029997659,-0.00029984332
2.544000000,-0.00030997625,-0.00030984328
2.545000000,-0.00029997659,-0.00029984332
2.546000000,-0.00028997703,-0.00028984351
2.547000000,-0.00027997736,-0.00027984372
2.548000000,-0.00027997736,-0.00027984372
2.549000000,-0.00026997778,-0.00026984391
2.550000000,-0.00025997814,-0.00025984398
2.551000000,-0.0002499785,-0.00024984416
2.552000000,-0.00023997892,-0.00023984436
2.553000000,-0.00022997927,-0.0002298444
2.554000000,-0.0002199797,-0.0002198446
2.555000000,-0.00019998039,-0.000199845
2.556000000,-0.00017998117,-0.00017984524
2.557000000,-0.00015998195,-0.00015984564
2.558000000,-0.00013998272,-0.00013984588
2.559000000,-0.0001199835,-0.00011984629
2.560000000,-9.9984267e-05,-9.9846533e-05
2.561000000,-7.9984973e-05,-7.9846926e-05
2.562000000,-5.9985745e-05,-5.9847178e-05
2.563000000,-4.9986167e-05,-4.9847375e-05
2.564000000,-2.998687e-05,-2.9847622e-05
2.565000000,-1.9987294e-05,-1.9847819e-05
2.566000000,1.1932928e-08,1.5177039e-07
2.567000000,1.0012382e-05,1.0150718e-05
2.568000000,2.0012829e-05,2.014952e-05
2.569000000,3.0013205e-05,3.0148323e-05
2.570000000,5.001403e-05,5.0146074e-05
2.571000000,6.0014478e-05,6.0144877e-05
2.572000000,7.0014925e-05,7.014368e-05
2.573000000,8.0015299e-05,8.0142483e-05
2.574000000,9.0015747e-05,9.0141431e-05
2.575000000,0.00010001613,0.00010014023
2.576000000,0.00011001658,0.00011013904
2.577000000,0.00012001695,0.00012013799
2.578000000,0.00012001695,0.00012013799
2.579000000,0.0001300174,0.00013013679
2.580000000,0.00014001784,0.00014013558
2.581000000,0.00014001784,0.00014013558
2.582000000,0.00015001823,0.00015013439
2.583000000,0.00016001867,0.00016013334
2.584000000,0.00016001867,0.00016013334
2.585000000,0.00016001867,0.00016013334
2.586000000,0.00016001867,0.00016013334
2.587000000,0.00016001867,0.00016013334
2.588000000,0.00016001867,0.00016013334
2.589000000,0.00016001867,0.00016013334
2.590000000,0.00016001867,0.00016013334
2.591000000,0.00016001867,0.00016013334
2.592000000,0.00016001867,0.00016013334
2.593000000,0.00016001867,0.00016013334
2.594000000,0.00016001867,0.00016013334
2.595000000,0.00016001867,0.00016013334
2.596000000,0.00016001867,0.00016013334
2.597000000,0.00015001823,0.00015013439
2.598000000,0.00015001823,0.00015013439
2.599000000,0.00015001823,0.00015013439
2.600000000,0.00015001823,0.00014013558
2.601000000,0.00014001784,0.00014013558
2.602000000,0.00014001784,0.00014013558
2.603000000,0.00014001784,0.00014013558
2.604000000,0.0001300174,0.00013013679
2.605000000,0.0001300174,0.00013013679
2.606000000,0.00012001695,0.00012013799
2.607000000,0.00012001695,0.00012013799
2.608000000,0.00011001658,0.00011013904
2.609000000,0.00011001658,0.00011013904
2.610000000,0.00010001613,0.00010014023
2.611000000,0.00010001613,9.0141431e-05
2.612000000,9.0015747e-05,9.0141431e-05
2.613000000,8.0015299e-05,8.0142483e-05
2.614000000,8.0015299e-05,8.0142483e-05
2.615000000,8.0015299e-05,7.014368e-05
2.616000000,7.0014925e-05,7.014368e-05
2.617000000,7.0014925e-05,7.014368e-05
2.618000000,6.0014478e-05,6.0144877e-05
2.619000000,6.0014478e-05,6.0144877e-05
2.620000000,5.001403e-05,5.0146074e-05
2.621000000,5.001403e-05,5.0146074e-05
2.622000000,4.0013652e-05,4.0147126e-05
2.623000000,4.0013652e-05,4.0147126e-05
2.624000000,3.0013205e-05,3.0148323e-05
2.625000000,3.0013205e-05,3.0148323e-05
2.626000000,3.0013205e-05,3.0148323e-05
2.627000000,2.0012829e-05,2.014952e-05
2.628000000,2.0012829e-05,2.014952e-05
2.629000000,2.0012829e-05,2.014952e-05
2.630000000,1.0012382e-05,1.0150718e-05
2.631000000,1.0012382e-05,1.0150718e-05
2.632000000,1.0012382e-05,1.0150718e-05
2.633000000,1.1932928e-08,1.5177039e-07
2.634000000,1.1932928e-08,1.5177039e-07
2.635000000,1.1932928e-08,1.5177039e-07
2.636000000,1.1932928e-08,1.5177039e-07
2.637000000,1.1932928e-08,1.5177039e-07
2.638000000,1.1932928e-08,1.5177039e-07
2.639000000,-9.9876443e-06,-9.8480168e-06
2.640000000,-9.9876443e-06,-9.8480168e-06
2.641000000,-9.9876443e-06,-9.8480168e-06
2.642000000,-9.9876443e-06,-9.8480168e-06
2.643000000,-9.9876443e-06,-9.8480168e-06
2.644000000,-9.9876443e-06,-9.8480168e-06
2.645000000,-9.9876443e-06,-9.8480168e-06
2.646000000,-9.9876443e-06,-9.8480168e-06
2.647000000,-9.9876443e-06,-9.8480168e-06
2.648000000,-9.9876443e-06,-1.9847819e-05
2.649000000,-1.9987294e-05,-1.9847819e-05
2.650000000,-1.9987294e-05,-1.9847819e-05
2.651000000,-1.9987294e-05,-1.9847819e-05
2.652000000,-1.9987294e-05,-1.9847819e-05
2.653000000,-1.9987294e-05,-1.9847819e-05
2.654000000,-1.9987294e-05,-1.9847819e-05
2.655000000,-1.9987294e-05,-1.9847819e-05
2.656000000,-1.9987294e-05,-1.9847819e-05
2.657000000,-1.9987294e-05,-1.9847819e-05
2.658000000,-1.9987294e-05,-1.9847819e-05
2.659000000,-1.9987294e-05,-1.9847819e-05
2.660000000,-1.9987294e-05,-1.9847819e-05
2.661000000,-9.9876443e-06,-9.8480168e-06
2.662000000,-9.9876443e-06,-9.8480168e-06
2.663000000,-9.9876443e-06,-9.8480168e-06
2.664000000,-9.9876443e-06,-9.8480168e-06
2.665000000,-9.9876443e-06,-9.8480168e-06
2.666000000,-9.9876443e-06,-9.8480168e-06
2.667000000,-9.9876443e-06,-9.8480168e-06
2.668000000,-9.9876443e-06,-9.8480168e-06
2.669000000,-9.9876443e-06,-9.8480168e-06
2.670000000,-9.9876443e-06,-9.8480168e-06
2.671000000,-9.9876443e-06,-9.8480168e-06
2.672000000,-9.9876443e-06,-9.8480168e-06
2.673000000,-9.9876443e-06,-9.8480168e-06
2.674000000,-9.9876443e-06,-9.8480168e-06
2.675000000,1.1932928e-08,-9.8480168e-06
2.676000000,1.1932928e-08,1.5177039e-07
2.677000000,1.1932928e-08,1.5177039e-07
2.678000000,1.1932928e-08,1.5177039e-07
2.679000000,1.1932928e-08,1.5177039e-07
2.680000000,1.1932928e-08,1.5177039e-07
2.681000000,1.1932928e-08,1.5177039e-07
2.682000000,1.1932928e-08,1.5177039e-07
2.683000000,1.1932928e-08,1.5177039e-07
2.684000000,1.1932928e-08,1.5177039e-07
2.685000000,1.1932928e-08,1.5177039e-07
2.686000000,-9.9876443e-06,-9.8480168e-06
2.687000000,-9.9876443e-06,-9.8480168e-06
2.688000000,-9.9876443e-06,-9.8480168e-06
2.689000000,-9.9876443e-06,-9.8480168e-06
2.690000000,-9.9876443e-06,-9.8480168e-06
2.691000000,-9.9876443e-06,-9.8480168e-06
2.692000000,-9.9876443e-06,-9.8480168e-06
2.693000000,-9.9876443e-06,-9.8480168e-06
2.694000000,-9.9876443e-06,-9.8480168e-06
2.695000000,-9.9876443e-06,-9.8480168e-06
2.696000000,-9.9876443e-06,-9.8480168e-06
2.697000000,1.1932928e-08,1.5177039e-07
2.698000000,1.1932928e-08,1.5177039e-07
2.699000000,1.1932928e-08,1.5177039e-07
2.700000000,1.1932928e-08,1.5177039e-07
2.701000000,1.1932928e-08,1.5177039e-07
2.702000000,1.1932928e-08,1.5177039e-07
2.703000000,1.1932928e-08,1.5177039e-07
2.704000000,1.1932928e-08,1.5177039e-07
2.705000000,1.1932928e-08,1.5177039e-07
2.706000000,1.1932928e-08,1.5177039e-07
2.707000000,1.1932928e-08,1.5177039e-07
2.708000000,1.1932928e-08,1.5177039e-07
2.709000000,1.1932928e-08,1.5177039e-07
2.710000000,1.1932928e-08,1.5177039e-07
2.711000000,1.1932928e-08,1.5177039e-07
2.712000000,1.1932928e-08,1.5177039e-07
2.713000000,1.1932928e-08,1.5177039e-07
2.714000000,1.1932928e-08,1.5177039e-07
2.715000000,1.1932928e-08,1.5177039e-07
2.716000000,1.1932928e-08,1.5177039e-07
2.717000000,1.1932928e-08,1.5177039e-07
2.718000000,1.1932928e-08,1.5177039e-07
2.719000000,1.1932928e-08,1.5177039e-07
2.720000000,1.1932928e-08,1.5177039e-07
2.721000000,1.1932928e-08,1.5177039e-07
2.722000000,1.1932928e-08,1.5177039e-07
2.723000000,1.1932928e-08,1.5177039e-07
2.724000000,1.1932928e-08,1.5177039e-07
2.725000000,1.0012382e-05,1.0150718e-05
2.726000000,1.0012382e-05,1.0150718e-05
2.727000000,1.0012382e-05,1.0150718e-05
2.728000000,1.0012382e-05,1.0150718e-05
2.729000000,1.0012382e-05,1.0150718e-05
2.730000000,1.0012382e-05,1.0150718e-05
2.731000000,1.0012382e-05,1.0150718e-05
2.732000000,1.0012382e-05,1.0150718e-05
2.733000000,1.0012382e-05,1.0150718e-05
2.734000000,1.0012382e-05,1.0150718e-05
2.735000000,1.0012382e-05,1.0150718e-05
2.736000000,1.1932928e-08,1.5177039e-07
2.737000000,1.1932928e-08,1.5177039e-07
2.738000000,1.1932928e-08,1.5177039e-07
2.739000000,1.1932928e-08,1.5177039e-07
2.740000000,1.1932928e-08,1.5177039e-07
2.741000000,1.1932928e-08,1.5177039e-07
2.742000000,1.1932928e-08,1.5177039e-07
2.743000000,1.1932928e-08,1.5177039e-07
2.744000000,1.1932928e-08,1.5177039e-07
2.745000000,1.1932928e-08,1.5177039e-07
2.746000000,1.1932928e-08,1.5177039e-07
2.747000000,1.1932928e-08,1.5177039e-07
2.748000000,1.1932928e-08,1.5177039e-07
2.749000000,1.1932928e-08,1.5177039e-07
2.750000000,1.1932928e-08,1.5177039e-07
2.751000000,1.1932928e-08,1.5177039e-07
2.752000000,1.1932928e-08,1.5177039e-07
2.753000000,1.1932928e-08,1.5177039e-07
2.754000000,1.1932928e-08,1.5177039e-07
2.755000000,1.1932928e-08,1.5177039e-07
2.756000000,1.1932928e-08,1.5177039e-07
2.757000000,1.1932928e-08,1.5177039e-07
2.758000000,1.1932928e-08,1.5177039e-07
2.759000000,1.1932928e-08,1.5177039e-07
2.760000000,1.1932928e-08,1.5177039e-07
2.761000000,1.1932928e-08,1.5177039e-07
2.762000000,1.1932928e-08,1.5177039e-07
2.763000000,1.1932928e-08,1.5177039e-07
2.764000000,1.1932928e-08,1.5177039e-07
2.765000000,1.1932928e-08,1.5177039e-07
2.766000000,1.1932928e-08,1.5177039e-07
2.767000000,1.1932928e-08,1.5177039e-07
2.768000000,1.1932928e-08,1.5177039e-07
2.769000000,1.1932928e-08,1.5177039e-07
2.770000000,1.1932928e-08,1.5177039e-07
2.771000000,1.1932928e-08,1.5177039e-07
2.772000000,1.1932928e-08,1.5177039e-07
2.773000000,1.1932928e-08,1.5177039e-07
2.774000000,1.1932928e-08,1.5177039e-07
2.775000000,1.1932928e-08,1.5177039e-07
2.776000000,1.1932928e-08,1.5177039e-07
2.777000000,1.1932928e-08,1.5177039e-07
2.778000000,1.1932928e-08,1.5177039e-07
2.779000000,1.1932928e-08,1.5177039e-07
2.780000000,1.1932928e-08,1.5177039e-07
2.781000000,1.1932928e-08,1.5177039e-07
2.782000000,1.1932928e-08,1.5177039e-07
2.783000000,1.1932928e-08,1.5177039e-07
2.784000000,1.1932928e-08,1.5177039e-07
2.785000000,1.1932928e-08,1.5177039e-07
2.786000000,1.1932928e-08,1.5177039e-07
2.787000000,1.1932928e-08,1.5177039e-07
2.788000000,1.1932928e-08,1.5177039e-07
2.789000000,1.1932928e-08,1.5177039e-07
2.790000000,1.1932928e-08,1.5177039e-07
2.791000000,1.1932928e-08,1.5177039e-07
2.792000000,1.1932928e-08,1.5177039e-07
2.793000000,1.1932928e-08,1.5177039e-07
2.794000000,1.1932928e-08,1.5177039e-07
2.795000000,1.1932928e-08,1.5177039e-07
2.796000000,1.1932928e-08,1.5177039e-07
2.797000000,1.1932928e-08,1.5177039e-07
2.798000000,1.1932928e-08,1.5177039e-07
2.799000000,1.1932928e-08,1.5177039e-07
2.800000000,1.1932928e-08,1.5177039e-07
2.801000000,1.1932928e-08,1.5177039e-07
2.802000000,1.1932928e-08,1.5177039e-07
2.803000000,1.1932928e-08,1.5177039e-07
2.804000000,1.1932928e-08,-9.8480168e-06
2.805000000,-9.9876443e-06,-9.8480168e-06
2.806000000,-9.9876443e-06,-9.8480168e-06
2.807000000,-9.9876443e-06,-9.8480168e-06
2.808000000,-9.9876443e-06,-9.8480168e-06
2.809000000,-9.9876443e-06,-9.8480168e-06
2.810000000,-9.9876443e-06,-9.8480168e-06
2.811000000,-9.9876443e-06,-9.8480168e-06
2.812000000,-9.9876443e-06,-9.8480168e-06
2.813000000,-9.9876443e-06,-9.8480168e-06
2.814000000,-9.9876443e-06,-9.8480168e-06
2.815000000,1.1932928e-08,1.5177039e-07
2.816000000,1.1932928e-08,1.5177039e-07
2.817000000,1.1932928e-08,1.5177039e-07
2.818000000,1.1932928e-08,1.5177039e-07
2.819000000,1.1932928e-08,1.5177039e-07
2.820000000,1.1932928e-08,1.5177039e-07
2.821000000,1.0012382e-05,1.0150718e-05
2.822000000,1.0012382e-05,1.0150718e-05
2.823000000,1.0012382e-05,1.0150718e-05
2.824000000,1.0012382e-05,1.0150718e-05
2.825000000,1.0012382e-05,1.0150718e-05
2.826000000,1.0012382e-05,1.0150718e-05
2.827000000,1.0012382e-05,1.0150718e-05
2.828000000,1.0012382e-05,1.0150718e-05
2.829000000,1.0012382e-05,1.0150718e-05
2.830000000,1.0012382e-05,1.0150718e-05
2.831000000,1.0012382e-05,1.0150718e-05
2.832000000,1.0012382e-05,1.0150718e-05
2.833000000,1.0012382e-05,1.0150718e-05
2.834000000,1.0012382e-05,1.0150718e-05
2.835000000,1.0012382e-05,1.0150718e-05
2.836000000,1.1932928e-08,1.5177039e-07
2.837000000,1.1932928e-08,1.5177039e-07
2.838000000,1.1932928e-08,1.5177039e-07
2.839000000,1.1932928e-08,1.5177039e-07
2.840000000,1.1932928e-08,1.5177039e-07
2.841000000,1.1932928e-08,1.5177039e-07
2.842000000,1.1932928e-08,1.5177039e-07
2.843000000,1.1932928e-08,1.5177039e-07
2.844000000,1.1932928e-08,1.5177039e-07
2.845000000,1.1932928e-08,1.5177039e-07
2.846000000,1.1932928e-08,1.5177039e-07
2.847000000,1.1932928e-08,1.5177039e-07
2.848000000,1.1932928e-08,1.5177039e-07
2.849000000,1.1932928e-08,1.5177039e-07
2.850000000,1.1932928e-08,1.5177039e-07
2.851000000,1.1932928e-08,1.5177039e-07
2.852000000,1.1932928e-08,1.5177039e-07
2.853000000,1.1932928e-08,1.5177039e-07
2.854000000,1.1932928e-08,1.5177039e-07
2.855000000,1.1932928e-08,1.5177039e-07
2.856000000,1.1932928e-08,1.5177039e-07
2.857000000,1.1932928e-08,1.5177039e-07
2.858000000,1.1932928e-08,1.5177039e-07
2.859000000,1.1932928e-08,1.5177039e-07
2.860000000,1.1932928e-08,1.5177039e-07
2.861000000,1.1932928e-08,1.5177039e-07
2.862000000,1.1932928e-08,1.5177039e-07
2.863000000,1.1932928e-08,1.5177039e-07
2.864000000,1.1932928e-08,1.5177039e-07
2.865000000,1.1932928e-08,1.5177039e-07
2.866000000,1.1932928e-08,1.5177039e-07
2.867000000,1.1932928e-08,1.5177039e-07
2.868000000,1.1932928e-08,1.5177039e-07
2.869000000,1.1932928e-08,1.5177039e-07
2.870000000,1.1932928e-08,1.5177039e-07
2.871000000,1.1932928e-08,1.5177039e-07
2.872000000,1.1932928e-08,1.5177039e-07
2.873000000,1.1932928e-08,1.5177039e-07
2.874000000,1.1932928e-08,1.5177039e-07
2.875000000,1.1932928e-08,1.5177039e-07
2.876000000,1.1932928e-08,1.5177039e-07
2.877000000,1.1932928e-08,1.5177039e-07
2.878000000,1.1932928e-08,1.5177039e-07
2.879000000,1.1932928e-08,1.5177039e-07
2.880000000,1.1932928e-08,1.5177039e-07
2.881000000,1.1932928e-08,1.5177039e-07
2.882000000,1.1932928e-08,1.5177039e-07
2.883000000,1.1932928e-08,1.5177039e-07
2.884000000,-9.9876443e-06,-9.8480168e-06
2.885000000,-9.9876443e-06,-9.8480168e-06
2.886000000,-9.9876443e-06,-9.8480168e-06
2.887000000,-9.9876443e-06,-9.8480168e-06
2.888000000,-9.9876443e-06,-9.8480168e-06
2.889000000,-9.9876443e-06,-9.8480168e-06
2.890000000,-9.9876443e-06,-9.8480168e-06
2.891000000,-9.9876443e-06,-9.8480168e-06
2.892000000,-9.9876443e-06,-9.8480168e-06
2.893000000,-9.9876443e-06,-9.8480168e-06
2.894000000,-9.9876443e-06,-9.8480168e-06
2.895000000,1.1932928e-08,1.5177039e-07
2.896000000,1.1932928e-08,1.5177039e-07
2.897000000,1.1932928e-08,1.5177039e-07
2.898000000,1.1932928e-08,1.5177039e-07
2.899000000,1.1932928e-08,1.5177039e-07
2.900000000,1.1932928e-08,1.5177039e-07
2.901000000,1.0012382e-05,1.5177039e-07
2.902000000,1.0012382e-05,1.0150718e-05
2.903000000,1.0012382e-05,1.0150718e-05
2.904000000,1.0012382e-05,1.0150718e-05
2.905000000,1.0012382e-05,1.0150718e-05
2.906000000,1.0012382e-05,1.0150718e-05
2.907000000,1.0012382e-05,1.0150718e-05
2.908000000,1.0012382e-05,1.0150718e-05
2.909000000,1.0012382e-05,1.0150718e-05
2.910000000,1.0012382e-05,1.0150718e-05
2.911000000,1.0012382e-05,1.0150718e-05
2.912000000,1.0012382e-05,1.0150718e-05
2.913000000,1.0012382e-05,1.0150718e-05
2.914000000,1.0012382e-05,1.0150718e-05
2.915000000,1.0012382e-05,1.5177039e-07
2.916000000,1.1932928e-08,1.5177039e-07
2.917000000,1.1932928e-08,1.5177039e-07
2.918000000,1.1932928e-08,1.5177039e-07
2.919000000,1.1932928e-08,1.5177039e-07
2.920000000,1.1932928e-08,1.5177039e-07
2.921000000,1.1932928e-08,1.5177039e-07
2.922000000,1.1932928e-08,1.5177039e-07
2.923000000,1.1932928e-08,1.5177039e-07
2.924000000,1.1932928e-08,1.5177039e-07
2.925000000,1.1932928e-08,1.5177039e-07
2.926000000,1.1932928e-08,1.5177039e-07
2.927000000,1.1932928e-08,1.5177039e-07
2.928000000,1.1932928e-08,1.5177039e-07
2.929000000,1.1932928e-08,1.5177039e-07
2.930000000,1.1932928e-08,1.5177039e-07
2.931000000,1.1932928e-08,1.5177039e-07
2.932000000,1.1932928e-08,1.5177039e-07
2.933000000,1.1932928e-08,1.5177039e-07
2.934000000,1.1932928e-08,1.5177039e-07
2.935000000,1.1932928e-08,1.5177039e-07
2.936000000,1.1932928e-08,1.5177039e-07
2.937000000,1.1932928e-08,1.5177039e-07
2.938000000,1.1932928e-08,1.5177039e-07
2.939000000,1.1932928e-08,1.5177039e-07
2.940000000,1.1932928e-08,1.5177039e-07
2.941000000,1.1932928e-08,1.5177039e-07
2.942000000,1.1932928e-08,1.5177039e-07
2.943000000,1.1932928e-08,1.5177039e-07
2.944000000,1.1932928e-08,1.5177039e-07
2.945000000,1.1932928e-08,-9.8480168e-06
2.946000000,-9.9876443e-06,-9.8480168e-06
2.947000000,-9.9876443e-06,-9.8480168e-06
2.948000000,-9.9876443e-06,-9.8480168e-06
2.949000000,-9.9876443e-06,-9.8480168e-06
2.950000000,-9.9876443e-06,-9.8480168e-06
2.951000000,-9.9876443e-06,-9.8480168e-06
2.952000000,-9.9876443e-06,-9.8480168e-06
2.953000000,-9.9876443e-06,-9.8480168e-06
2.954000000,-9.9876443e-06,-9.8480168e-06
2.955000000,1.1932928e-08,1.5177039e-07
2.956000000,1.1932928e-08,1.5177039e-07
2.957000000,1.1932928e-08,1.5177039e-07
2.958000000,1.1932928e-08,1.5177039e-07
2.959000000,1.1932928e-08,1.5177039e-07
2.960000000,1.1932928e-08,1.5177039e-07
2.961000000,1.0012382e-05,1.0150718e-05
2.962000000,1.0012382e-05,1.0150718e-05
2.963000000,1.0012382e-05,1.0150718e-05
2.964000000,1.0012382e-05,1.0150718e-05
2.965000000,1.0012382e-05,1.0150718e-05
2.966000000,1.0012382e-05,1.0150718e-05
2.967000000,1.0012382e-05,1.0150718e-05
2.968000000,1.0012382e-05,1.0150718e-05
2.969000000,1.0012382e-05,1.0150718e-05
2.970000000,1.0012382e-05,1.0150718e-05
2.971000000,1.0012382e-05,1.0150718e-05
2.972000000,1.0012382e-05,1.0150718e-05
2.973000000,1.0012382e-05,1.0150718e-05
2.974000000,1.0012382e-05,1.0150718e-05
2.975000000,1.0012382e-05,1.0150718e-05
2.976000000,1.1932928e-08,1.5177039e-07
2.977000000,1.1932928e-08,1.5177039e-07
2.978000000,1.1932928e-08,1.5177039e-07
2.979000000,1.1932928e-08,1.5177039e-07
2.980000000,1.1932928e-08,1.5177039e-07
2.981000000,1.1932928e-08,1.5177039e-07
2.982000000,1.1932928e-08,1.5177039e-07
2.983000000,1.1932928e-08,1.5177039e-07
2.984000000,1.1932928e-08,1.5177039e-07
2.985000000,1.1932928e-08,1.5177039e-07
2.986000000,1.1932928e-08,1.5177039e-07
2.987000000,1.1932928e-08,1.5177039e-07
2.988000000,1.1932928e-08,1.5177039e-07
2.989000000,1.1932928e-08,1.5177039e-07
2.990000000,1.1932928e-08,1.5177039e-07
2.991000000,1.1932928e-08,1.5177039e-07
2.992000000,1.1932928e-08,1.5177039e-07
2.993000000,1.1932928e-08,1.5177039e-07
2.994000000,1.1932928e-08,1.5177039e-07
2.995000000,1.1932928e-08,1.5177039e-07
2.996000000,1.1932928e-08,1.5177039e-07
2.997000000,1.1932928e-08,1.5177039e-07
2.998000000,1.1932928e-08,1.5177039e-07
2.999000000,1.1932928e-08,1.5177039e-07
