source:ccrt device:rst-3 epoch:1673450415 timeOrigin:1.349000000 firstSampleTime:0.149000000 period:0.001000000 name:I_MEAS type:analog,I_MEAS_(A),I_MEAS_FLTR_(A),I_MEAS_EXTR_(A),I_ERR_(A) STEP
0.149000000,6.6094245e-22,6.6094245e-22,6.8626309e-22,6.6094245e-22
0.150000000,6.7714376e-22,6.7714376e-22,6.989346e-22,6.7714376e-22
0.151000000,6.907463e-22,6.907463e-22,7.091385e-22,6.907463e-22
0.152000000,6.9613095e-22,6.9613095e-22,7.1153199e-22,6.9613095e-22
0.153000000,6.9244893e-22,6.9244893e-22,7.0530799e-22,6.9244893e-22
0.154000000,6.85051e-22,6.85051e-22,6.9555413e-22,6.85051e-22
0.155000000,6.7753473e-22,6.7753473e-22,6.8569123e-22,6.7753473e-22
0.156000000,6.7022789e-22,6.7022789e-22,6.7603077e-22,6.7022789e-22
0.157000000,6.629739e-22,6.629739e-22,6.6642399e-22,6.629739e-22
0.158000000,6.5572486e-22,6.5572486e-22,6.5682533e-22,6.5572486e-22
0.159000000,6.4848148e-22,6.4848148e-22,6.4723541e-22,6.4848148e-22
0.160000000,6.4124683e-22,6.4124683e-22,6.3765715e-22,6.4124683e-22
0.161000000,6.3274839e-22,6.3274839e-22,6.2694858e-22,6.3274839e-22
0.162000000,6.2021219e-22,6.2021219e-22,6.1262029e-22,6.2021219e-22
0.163000000,6.0321919e-22,6.0321919e-22,5.942962e-22,6.0321919e-22
0.164000000,5.8441083e-22,5.8441083e-22,5.7434683e-22,5.8441083e-22
0.165000000,5.6556298e-22,5.6556298e-22,5.543658e-22,5.6556298e-22
0.166000000,5.4683747e-22,5.4683747e-22,5.3449842e-22,5.4683747e-22
0.167000000,5.2815689e-22,5.2815689e-22,5.1467517e-22,5.2815689e-22
0.168000000,5.0949767e-22,5.0949767e-22,4.9487494e-22,5.0949767e-22
0.169000000,4.908601e-22,4.908601e-22,4.7509798e-22,4.908601e-22
0.170000000,4.7224561e-22,4.7224561e-22,4.5534551e-22,4.7224561e-22
0.171000000,4.5340499e-22,4.5340499e-22,4.3547066e-22,4.5340499e-22
0.172000000,4.3379438e-22,4.3379438e-22,4.151526e-22,4.3379438e-22
0.173000000,4.1333161e-22,4.1333161e-22,3.9434286e-22,4.1333161e-22
0.174000000,3.9253443e-22,3.9253443e-22,3.7334679e-22,3.9253443e-22
0.175000000,3.7175089e-22,3.7175089e-22,3.5236968e-22,3.7175089e-22
0.176000000,3.5101268e-22,3.5101268e-22,3.314302e-22,3.5101268e-22
0.177000000,3.3030464e-22,3.3030464e-22,3.1051943e-22,3.3030464e-22
0.178000000,3.096221e-22,3.096221e-22,2.8963453e-22,3.096221e-22
0.179000000,2.8896505e-22,2.8896505e-22,2.6877554e-22,2.8896505e-22
0.180000000,2.6833383e-22,2.6833383e-22,2.4794264e-22,2.6833383e-22
0.181000000,2.4810721e-22,2.4810721e-22,2.2757743e-22,2.4810721e-22
0.182000000,2.2911063e-22,2.2911063e-22,2.0864225e-22,2.2911063e-22
0.183000000,2.1146878e-22,2.1146878e-22,1.912825e-22,2.1146878e-22
0.184000000,1.9439553e-22,1.9439553e-22,1.7458165e-22,1.9439553e-22
0.185000000,1.7736239e-22,1.7736239e-22,1.5792354e-22,1.7736239e-22
0.186000000,1.6032114e-22,1.6032114e-22,1.4125198e-22,1.6032114e-22
0.187000000,1.4329477e-22,1.4329477e-22,1.2459378e-22,1.4329477e-22
0.188000000,1.2629028e-22,1.2629028e-22,1.079571e-22,1.2629028e-22
0.189000000,1.0930756e-22,1.0930756e-22,9.1341807e-23,1.0930756e-22
0.190000000,9.2346102e-23,9.2346102e-23,7.4747329e-23,9.2346102e-23
0.191000000,7.6046816e-23,7.6046816e-23,5.8840775e-23,7.6046816e-23
0.192000000,6.1806381e-23,6.1806381e-23,4.5075954e-23,6.1806381e-23
0.193000000,4.9835764e-23,4.9835764e-23,3.3672461e-23,4.9835764e-23
0.194000000,3.8804888e-23,3.8804888e-23,2.3245823e-23,3.8804888e-23
0.195000000,2.7819524e-23,2.7819524e-23,1.2865237e-23,2.7819524e-23
0.196000000,1.6798173e-23,1.6798173e-23,2.4458759e-24,1.6798173e-23
0.197000000,5.7797326e-24,5.7797326e-24,-7.9717708e-24,5.7797326e-24
0.198000000,-5.2239138e-24,-5.2239138e-24,-1.8375333e-23,-5.2239138e-24
0.199000000,-1.6212969e-23,-1.6212969e-23,-2.8765024e-23,-1.6212969e-23
0.200000000,-2.7188198e-23,-2.7188198e-23,-3.9141628e-23,-2.7188198e-23
0.201000000,-3.7511601e-23,-3.7511601e-23,-4.8867443e-23,-3.7511601e-23
0.202000000,-4.5792637e-23,-4.5792637e-23,-5.6552536e-23,-4.5792637e-23
0.203000000,-5.182127e-23,-5.182127e-23,-6.1986973e-23,-5.182127e-23
0.204000000,-5.6921679e-23,-5.6921679e-23,-6.6494335e-23,-5.6921679e-23
0.205000000,-6.1984127e-23,-6.1984127e-23,-7.0964494e-23,-6.1984127e-23
0.206000000,-6.7089749e-23,-6.7089749e-23,-7.547854e-23,-6.7089749e-23
0.207000000,-7.2199806e-23,-7.2199806e-23,-7.999776e-23,-7.2199806e-23
0.208000000,-7.7302455e-23,-7.7302455e-23,-8.4510309e-23,-7.7302455e-23
0.209000000,-8.2397897e-23,-8.2397897e-23,-8.901639e-23,-8.2397897e-23
0.210000000,-8.7486883e-23,-8.7486883e-23,-9.3516753e-23,-8.7486883e-23
0.211000000,-9.2081253e-23,-9.2081253e-23,-9.7538221e-23,-9.2081253e-23
0.212000000,-9.5117005e-23,-9.5117005e-23,-1.0004944e-22,-9.5117005e-23
0.213000000,-9.6433412e-23,-9.6433412e-23,-1.0089463e-22,-9.6433412e-23
0.214000000,-9.7043693e-23,-9.7043693e-23,-1.010559e-22,-9.7043693e-23
0.215000000,-9.7629047e-23,-9.7629047e-23,-1.0119354e-22,-9.7629047e-23
0.216000000,-9.825154e-23,-9.825154e-23,-1.0136772e-22,-9.825154e-23
0.217000000,-9.8881537e-23,-9.8881537e-23,-1.0154971e-22,-9.8881537e-23
0.218000000,-9.9509963e-23,-9.9509963e-23,-1.0173071e-22,-9.9509963e-23
0.219000000,-1.0013697e-22,-1.0013697e-22,-1.0191088e-22,-1.0013697e-22
0.220000000,-1.0076312e-22,-1.0076312e-22,-1.0209074e-22,-1.0076312e-22
0.221000000,-1.0109721e-22,-1.0109721e-22,-1.0199881e-22,-1.0109721e-22
0.222000000,-1.0050441e-22,-1.0050441e-22,-1.0104315e-22,-1.0050441e-22
0.223000000,-9.8888839e-23,-9.8888839e-23,-9.9134383e-23,-9.8888839e-23
0.224000000,-9.6854985e-23,-9.6854985e-23,-9.6836116e-23,-9.6854985e-23
0.225000000,-9.4809261e-23,-9.4809261e-23,-9.4527284e-23,-9.4809261e-23
0.226000000,-9.2788685e-23,-9.2788685e-23,-9.2242402e-23,-9.2788685e-23
0.227000000,-9.0775575e-23,-9.0775575e-23,-8.9964979e-23,-9.0775575e-23
0.228000000,-8.8764516e-23,-8.8764516e-23,-8.7689974e-23,-8.8764516e-23
0.229000000,-8.6755597e-23,-8.6755597e-23,-8.5417461e-23,-8.6755597e-23
0.230000000,-8.4749145e-23,-8.4749145e-23,-8.3147744e-23,-8.4749145e-23
0.231000000,-8.2631356e-23,-8.2631356e-23,-8.0784771e-23,-8.2631356e-23
0.232000000,-8.0154118e-23,-8.0154118e-23,-7.8119091e-23,-8.0154118e-23
0.233000000,-7.7279957e-23,-7.7279957e-23,-7.5119071e-23,-7.7279957e-23
0.234000000,-7.4245108e-23,-7.4245108e-23,-7.1984119e-23,-7.4245108e-23
0.235000000,-7.1208429e-23,-7.1208429e-23,-6.8848347e-23,-7.1208429e-23
0.236000000,-6.8184372e-23,-6.8184372e-23,-6.572394e-23,-6.8184372e-23
0.237000000,-6.516602e-23,-6.516602e-23,-6.2605062e-23,-6.516602e-23
0.238000000,-6.2151265e-23,-6.2151265e-23,-5.9489938e-23,-6.2151265e-23
0.239000000,-5.9140132e-23,-5.9140132e-23,-5.6378589e-23,-5.9140132e-23
0.240000000,-5.6132742e-23,-5.6132742e-23,-5.3271102e-23,-5.6132742e-23
0.241000000,-2.0912654e-09,-2.0912654e-09,-2.3003919e-09,1.2809895e-08
0.242000000,-1.0830733e-08,-1.0830733e-08,-1.1913806e-08,1.8971598e-08
0.243000000,-2.6906738e-08,-2.6906738e-08,-2.9597413e-08,1.7796738e-08
0.244000000,-4.5979849e-08,-4.5979849e-08,-5.0577835e-08,1.3624796e-08
0.245000000,-6.513261e-08,-6.513261e-08,-7.1645871e-08,9.3731956e-09
0.246000000,-8.409922e-08,-8.409922e-08,-9.250914e-08,5.3077471e-09
0.247000000,-1.0300667e-07,-1.0300667e-07,-1.1330734e-07,1.3014656e-09
0.248000000,-1.2189382e-07,-1.2189382e-07,-1.3408319e-07,-2.684537e-09
0.249000000,-1.4076009e-07,-1.4076009e-07,-1.548361e-07,-6.6496284e-09
0.250000000,-1.5960306e-07,-1.5960306e-07,-1.7556337e-07,-1.0591449e-08
0.251000000,0.0070169456,0.0070169456,0.0077186404,-0.042982917
0.252000000,0.036341723,0.036341723,0.039975896,-0.063658148
0.253000000,0.090283841,0.090283841,0.099312231,-0.059715986
0.254000000,0.15428258,0.15428258,0.16971084,-0.045717254
0.255000000,0.21854861,0.21854861,0.24040347,-0.03145124
0.256000000,0.28219,0.28219,0.31040901,-0.017809868
0.257000000,0.34563288,0.34563288,0.38019618,-0.0043669939
0.258000000,0.40900764,0.40900764,0.44990841,0.0090078115
0.259000000,0.47231233,0.47231233,0.51954359,0.022312433
0.260000000,0.53553891,0.53553891,0.58909285,0.035539061
0.261000000,0.59694296,0.59694296,0.65593559,0.046943069
0.262000000,0.65272683,0.65272683,0.71436536,0.052726924
0.263000000,0.702317,0.702317,0.7635203,0.052317142
0.264000000,0.7493304,0.7493304,0.80883521,0.049330533
0.265000000,0.79619873,0.79619873,0.85396373,0.046198845
0.266000000,0.8431437,0.8431437,0.89923906,0.043143809
0.267000000,0.89005959,0.89005959,0.94450223,0.040059686
0.268000000,0.93691397,0.93691397,0.98970461,0.03691411
0.269000000,0.98370755,0.98370755,1.034847,0.033707619
0.270000000,1.0304424,1.0304424,1.0799327,0.030442476
0.271000000,1.0771013,1.0771013,1.1251172,0.027101398
0.272000000,1.1236463,1.1236463,1.1707382,0.023646355
0.273000000,1.1700712,1.1700712,1.2168467,0.020071387
0.274000000,1.2164129,1.2164129,1.2631211,0.016413093
0.275000000,1.2626958,1.2626958,1.3093455,0.012695909
0.276000000,1.3089222,1.3089222,1.3555,0.0089222193
0.277000000,1.3550911,1.3550911,1.4015943,0.0050911903
0.278000000,1.4012023,1.4012023,1.4476311,0.0012024641
0.279000000,1.4472558,1.4472558,1.4936106,-0.0027440786
0.280000000,1.4932518,1.4932518,1.5395328,-0.0067480803
0.281000000,1.5395827,1.5395827,1.5858309,-0.010417223
0.282000000,1.5871043,1.5871043,1.6334502,-0.012895584
0.283000000,1.6359458,1.6359458,1.6825333,-0.01405406
0.284000000,1.6852926,1.6852926,1.7321806,-0.014707208
0.285000000,1.7345972,1.7345972,1.7817874,-0.015402675
0.286000000,1.7838097,1.7838097,1.8312984,-0.01619029
0.287000000,1.8329539,1.8329539,1.8807402,-0.017045975
0.288000000,1.8820374,1.8820374,1.9301209,-0.017962456
0.289000000,1.9310601,1.9310601,1.9794405,-0.018939853
0.290000000,1.9800215,1.9800215,2.0286984,-0.019978404
0.291000000,2.0291631,2.0291631,2.0781212,-0.02083683
0.292000000,2.0790112,2.0790112,2.128202,-0.020988703
0.293000000,2.1296453,2.1296453,2.1790154,-0.020354509
0.294000000,2.1805644,2.1805644,2.2300916,-0.019435406
0.295000000,2.231432,2.231432,2.2811155,-0.018567801
0.296000000,2.282217,2.282217,2.3320577,-0.017782688
0.297000000,2.3329346,2.3329346,2.3829327,-0.017065287
0.298000000,2.3835893,2.3835893,2.4337444,-0.016410589
0.299000000,2.4341807,2.4341807,2.4844928,-0.015819073
0.300000000,2.4847093,2.4847093,2.5351779,-0.015290499
0.301000000,2.5352843,2.5352843,2.5858965,-0.014715433
0.302000000,2.5861452,2.5861452,2.6368585,-0.013854742
0.303000000,2.6373284,2.6373284,2.6880968,-0.012671232
0.304000000,2.6886058,2.6886058,2.7394099,-0.011394024
0.305000000,2.7398248,2.7398248,2.790664,-0.01017499
0.306000000,2.790971,2.790971,2.8418465,-0.0090286732
0.307000000,2.8420517,2.8420517,2.8929634,-0.0079481602
0.308000000,2.8930686,2.8930686,2.9440165,-0.0069310665
0.309000000,2.9440219,2.9440219,2.9950061,-0.005977869
0.310000000,2.9949114,2.9949114,3.0459316,-0.0050883293
0.311000000,3.0457866,3.0457866,3.0968368,-0.0042130947
0.312000000,3.0967548,3.0967548,3.1478157,-0.0032451153
0.313000000,3.1478324,3.1478324,3.1988828,-0.0021672249
0.314000000,3.1989172,3.1989172,3.2499483,-0.0010826588
0.315000000,3.2499404,3.2499404,3.300952,-5.9366226e-05
0.316000000,3.3008962,3.3008962,3.3518887,0.00089645386
0.317000000,3.3517873,3.3517873,3.402761,0.0017874241
0.318000000,3.4026148,3.4026148,3.4535694,0.0026152134
0.319000000,3.4533792,3.4533792,3.5043149,0.0033793449
0.320000000,3.5040798,3.5040798,3.5549967,0.0040800571
0.321000000,3.554745,3.554745,3.6056409,0.004745245
0.322000000,3.6054358,3.6054358,3.6563039,0.0054359436
0.323000000,3.6561613,3.6561613,3.7069943,0.0061616898
0.324000000,3.7068639,3.7068639,3.7576585,0.0068640709
0.325000000,3.7575045,3.7575045,3.8082609,0.0075047016
0.326000000,3.8080792,3.8080792,3.8587976,0.0080795288
0.327000000,3.8585906,3.8585906,3.909271,0.0085906982
0.328000000,3.909039,3.909039,3.9596815,0.009039402
0.329000000,3.959424,3.959424,4.0100284,0.0094242096
0.330000000,4.0097466,4.0097466,4.0603132,0.0097467899
0.331000000,4.0600333,4.0600333,4.1105623,0.010033607
0.332000000,4.1103468,4.1103468,4.1608381,0.010346889
0.333000000,4.1606946,4.1606946,4.2111478,0.010694981
0.334000000,4.21102,4.21102,4.2614355,0.011020184
0.335000000,4.2612839,4.2612839,4.3116617,0.011283875
0.336000000,4.3114829,4.3114829,4.3618231,0.011483192
0.337000000,4.3616185,4.3616185,4.4119215,0.011618614
0.338000000,4.4116917,4.4116917,4.461957,0.01169157
0.339000000,4.4617019,4.4617019,4.5119295,0.011702061
0.340000000,4.5116501,4.5116501,4.5618405,0.011650085
0.341000000,4.5615745,4.5615745,4.6117287,0.011574268
0.342000000,4.6115599,4.6115599,4.6616812,0.011559963
0.343000000,4.6616192,4.6616192,4.7117119,0.011619091
0.344000000,4.7116718,4.7116718,4.7617369,0.01167202
0.345000000,4.7616639,4.7616639,4.8117018,0.011663914
0.346000000,4.8115907,4.8115907,4.8616014,0.011590481
0.347000000,4.861454,4.861454,4.9114375,0.011454105
0.348000000,4.9112554,4.9112554,4.9612117,0.011255264
0.349000000,4.9609942,4.9609942,5.0109234,0.010994434
0.350000000,5.0106711,5.0106711,5.0605731,0.010671139
0.351000000,5.0603395,5.0603395,5.1102161,0.01033926
0.352000000,5.1101136,5.1101136,5.1599689,0.010113716
0.353000000,5.1600122,5.1600122,5.2098517,0.01001215
0.354000000,5.2099247,5.2099247,5.2597499,0.0099248886
0.355000000,5.2597775,5.2597775,5.3095889,0.0097775459
0.356000000,5.3095641,5.3095641,5.3593616,0.0095639229
0.357000000,5.3592873,5.3592873,5.4090705,0.0092873573
0.358000000,5.4089484,5.4089484,5.4587178,0.0089483261
0.359000000,5.4585476,5.4585476,5.5083027,0.0085477829
0.360000000,5.5080848,5.5080848,5.557826,0.008084774
0.361000000,5.5576258,5.5576258,5.6073542,0.0076255798
0.362000000,5.6073122,5.6073122,5.657032,0.0073122978
0.363000000,5.6571665,5.6571665,5.706882,0.0071663857
0.364000000,5.7070527,5.7070527,5.7567654,0.0070528984
0.365000000,5.7568798,5.7568798,5.8065901,0.0068798065
0.366000000,5.8066397,5.8066397,5.8563471,0.0066394806
0.367000000,5.8563361,5.8563361,5.9060411,0.0063362122
0.368000000,5.9059706,5.9059706,5.9556727,0.0059704781
0.369000000,5.955543,5.955543,6.0052423,0.005543232
0.370000000,6.0050535,6.0050535,6.0547504,0.0050535202
0.371000000,6.0545754,6.0545754,6.1042705,0.0045752525
0.372000000,6.1042695,6.1042695,6.153965,0.0042695999
0.373000000,6.15416,6.15416,6.2038593,0.0041599274
0.374000000,6.2040939,6.2040939,6.253798,0.0040941238
0.375000000,6.2539692,6.2539692,6.303678,0.0039691925
0.376000000,6.3037763,6.3037763,6.3534899,0.0037760735
0.377000000,6.3535199,6.3535199,6.4032383,0.0035200119
0.378000000,6.4032016,6.4032016,6.4529247,0.0032014847
0.379000000,6.4528213,6.4528213,6.5025492,0.0028214455
0.380000000,6.5023789,6.5023789,6.5521116,0.0023789406
0.381000000,6.5519519,6.5519519,6.6016893,0.0019516945
0.382000000,6.6017089,6.6017089,6.651453,0.0017089844
0.383000000,6.6516747,6.6516747,6.701426,0.0016746521
0.384000000,6.7016902,6.7016902,6.7514496,0.0016903877
0.385000000,6.7516465,6.7516465,6.8014145,0.0016465187
0.386000000,6.8015347,6.8015347,6.8513107,0.001534462
0.387000000,6.8513594,6.8513594,6.9011431,0.0013594627
0.388000000,6.9011216,6.9011216,6.9509134,0.001121521
0.389000000,6.9508219,6.9508219,7.0006218,0.00082206726
0.390000000,7.0004597,7.0004597,7.0502677,0.00045967102
0.391000000,7.0501132,7.0501132,7.0999293,0.00011301041
0.392000000,7.0999517,7.0999517,7.149776,-4.8160553e-05
0.393000000,7.1500006,7.1500006,7.1998329,4.7683716e-07
0.394000000,7.200099,7.200099,7.2499399,9.9182129e-05
0.395000000,7.2501388,7.2501388,7.2999878,0.00013875961
0.396000000,7.3001099,7.3001099,7.3499675,0.00010967255
0.397000000,7.3500171,7.3500171,7.3998828,1.7166138e-05
0.398000000,7.3998618,7.3998618,7.4497356,-0.00013828278
0.399000000,7.4496446,7.4496446,7.499527,-0.00035524368
0.400000000,7.4993653,7.4993653,7.5492558,-0.00063467026
0.401000000,7.5490994,7.5490994,7.5989981,-0.00090074539
0.402000000,7.5990129,7.5990129,7.6489191,-0.00098705292
0.403000000,7.6491303,7.6491303,7.6990433,-0.00086975098
0.404000000,7.699295,7.699295,7.7492146,-0.00070476532
0.405000000,7.7494006,7.7494006,7.7993269,-0.00059938431
0.406000000,7.7994375,7.7994375,7.8493705,-0.00056266785
0.407000000,7.849411,7.849411,7.8993502,-0.00058889389
0.408000000,7.8993216,7.8993216,7.9492674,-0.00067853928
0.409000000,7.9491701,7.9491701,7.9991226,-0.00082969666
0.410000000,7.9989567,7.9989567,8.0489159,-0.0010433197
0.411000000,8.0487537,8.0487537,8.0987196,-0.0012464523
0.412000000,8.0987225,8.0987225,8.1486931,-0.0012779236
0.413000000,8.1488857,8.1488857,8.1988611,-0.0011138916
0.414000000,8.1990929,8.1990929,8.249073,-0.00090694427
0.415000000,8.2492399,8.2492399,8.2992239,-0.00076007843
0.416000000,8.2993193,8.2993193,8.3493071,-0.00068092346
0.417000000,8.3493347,8.3493347,8.3993273,-0.00066566467
0.418000000,8.3992872,8.3992872,8.4492836,-0.00071239471
0.419000000,8.4491777,8.4491777,8.4991789,-0.00082206726
0.420000000,8.4990063,8.4990063,8.5490112,-0.00099372864
0.421000000,8.5488434,8.5488434,8.5988522,-0.0011568069
0.422000000,8.5988436,8.5988436,8.6488552,-0.0011568069
0.423000000,8.6490297,8.6490297,8.6990442,-0.00096988678
0.424000000,8.6992569,8.6992569,8.7492733,-0.00074291229
0.425000000,8.749424,8.749424,8.7994423,-0.00057601929
0.426000000,8.7995224,8.7995224,8.8495426,-0.00047779083
0.427000000,8.8495579,8.8495579,8.89958,-0.00044250488
0.428000000,8.8995304,8.8995304,8.9495544,-0.00046920776
0.429000000,8.94944,8.94944,8.9994659,-0.00055980682
0.430000000,8.9992886,8.9992886,9.0493164,-0.00071144104
0.431000000,9.0491428,9.0491428,9.0991726,-0.00085735321
0.432000000,9.0991554,9.0991554,9.1491871,-0.00084495544
0.433000000,9.1493473,9.1493473,9.199379,-0.00065231323
0.434000000,9.1995764,9.1995764,9.249608,-0.0004234314
0.435000000,9.2497463,9.2497463,9.2997789,-0.00025367737
0.436000000,9.2998486,9.2998486,9.3498812,-0.00015163422
0.437000000,9.3498869,9.3498869,9.3999195,-0.00011348724
0.438000000,9.3998623,9.3998623,9.4498959,-0.0001373291
0.439000000,9.4497757,9.4497757,9.4998093,-0.00022411346
0.440000000,9.4996262,9.4996262,9.5496597,-0.00037384033
0.441000000,9.5494833,9.5494833,9.5995178,-0.00051689148
0.442000000,9.599493,9.599493,9.6495266,-0.00050735474
0.443000000,9.6496801,9.6496801,9.6997137,-0.0003194809
0.444000000,9.6999025,9.6999025,9.7499352,-9.727478e-05
0.445000000,9.7500658,9.7500658,9.8000975,6.5803528e-05
0.446000000,9.8001604,9.8001604,9.8501911,0.00016021729
0.447000000,9.8501921,9.8501921,9.9002228,0.00019168854
0.448000000,9.9001608,9.9001608,9.9501905,0.00016117096
0.449000000,9.9500675,9.9500675,10.000096,6.7710876e-05
0.450000000,9.9999113,9.9999113,10.04994,-8.8691711e-05
0.451000000,10.042744,10.042744,10.09207,0.042743683
0.452000000,10.06342,10.06342,10.109813,0.063420296
0.453000000,10.059655,10.059655,10.100653,0.05965519
0.454000000,10.045869,10.045869,10.080465,0.045868874
0.455000000,10.031755,10.031755,10.059924,0.031755447
0.456000000,10.018199,10.018199,10.040003,0.018198967
0.457000000,10.004776,10.004776,10.020234,0.004776001
0.458000000,9.9913597,9.9913597,10.00048,-0.0086402893
0.459000000,9.977951,9.977951,9.9807396,-0.02204895
0.460000000,9.9645586,9.9645586,9.9610233,-0.035441399
0.461000000,9.9529934,9.9529934,9.9440184,-0.047006607
0.462000000,9.9472017,9.9472017,9.9355803,-0.052798271
0.463000000,9.9477787,9.9477787,9.9365911,-0.052221298
0.464000000,9.9509668,9.9509668,9.9414768,-0.049033165
0.465000000,9.9542408,9.9542408,9.9464893,-0.045759201
0.466000000,9.9573708,9.9573708,9.9512882,-0.042629242
0.467000000,9.9604654,9.9604654,9.9560347,-0.039534569
0.468000000,9.9635592,9.9635592,9.9607792,-0.036440849
0.469000000,9.9666519,9.9666519,9.9655218,-0.033348083
0.470000000,9.9697409,9.9697409,9.9702587,-0.030259132
0.471000000,9.9729109,9.9729109,9.9749031,-0.027089119
0.472000000,9.9763489,9.9763489,9.9792633,-0.023651123
0.473000000,9.9800835,9.9800835,9.9833136,-0.019916534
0.474000000,9.9839363,9.9839363,9.9872332,-0.01606369
0.475000000,9.9877882,9.9877882,9.9911432,-0.0122118
0.476000000,9.9916286,9.9916286,9.9950542,-0.0083713531
0.477000000,9.9954634,9.9954634,9.9989634,-0.0045366287
0.478000000,9.9992933,9.9992933,10.002867,-0.00070667267
0.479000000,10.003119,10.003119,10.006765,0.003118515
0.480000000,10.006939,10.006939,10.010658,0.0069389343
0.481000000,10.01043,10.01043,10.014182,0.010430336
0.482000000,10.012886,10.012886,10.01654,0.012886047
0.483000000,10.014199,10.014199,10.017611,0.014199257
0.484000000,10.015042,10.015042,10.018153,0.015042305
0.485000000,10.015869,10.015869,10.018677,0.015869141
0.486000000,10.01672,10.01672,10.019229,0.016719818
0.487000000,10.017575,10.017575,10.019787,0.017575264
0.488000000,10.018428,10.018428,10.020341,0.018427849
0.489000000,10.01928,10.01928,10.020897,0.019280434
0.490000000,10.020131,10.020131,10.02145,0.020131111
0.491000000,10.020808,10.020808,10.021846,0.02080822
0.492000000,10.020934,10.020934,10.021739,0.020934105
0.493000000,10.020453,10.020453,10.021079,0.020453453
0.494000000,10.019723,10.019723,10.020191,0.019722939
0.495000000,10.018986,10.018986,10.019298,0.018985748
0.496000000,10.018262,10.018262,10.018416,0.018261909
0.497000000,10.017543,10.017543,10.01754,0.017542839
0.498000000,10.016824,10.016824,10.016664,0.016823769
0.499000000,10.016106,10.016106,10.015788,0.016105652
0.500000000,10.015388,10.015388,10.014915,0.015388489
0.501000000,10.01463,10.01463,10.014012,0.014630318
0.502000000,10.013743,10.013743,10.013024,0.013743401
0.503000000,10.012713,10.012713,10.011939,0.012713432
0.504000000,10.011625,10.011625,10.010816,0.01162529
0.505000000,10.010537,10.010537,10.009692,0.010537148
0.506000000,10.009453,10.009453,10.008572,0.0094528198
0.507000000,10.008371,10.008371,10.007454,0.0083713531
0.508000000,10.007291,10.007291,10.006337,0.0072908401
0.509000000,10.006211,10.006211,10.005222,0.0062112808
0.510000000,10.005133,10.005133,10.004107,0.0051326752
0.511000000,10.004076,10.004076,10.00302,0.004076004
0.512000000,10.003083,10.003083,10.002017,0.0030832291
0.513000000,10.00216,10.00216,10.001104,0.0021600723
0.514000000,10.001266,10.001266,10.000231,0.0012664795
0.515000000,10.000375,10.000375,9.9993582,0.00037479401
0.516000000,9.9994831,9.9994831,9.9984865,-0.00051689148
0.517000000,9.9985914,9.9985914,9.9976139,-0.001408577
0.518000000,9.9977016,9.9977016,9.9967422,-0.0022983551
0.519000000,9.9968128,9.9968128,9.9958725,-0.0031871796
0.520000000,9.9959249,9.9959249,9.9950047,-0.0040750504
0.521000000,9.995079,9.995079,9.9941797,-0.0049209595
0.522000000,9.9943647,9.9943647,9.9934931,-0.0056352615
0.523000000,9.9937954,9.9937954,9.992959,-0.0062046051
0.524000000,9.9932861,9.9932861,9.9924879,-0.0067138672
0.525000000,9.9927797,9.9927797,9.9920206,-0.0072202682
0.526000000,9.9922705,9.9922705,9.9915495,-0.0077295303
0.527000000,9.9917603,9.9917603,9.9910774,-0.0082397461
0.528000000,9.9912519,9.9912519,9.9906073,-0.0087480545
0.529000000,9.9907436,9.9907436,9.9901371,-0.0092563629
0.530000000,9.9902363,9.9902363,9.9896679,-0.0097637177
0.531000000,9.9897709,9.9897709,9.9892397,-0.010229111
0.532000000,9.9894361,9.9894361,9.9889431,-0.01056385
0.533000000,9.9892454,9.9892454,9.9887905,-0.010754585
0.534000000,9.9891138,9.9891138,9.9886971,-0.010886192
0.535000000,9.9889851,9.9889851,9.9886055,-0.011014938
0.536000000,9.9888535,9.9888535,9.988512,-0.011146545
0.537000000,9.9887209,9.9887209,9.9884167,-0.011279106
0.538000000,9.9885883,9.9885883,9.9883223,-0.011411667
0.539000000,9.9884567,9.9884567,9.9882278,-0.011543274
0.540000000,9.9883251,9.9883251,9.9881344,-0.011674881
0.541000000,9.9882231,9.9882231,9.9880686,-0.011776924
0.542000000,9.9882174,9.9882174,9.9880953,-0.011782646
0.543000000,9.9883165,9.9883165,9.988224,-0.011683464
0.544000000,9.9884586,9.9884586,9.9883928,-0.011541367
0.545000000,9.9886026,9.9886026,9.9885645,-0.011397362
0.546000000,9.9887438,9.9887438,9.9887333,-0.011256218
0.547000000,9.988884,9.988884,9.9889002,-0.011116028
0.548000000,9.9890242,9.9890242,9.989068,-0.010975838
0.549000000,9.9891644,9.9891644,9.9892349,-0.010835648
0.550000000,9.9893045,9.9893045,9.9894028,-0.010695457
0.551000000,9.98946,9.98946,9.989584,-0.010540009
0.552000000,9.989666,9.989666,9.9898109,-0.010334015
0.553000000,9.9899263,9.9899263,9.9900875,-0.010073662
0.554000000,9.9902086,9.9902086,9.9903831,-0.0097913742
0.555000000,9.9904928,9.9904928,9.9906816,-0.0095071793
0.556000000,9.9907742,9.9907742,9.9909773,-0.0092258453
0.557000000,9.9910555,9.9910555,9.9912729,-0.0089445114
0.558000000,9.9913359,9.9913359,9.9915667,-0.0086641312
0.559000000,9.9916162,9.9916162,9.9918613,-0.0083837509
0.560000000,9.9918966,9.9918966,9.992156,-0.0081033707
0.561000000,9.9921799,9.9921799,9.9924517,-0.0078201294
0.562000000,9.9924736,9.9924736,9.992754,-0.0075263977
0.563000000,9.9927788,9.9927788,9.9930639,-0.0072212219
0.564000000,9.9930878,9.9930878,9.9933758,-0.0069122314
0.565000000,9.9933977,9.9933977,9.9936886,-0.0066022873
0.566000000,9.9937057,9.9937057,9.9939985,-0.0062942505
0.567000000,9.9940138,9.9940138,9.9943094,-0.0059862137
0.568000000,9.9943218,9.9943218,9.9946203,-0.0056781769
0.569000000,9.9946299,9.9946299,9.9949312,-0.0053701401
0.570000000,9.9949369,9.9949369,9.9952412,-0.0050630569
0.571000000,9.9952383,9.9952383,9.9955444,-0.0047616959
0.572000000,9.9955244,9.9955244,9.9958296,-0.0044755936
0.573000000,9.9957933,9.9957933,9.9960947,-0.0042066574
0.574000000,9.9960546,9.9960546,9.9963512,-0.0039453506
0.575000000,9.996316,9.996316,9.9966078,-0.0036840439
0.576000000,9.9965773,9.9965773,9.9968643,-0.0034227371
0.577000000,9.9968376,9.9968376,9.9971199,-0.003162384
0.578000000,9.997098,9.997098,9.9973755,-0.0029020309
0.579000000,9.9973583,9.9973583,9.9976311,-0.0026416779
0.580000000,9.9976187,9.9976187,9.9978867,-0.0023813248
0.581000000,9.9978695,9.9978695,9.9981327,-0.0021305084
0.582000000,9.9980927,9.9980927,9.9983492,-0.0019073486
0.583000000,9.9982853,9.9982853,9.9985342,-0.0017147064
0.584000000,9.9984646,9.9984646,9.9987059,-0.0015354156
0.585000000,9.9986439,9.9986439,9.9988766,-0.0013561249
0.586000000,9.9988241,9.9988241,9.9990492,-0.0011758804
0.587000000,9.9990034,9.9990034,9.9992199,-0.00099658966
0.588000000,9.9991837,9.9991837,9.9993925,-0.00081634521
0.589000000,9.999362,9.999362,9.9995623,-0.00063800812
0.590000000,9.9995413,9.9995413,9.9997339,-0.00045871735
0.591000000,9.999711,9.999711,9.9998951,-0.00028896332
0.592000000,9.9998522,9.9998522,10.000029,-0.00014781952
0.593000000,9.9999619,9.9999619,10.00013,-3.8146973e-05
0.594000000,10.000059,10.000059,10.000218,5.9127808e-05
0.595000000,10.000155,10.000155,10.000307,0.00015544891
0.596000000,10.000252,10.000252,10.000395,0.00025177002
0.597000000,10.000348,10.000348,10.000483,0.00034809113
0.598000000,10.000445,10.000445,10.000571,0.00044536591
0.599000000,10.000542,10.000542,10.00066,0.00054168701
0.600000000,10.000638,10.000638,10.000748,0.00063800812
0.601000000,10.000727,10.000727,10.000828,0.00072669983
0.602000000,10.000793,10.000793,10.000887,0.00079250336
0.603000000,10.000834,10.000834,10.00092,0.00083351135
0.604000000,10.000864,10.000864,10.000944,0.00086402893
0.605000000,10.000895,10.000895,10.000969,0.00089454651
0.606000000,10.000925,10.000925,10.000993,0.00092506409
0.607000000,10.000956,10.000956,10.001017,0.00095558167
0.608000000,10.000986,10.000986,10.00104,0.00098609924
0.609000000,10.001017,10.001017,10.001064,0.0010166168
0.610000000,10.001047,10.001047,10.001088,0.0010471344
0.611000000,10.001073,10.001073,10.001107,0.0010728836
0.612000000,10.001084,10.001084,10.001114,0.0010843277
0.613000000,10.001079,10.001079,10.001103,0.0010786057
0.614000000,10.001067,10.001067,10.001087,0.0010671616
0.615000000,10.001055,10.001055,10.001071,0.0010547638
0.616000000,10.001043,10.001043,10.001055,0.0010433197
0.617000000,10.001032,10.001032,10.00104,0.0010318756
0.618000000,10.001019,10.001019,10.001022,0.0010194778
0.619000000,10.001008,10.001008,10.001007,0.0010080338
0.620000000,10.000997,10.000997,10.000992,0.00099658966
0.621000000,10.000983,10.000983,10.000975,0.00098323822
0.622000000,10.000962,10.000962,10.00095,0.00096225739
0.623000000,10.000934,10.000934,10.000919,0.00093364716
0.624000000,10.000902,10.000902,10.000886,0.0009021759
0.625000000,10.000871,10.000871,10.000853,0.00087070465
0.626000000,10.000839,10.000839,10.000819,0.0008392334
0.627000000,10.000808,10.000808,10.000786,0.00080776215
0.628000000,10.000776,10.000776,10.000751,0.00077629089
0.629000000,10.000745,10.000745,10.000718,0.00074481964
0.630000000,10.000714,10.000714,10.000686,0.00071430206
0.631000000,10.000683,10.000683,10.000652,0.00068283081
0.632000000,10.000649,10.000649,10.000618,0.00064945221
0.633000000,10.000616,10.000616,10.000585,0.00061607361
0.634000000,10.000581,10.000581,10.000548,0.00058078766
0.635000000,10.000546,10.000546,10.000514,0.00054645538
0.636000000,10.000512,10.000512,10.00048,0.00051212311
0.637000000,10.000478,10.000478,10.000444,0.00047779083
0.638000000,10.000443,10.000443,10.00041,0.00044345856
0.639000000,10.000409,10.000409,10.000376,0.00040912628
0.640000000,10.000375,10.000375,10.00034,0.00037479401
0.641000000,10.000341,10.000341,10.000307,0.00034141541
0.642000000,10.000311,10.000311,10.000277,0.00031089783
0.643000000,10.000282,10.000282,10.000249,0.0002822876
0.644000000,10.000255,10.000255,10.000222,0.00025463104
0.645000000,10.000227,10.000227,10.000195,0.00022697449
0.646000000,10.000199,10.000199,10.000168,0.00019836426
0.647000000,10.000172,10.000172,10.000141,0.0001707077
0.648000000,10.000144,10.000144,10.000114,0.00014305115
0.649000000,10.000117,10.000117,10.000088,0.00011634827
0.650000000,10.00009,10.00009,10.000061,8.8691711e-05
0.651000000,9.9860287,9.9860287,9.9845972,0.086028099
0.652000000,9.9273567,9.9273567,9.9200611,0.12735558
0.653000000,9.8194542,9.8194542,9.8013716,0.11945343
0.654000000,9.6914396,9.6914396,9.6605577,0.091438293
0.655000000,9.562891,9.562891,9.5191574,0.062890053
0.656000000,9.4355907,9.4355907,9.3791294,0.035590172
0.657000000,9.3086882,9.3086882,9.2395401,0.0086870193
0.658000000,9.181922,9.181922,9.1000996,-0.018078804
0.659000000,9.055295,9.055295,8.9608126,-0.044705391
0.660000000,8.9288254,8.9288254,8.8216991,-0.071175575
0.661000000,8.8060017,8.8060017,8.6879988,-0.093998909
0.662000000,8.6944208,8.6944208,8.5711269,-0.10558033
0.663000000,8.595232,8.595232,8.4728098,-0.10476875
0.664000000,8.5011988,8.5011988,8.3821745,-0.098802567
0.665000000,8.4074545,8.4074545,8.2919111,-0.092546463
0.666000000,8.3135576,8.3135576,8.201354,-0.086442947
0.667000000,8.2197189,8.2197189,8.1108217,-0.080282211
0.668000000,8.1260033,8.1260033,8.0204115,-0.073997498
0.669000000,8.0324087,8.0324087,7.93012,-0.067591667
0.670000000,7.9389324,7.9389324,7.8399429,-0.061068535
0.671000000,7.8456082,7.8456082,7.7495689,-0.054392815
0.672000000,7.7525148,7.7525148,7.6583242,-0.047486305
0.673000000,7.6596642,7.6596642,7.5661073,-0.040336609
0.674000000,7.5669813,7.5669813,7.4735594,-0.033019543
0.675000000,7.4744158,7.4744158,7.3811121,-0.025585175
0.676000000,7.3819633,7.3819633,7.2888041,-0.018037796
0.677000000,7.2896256,7.2896256,7.1966162,-0.0103755
0.678000000,7.1974039,7.1974039,7.1045442,-0.0025968552
0.679000000,7.1052971,7.1052971,7.0125861,0.0052962303
0.680000000,7.0133057,7.0133057,6.920743,0.01330471
0.681000000,6.9206443,6.9206443,6.8281479,0.020643234
0.682000000,6.8256035,6.8256035,6.7329125,0.025602341
0.683000000,6.7279243,6.7279243,6.6347504,0.027923584
0.684000000,6.6292353,6.6292353,6.5354605,0.029234409
0.685000000,6.5306306,6.5306306,6.4362521,0.030629635
0.686000000,6.4322104,6.4322104,6.337235,0.032209396
0.687000000,6.3339262,6.3339262,6.2383561,0.033925056
0.688000000,6.2357635,6.2357635,6.1395993,0.035762787
0.689000000,6.137723,6.137723,6.0409656,0.037722111
0.690000000,6.0398045,6.0398045,5.9424543,0.039803505
0.691000000,5.9415259,5.9415259,5.8436141,0.041524887
0.692000000,5.841835,5.841835,5.7434583,0.041833878
0.693000000,5.7405725,5.7405725,5.6418371,0.040571213
0.694000000,5.6387396,5.6387396,5.53969,0.038738251
0.695000000,5.5370107,5.5370107,5.4376488,0.037009716
0.696000000,5.4354463,5.4354463,5.3357697,0.035445213
0.697000000,5.3340168,5.3340168,5.234026,0.034015656
0.698000000,5.2327132,5.2327132,5.1324081,0.032711983
0.699000000,5.131536,5.131536,5.0309172,0.031534672
0.700000000,5.0304847,5.0304847,4.9295526,0.030483246
0.701000000,4.9293404,4.9293404,4.8281217,0.029338837
0.702000000,4.8276243,4.8276243,4.7262034,0.027623177
0.703000000,4.7252631,4.7252631,4.6237321,0.025261402
0.704000000,4.6227136,4.6227136,4.521111,0.022712231
0.705000000,4.5202808,4.5202808,4.4186077,0.020279408
0.706000000,4.4179931,4.4179931,4.3162479,0.017991543
0.707000000,4.3158374,4.3158374,4.2140193,0.015836239
0.708000000,4.213809,4.213809,4.1119184,0.013807297
0.709000000,4.1119075,4.1119075,4.0099444,0.011906147
0.710000000,4.0101337,4.0101337,3.9080987,0.010132313
0.711000000,3.9083881,3.9083881,3.806293,0.0083866119
0.712000000,3.8064563,3.8064563,3.7043395,0.0064549446
0.713000000,3.7043052,3.7043052,3.6022093,0.0043036938
0.714000000,3.6021395,3.6021395,3.500082,0.0021381378
0.715000000,3.5000966,3.5000966,3.3980782,9.5129013e-05
0.716000000,3.3981891,3.3981891,3.2962086,-0.001812458
0.717000000,3.2964103,3.2964103,3.1944675,-0.0035910606
0.718000000,3.1947589,3.1947589,3.0928538,-0.0052425861
0.719000000,3.0932343,3.0932343,2.9913669,-0.0067670345
0.720000000,2.9918365,2.9918365,2.8900068,-0.0081648827
0.721000000,2.8905096,2.8905096,2.7887218,-0.0094919205
0.722000000,2.7891309,2.7891309,2.6873984,-0.010870457
0.723000000,2.6876819,2.6876819,2.5860195,-0.012319565
0.724000000,2.5862789,2.5862789,2.4846928,-0.01372242
0.725000000,2.4849999,2.4849999,2.3834903,-0.015001535
0.726000000,2.3838518,2.3838518,2.282418,-0.016149759
0.727000000,2.2828312,2.2828312,2.1814733,-0.017170191
0.728000000,2.1819367,2.1819367,2.0806546,-0.018064737
0.729000000,2.0811682,2.0811682,1.9799615,-0.01883316
0.730000000,1.9805257,1.9805257,1.8793947,-0.019475698
0.731000000,1.8799531,1.8799531,1.7788975,-0.020048261
0.732000000,1.7793283,1.7793283,1.6783481,-0.020673037
0.733000000,1.6786331,1.6786331,1.5777283,-0.021368384
0.734000000,1.5779829,1.5779829,1.4771533,-0.022018671
0.735000000,1.4774559,1.4774559,1.3767015,-0.022545576
0.736000000,1.3770587,1.3770587,1.2763795,-0.022942781
0.737000000,1.2767881,1.2767881,1.1761838,-0.023213387
0.738000000,1.1766427,1.1766427,1.0761132,-0.023358941
0.739000000,1.0766224,1.0766224,0.9761678,-0.023379087
0.740000000,0.97672707,0.97672707,0.87634718,-0.023274481
0.741000000,0.87687892,0.87687892,0.77657151,-0.023122609
0.742000000,0.77690828,0.77690828,0.67666626,-0.023093224
0.743000000,0.67678946,0.67678946,0.57660508,-0.023212135
0.744000000,0.57668358,0.57668358,0.47655365,-0.023317993
0.745000000,0.47669894,0.47669894,0.37662324,-0.023302674
0.746000000,0.37684536,0.37684536,0.27682403,-0.023156196
0.747000000,0.27711788,0.27711788,0.17715085,-0.022883654
0.748000000,0.17751497,0.17751497,0.0776022,-0.022486687
0.749000000,0.078036442,0.078036442,-0.021822155,-0.021965079
0.750000000,-0.021317735,-0.021317735,-0.12112222,-0.021319356
0.751000000,-0.12065382,-0.12065382,-0.2204071,-0.020655401
0.752000000,-0.22020313,-0.22020313,-0.31991428,-0.020204693
0.753000000,-0.32000077,-0.32000077,-0.41967979,-0.020002425
0.754000000,-0.41982669,-0.41982669,-0.51947773,-0.01982832
0.755000000,-0.5195331,-0.5195331,-0.6191563,-0.019534737
0.756000000,-0.61910665,-0.61910665,-0.71870184,-0.019108295
0.757000000,-0.71855396,-0.71855396,-0.81812114,-0.018555582
0.758000000,-0.81787711,-0.81787711,-0.91741633,-0.01787883
0.759000000,-0.91707623,-0.91707623,-1.0165875,-0.017077804
0.760000000,-1.0161513,-1.0161513,-1.1156347,-0.016152978
0.761000000,-1.1152334,-1.1152334,-1.2146914,-0.015235066
0.762000000,-1.2146074,-1.2146074,-1.3140478,-0.014608979
0.763000000,-1.3143164,-1.3143164,-1.4137479,-0.014318109
0.764000000,-1.4140896,-1.4140896,-1.5135158,-0.014091372
0.765000000,-1.5137444,-1.5137444,-1.6131655,-0.013746023
0.766000000,-1.6132644,-1.6132644,-1.7126802,-0.013266206
0.767000000,-1.712658,-1.712658,-1.8120685,-0.012659788
0.768000000,-1.8119274,-1.8119274,-1.9113325,-0.011929274
0.769000000,-1.911073,-1.911073,-2.0104725,-0.011074662
0.770000000,-2.0100946,-2.0100946,-2.109489,-0.010096431
0.771000000,-2.1091397,-2.1091397,-2.2085304,-0.0091414452
0.772000000,-2.2085283,-2.2085283,-2.3079205,-0.0085299015
0.773000000,-2.3083096,-2.3083096,-2.4077089,-0.0083115101
0.774000000,-2.4081783,-2.4081783,-2.5075872,-0.0081801414
0.775000000,-2.5079293,-2.5079293,-2.6073477,-0.0079312325
0.776000000,-2.6075444,-2.6075444,-2.7069724,-0.0075461864
0.777000000,-2.7070322,-2.7070322,-2.8064697,-0.0070340633
0.778000000,-2.8063962,-2.8063962,-2.905843,-0.006398201
0.779000000,-2.9056361,-2.9056361,-3.0050924,-0.0056378841
0.780000000,-3.0047517,-3.0047517,-3.1042173,-0.0047535896
0.781000000,-3.1038983,-3.1038983,-3.2033741,-0.0039002895
0.782000000,-3.2034123,-3.2034123,-3.3029008,-0.0034141541
0.783000000,-3.3033452,-3.3033452,-3.4028487,-0.0033471584
0.784000000,-3.4033763,-3.4033763,-3.5028961,-0.0033781528
0.785000000,-3.5032899,-3.5032899,-3.6028261,-0.0032918453
0.786000000,-3.6030667,-3.6030667,-3.7026188,-0.0030686855
0.787000000,-3.7027161,-3.7027161,-3.8022845,-0.0027179718
0.788000000,-3.8022411,-3.8022411,-3.9018257,-0.002243042
0.789000000,-3.9016418,-3.9016418,-4.0012426,-0.0016436577
0.790000000,-4.0009184,-4.0009184,-4.1005349,-0.00092029572
0.791000000,-4.1002264,-4.1002264,-4.1998591,-0.000228405
0.792000000,-4.1999035,-4.1999035,-4.2995524,9.4413757e-05
0.793000000,-4.3000016,-4.3000016,-4.3996673,-3.3378601e-06
0.794000000,-4.4001985,-4.4001985,-4.4998808,-0.00020027161
0.795000000,-4.500278,-4.500278,-4.599977,-0.00027990341
0.796000000,-4.6002202,-4.6002202,-4.6999354,-0.00022220612
0.797000000,-4.7000351,-4.7000351,-4.799767,-3.7193298e-05
0.798000000,-4.7997251,-4.7997251,-4.8994737,0.00027322769
0.799000000,-4.899291,-4.899291,-4.9990559,0.00070714951
0.800000000,-4.9987321,-4.9987321,-5.0985136,0.0012660027
0.801000000,-5.0982008,-5.0982008,-5.197998,0.0017971992
0.802000000,-5.1980281,-5.1980281,-5.2978406,0.0019698143
0.803000000,-5.2982635,-5.2982635,-5.3980899,0.0017347336
0.804000000,-5.3985925,-5.3985925,-5.4984317,0.0014057159
0.805000000,-5.4988036,-5.4988036,-5.5986562,0.0011944771
0.806000000,-5.5988779,-5.5988779,-5.6987438,0.0011200905
0.807000000,-5.6988239,-5.6988239,-5.7987027,0.0011739731
0.808000000,-5.798646,-5.798646,-5.8985381,0.0013523102
0.809000000,-5.8983431,-5.8983431,-5.9982481,0.0016551018
0.810000000,-5.9979157,-5.9979157,-6.0978341,0.0020823479
0.811000000,-6.0975103,-6.0975103,-6.1974411,0.0024876595
0.812000000,-6.1974473,-6.1974473,-6.297389,0.002550602
0.813000000,-6.2977743,-6.2977743,-6.3977256,0.0022234917
0.814000000,-6.3981876,-6.3981876,-6.498147,0.0018100739
0.815000000,-6.4984827,-6.4984827,-6.5984507,0.0015153885
0.816000000,-6.5986409,-6.5986409,-6.698617,0.0013570786
0.817000000,-6.6986713,-6.6986713,-6.798656,0.001326561
0.818000000,-6.7985773,-6.7985773,-6.8985705,0.0014204979
0.819000000,-6.8983583,-6.8983583,-6.9983597,0.0016393661
0.820000000,-6.9980149,-6.9980149,-7.0980248,0.0019826889
0.821000000,-7.0976882,-7.0976882,-7.1977062,0.0023093224
0.822000000,-7.1976886,-7.1976886,-7.2977128,0.0023093224
0.823000000,-7.2980618,-7.2980618,-7.3980904,0.001935482
0.824000000,-7.3985147,-7.3985147,-7.4985476,0.0014829636
0.825000000,-7.4988484,-7.4988484,-7.5988851,0.0011491776
0.826000000,-7.5990462,-7.5990462,-7.6990867,0.00095129013
0.827000000,-7.6991162,-7.6991162,-7.799161,0.00088167191
0.828000000,-7.7990613,-7.7990613,-7.8991098,0.00093603134
0.829000000,-7.8988819,-7.8988819,-7.9989343,0.001115799
0.830000000,-7.9985771,-7.9985771,-8.0986338,0.0014204979
0.831000000,-8.0982866,-8.0982866,-8.1983461,0.0017108917
0.832000000,-8.1983109,-8.1983109,-8.2983732,0.0016870499
0.833000000,-8.2986956,-8.2986956,-8.3987589,0.0013017654
0.834000000,-8.3991537,-8.3991537,-8.499218,0.00084400177
0.835000000,-8.4994936,-8.4994936,-8.5995579,0.00050449371
0.836000000,-8.5996971,-8.5996971,-8.6997623,0.00030040741
0.837000000,-8.6997728,-8.6997728,-8.7998381,0.00022506714
0.838000000,-8.7997236,-8.7997236,-8.8997898,0.0002746582
0.839000000,-8.8995504,-8.8995504,-8.9996176,0.00044727325
0.840000000,-8.9992514,-8.9992514,-9.0993185,0.00074672699
0.841000000,-9.0989647,-9.0989647,-9.1990328,0.001033783
0.842000000,-9.1989861,-9.1989861,-9.2990532,0.0010128021
0.843000000,-9.2993603,-9.2993603,-9.3994265,0.00063800812
0.844000000,-9.3998051,-9.3998051,-9.4998703,0.00019359589
0.845000000,-9.5001316,-9.5001316,-9.6001949,-0.00013256073
0.846000000,-9.6003218,-9.6003218,-9.7003841,-0.00032234192
0.847000000,-9.7003841,-9.7003841,-9.8004456,-0.00038433075
0.848000000,-9.8003216,-9.8003216,-9.9003811,-0.00032234192
0.849000000,-9.900135,-9.900135,-10.000194,-0.00013542175
0.850000000,-9.9998236,-9.9998236,-10.099881,0.00017642975
0.851000000,-10.085488,-10.085488,-10.184141,-0.085488319
0.852000000,-10.126842,-10.126842,-10.219628,-0.1268425
0.853000000,-10.119312,-10.119312,-10.201307,-0.11931229
0.854000000,-10.091739,-10.091739,-10.160933,-0.091738701
0.855000000,-10.063512,-10.063512,-10.11985,-0.063511848
0.856000000,-10.036398,-10.036398,-10.080006,-0.036397934
0.857000000,-10.009554,-10.009554,-10.040471,-0.0095539093
0.858000000,-9.9827204,-9.9827204,-10.00096,0.017279625
0.859000000,-9.9559031,-9.9559031,-9.9614801,0.044096947
0.860000000,-9.9291172,-9.9291172,-9.9220467,0.070882797
0.861000000,-9.9059868,-9.9059868,-9.8880367,0.094013214
0.862000000,-9.8944035,-9.8944035,-9.8711596,0.10559654
0.863000000,-9.8955564,-9.8955564,-9.8731804,0.10444355
0.864000000,-9.9019337,-9.9019337,-9.8829536,0.09806633
0.865000000,-9.9084816,-9.9084816,-9.8929787,0.091518402
0.866000000,-9.9147406,-9.9147406,-9.9025745,0.085259438
0.867000000,-9.9209299,-9.9209299,-9.9120674,0.079070091
0.868000000,-9.9271183,-9.9271183,-9.9215584,0.072881699
0.869000000,-9.9333029,-9.9333029,-9.9310427,0.066697121
0.870000000,-9.9394808,-9.9394808,-9.9405174,0.060519218
0.871000000,-9.9458208,-9.9458208,-9.9498043,0.054179192
0.872000000,-9.9526978,-9.9526978,-9.9585276,0.047302246
0.873000000,-9.960166,-9.960166,-9.9666271,0.039834023
0.874000000,-9.9678717,-9.9678717,-9.9744654,0.032128334
0.875000000,-9.9755764,-9.9755764,-9.9822855,0.024423599
0.876000000,-9.9832573,-9.9832573,-9.9901085,0.016742706
0.877000000,-9.9909267,-9.9909267,-9.9979267,0.0090732574
0.878000000,-9.9985867,-9.9985867,-10.005733,0.0014133453
0.879000000,-10.006237,-10.006237,-10.013531,-0.00623703
0.880000000,-10.013878,-10.013878,-10.021317,-0.013877869
0.881000000,-10.020861,-10.020861,-10.028364,-0.020860672
0.882000000,-10.025772,-10.025772,-10.033079,-0.025772095
0.883000000,-10.028398,-10.028398,-10.035221,-0.02839756
0.884000000,-10.030086,-10.030086,-10.036307,-0.030085564
0.885000000,-10.031738,-10.031738,-10.037354,-0.031738281
0.886000000,-10.03344,-10.03344,-10.038458,-0.033439636
0.887000000,-10.03515,-10.03515,-10.039572,-0.035149574
0.888000000,-10.036857,-10.036857,-10.040684,-0.036856651
0.889000000,-10.03856,-10.03856,-10.041792,-0.038559914
0.890000000,-10.040262,-10.040262,-10.042901,-0.040262222
0.891000000,-10.041615,-10.041615,-10.043691,-0.041615486
0.892000000,-10.041868,-10.041868,-10.043478,-0.04186821
0.893000000,-10.040906,-10.040906,-10.042157,-0.040905952
0.894000000,-10.039446,-10.039446,-10.040382,-0.039445877
0.895000000,-10.037971,-10.037971,-10.038593,-0.037970543
0.896000000,-10.036524,-10.036524,-10.036832,-0.036523819
0.897000000,-10.035085,-10.035085,-10.035078,-0.035084724
0.898000000,-10.033647,-10.033647,-10.033325,-0.033646584
0.899000000,-10.03221,-10.03221,-10.031575,-0.03221035
0.900000000,-10.030775,-10.030775,-10.029826,-0.03077507
0.901000000,-10.02926,-10.02926,-10.028024,-0.029259682
0.902000000,-10.027486,-10.027486,-10.026048,-0.027485847
0.903000000,-10.025426,-10.025426,-10.023878,-0.025425911
0.904000000,-10.023251,-10.023251,-10.021631,-0.02325058
0.905000000,-10.021073,-10.021073,-10.019383,-0.021073341
0.906000000,-10.018906,-10.018906,-10.017144,-0.01890564
0.907000000,-10.016742,-10.016742,-10.014908,-0.016741753
0.908000000,-10.01458,-10.01458,-10.012673,-0.014579773
0.909000000,-10.012422,-10.012422,-10.010443,-0.012421608
0.910000000,-10.010265,-10.010265,-10.008214,-0.01026535
0.911000000,-10.008151,-10.008151,-10.006041,-0.0081510544
0.912000000,-10.006165,-10.006165,-10.004032,-0.0061645508
0.913000000,-10.004319,-10.004319,-10.002209,-0.004319191
0.914000000,-10.002532,-10.002532,-10.00046,-0.0025320053
0.915000000,-10.00075,-10.00075,-9.9987173,-0.00074958801
0.916000000,-9.9989653,-9.9989653,-9.9969711,0.0010347366
0.917000000,-9.9971838,-9.9971838,-9.9952278,0.0028162003
0.918000000,-9.9954033,-9.9954033,-9.9934855,0.0045967102
0.919000000,-9.9936266,-9.9936266,-9.9917469,0.0063734055
0.920000000,-9.9918509,-9.9918509,-9.9900093,0.008149147
0.921000000,-9.99016,-9.99016,-9.9883614,0.0098400116
0.922000000,-9.9887314,-9.9887314,-9.9869881,0.011268616
0.923000000,-9.9875927,-9.9875927,-9.98592,0.012407303
0.924000000,-9.9865732,-9.9865732,-9.9849777,0.013426781
0.925000000,-9.9855595,-9.9855595,-9.9840403,0.014440536
0.926000000,-9.9845409,-9.9845409,-9.983099,0.015459061
0.927000000,-9.9835215,-9.9835215,-9.9821548,0.016478539
0.928000000,-9.9825039,-9.9825039,-9.9812136,0.017496109
0.929000000,-9.9814882,-9.9814882,-9.9802742,0.018511772
0.930000000,-9.9804726,-9.9804726,-9.9793348,0.019527435
0.931000000,-9.9795408,-9.9795408,-9.9784794,0.020459175
0.932000000,-9.9788713,-9.9788713,-9.9778852,0.021128654
0.933000000,-9.9784899,-9.9784899,-9.9775791,0.021510124
0.934000000,-9.9782276,-9.9782276,-9.9773932,0.021772385
0.935000000,-9.9779701,-9.9779701,-9.977211,0.022029877
0.936000000,-9.977706,-9.977706,-9.9770222,0.022294044
0.937000000,-9.9774418,-9.9774418,-9.9768333,0.022558212
0.938000000,-9.9771767,-9.9771767,-9.9766436,0.022823334
0.939000000,-9.9769135,-9.9769135,-9.9764557,0.023086548
0.940000000,-9.9766493,-9.9766493,-9.9762669,0.023350716
0.941000000,-9.9764462,-9.9764462,-9.9761372,0.023553848
0.942000000,-9.9764338,-9.9764338,-9.9761896,0.023566246
0.943000000,-9.9766321,-9.9766321,-9.9764462,0.023367882
0.944000000,-9.9769173,-9.9769173,-9.9767866,0.023082733
0.945000000,-9.9772043,-9.9772043,-9.977128,0.022795677
0.946000000,-9.9774866,-9.9774866,-9.9774647,0.02251339
0.947000000,-9.9777679,-9.9777679,-9.9778004,0.022232056
0.948000000,-9.9780483,-9.9780483,-9.9781351,0.021951675
0.949000000,-9.9783287,-9.9783287,-9.9784698,0.021671295
0.950000000,-9.9786091,-9.9786091,-9.9788055,0.021390915
0.951000000,-9.97892,-9.97892,-9.979167,0.021080017
0.952000000,-9.979331,-9.979331,-9.9796209,0.020668983
0.953000000,-9.9798527,-9.9798527,-9.980175,0.020147324
0.954000000,-9.9804182,-9.9804182,-9.9807682,0.019581795
0.955000000,-9.9809847,-9.9809847,-9.9813623,0.019015312
0.956000000,-9.9815483,-9.9815483,-9.9819546,0.018451691
0.957000000,-9.982111,-9.982111,-9.9825449,0.017889023
0.958000000,-9.9826727,-9.9826727,-9.9831352,0.017327309
0.959000000,-9.9832344,-9.9832344,-9.9837246,0.016765594
0.960000000,-9.9837942,-9.9837942,-9.984313,0.016205788
0.961000000,-9.9843607,-9.9843607,-9.9849052,0.015639305
0.962000000,-9.9849482,-9.9849482,-9.9855099,0.015051842
0.963000000,-9.9855585,-9.9855585,-9.9861288,0.01444149
0.964000000,-9.9861774,-9.9861774,-9.9867535,0.013822556
0.965000000,-9.9867954,-9.9867954,-9.9873762,0.013204575
0.966000000,-9.9874125,-9.9874125,-9.987999,0.012587547
0.967000000,-9.9880295,-9.9880295,-9.9886217,0.01197052
0.968000000,-9.9886446,-9.9886446,-9.9892416,0.0113554
0.969000000,-9.9892597,-9.9892597,-9.9898624,0.01074028
0.970000000,-9.9898739,-9.9898739,-9.9904823,0.010126114
0.971000000,-9.9904776,-9.9904776,-9.9910889,0.009522438
0.972000000,-9.9910498,-9.9910498,-9.9916601,0.0089502335
0.973000000,-9.9915876,-9.9915876,-9.9921904,0.0084123611
0.974000000,-9.9921103,-9.9921103,-9.9927034,0.0078897476
0.975000000,-9.9926329,-9.9926329,-9.9932165,0.0073671341
0.976000000,-9.9931545,-9.9931545,-9.9937286,0.0068454742
0.977000000,-9.9936762,-9.9936762,-9.9942408,0.0063238144
0.978000000,-9.9941969,-9.9941969,-9.9947519,0.0058031082
0.979000000,-9.9947176,-9.9947176,-9.9952631,0.005282402
0.980000000,-9.9952374,-9.9952374,-9.9957733,0.0047626495
0.981000000,-9.995739,-9.995739,-9.9962654,0.0042610168
0.982000000,-9.9961853,-9.9961853,-9.9966984,0.0038146973
0.983000000,-9.9965706,-9.9965706,-9.9970684,0.0034294128
0.984000000,-9.9969301,-9.9969301,-9.9974117,0.0030698776
0.985000000,-9.9972887,-9.9972887,-9.9977541,0.0027112961
0.986000000,-9.9976482,-9.9976482,-9.9980974,0.0023517609
0.987000000,-9.9980078,-9.9980078,-9.9984407,0.0019922256
0.988000000,-9.9983673,-9.9983673,-9.9987841,0.0016326904
0.989000000,-9.9987259,-9.9987259,-9.9991264,0.0012741089
0.990000000,-9.9990835,-9.9990835,-9.9994678,0.00091648102
0.991000000,-9.999423,-9.999423,-9.9997911,0.00057697296
0.992000000,-9.9997053,-9.9997053,-10.000057,0.00029468536
0.993000000,-9.9999256,-9.9999256,-10.000261,7.4386597e-05
0.994000000,-10.000118,-10.000118,-10.000437,-0.00011825562
0.995000000,-10.000311,-10.000311,-10.000613,-0.00031089783
0.996000000,-10.000504,-10.000504,-10.00079,-0.00050449371
0.997000000,-10.000697,-10.000697,-10.000966,-0.00069713593
0.998000000,-10.000891,-10.000891,-10.001143,-0.00089073181
0.999000000,-10.001083,-10.001083,-10.001319,-0.001083374
1.000000000,-10.001276,-10.001276,-10.001495,-0.0012760162
1.001000000,-10.001454,-10.001454,-10.001657,-0.0014543533
1.002000000,-10.001586,-10.001586,-10.001774,-0.0015859604
1.003000000,-10.001668,-10.001668,-10.001842,-0.0016679764
1.004000000,-10.001729,-10.001729,-10.00189,-0.0017290115
1.005000000,-10.001789,-10.001789,-10.001937,-0.001789093
1.006000000,-10.00185,-10.00185,-10.001985,-0.0018501282
1.007000000,-10.001911,-10.001911,-10.002032,-0.0019111633
1.008000000,-10.001972,-10.001972,-10.00208,-0.0019721985
1.009000000,-10.002033,-10.002033,-10.002129,-0.0020332336
1.010000000,-10.002094,-10.002094,-10.002176,-0.0020942688
1.011000000,-10.002146,-10.002146,-10.002214,-0.0021457672
1.012000000,-10.002169,-10.002169,-10.002227,-0.0021686554
1.013000000,-10.002158,-10.002158,-10.002207,-0.002158165
1.014000000,-10.002134,-10.002134,-10.002174,-0.0021343231
1.015000000,-10.00211,-10.00211,-10.002142,-0.0021095276
1.016000000,-10.002087,-10.002087,-10.00211,-0.0020866394
1.017000000,-10.002063,-10.002063,-10.002078,-0.0020627975
1.018000000,-10.00204,-10.00204,-10.002047,-0.0020399094
1.019000000,-10.002017,-10.002017,-10.002015,-0.0020170212
1.020000000,-10.001993,-10.001993,-10.001983,-0.0019931793
1.021000000,-10.001966,-10.001966,-10.001947,-0.0019655228
1.022000000,-10.001925,-10.001925,-10.0019,-0.0019245148
1.023000000,-10.001867,-10.001867,-10.001839,-0.0018672943
1.024000000,-10.001804,-10.001804,-10.001771,-0.0018043518
1.025000000,-10.001741,-10.001741,-10.001704,-0.0017414093
1.026000000,-10.001678,-10.001678,-10.001637,-0.0016784668
1.027000000,-10.001616,-10.001616,-10.001571,-0.0016155243
1.028000000,-10.001553,-10.001553,-10.001504,-0.0015525818
1.029000000,-10.001491,-10.001491,-10.001438,-0.001490593
1.030000000,-10.001428,-10.001428,-10.001371,-0.0014276505
1.031000000,-10.001365,-10.001365,-10.001305,-0.0013647079
1.032000000,-10.001299,-10.001299,-10.001236,-0.0012989044
1.033000000,-10.001231,-10.001231,-10.001167,-0.0012311935
1.034000000,-10.001163,-10.001163,-10.001099,-0.001162529
1.035000000,-10.001093,-10.001093,-10.001028,-0.0010929108
1.036000000,-10.001024,-10.001024,-10.000958,-0.0010242462
1.037000000,-10.000956,-10.000956,-10.00089,-0.00095558167
1.038000000,-10.000887,-10.000887,-10.00082,-0.00088691711
1.039000000,-10.000819,-10.000819,-10.000752,-0.00081920624
1.040000000,-10.000751,-10.000751,-10.000683,-0.00075054169
1.041000000,-10.000684,-10.000684,-10.000616,-0.00068378448
1.042000000,-10.000621,-10.000621,-10.000553,-0.00062084198
1.043000000,-10.000564,-10.000564,-10.000497,-0.00056362152
1.044000000,-10.000508,-10.000508,-10.000443,-0.00050830841
1.045000000,-10.000454,-10.000454,-10.00039,-0.00045394897
1.046000000,-10.000399,-10.000399,-10.000336,-0.00039768219
1.047000000,-10.000343,-10.000343,-10.000282,-0.00034236908
1.048000000,-10.000289,-10.000289,-10.000229,-0.00028800964
1.049000000,-10.000234,-10.000234,-10.000175,-0.00023269653
1.050000000,-10.000179,-10.000179,-10.000122,-0.0001783371
1.051000000,-9.9931097,-9.9931097,-9.9923525,-0.04310894
1.052000000,-9.9637394,-9.9637394,-9.9600515,-0.063738823
1.053000000,-9.9097595,-9.9097595,-9.9006786,-0.059758186
1.054000000,-9.845727,-9.845727,-9.8302488,-0.045725822
1.055000000,-9.7814274,-9.7814274,-9.7595243,-0.03142643
1.056000000,-9.7177515,-9.7177515,-9.6894865,-0.01775074
1.057000000,-9.654274,-9.654274,-9.6196671,-0.0042734146
1.058000000,-9.5908651,-9.5908651,-9.5499229,0.0091362
1.059000000,-9.5275269,-9.5275269,-9.4802561,0.022474289
1.060000000,-9.4642658,-9.4642658,-9.4106741,0.03573513
1.061000000,-9.4028301,-9.4028301,-9.3438025,0.047170639
1.062000000,-9.3470221,-9.3470221,-9.2853508,0.052978516
1.063000000,-9.2974138,-9.2974138,-9.2361794,0.052587509
1.064000000,-9.2503872,-9.2503872,-9.1908531,0.049613953
1.065000000,-9.2035046,-9.2035046,-9.1457119,0.046496391
1.066000000,-9.1565456,-9.1565456,-9.1004248,0.043455124
1.067000000,-9.1096163,-9.1096163,-9.055151,0.040384293
1.068000000,-9.062747,-9.062747,-9.0099354,0.037254333
1.069000000,-9.0159397,-9.0159397,-8.9647808,0.034061432
1.070000000,-8.9691916,-8.9691916,-8.9196844,0.030809402
1.071000000,-8.9225197,-8.9225197,-8.8744888,0.027481079
1.072000000,-8.875968,-8.875968,-8.8288622,0.024032593
1.073000000,-8.8295412,-8.8295412,-8.7827539,0.020460129
1.074000000,-8.7832003,-8.7832003,-8.7364817,0.01680088
1.075000000,-8.7369184,-8.7369184,-8.6902599,0.013082504
1.076000000,-8.6906929,-8.6906929,-8.6441078,0.0093078613
1.077000000,-8.6445246,-8.6445246,-8.5980158,0.0054759979
1.078000000,-8.5984144,-8.5984144,-8.551981,0.0015869141
1.079000000,-8.5523615,-8.5523615,-8.5060034,-0.0023603439
1.080000000,-8.5063667,-8.5063667,-8.460084,-0.0063657761
1.081000000,-8.4600372,-8.4600372,-8.4137888,-0.010036469
1.082000000,-8.4125204,-8.4125204,-8.3661757,-0.012519836
1.083000000,-8.3636866,-8.3636866,-8.3171015,-0.013685226
1.084000000,-8.3143482,-8.3143482,-8.2674627,-0.014347076
1.085000000,-8.2650528,-8.2650528,-8.2178659,-0.015051842
1.086000000,-8.2158489,-8.2158489,-8.1683645,-0.01584816
1.087000000,-8.1667137,-8.1667137,-8.1189327,-0.016713142
1.088000000,-8.1176386,-8.1176386,-8.069561,-0.017637253
1.089000000,-8.0686255,-8.0686255,-8.0202522,-0.018624306
1.090000000,-8.0196724,-8.0196724,-7.9710031,-0.01967144
1.091000000,-7.97054,-7.97054,-7.9215903,-0.020539284
1.092000000,-7.920702,-7.920702,-7.87152,-0.020700932
1.093000000,-7.870079,-7.870079,-7.8207183,-0.020078182
1.094000000,-7.819171,-7.819171,-7.7696533,-0.019170284
1.095000000,-7.7683153,-7.7683153,-7.7186418,-0.018314362
1.096000000,-7.7175412,-7.7175412,-7.6677103,-0.017540455
1.097000000,-7.6668353,-7.6668353,-7.6168475,-0.016834736
1.098000000,-7.6161919,-7.6161919,-7.5660472,-0.016191483
1.099000000,-7.5656118,-7.5656118,-7.5153103,-0.015611172
1.100000000,-7.5150948,-7.5150948,-7.4646368,-0.01509428
1.101000000,-7.4645314,-7.4645314,-7.4139304,-0.014531136
1.102000000,-7.413681,-7.413681,-7.3629789,-0.013680458
1.103000000,-7.3625088,-7.3625088,-7.3117518,-0.012508392
1.104000000,-7.3112416,-7.3112416,-7.2604485,-0.011240959
1.105000000,-7.2600331,-7.2600331,-7.2092047,-0.010032654
1.106000000,-7.2088976,-7.2088976,-7.1580334,-0.0088973045
1.107000000,-7.1578274,-7.1578274,-7.1069264,-0.0078268051
1.108000000,-7.1068211,-7.1068211,-7.0558839,-0.0068206787
1.109000000,-7.0558782,-7.0558782,-7.0049047,-0.0058779716
1.110000000,-7.0049992,-7.0049992,-6.9539895,-0.0049986839
1.111000000,-6.954134,-6.954134,-6.9030943,-0.0041337013
1.112000000,-6.9031749,-6.9031749,-6.8521242,-0.003174305
1.113000000,-6.8521051,-6.8521051,-6.801065,-0.0021047592
1.114000000,-6.8010283,-6.8010283,-6.7500067,-0.0010275841
1.115000000,-6.7500124,-6.7500124,-6.6990104,-1.1920929e-05
1.116000000,-6.6990638,-6.6990638,-6.6480803,0.00093650818
1.117000000,-6.6481805,-6.6481805,-6.5972157,0.0018200874
1.118000000,-6.5973601,-6.5973601,-6.5464139,0.0026402473
1.119000000,-6.5466032,-6.5466032,-6.4956756,0.0033969879
1.120000000,-6.4959102,-6.4959102,-6.4450011,0.0040903091
1.121000000,-6.4452519,-6.4452519,-6.3943639,0.0047483444
1.122000000,-6.394567,-6.394567,-6.3437061,0.0054335594
1.123000000,-6.3438458,-6.3438458,-6.2930198,0.0061545372
1.124000000,-6.2931476,-6.2931476,-6.2423596,0.0068531036
1.125000000,-6.2425113,-6.2425113,-6.191761,0.0074892044
1.126000000,-6.1919398,-6.1919398,-6.1412272,0.0080604553
1.127000000,-6.1414328,-6.1414328,-6.0907578,0.0085678101
1.128000000,-6.0909886,-6.0909886,-6.0403514,0.0090117455
1.129000000,-6.0406075,-6.0406075,-5.9900079,0.0093927383
1.130000000,-5.9902892,-5.9902892,-5.9397273,0.0097112656
1.131000000,-5.9400058,-5.9400058,-5.8894811,0.0099945068
1.132000000,-5.8896952,-5.8896952,-5.8392081,0.010305405
1.133000000,-5.8393488,-5.8393488,-5.7888989,0.010651588
1.134000000,-5.7890248,-5.7890248,-5.7386127,0.010975838
1.135000000,-5.7387619,-5.7387619,-5.6883869,0.011238575
1.136000000,-5.6885643,-5.6885643,-5.6382265,0.011435986
1.137000000,-5.6384301,-5.6384301,-5.58813,0.011570454
1.138000000,-5.5883584,-5.5883584,-5.5380955,0.011641979
1.139000000,-5.5383492,-5.5383492,-5.4881234,0.011651039
1.140000000,-5.4884024,-5.4884024,-5.4382138,0.01159811
1.141000000,-5.4384789,-5.4384789,-5.3883262,0.011521339
1.142000000,-5.388494,-5.388494,-5.3383741,0.011506557
1.143000000,-5.3384342,-5.3384342,-5.288343,0.011566162
1.144000000,-5.2883811,-5.2883811,-5.2383165,0.011619568
1.145000000,-5.2383881,-5.2383881,-5.1883507,0.011612415
1.146000000,-5.1884608,-5.1884608,-5.1384506,0.011539459
1.147000000,-5.1385965,-5.1385965,-5.088613,0.011404037
1.148000000,-5.0887947,-5.0887947,-5.0388384,0.011205673
1.149000000,-5.0390549,-5.0390549,-4.9891253,0.01094532
1.150000000,-4.9893775,-4.9893775,-4.9394751,0.010622978
1.151000000,-4.9397087,-4.9397087,-4.8898315,0.010291576
1.152000000,-4.8899336,-4.8899336,-4.8400774,0.010066986
1.153000000,-4.8400335,-4.8400335,-4.7901936,0.0099668503
1.154000000,-4.7901196,-4.7901196,-4.7402935,0.0098810196
1.155000000,-4.7402654,-4.7402654,-4.6904531,0.0097351074
1.156000000,-4.6904774,-4.6904774,-4.6406789,0.0095229149
1.157000000,-4.6407528,-4.6407528,-4.5909686,0.0092477798
1.158000000,-4.5910902,-4.5910902,-4.5413198,0.0089101791
1.159000000,-4.5414891,-4.5414891,-4.4917326,0.0085110664
1.160000000,-4.4919505,-4.4919505,-4.4422078,0.0080499649
1.161000000,-4.4424086,-4.4424086,-4.3926787,0.0075917244
1.162000000,-4.3927202,-4.3927202,-4.342999,0.0072803497
1.163000000,-4.3428645,-4.3428645,-4.2931476,0.0071358681
1.164000000,-4.2929769,-4.2929769,-4.2432628,0.0070238113
1.165000000,-4.2431483,-4.2431483,-4.1934366,0.00685215
1.166000000,-4.193387,-4.193387,-4.1436782,0.0066132545
1.167000000,-4.1436892,-4.1436892,-4.0939827,0.0063114166
1.168000000,-4.0940533,-4.0940533,-4.0443497,0.005947113
1.169000000,-4.0444794,-4.0444794,-3.9947784,0.0055208206
1.170000000,-3.9949672,-3.9949672,-3.9452689,0.0050332546
1.171000000,-3.9454434,-3.9454434,-3.8957469,0.0045571327
1.172000000,-3.8957479,-3.8957479,-3.8460507,0.0042524338
1.173000000,-3.8458564,-3.8458564,-3.7961557,0.0041439533
1.174000000,-3.7959211,-3.7959211,-3.7462156,0.0040793419
1.175000000,-3.7460444,-3.7460444,-3.6963339,0.0039560795
1.176000000,-3.6962359,-3.6962359,-3.6465209,0.0037643909
1.177000000,-3.6464911,-3.6464911,-3.5967712,0.0035092831
1.178000000,-3.5968082,-3.5968082,-3.5470836,0.0031921864
1.179000000,-3.5471871,-3.5471871,-3.497458,0.0028131008
1.180000000,-3.4976282,-3.4976282,-3.4478943,0.0023720264
1.181000000,-3.4480541,-3.4480541,-3.3983152,0.0019462109
1.182000000,-3.3982961,-3.3982961,-3.348551,0.0017039776
1.183000000,-3.3483291,-3.3483291,-3.2985764,0.0016713142
1.184000000,-3.2983129,-3.2983129,-3.2485521,0.0016872883
1.185000000,-3.2483554,-3.2483554,-3.1985865,0.0016448498
1.186000000,-3.1984665,-3.1984665,-3.1486895,0.0015337467
1.187000000,-3.1486411,-3.1486411,-3.0988562,0.0013589859
1.188000000,-3.0988779,-3.0988779,-3.0490849,0.0011224747
1.189000000,-3.0491769,-3.0491769,-2.9993758,0.00082325935
1.190000000,-2.9995379,-2.9995379,-2.949729,0.00046229362
1.191000000,-2.9498835,-2.9498835,-2.9000664,0.0001168251
1.192000000,-2.9000442,-2.9000442,-2.850219,-4.4107437e-05
1.193000000,-2.8499949,-2.8499949,-2.8001614,5.4836273e-06
1.194000000,-2.7998962,-2.7998962,-2.7500546,0.0001039505
1.195000000,-2.7498562,-2.7498562,-2.7000062,0.00014400482
1.196000000,-2.6998849,-2.6998849,-2.6500268,0.00011539459
1.197000000,-2.6499772,-2.6499772,-2.6001108,2.2888184e-05
1.198000000,-2.6001318,-2.6001318,-2.5502572,-0.00013136864
1.199000000,-2.5503488,-2.5503488,-2.5004659,-0.00034856796
1.200000000,-2.5006278,-2.5006278,-2.4507368,-0.0006275177
1.201000000,-2.4508932,-2.4508932,-2.4009941,-0.00089287758
1.202000000,-2.4009795,-2.4009795,-2.351073,-0.00097942352
1.203000000,-2.3508618,-2.3508618,-2.3009484,-0.00086140633
1.204000000,-2.3006971,-2.3006971,-2.2507772,-0.00069689751
1.205000000,-2.2505915,-2.2505915,-2.200665,-0.00059127808
1.206000000,-2.2005546,-2.2005546,-2.1506217,-0.0005543232
1.207000000,-2.1505814,-2.1505814,-2.1006417,-0.0005812645
1.208000000,-2.1006703,-2.1006703,-2.0507243,-0.00066995621
1.209000000,-2.0508218,-2.0508218,-2.000869,-0.00082159042
1.210000000,-2.0010355,-2.0010355,-1.9510763,-0.0010352135
1.211000000,-1.951238,-1.951238,-1.9012725,-0.0012377501
1.212000000,-1.9012697,-1.9012697,-1.8512987,-0.0012694597
1.213000000,-1.8511062,-1.8511062,-1.8011307,-0.0011059046
1.214000000,-1.8008996,-1.8008996,-1.7509198,-0.00089943409
1.215000000,-1.7507522,-1.7507522,-1.7007682,-0.0007519722
1.216000000,-1.7006732,-1.7006732,-1.6506851,-0.00067305565
1.217000000,-1.650658,-1.650658,-1.6006657,-0.00065791607
1.218000000,-1.6007051,-1.6007051,-1.5507087,-0.00070500374
1.219000000,-1.5508147,-1.5508147,-1.5008141,-0.00081467628
1.220000000,-1.5009866,-1.5009866,-1.4509817,-0.00098645687
1.221000000,-1.4511498,-1.4511498,-1.401141,-0.0011497736
1.222000000,-1.4011499,-1.4011499,-1.3511379,-0.0011497736
1.223000000,-1.3509634,-1.3509634,-1.3009491,-0.00096321106
1.224000000,-1.3007373,-1.3007373,-1.250721,-0.00073707104
1.225000000,-1.2505704,-1.2505704,-1.2005522,-0.00057029724
1.226000000,-1.2004718,-1.2004718,-1.1504517,-0.00047171116
1.227000000,-1.1504369,-1.1504369,-1.1004148,-0.00043678284
1.228000000,-1.1004645,-1.1004645,-1.0504404,-0.00046432018
1.229000000,-1.0505545,-1.0505545,-1.0005285,-0.00055444241
1.230000000,-1.0007069,-1.0007069,-0.95067894,-0.00070679188
1.231000000,-0.95085245,-0.95085245,-0.9008227,-0.00085234642
1.232000000,-0.90084058,-0.90084058,-0.85080963,-0.0008404851
1.233000000,-0.85064852,-0.85064852,-0.80061704,-0.00064837933
1.234000000,-0.80041945,-0.80041945,-0.75038767,-0.00041937828
1.235000000,-0.7502498,-0.7502498,-0.70021772,-0.00024968386
1.236000000,-0.70014822,-0.70014822,-0.65011585,-0.00014817715
1.237000000,-0.65011042,-0.65011042,-0.60007775,-0.0001103878
1.238000000,-0.60013503,-0.60013503,-0.55010211,-0.00013494492
1.239000000,-0.55022204,-0.55022204,-0.50018877,-0.0002220273
1.240000000,-0.50037146,-0.50037146,-0.45033792,-0.00037139654
1.241000000,-0.45051512,-0.45051512,-0.40048137,-0.00051507354
1.242000000,-0.40050477,-0.40050477,-0.3504712,-0.00050473213
1.243000000,-0.35031793,-0.35031793,-0.30028486,-0.00031787157
1.244000000,-0.30009568,-0.30009568,-0.2500633,-9.5635653e-05
1.245000000,-0.24993286,-0.24993286,-0.19990116,6.7174435e-05
1.246000000,-0.199838,-0.199838,-0.14980698,0.00016202033
1.247000000,-0.1498069,-0.1498069,-0.099776551,0.00019308925
1.248000000,-0.099838249,-0.099838249,-0.049808573,0.00016178936
1.249000000,-0.049931962,-0.049931962,9.7047538e-05,6.7997724e-05
1.250000000,-8.8052642e-05,-8.8052642e-05,0.049940292,-8.8052642e-05
1.251000000,0.042744044,0.042744044,0.092069961,0.042744044
1.252000000,0.063421182,0.063421182,0.10981378,0.063421182
1.253000000,0.059656013,0.059656013,0.10065341,0.059656013
1.254000000,0.045869052,0.045869052,0.080465525,0.045869052
1.255000000,0.031755395,0.031755395,0.059924223,0.031755395
1.256000000,0.018198444,0.018198444,0.040002089,0.018198444
1.257000000,0.004776238,0.004776238,0.020234553,0.004776238
1.258000000,-0.008640266,-0.008640266,0.00047953241,-0.008640266
1.259000000,-0.02204906,-0.02204906,-0.01926077,-0.02204906
1.260000000,-0.035442058,-0.035442058,-0.038977459,-0.035442058
1.261000000,-0.047007266,-0.047007266,-0.055982396,-0.047007266
1.262000000,-0.052799404,-0.052799404,-0.06442146,-0.052799404
1.263000000,-0.052222632,-0.052222632,-0.063410498,-0.052222632
1.264000000,-0.049034201,-0.049034201,-0.058524527,-0.049034201
1.265000000,-0.045760147,-0.045760147,-0.053511702,-0.045760147
1.266000000,-0.042630635,-0.042630635,-0.048713543,-0.042630635
1.267000000,-0.039535727,-0.039535727,-0.043966923,-0.039535727
1.268000000,-0.036441803,-0.036441803,-0.039221957,-0.036441803
1.269000000,-0.033349387,-0.033349387,-0.034479421,-0.033349387
1.270000000,-0.030260583,-0.030260583,-0.029742436,-0.030260583
1.271000000,-0.027090263,-0.027090263,-0.025098562,-0.027090263
1.272000000,-0.023652107,-0.023652107,-0.020737376,-0.023652107
1.273000000,-0.019917944,-0.019917944,-0.016687475,-0.019917944
1.274000000,-0.016065132,-0.016065132,-0.012768225,-0.016065132
1.275000000,-0.012212903,-0.012212903,-0.0088581787,-0.012212903
1.276000000,-0.0083721206,-0.0083721206,-0.0049462691,-0.0083721206
1.277000000,-0.004537588,-0.004537588,-0.0010377739,-0.004537588
1.278000000,-0.00070771202,-0.00070771202,0.002865697,-0.00070771202
1.279000000,0.0031174878,0.0031174878,0.0067641754,0.0031174878
1.280000000,0.0069379183,0.0069379183,0.010657769,0.0069379183
1.281000000,0.010429271,0.010429271,0.014181225,0.010429271
1.282000000,0.012884902,0.012884902,0.016538603,0.012884902
1.283000000,0.014198075,0.014198075,0.017609676,0.014198075
1.284000000,0.015041723,0.015041723,0.018152408,0.015041723
1.285000000,0.015868267,0.015868267,0.018676383,0.015868267
1.286000000,0.016718933,0.016718933,0.019228039,0.016718933
1.287000000,0.017574033,0.017574033,0.019785196,0.017574033
1.288000000,0.018427547,0.018427547,0.020341072,0.018427547
1.289000000,0.019279571,0.019279571,0.020895779,0.019279571
1.290000000,0.020130485,0.020130485,0.021449743,0.020130485
1.291000000,0.020807469,0.020807469,0.021845289,0.020807469
1.292000000,0.020933801,0.020933801,0.021738691,0.020933801
1.293000000,0.020452572,0.020452572,0.021078022,0.020452572
1.294000000,0.019722516,0.019722516,0.020190595,0.019722516
1.295000000,0.018984817,0.018984817,0.019296471,0.018984817
1.296000000,0.018261449,0.018261449,0.018415701,0.018261449
1.297000000,0.017541917,0.017541917,0.017538706,0.017541917
1.298000000,0.016823009,0.016823009,0.016662555,0.016823009
1.299000000,0.016104773,0.016104773,0.015787292,0.016104773
1.300000000,0.01538741,0.01538741,0.014913103,0.01538741
1.301000000,0.014629939,0.014629939,0.014012186,0.014629939
1.302000000,0.013742976,0.013742976,0.013023893,0.013742976
1.303000000,0.012713018,0.012713018,0.011939063,0.012713018
1.304000000,0.011625171,0.011625171,0.010815436,0.011625171
1.305000000,0.010536654,0.010536654,0.0096918372,0.010536654
1.306000000,0.0094526792,0.0094526792,0.0085718017,0.0094526792
1.307000000,0.0083707552,0.0083707552,0.0074536391,0.0083707552
1.308000000,0.0072901174,0.0072901174,0.0063368282,0.0072901174
1.309000000,0.006210777,0.006210777,0.0052213771,0.006210777
1.310000000,0.0051327804,0.0051327804,0.0041073174,0.0051327804
1.311000000,0.0040757731,0.0040757731,0.0030203564,0.0040757731
1.312000000,0.0030825487,0.0030825487,0.0020165062,0.0030825487
1.313000000,0.0021595687,0.0021595687,0.0011042238,0.0021595687
1.314000000,0.0012660783,0.0012660783,0.00023016904,0.0012660783
1.315000000,0.00037467672,0.00037467672,-0.00064152101,0.00037467672
1.316000000,-0.00051713409,-0.00051713409,-0.0015141155,-0.00051713409
1.317000000,-0.001408163,-0.001408163,-0.002386055,-0.001408163
1.318000000,-0.0022980468,-0.0022980468,-0.0032568632,-0.0022980468
1.319000000,-0.0031867926,-0.0031867926,-0.0041265497,-0.0031867926
1.320000000,-0.004074425,-0.004074425,-0.0049951454,-0.004074425
1.321000000,-0.0049199834,-0.0049199834,-0.0058195591,-0.0049199834
1.322000000,-0.0056342054,-0.0056342054,-0.006505881,-0.0056342054
1.323000000,-0.0062036077,-0.0062036077,-0.0070399251,-0.0062036077
1.324000000,-0.0067131952,-0.0067131952,-0.0075111226,-0.0067131952
1.325000000,-0.0072201188,-0.0072201188,-0.0079795979,-0.0072201188
1.326000000,-0.0077295862,-0.0077295862,-0.0084508313,-0.0077295862
1.327000000,-0.0082391109,-0.0082391109,-0.0089222053,-0.0082391109
1.328000000,-0.0087479334,-0.0087479334,-0.0093929218,-0.0087479334
1.329000000,-0.0092560668,-0.0092560668,-0.0098629938,-0.0092560668
1.330000000,-0.0097635593,-0.0097635593,-0.010332473,-0.0097635593
1.331000000,-0.010229428,-0.010229428,-0.010760373,-0.010229428
1.332000000,-0.010564353,-0.010564353,-0.011057368,-0.010564353
1.333000000,-0.010754842,-0.010754842,-0.011209966,-0.010754842
1.334000000,-0.010885953,-0.010885953,-0.011303228,-0.010885953
1.335000000,-0.011014871,-0.011014871,-0.011394346,-0.011014871
1.336000000,-0.011146808,-0.011146808,-0.01148853,-0.011146808
1.337000000,-0.011279274,-0.011279274,-0.01158329,-0.011279274
1.338000000,-0.011411509,-0.011411509,-0.011677867,-0.011411509
1.339000000,-0.011543526,-0.011543526,-0.011772272,-0.011543526
1.340000000,-0.011675373,-0.011675373,-0.011866554,-0.011675373
1.341000000,-0.011777062,-0.011777062,-0.011931825,-0.011777062
1.342000000,-0.011783236,-0.011783236,-0.011905124,-0.011783236
1.343000000,-0.01168402,-0.01168402,-0.011776938,-0.01168402
1.344000000,-0.011541654,-0.011541654,-0.011607224,-0.011541654
1.345000000,-0.011397982,-0.011397982,-0.011436293,-0.011397982
1.346000000,-0.011256816,-0.011256816,-0.011267817,-0.011256816
1.347000000,-0.011116334,-0.011116334,-0.011100041,-0.011116334
1.348000000,-0.010975981,-0.010975981,-0.010932429,-0.010975981
1.349000000,-0.010835764,-0.010835764,-0.010764988,-0.010835764
