source:ccrt device:L1_Q2 epoch:1673450362 timeOrigin:6.900000000 firstSampleTime:0.600000000 period:0.010000000 name:ILC_FLAGS type:digital,ILC_CYCLING,ILC_ERR,ILC_L_CALC,ILC_Q_CALC,ILC_REF_RUN,ILC_REF_ARM
0.600000000,1,0,0,0,0,0
0.610000000,1,0,0,0,0,0
0.620000000,1,0,0,0,0,0
0.630000000,1,0,0,0,0,0
0.640000000,1,0,0,0,0,0
0.650000000,1,0,0,0,0,0
0.660000000,1,0,0,0,0,0
0.670000000,1,0,0,0,0,0
0.680000000,1,0,0,0,0,0
0.690000000,1,0,0,0,0,0
0.700000000,1,0,0,0,0,0
0.710000000,1,0,0,0,0,0
0.720000000,1,0,0,0,0,0
0.730000000,1,0,0,0,0,0
0.740000000,1,0,0,0,0,0
0.750000000,1,0,0,0,0,0
0.760000000,1,0,0,0,0,0
0.770000000,1,0,0,0,0,0
0.780000000,1,0,0,0,0,0
0.790000000,1,0,0,0,0,0
0.800000000,1,0,0,0,0,0
0.810000000,1,0,0,0,0,0
0.820000000,1,0,0,0,0,0
0.830000000,1,0,0,0,0,0
0.840000000,1,0,0,0,0,0
0.850000000,1,0,0,0,0,0
0.860000000,1,0,0,0,0,0
0.870000000,1,0,0,0,0,0
0.880000000,1,0,0,0,0,0
0.890000000,1,0,0,0,0,0
0.900000000,1,0,0,0,0,0
0.910000000,1,0,0,0,0,0
0.920000000,1,0,0,0,0,0
0.930000000,1,0,0,0,0,0
0.940000000,1,0,0,0,0,0
0.950000000,1,0,0,0,0,0
0.960000000,1,0,0,0,0,0
0.970000000,1,0,0,0,0,0
0.980000000,1,0,0,0,0,0
0.990000000,1,0,0,0,0,0
1.000000000,1,0,0,0,0,0
1.010000000,1,0,0,0,0,0
1.020000000,1,0,0,0,0,0
1.030000000,1,0,0,0,0,0
1.040000000,1,0,0,0,0,0
1.050000000,1,0,0,0,0,0
1.060000000,1,0,0,0,0,0
1.070000000,1,0,1,0,0,0
1.080000000,1,0,1,0,1,0
1.090000000,1,0,1,0,1,0
1.100000000,1,0,1,0,1,0
1.110000000,1,0,1,1,1,0
1.120000000,1,1,1,1,1,0
1.130000000,1,1,1,1,1,0
1.140000000,1,1,1,1,1,0
1.150000000,1,1,1,1,1,0
1.160000000,1,1,1,1,1,0
1.170000000,1,1,1,1,1,0
1.180000000,1,1,1,1,1,0
1.190000000,1,1,1,1,1,0
1.200000000,1,1,1,1,1,0
1.210000000,1,1,1,1,1,0
1.220000000,1,1,1,1,1,0
1.230000000,1,1,1,1,1,0
1.240000000,1,1,1,1,1,0
1.250000000,1,1,1,1,1,0
1.260000000,1,1,1,1,1,0
1.270000000,1,1,1,1,1,0
1.280000000,1,1,1,1,1,0
1.290000000,1,1,1,1,1,0
1.300000000,1,1,1,1,1,0
1.310000000,1,1,1,1,1,0
1.320000000,1,1,1,1,1,0
1.330000000,1,1,1,1,1,0
1.340000000,1,1,1,1,1,0
1.350000000,1,1,1,1,1,0
1.360000000,1,1,1,1,1,0
1.370000000,1,1,1,1,1,0
1.380000000,1,1,1,1,1,0
1.390000000,1,1,1,1,1,0
1.400000000,1,1,1,0,1,0
1.410000000,1,0,1,0,1,0
1.420000000,1,0,1,0,1,0
1.430000000,1,0,1,0,1,0
1.440000000,1,0,1,0,1,0
1.450000000,1,0,1,0,1,0
1.460000000,1,0,1,0,1,0
1.470000000,1,0,1,0,1,0
1.480000000,1,0,1,0,1,0
1.490000000,1,0,1,0,1,0
1.500000000,1,0,1,0,1,0
1.510000000,0,0,0,0,0,0
1.520000000,1,0,0,0,0,1
1.530000000,1,0,0,0,0,1
1.540000000,1,0,0,0,0,1
1.550000000,1,0,0,0,0,1
1.560000000,1,0,0,0,0,1
1.570000000,1,0,0,0,0,1
1.580000000,1,0,0,0,0,1
1.590000000,1,0,0,0,0,1
1.600000000,1,0,0,0,0,1
1.610000000,1,0,0,0,0,1
1.620000000,1,0,0,0,0,1
1.630000000,1,0,0,0,0,1
1.640000000,1,0,0,0,0,1
1.650000000,1,0,0,0,0,1
1.660000000,1,0,0,0,0,1
1.670000000,1,0,0,0,0,1
1.680000000,1,0,0,0,0,1
1.690000000,1,0,0,0,0,1
1.700000000,1,0,0,0,0,1
1.710000000,1,0,0,0,0,1
1.720000000,1,0,0,0,0,1
1.730000000,1,0,0,0,0,1
1.740000000,1,0,0,0,0,1
1.750000000,1,0,0,0,0,1
1.760000000,1,0,0,0,0,1
1.770000000,1,0,0,0,0,1
1.780000000,1,0,0,0,0,1
1.790000000,1,0,0,0,0,1
1.800000000,1,0,0,0,0,1
1.810000000,1,0,0,0,0,1
1.820000000,1,0,0,0,0,1
1.830000000,1,0,0,0,0,1
1.840000000,1,0,0,0,0,1
1.850000000,1,0,0,0,0,1
1.860000000,1,0,0,0,0,1
1.870000000,1,0,0,0,0,1
1.880000000,1,0,0,0,0,1
1.890000000,1,0,0,0,0,1
1.900000000,1,0,0,0,0,1
1.910000000,1,0,0,0,0,1
1.920000000,1,0,0,0,0,1
1.930000000,1,0,0,0,0,1
1.940000000,1,0,0,0,0,1
1.950000000,1,0,0,0,0,1
1.960000000,1,0,0,0,0,1
1.970000000,1,0,0,0,0,1
1.980000000,1,0,0,0,0,1
1.990000000,1,0,0,0,0,1
2.000000000,1,0,0,0,0,1
2.010000000,1,0,0,0,0,1
2.020000000,1,0,0,0,0,1
2.030000000,1,0,0,0,0,1
2.040000000,1,0,0,0,0,1
2.050000000,1,0,0,0,0,1
2.060000000,1,0,0,0,0,1
2.070000000,1,0,1,0,0,1
2.080000000,1,0,1,0,1,1
2.090000000,1,0,1,0,1,1
2.100000000,1,0,1,0,1,1
2.110000000,1,0,1,1,1,1
2.120000000,1,1,1,1,1,1
2.130000000,1,1,1,1,1,1
2.140000000,1,1,1,1,1,1
2.150000000,1,1,1,1,1,1
2.160000000,1,1,1,1,1,1
2.170000000,1,1,1,1,1,1
2.180000000,1,1,1,1,1,1
2.190000000,1,1,1,1,1,1
2.200000000,1,1,1,1,1,1
2.210000000,1,1,1,1,1,1
2.220000000,1,1,1,1,1,1
2.230000000,1,1,1,1,1,1
2.240000000,1,1,1,1,1,1
2.250000000,1,1,1,1,1,1
2.260000000,1,1,1,1,1,1
2.270000000,1,1,1,1,1,1
2.280000000,1,1,1,1,1,1
2.290000000,1,1,1,1,1,1
2.300000000,1,1,1,1,1,1
2.310000000,1,1,1,1,1,1
2.320000000,1,1,1,1,1,1
2.330000000,1,1,1,1,1,1
2.340000000,1,1,1,1,1,1
2.350000000,1,1,1,1,1,1
2.360000000,1,1,1,1,1,1
2.370000000,1,1,1,1,0,1
2.380000000,1,1,1,1,0,1
2.390000000,1,0,1,1,0,1
2.400000000,1,0,1,0,0,1
2.410000000,1,0,1,0,0,1
2.420000000,1,0,1,0,0,1
2.430000000,1,0,1,0,0,1
2.440000000,1,0,1,0,0,1
2.450000000,1,0,1,0,0,1
2.460000000,1,0,1,0,0,1
2.470000000,1,0,1,0,0,1
2.480000000,1,0,1,0,0,1
2.490000000,1,0,1,0,0,1
2.500000000,0,0,0,0,0,0
2.510000000,1,0,0,0,0,1
2.520000000,1,0,0,0,0,1
2.530000000,1,0,0,0,0,1
2.540000000,1,0,0,0,0,1
2.550000000,1,0,0,0,0,1
2.560000000,1,0,0,0,0,1
2.570000000,1,0,0,0,0,1
2.580000000,1,0,0,0,0,1
2.590000000,1,0,0,0,0,1
2.600000000,1,0,0,0,0,1
2.610000000,1,0,0,0,0,1
2.620000000,1,0,0,0,0,1
2.630000000,1,0,0,0,0,1
2.640000000,1,0,0,0,0,1
2.650000000,1,0,0,0,0,1
2.660000000,1,0,0,0,0,1
2.670000000,1,0,0,0,0,1
2.680000000,1,0,0,0,0,1
2.690000000,1,0,0,0,0,1
2.700000000,1,0,0,0,0,1
2.710000000,1,0,0,0,0,1
2.720000000,1,0,0,0,0,1
2.730000000,1,0,0,0,0,1
2.740000000,1,0,0,0,0,1
2.750000000,1,0,0,0,0,1
2.760000000,1,0,0,0,0,1
2.770000000,1,0,0,0,0,1
2.780000000,1,0,0,0,0,1
2.790000000,1,0,0,0,0,1
2.800000000,1,0,0,0,0,1
2.810000000,1,0,0,0,0,1
2.820000000,1,0,0,0,0,1
2.830000000,1,0,0,0,0,1
2.840000000,1,0,0,0,0,1
2.850000000,1,0,0,0,0,1
2.860000000,1,0,0,0,0,1
2.870000000,1,0,0,0,0,1
2.880000000,1,0,0,0,0,1
2.890000000,1,0,0,0,0,1
2.900000000,1,0,0,0,0,1
2.910000000,1,0,0,0,0,1
2.920000000,1,0,0,0,0,1
2.930000000,1,0,0,0,0,1
2.940000000,1,0,0,0,0,1
2.950000000,1,0,0,0,0,1
2.960000000,1,0,0,0,0,1
2.970000000,1,0,0,0,0,1
2.980000000,1,0,0,0,0,1
2.990000000,1,0,0,0,0,1
3.000000000,1,0,0,0,0,1
3.010000000,1,0,0,0,0,1
3.020000000,1,0,0,0,0,1
3.030000000,1,0,0,0,0,1
3.040000000,1,0,0,0,0,1
3.050000000,1,0,0,0,0,1
3.060000000,1,0,0,0,0,1
3.070000000,1,0,1,0,0,1
3.080000000,1,0,1,0,1,1
3.090000000,1,0,1,0,1,1
3.100000000,1,0,1,0,1,1
3.110000000,1,0,1,1,1,1
3.120000000,1,1,1,1,1,1
3.130000000,1,1,1,1,1,1
3.140000000,1,1,1,1,1,1
3.150000000,1,1,1,1,1,1
3.160000000,1,1,1,1,1,1
3.170000000,1,1,1,1,1,1
3.180000000,1,1,1,1,1,1
3.190000000,1,1,1,1,1,1
3.200000000,1,1,1,1,1,1
3.210000000,1,1,1,1,1,1
3.220000000,1,1,1,1,1,1
3.230000000,1,1,1,1,1,1
3.240000000,1,1,1,1,1,1
3.250000000,1,1,1,1,1,1
3.260000000,1,1,1,1,1,1
3.270000000,1,1,1,1,1,1
3.280000000,1,1,1,1,1,1
3.290000000,1,1,1,1,1,1
3.300000000,1,1,1,1,1,1
3.310000000,1,1,1,1,1,1
3.320000000,1,1,1,1,1,1
3.330000000,1,1,1,1,1,1
3.340000000,1,1,1,1,1,1
3.350000000,1,1,1,1,1,1
3.360000000,1,1,1,1,1,1
3.370000000,1,1,1,1,0,1
3.380000000,1,1,1,1,0,1
3.390000000,1,0,1,1,0,1
3.400000000,1,0,1,0,0,1
3.410000000,1,0,1,0,0,1
3.420000000,1,0,1,0,0,1
3.430000000,1,0,1,0,0,1
3.440000000,1,0,1,0,0,1
3.450000000,1,0,1,0,0,1
3.460000000,1,0,1,0,0,1
3.470000000,1,0,1,0,0,1
3.480000000,1,0,1,0,0,1
3.490000000,1,0,1,0,0,1
3.500000000,0,0,0,0,0,0
3.510000000,1,0,0,0,0,1
3.520000000,1,0,0,0,0,1
3.530000000,1,0,0,0,0,1
3.540000000,1,0,0,0,0,1
3.550000000,1,0,0,0,0,1
3.560000000,1,0,0,0,0,1
3.570000000,1,0,0,0,0,1
3.580000000,1,0,0,0,0,1
3.590000000,1,0,0,0,0,1
3.600000000,1,0,0,0,0,1
3.610000000,1,0,0,0,0,1
3.620000000,1,0,0,0,0,1
3.630000000,1,0,0,0,0,1
3.640000000,1,0,0,0,0,1
3.650000000,1,0,0,0,0,1
3.660000000,1,0,0,0,0,1
3.670000000,1,0,0,0,0,1
3.680000000,1,0,0,0,0,1
3.690000000,1,0,0,0,0,1
3.700000000,1,0,0,0,0,1
3.710000000,1,0,0,0,0,1
3.720000000,1,0,0,0,0,1
3.730000000,1,0,0,0,0,1
3.740000000,1,0,0,0,0,1
3.750000000,1,0,0,0,0,1
3.760000000,1,0,0,0,0,1
3.770000000,1,0,0,0,0,1
3.780000000,1,0,0,0,0,1
3.790000000,1,0,0,0,0,1
3.800000000,1,0,0,0,0,1
3.810000000,1,0,0,0,0,1
3.820000000,1,0,0,0,0,1
3.830000000,1,0,0,0,0,1
3.840000000,1,0,0,0,0,1
3.850000000,1,0,0,0,0,1
3.860000000,1,0,0,0,0,1
3.870000000,1,0,0,0,0,1
3.880000000,1,0,0,0,0,1
3.890000000,1,0,0,0,0,1
3.900000000,1,0,0,0,0,1
3.910000000,1,0,0,0,0,1
3.920000000,1,0,0,0,0,1
3.930000000,1,0,0,0,0,1
3.940000000,1,0,0,0,0,1
3.950000000,1,0,0,0,0,1
3.960000000,1,0,0,0,0,1
3.970000000,1,0,0,0,0,1
3.980000000,1,0,0,0,0,1
3.990000000,1,0,0,0,0,1
4.000000000,1,0,0,0,0,1
4.010000000,1,0,0,0,0,1
4.020000000,1,0,0,0,0,1
4.030000000,1,0,0,0,0,1
4.040000000,1,0,0,0,0,1
4.050000000,1,0,0,0,0,1
4.060000000,1,0,0,0,0,1
4.070000000,1,0,1,0,0,1
4.080000000,1,0,1,0,1,1
4.090000000,1,0,1,0,1,1
4.100000000,1,0,1,0,1,1
4.110000000,1,0,1,1,1,1
4.120000000,1,1,1,1,1,1
4.130000000,1,1,1,1,1,1
4.140000000,1,1,1,1,1,1
4.150000000,1,1,1,1,1,1
4.160000000,1,1,1,1,1,1
4.170000000,1,1,1,1,1,1
4.180000000,1,1,1,1,1,1
4.190000000,1,1,1,1,1,1
4.200000000,1,1,1,1,1,1
4.210000000,1,1,1,1,1,1
4.220000000,1,1,1,1,1,1
4.230000000,1,1,1,1,1,1
4.240000000,1,1,1,1,1,1
4.250000000,1,1,1,1,1,1
4.260000000,1,1,1,1,1,1
4.270000000,1,1,1,1,1,1
4.280000000,1,1,1,1,1,1
4.290000000,1,1,1,1,1,1
4.300000000,1,1,1,1,1,1
4.310000000,1,1,1,1,1,1
4.320000000,1,1,1,1,1,1
4.330000000,1,1,1,1,1,1
4.340000000,1,1,1,1,1,1
4.350000000,1,1,1,1,1,1
4.360000000,1,1,1,1,1,1
4.370000000,1,1,1,1,0,1
4.380000000,1,1,1,1,0,1
4.390000000,1,0,1,1,0,1
4.400000000,1,0,1,0,0,1
4.410000000,1,0,1,0,0,1
4.420000000,1,0,1,0,0,1
4.430000000,1,0,1,0,0,1
4.440000000,1,0,1,0,0,1
4.450000000,1,0,1,0,0,1
4.460000000,1,0,1,0,0,1
4.470000000,1,0,1,0,0,1
4.480000000,1,0,1,0,0,1
4.490000000,1,0,1,0,0,1
4.500000000,0,0,0,0,0,0
4.510000000,1,0,0,0,0,1
4.520000000,1,0,0,0,0,1
4.530000000,1,0,0,0,0,1
4.540000000,1,0,0,0,0,1
4.550000000,1,0,0,0,0,1
4.560000000,1,0,0,0,0,1
4.570000000,1,0,0,0,0,1
4.580000000,1,0,0,0,0,1
4.590000000,1,0,0,0,0,1
4.600000000,1,0,0,0,0,1
4.610000000,1,0,0,0,0,1
4.620000000,1,0,0,0,0,1
4.630000000,1,0,0,0,0,1
4.640000000,1,0,0,0,0,1
4.650000000,1,0,0,0,0,1
4.660000000,1,0,0,0,0,1
4.670000000,1,0,0,0,0,1
4.680000000,1,0,0,0,0,1
4.690000000,1,0,0,0,0,1
4.700000000,1,0,0,0,0,1
4.710000000,1,0,0,0,0,1
4.720000000,1,0,0,0,0,1
4.730000000,1,0,0,0,0,1
4.740000000,1,0,0,0,0,1
4.750000000,1,0,0,0,0,1
4.760000000,1,0,0,0,0,1
4.770000000,1,0,0,0,0,1
4.780000000,1,0,0,0,0,1
4.790000000,1,0,0,0,0,1
4.800000000,1,0,0,0,0,1
4.810000000,1,0,0,0,0,1
4.820000000,1,0,0,0,0,1
4.830000000,1,0,0,0,0,1
4.840000000,1,0,0,0,0,1
4.850000000,1,0,0,0,0,1
4.860000000,1,0,0,0,0,1
4.870000000,1,0,0,0,0,1
4.880000000,1,0,0,0,0,1
4.890000000,1,0,0,0,0,1
4.900000000,1,0,0,0,0,1
4.910000000,1,0,0,0,0,1
4.920000000,1,0,0,0,0,1
4.930000000,1,0,0,0,0,1
4.940000000,1,0,0,0,0,1
4.950000000,1,0,0,0,0,1
4.960000000,1,0,0,0,0,1
4.970000000,1,0,0,0,0,1
4.980000000,1,0,0,0,0,1
4.990000000,1,0,0,0,0,1
5.000000000,1,0,0,0,0,1
5.010000000,1,0,0,0,0,1
5.020000000,1,0,0,0,0,1
5.030000000,1,0,0,0,0,1
5.040000000,1,0,0,0,0,1
5.050000000,1,0,0,0,0,1
5.060000000,1,0,0,0,0,1
5.070000000,1,0,1,0,0,1
5.080000000,1,0,1,0,1,1
5.090000000,1,0,1,0,1,1
5.100000000,1,0,1,0,1,1
5.110000000,1,0,1,1,1,1
5.120000000,1,1,1,1,1,1
5.130000000,1,1,1,1,1,1
5.140000000,1,1,1,1,1,1
5.150000000,1,1,1,1,1,1
5.160000000,1,1,1,1,1,1
5.170000000,1,1,1,1,1,1
5.180000000,1,1,1,1,1,1
5.190000000,1,1,1,1,1,1
5.200000000,1,1,1,1,1,1
5.210000000,1,1,1,1,1,1
5.220000000,1,1,1,1,1,1
5.230000000,1,1,1,1,1,1
5.240000000,1,1,1,1,1,1
5.250000000,1,1,1,1,1,1
5.260000000,1,1,1,1,1,1
5.270000000,1,1,1,1,1,1
5.280000000,1,1,1,1,1,1
5.290000000,1,1,1,1,1,1
5.300000000,1,1,1,1,1,1
5.310000000,1,1,1,1,1,1
5.320000000,1,1,1,1,1,1
5.330000000,1,1,1,1,1,1
5.340000000,1,1,1,1,1,1
5.350000000,1,1,1,1,1,1
5.360000000,1,1,1,1,1,1
5.370000000,1,1,1,1,0,1
5.380000000,1,1,1,1,0,1
5.390000000,1,0,1,1,0,1
5.400000000,1,0,1,0,0,1
5.410000000,1,0,1,0,0,1
5.420000000,1,0,1,0,0,1
5.430000000,1,0,1,0,0,1
5.440000000,1,0,1,0,0,1
5.450000000,1,0,1,0,0,1
5.460000000,1,0,1,0,0,1
5.470000000,1,0,1,0,0,1
5.480000000,1,0,1,0,0,1
5.490000000,1,0,1,0,0,1
5.500000000,0,0,0,0,0,0
5.510000000,1,0,0,0,0,1
5.520000000,1,0,0,0,0,1
5.530000000,1,0,0,0,0,1
5.540000000,1,0,0,0,0,1
5.550000000,1,0,0,0,0,1
5.560000000,1,0,0,0,0,1
5.570000000,1,0,0,0,0,1
5.580000000,1,0,0,0,0,1
5.590000000,1,0,0,0,0,1
5.600000000,1,0,0,0,0,1
5.610000000,1,0,0,0,0,1
5.620000000,1,0,0,0,0,1
5.630000000,1,0,0,0,0,1
5.640000000,1,0,0,0,0,1
5.650000000,1,0,0,0,0,1
5.660000000,1,0,0,0,0,1
5.670000000,1,0,0,0,0,1
5.680000000,1,0,0,0,0,1
5.690000000,1,0,0,0,0,1
5.700000000,1,0,0,0,0,1
5.710000000,1,0,0,0,0,1
5.720000000,1,0,0,0,0,1
5.730000000,1,0,0,0,0,1
5.740000000,1,0,0,0,0,1
5.750000000,1,0,0,0,0,1
5.760000000,1,0,0,0,0,1
5.770000000,1,0,0,0,0,1
5.780000000,1,0,0,0,0,1
5.790000000,1,0,0,0,0,1
5.800000000,1,0,0,0,0,1
5.810000000,1,0,0,0,0,1
5.820000000,1,0,0,0,0,1
5.830000000,1,0,0,0,0,1
5.840000000,1,0,0,0,0,1
5.850000000,1,0,0,0,0,1
5.860000000,1,0,0,0,0,1
5.870000000,1,0,0,0,0,1
5.880000000,1,0,0,0,0,1
5.890000000,1,0,0,0,0,1
5.900000000,1,0,0,0,0,1
5.910000000,1,0,0,0,0,1
5.920000000,1,0,0,0,0,1
5.930000000,1,0,0,0,0,1
5.940000000,1,0,0,0,0,1
5.950000000,1,0,0,0,0,1
5.960000000,1,0,0,0,0,1
5.970000000,1,0,0,0,0,1
5.980000000,1,0,0,0,0,1
5.990000000,1,0,0,0,0,1
6.000000000,1,0,0,0,0,1
6.010000000,1,0,0,0,0,1
6.020000000,1,0,0,0,0,1
6.030000000,1,0,0,0,0,1
6.040000000,1,0,0,0,0,1
6.050000000,1,0,0,0,0,1
6.060000000,1,0,0,0,0,1
6.070000000,1,0,1,0,0,1
6.080000000,1,0,1,0,1,1
6.090000000,1,0,1,0,1,1
6.100000000,1,0,1,0,1,1
6.110000000,1,0,1,1,1,1
6.120000000,1,1,1,1,1,1
6.130000000,1,1,1,1,1,1
6.140000000,1,1,1,1,1,1
6.150000000,1,1,1,1,1,1
6.160000000,1,1,1,1,1,1
6.170000000,1,1,1,1,1,1
6.180000000,1,1,1,1,1,1
6.190000000,1,1,1,1,1,1
6.200000000,1,1,1,1,1,1
6.210000000,1,1,1,1,1,1
6.220000000,1,1,1,1,1,1
6.230000000,1,1,1,1,1,1
6.240000000,1,1,1,1,1,1
6.250000000,1,1,1,1,1,1
6.260000000,1,1,1,1,1,1
6.270000000,1,1,1,1,1,1
6.280000000,1,1,1,1,1,1
6.290000000,1,1,1,1,1,1
6.300000000,1,1,1,1,1,1
6.310000000,1,1,1,1,1,1
6.320000000,1,1,1,1,1,1
6.330000000,1,1,1,1,1,1
6.340000000,1,1,1,1,1,1
6.350000000,1,1,1,1,1,1
6.360000000,1,1,1,1,1,1
6.370000000,1,1,1,1,0,1
6.380000000,1,1,1,1,0,1
6.390000000,1,0,1,1,0,1
6.400000000,1,0,1,0,0,1
6.410000000,1,0,1,0,0,1
6.420000000,1,0,1,0,0,1
6.430000000,1,0,1,0,0,1
6.440000000,1,0,1,0,0,1
6.450000000,1,0,1,0,0,1
6.460000000,1,0,1,0,0,1
6.470000000,1,0,1,0,0,1
6.480000000,1,0,1,0,0,1
6.490000000,1,0,1,0,0,1
6.500000000,0,0,0,0,0,0
6.510000000,1,0,0,0,0,1
6.520000000,1,0,0,0,0,1
6.530000000,1,0,0,0,0,1
6.540000000,1,0,0,0,0,1
6.550000000,1,0,0,0,0,1
6.560000000,1,0,0,0,0,1
6.570000000,1,0,0,0,0,1
6.580000000,1,0,0,0,0,1
6.590000000,1,0,0,0,0,1
6.600000000,1,0,0,0,0,1
6.610000000,1,0,0,0,0,1
6.620000000,1,0,0,0,0,1
6.630000000,1,0,0,0,0,1
6.640000000,1,0,0,0,0,1
6.650000000,1,0,0,0,0,1
6.660000000,1,0,0,0,0,1
6.670000000,1,0,0,0,0,1
6.680000000,1,0,0,0,0,1
6.690000000,1,0,0,0,0,1
6.700000000,1,0,0,0,0,1
6.710000000,1,0,0,0,0,1
6.720000000,1,0,0,0,0,1
6.730000000,1,0,0,0,0,1
6.740000000,1,0,0,0,0,1
6.750000000,1,0,0,0,0,1
6.760000000,1,0,0,0,0,1
6.770000000,1,0,0,0,0,1
6.780000000,1,0,0,0,0,1
6.790000000,1,0,0,0,0,1
6.800000000,1,0,0,0,0,1
6.810000000,1,0,0,0,0,1
6.820000000,1,0,0,0,0,1
6.830000000,1,0,0,0,0,1
6.840000000,1,0,0,0,0,1
6.850000000,1,0,0,0,0,1
6.860000000,1,0,0,0,0,1
6.870000000,1,0,0,0,0,1
6.880000000,1,0,0,0,0,1
6.890000000,1,0,0,0,0,1
6.900000000,1,0,0,0,0,1
