STRUCT,NAME,TYPE,SIG_VAR,COMMENT
TEMP_FILTER,PERIOD,cc_float,filter_period_s,Temperature filter period
TEMP_FILTER,TIME_CONSTANT,cc_float,time_constant_s,Temperature filter time constant
TEMP_FILTER,WARNING_MIN_C,cc_float,warning.min_c,Minimum temperature warning threshold
TEMP_FILTER,WARNING_MAX_C,cc_float,warning.max_c,Maximum temperature warning threshold
TEMP_FILTER,TEMP_C,cc_float,temp_c,Filtered temperature
TEMP_FILTER,INVALID,bool,invalid_flag,Invalid temperature flag
TEMP_FILTER,WARNING,bool,warning_flag,Temperature warning flag
,,,,
CAL_REF,INT_CAL_EVENT,cc_float *,event.f,Internal calibration reference calibration event
CAL_REF,INT_CAL_EVENT_TEMP_C,cc_float,event.s.temp_c,Internal calibration reference calibration event temperature
CAL_REF,INT_CAL_TEMP_C,cc_float *,temp_c,Pointer to internal calibration reference temperature
CAL_REF,INT_CAL_TC,cc_float *,tc,Internal calibration references temperature coefficients
CAL_REF,EXT_CAL_ERR,cc_float,event.s.offset_ppm,External calibration reference error
,,,,
CAL_LIMIT,NOMINAL_OFFSET_PPM,cc_float,nominal_offset_ppm,Nominal offset (ppm) in case the interface has a bias
CAL_LIMIT,OFFSET_WARN_PPM,cc_float,offset_warning_ppm,Limits are nominal +/- warning level (ppm)
CAL_LIMIT,OFFSET_FAULT_PPM,cc_float,offset_fault_ppm,Limits are nominal +/- fault level (ppm)
CAL_LIMIT,GAIN_ERR_WARN_PPM,cc_float,gain_err_warning_ppm,Limits are +/- warning level (ppm)
CAL_LIMIT,GAIN_ERR_FAULT_PPM,cc_float,gain_err_fault_ppm,Limits are +/- fault level (ppm)
,,,,
ADC,RAW,int32_t,raw,Raw value read from the ADC
ADC,FAULT_FLAG,bool,fault_flag,ADC fault flag
ADC,CALIBRATING_FLAG,bool,calibrating_flag,ADC is being calibrated or used to calibrate something else (e.g. the DAC)
ADC,CALIBRATING_COUNTER,int32_t,calibrating_counter,Down counter to extend effect of calibrating flag by at least one average1 period
ADC,NOMINAL_GAIN,int32_t,nominal_gain,ADC nominal gain (delta_Raw for delta Vnominal)
ADC,MAX_INVALID_SAMPLES,uint32_t,max_invalid_samples,Max invalid samples allowed during calibration period
ADC,STUCK_LIMIT_POINTER,uint32_t *,stuck.limit_p,Pointer to stuck limit (NULL to use STUCK_LIMIT)
ADC,STUCK_LIMIT,uint32_t,stuck.limit,Max repeated samples before ADC is considered to be stuck when STUCK_LIMIT_POINTER = NULL
ADC,CAL_NUM_SAMPLES_POINTER,uint32_t *,cal_num_samples_p,Pointer to number samples to average when calibration (NULL to use cal_num_samples)
ADC,CAL_NUM_SAMPLES,uint32_t,cal_num_samples,Number of samples to average when calibrating
ADC,CAL_AVERAGE_RAW,int32_t *,cal_average_raw,Array of raw ADC averages used for most recent calibration
ADC,CAL_EVENT,cc_float *,cal.event.f,ADC calibration event (errors timestamp temperature)
ADC,CAL_TC,cc_float *,cal.tc,Linear temperature coefficients
ADC,CAL_DTC,cc_float *,cal.dtc,Second order temperature coefficients
ADC,CAL_LIMIT_INDEX,uint32_t,cal.cal_limit_index,Index of calibration limit structure for this ADC
ADC,AVE1_RAW_MEAS,int32_t,average1.raw.meas,Average1 raw measurement
ADC,AVE1_RAW_PP,int32_t,average1.raw.peak_to_peak,Average1 raw peak to peak
ADC,AVE1_NUM_VALID_SAMPLES,uint32_t,average1.raw.num_samples.valid,Average1 number of valid samples
ADC,AVE1_NUM_INVALID_SAMPLES,uint32_t,average1.raw.num_samples.invalid,Average1 number of invalid samples
ADC,AVE2_RAW_MEAS,int32_t,average2.raw.meas,Average2 raw measurement
ADC,AVE2_RAW_PP,int32_t,average2.raw.peak_to_peak,Average2 raw peak to peak
ADC,AVE2_NUM_VALID_SAMPLES,uint32_t,average2.raw.num_samples.valid,Average2 number of valid samples
ADC,AVE2_NUM_INVALID_SAMPLES,uint32_t,average2.raw.num_samples.invalid,Average2 number of invalid samples
ADC,TRANSDUCER_INDEX,uint32_t,transducer_index,Index of transducer using this ADCs signal
ADC,STATUS,struct SIG_status,meas.status,Measurement status bit masks
ADC,FAULTS,uint32_t,meas.status.faults,Measurement faults bit mask
ADC,WARNINGS,uint32_t,meas.status.warnings,Measurement warnings bit mask
ADC,MEAS_SIGNAL,struct CC_meas_signal,meas.unfiltered,Libreg measurement structure (signal and validity)
ADC,MEAS_IS_VALID,bool,meas.unfiltered.is_valid,Measured signal validity
ADC,MEAS_UNFILTERED,cc_float,meas.unfiltered.signal,Unfiltered signal
ADC,MEAS_FILTERED_IS_VALID,bool,meas.filtered.is_valid,Filtered measured signal validity
ADC,MEAS_FILTERED,cc_float,meas.filtered.signal,Filtered signal
ADC,MEAS_AVE1_MEAN,cc_float,meas.average1.mean,Average1 mean
ADC,MEAS_AVE1_PP,cc_float,meas.average1.peak_to_peak,Average1 peak to peak
ADC,MEAS_AVE2_MEAN,cc_float,meas.average2.mean,Average2 mean
ADC,MEAS_AVE2_PP,cc_float,meas.average2.peak_to_peak,Average2 peak to peak
,,,,
TRANSDUCER,FAULT_FLAG,bool,fault_flag,Transducer fault flag
TRANSDUCER,ADC_CALIBRATING_FLAG,bool,adc_calibrating_flag,ADC calibrating flag (extended by at least one average1 period)
TRANSDUCER,NOMINAL_GAIN,cc_float,nominal_gain,Transducer nominal gain (physical units/volt)
TRANSDUCER,GAIN_ERR_PPM,enum REG_status,gain_err_ppm,Gain error
TRANSDUCER,IGNORE_GAIN_ERR_DURING_CAL,enum CC_enabled_disabled *,ignore_gain_err_during_cal,Pointer to flag: if true then gain_err_ppm is ignored during calibration
TRANSDUCER,PRIMARY_TURNS_POINTER,uint32_t *,primary_turns_p,Point to primary turns for a DCCT (NULL to use primary_turns)
TRANSDUCER,PRIMARY_TURNS,uint32_t,primary_turns,Primary turns for a DCCT (0 if unused)
TRANSDUCER,POSITION,enum SIG_transducer_position,position,Transducer position with respect to a polarity switch
TRANSDUCER,CAL_EVENT,cc_float *,cal.event.f,Transducer calibration event
TRANSDUCER,CAL_TC,cc_float *,cal.tc,Linear temperature coefficients
TRANSDUCER,CAL_DTC,cc_float *,cal.dtc,Second order temperature coefficients
TRANSDUCER,STATUS,struct SIG_status,meas.status,Measurement status bit masks
TRANSDUCER,FAULTS,uint32_t,meas.status.faults,Measurement faults bit mask
TRANSDUCER,WARNINGS,uint32_t,meas.status.warnings,Measurement warnings bit mask
TRANSDUCER,MEAS_SIGNAL,struct CC_meas_signal,meas.unfiltered,Libreg measurement structure (signal and validity)
TRANSDUCER,MEAS_IS_VALID,bool,meas.unfiltered.is_valid,Measured signal validity
TRANSDUCER,MEAS_UNFILTERED,cc_float,meas.unfiltered.signal,Unfiltered signal
TRANSDUCER,MEAS_FILTERED_IS_VALID,bool,meas.filtered.is_valid,Filtered measured signal validity
TRANSDUCER,MEAS_FILTERED,cc_float,meas.filtered.signal,Filtered signal
TRANSDUCER,MEAS_AVE1_MEAN,cc_float,meas.average1.mean,Average1 mean
TRANSDUCER,MEAS_AVE1_PP,cc_float,meas.average1.peak_to_peak,Average1 peak to peak
TRANSDUCER,MEAS_AVE2_MEAN,cc_float,meas.average2.mean,Average2 mean
TRANSDUCER,MEAS_AVE2_PP,cc_float,meas.average2.peak_to_peak,Average2 peak to peak
TRANSDUCER,FAST_MEAS,cc_float,fast_meas,Fast measurement
TRANSDUCER,EXT_MEAS_IS_ENABLED,bool,ext_meas.is_enabled,External signal control
TRANSDUCER,EXT_MEAS_SIGNAL,cc_float,ext_meas.meas.signal,External signal
TRANSDUCER,EXT_MEAS_IS_VALID,bool,ext_meas.meas.is_valid,External signal validity
,,,,
SELECT,SELECTOR,enum SIG_selector,selector,User signal selector
SELECT,ACTUAL_SELECTOR,enum SIG_selector,actual_selector,Actual signal selector
SELECT,DIFF_WARN_LIMIT,cc_float,diff_warn_limit,Signal difference warning limit
SELECT,DIFF_FAULT_LIMIT,cc_float,diff_fault_limit,Signal difference fault limit
SELECT,DIFF_FAULT_WARN_RATIO,cc_float,diff_fault_warn_ratio,Diff fault limit to warn limit ration (0 if not in use)
SELECT,ABS_DIFF,cc_float,abs_diff,Absolute difference between input signals
SELECT,MILLI_ABS_DIFF,int16_t,milli_abs_diff,Clipped signed short integer of abs_diff x 1000
SELECT,STATUS,struct SIG_status,meas.status,Measurement status bit masks
SELECT,FAULTS,uint32_t,meas.status.faults,Measurement faults bit mask
SELECT,WARNINGS,uint32_t,meas.status.warnings,Measurement warnings bit mask
SELECT,MEAS_SIGNAL,struct CC_meas_signal,meas.unfiltered,Libreg measurement structure (signal and validity)
SELECT,MEAS_IS_VALID,bool,meas.unfiltered.is_valid,Measured signal validity
SELECT,MEAS_UNFILTERED,cc_float,meas.unfiltered.signal,Unfiltered signal
SELECT,MEAS_FILTERED_IS_VALID,bool,meas.filtered.is_valid,Filtered measured signal validity
SELECT,MEAS_FILTERED,cc_float,meas.filtered.signal,Filtered signal
SELECT,MEAS_AVE1_MEAN,cc_float,meas.average1.mean,Average1 mean
SELECT,MEAS_AVE1_PP,cc_float,meas.average1.peak_to_peak,Average1 peak to peak
SELECT,MEAS_AVE2_MEAN,cc_float,meas.average2.mean,Average2 mean
SELECT,MEAS_AVE2_PP,cc_float,meas.average2.peak_to_peak,Average2 peak to peak
SELECT,FAST_MEAS,cc_float,fast_meas,Fast measurement
,,,,
DAC,MIN_RAW,int32_t,min_raw_dac,Minimum raw value
DAC,MAX_RAW,int32_t,max_raw_dac,Maximum raw value
