source:ccrt device:log_01 epoch:1673449997 timeOrigin:2.900000000 firstSampleTime:0.900000000 period:0.001000000 name:ACQ type:analog,I_A_(A),I_B_(A)
0.900000000,0.00014001784,0.00014013558
0.901000000,0.00014001784,0.00014013558
0.902000000,0.00014001784,0.00014013558
0.903000000,0.0001300174,0.00013013679
0.904000000,0.0001300174,0.00013013679
0.905000000,0.00012001695,0.00012013799
0.906000000,0.00012001695,0.00012013799
0.907000000,0.00012001695,0.00012013799
0.908000000,0.00011001658,0.00011013904
0.909000000,0.00011001658,0.00011013904
0.910000000,0.00010001613,0.00010014023
0.911000000,0.00010001613,0.00010014023
0.912000000,0.00010001613,0.00010014023
0.913000000,9.0015747e-05,9.0141431e-05
0.914000000,9.0015747e-05,9.0141431e-05
0.915000000,8.0015299e-05,8.0142483e-05
0.916000000,8.0015299e-05,8.0142483e-05
0.917000000,7.0014925e-05,7.014368e-05
0.918000000,7.0014925e-05,7.014368e-05
0.919000000,6.0014478e-05,6.0144877e-05
0.920000000,6.0014478e-05,6.0144877e-05
0.921000000,5.001403e-05,5.0146074e-05
0.922000000,5.001403e-05,5.0146074e-05
0.923000000,5.001403e-05,4.0147126e-05
0.924000000,4.0013652e-05,4.0147126e-05
0.925000000,4.0013652e-05,4.0147126e-05
0.926000000,3.0013205e-05,3.0148323e-05
0.927000000,3.0013205e-05,3.0148323e-05
0.928000000,2.0012829e-05,2.014952e-05
0.929000000,2.0012829e-05,2.014952e-05
0.930000000,1.0012382e-05,1.0150718e-05
0.931000000,1.0012382e-05,1.0150718e-05
0.932000000,1.1932928e-08,1.5177039e-07
0.933000000,1.1932928e-08,1.5177039e-07
0.934000000,1.1932928e-08,1.5177039e-07
0.935000000,1.1932928e-08,1.5177039e-07
0.936000000,-9.9876443e-06,-9.8480168e-06
0.937000000,-9.9876443e-06,-9.8480168e-06
0.938000000,-9.9876443e-06,-9.8480168e-06
0.939000000,-9.9876443e-06,-9.8480168e-06
0.940000000,-9.9876443e-06,-9.8480168e-06
0.941000000,-9.9876443e-06,-9.8480168e-06
0.942000000,-9.9876443e-06,-9.8480168e-06
0.943000000,-9.9876443e-06,-9.8480168e-06
0.944000000,-1.9987294e-05,-1.9847819e-05
0.945000000,-1.9987294e-05,-1.9847819e-05
0.946000000,-1.9987294e-05,-1.9847819e-05
0.947000000,-1.9987294e-05,-1.9847819e-05
0.948000000,-1.9987294e-05,-1.9847819e-05
0.949000000,-1.9987294e-05,-1.9847819e-05
0.950000000,-1.9987294e-05,-1.9847819e-05
0.951000000,-1.9987294e-05,-1.9847819e-05
0.952000000,-1.9987294e-05,-1.9847819e-05
0.953000000,-2.998687e-05,-2.9847622e-05
0.954000000,-2.998687e-05,-2.9847622e-05
0.955000000,-2.998687e-05,-2.9847622e-05
0.956000000,-2.998687e-05,-2.9847622e-05
0.957000000,-2.998687e-05,-2.9847622e-05
0.958000000,-2.998687e-05,-2.9847622e-05
0.959000000,-2.998687e-05,-2.9847622e-05
0.960000000,-2.998687e-05,-2.9847622e-05
0.961000000,-2.998687e-05,-2.9847622e-05
0.962000000,-2.998687e-05,-2.9847622e-05
0.963000000,-1.9987294e-05,-2.9847622e-05
0.964000000,-1.9987294e-05,-1.9847819e-05
0.965000000,-1.9987294e-05,-1.9847819e-05
0.966000000,-1.9987294e-05,-1.9847819e-05
0.967000000,-1.9987294e-05,-1.9847819e-05
0.968000000,-1.9987294e-05,-1.9847819e-05
0.969000000,-9.9876443e-06,-9.8480168e-06
0.970000000,-9.9876443e-06,-9.8480168e-06
0.971000000,-9.9876443e-06,-9.8480168e-06
0.972000000,-9.9876443e-06,-9.8480168e-06
0.973000000,-9.9876443e-06,-9.8480168e-06
0.974000000,-9.9876443e-06,-9.8480168e-06
0.975000000,-9.9876443e-06,-9.8480168e-06
0.976000000,-9.9876443e-06,-9.8480168e-06
0.977000000,-9.9876443e-06,-9.8480168e-06
0.978000000,-9.9876443e-06,-9.8480168e-06
0.979000000,-9.9876443e-06,-9.8480168e-06
0.980000000,-9.9876443e-06,-9.8480168e-06
0.981000000,-9.9876443e-06,-9.8480168e-06
0.982000000,-9.9876443e-06,-9.8480168e-06
0.983000000,-9.9876443e-06,-9.8480168e-06
0.984000000,-9.9876443e-06,-9.8480168e-06
0.985000000,-9.9876443e-06,-9.8480168e-06
0.986000000,1.1932928e-08,1.5177039e-07
0.987000000,1.1932928e-08,1.5177039e-07
0.988000000,1.1932928e-08,1.5177039e-07
0.989000000,1.1932928e-08,1.5177039e-07
0.990000000,1.1932928e-08,1.5177039e-07
0.991000000,1.1932928e-08,1.5177039e-07
0.992000000,1.1932928e-08,1.5177039e-07
0.993000000,1.1932928e-08,1.5177039e-07
0.994000000,1.1932928e-08,1.5177039e-07
0.995000000,1.1932928e-08,1.5177039e-07
0.996000000,1.1932928e-08,1.5177039e-07
0.997000000,1.1932928e-08,1.5177039e-07
0.998000000,1.1932928e-08,1.5177039e-07
0.999000000,1.1932928e-08,1.5177039e-07
1.000000000,1.1932928e-08,1.5177039e-07
1.001000000,1.1932928e-08,1.5177039e-07
1.002000000,1.1932928e-08,1.5177039e-07
1.003000000,1.0012382e-05,1.0150718e-05
1.004000000,1.0012382e-05,1.0150718e-05
1.005000000,2.0012829e-05,2.014952e-05
1.006000000,3.0013205e-05,3.0148323e-05
1.007000000,4.0013652e-05,4.0147126e-05
1.008000000,5.001403e-05,5.0146074e-05
1.009000000,6.0014478e-05,6.0144877e-05
1.010000000,6.0014478e-05,6.0144877e-05
1.011000000,7.0014925e-05,7.014368e-05
1.012000000,8.0015299e-05,8.0142483e-05
1.013000000,0.00011001658,0.00011013904
1.014000000,0.00015001823,0.00015013439
1.015000000,0.00020002032,0.00020012869
1.016000000,0.00025002242,0.00025012286
1.017000000,0.00030002458,0.00030011701
1.018000000,0.00035002662,0.00035011116
1.019000000,0.00040002877,0.00040010546
1.020000000,0.00045003081,0.00045009964
1.021000000,0.00050003297,0.0005000938
1.022000000,0.00056003535,0.00056008692
1.023000000,0.00064003881,0.00064007763
1.024000000,0.000740043,0.00074006605
1.025000000,0.00087004848,0.00087005092
1.026000000,0.00099005341,0.00099003699
1.027000000,0.0011200588,0.0011200219
1.028000000,0.0012500645,0.0012500068
1.029000000,0.0013800699,0.0013799918
1.030000000,0.0015000746,0.0014999778
1.031000000,0.0016300802,0.0016299628
1.032000000,0.001770086,0.0017699465
1.033000000,0.0019300926,0.001929928
1.034000000,0.0021401015,0.0021398982
1.035000000,0.0023701112,0.002369863
1.036000000,0.0026101214,0.0026098259
1.037000000,0.0028401308,0.0028397907
1.038000000,0.003080141,0.0030797534
1.039000000,0.003320151,0.0033197165
1.040000000,0.0035501607,0.003549681
1.041000000,0.0037901707,0.0037896442
1.042000000,0.0040301806,0.0040296074
1.043000000,0.0043201926,0.0043195626
1.044000000,0.0046502068,0.0046495115
1.045000000,0.0050202222,0.0050194548
1.046000000,0.0053902376,0.005389398
1.047000000,0.0057702535,0.0057693394
1.048000000,0.0061402689,0.0061392821
1.049000000,0.0065102847,0.0065092253
1.050000000,0.0068802997,0.0068791686
1.051000000,0.0072503155,0.0072491118
1.052000000,0.0076303314,0.0076290537
1.053000000,0.0080603492,0.0080589876
1.054000000,0.0085503701,0.0085589094
1.055000000,0.0090803914,0.0090788305
1.056000000,0.0096204141,0.009618747
1.057000000,0.010150437,0.010158664
1.058000000,0.01069046,0.010688582
1.059000000,0.011220482,0.011218499
1.060000000,0.011760505,0.011758417
1.061000000,0.012290527,0.012288336
1.062000000,0.01283055,0.012838251
1.063000000,0.013430576,0.01342816
1.064000000,0.014100603,0.014098058
1.065000000,0.014810633,0.014807948
1.066000000,0.015530663,0.015527837
1.067000000,0.016240692,0.016247725
1.068000000,0.016960723,0.016957616
1.069000000,0.017670752,0.017677506
1.070000000,0.018390782,0.018387396
1.071000000,0.019100811,0.019097287
1.072000000,0.019830843,0.019827176
1.073000000,0.020610875,0.020617051
1.074000000,0.021470912,0.021476919
1.075000000,0.022380948,0.022376781
1.076000000,0.023300987,0.023296639
1.077000000,0.024211025,0.024206501
1.078000000,0.025121063,0.025126358
1.079000000,0.026031101,0.026036218
1.080000000,0.026941139,0.026946079
1.081000000,0.027851179,0.027855936
1.082000000,0.028781217,0.028775794
1.083000000,0.029761257,0.029765641
1.084000000,0.030821301,0.030825479
1.085000000,0.031931348,0.031935308
1.086000000,0.033051394,0.033055138
1.087000000,0.034171443,0.034174964
1.088000000,0.035281487,0.035284791
1.089000000,0.036401536,0.036404621
1.090000000,0.03751158,0.037514452
1.091000000,0.038621631,0.038624279
1.092000000,0.039751679,0.039754104
1.093000000,0.04094173,0.040933922
1.094000000,0.04220178,0.042203728
1.095000000,0.043521836,0.043513525
1.096000000,0.044841893,0.044843324
1.097000000,0.04616195,0.046163123
1.098000000,0.047482003,0.047482915
1.099000000,0.048802055,0.048802715
1.100000000,0.050112113,0.050112512
1.101000000,0.051432166,0.051432312
1.102000000,0.052762225,0.052762102
1.103000000,0.054152284,0.054151893
1.104000000,0.055612344,0.055611666
1.105000000,0.057132404,0.057131432
1.106000000,0.058652472,0.058651198
1.107000000,0.060172532,0.060170967
1.108000000,0.061692599,0.061690729
1.109000000,0.063202664,0.063210495
1.110000000,0.064722724,0.064720258
1.111000000,0.066232786,0.066230029
1.112000000,0.067762852,0.067759797
1.113000000,0.069342919,0.069339551
1.114000000,0.070992984,0.070999295
1.115000000,0.072693057,0.072699033
1.116000000,0.07440313,0.074398771
1.117000000,0.076103203,0.076108508
1.118000000,0.077803276,0.077808246
1.119000000,0.079503343,0.079507984
1.120000000,0.081203416,0.081207722
1.121000000,0.082903482,0.082897455
1.122000000,0.084603563,0.084607191
1.123000000,0.086363636,0.086366922
1.124000000,0.088193707,0.088186644
1.125000000,0.090053782,0.09005636
1.126000000,0.091923863,0.091926068
1.127000000,0.093793936,0.093795784
1.128000000,0.095664017,0.0956655
1.129000000,0.097524099,0.097525209
1.130000000,0.09939418,0.099394925
1.131000000,0.10125425,0.10125463
1.132000000,0.10312433,0.10312435
1.133000000,0.10503441,0.10503405
1.134000000,0.10700449,0.10700375
1.135000000,0.10900458,0.10901344
1.136000000,0.11102466,0.11102313
1.137000000,0.11302474,0.11303283
1.138000000,0.11503483,0.11503252
1.139000000,0.11703491,0.1170322
1.140000000,0.119035,0.11903189
1.141000000,0.12103508,0.12103158
1.142000000,0.12304517,0.12304128
1.143000000,0.12508525,0.12508096
1.144000000,0.12716533,0.12717065
1.145000000,0.12928542,0.12928031
1.146000000,0.13140552,0.13139999
1.147000000,0.13351561,0.13351966
1.148000000,0.1356357,0.13562934
1.149000000,0.13774578,0.137739
1.150000000,0.13984586,0.13984869
1.151000000,0.14195596,0.14195837
1.152000000,0.14406605,0.14406805
1.153000000,0.14620614,0.14619772
1.154000000,0.14836623,0.14836738
1.155000000,0.15055633,0.15055704
1.156000000,0.15273641,0.15273671
1.157000000,0.15492649,0.15492636
1.158000000,0.15710658,0.15710604
1.159000000,0.15928669,0.15928569
1.160000000,0.16145678,0.16146536
1.161000000,0.16363686,0.16363502
1.162000000,0.16580696,0.1658147
1.163000000,0.16799705,0.16799437
1.164000000,0.17020714,0.170204
1.165000000,0.17241724,0.17241366
1.166000000,0.17462732,0.17463332
1.167000000,0.17683741,0.17684299
1.168000000,0.17904751,0.17905265
1.169000000,0.18125761,0.18125232
1.170000000,0.18345769,0.18346196
1.171000000,0.18565778,0.18566163
1.172000000,0.18785788,0.18786131
1.173000000,0.19005796,0.19006096
1.174000000,0.19225806,0.19226062
1.175000000,0.19445816,0.19446029
1.176000000,0.19665824,0.19665994
1.177000000,0.19884834,0.19884959
1.178000000,0.20103842,0.20103927
1.179000000,0.20322853,0.20322892
1.180000000,0.20541862,0.20541859
1.181000000,0.2075987,0.20759825
1.182000000,0.2097788,0.20977791
1.183000000,0.2119489,0.21194759
1.184000000,0.21409898,0.21409725
1.185000000,0.21622907,0.21622694
1.186000000,0.21835916,0.21835659
1.187000000,0.22048925,0.22048628
1.188000000,0.22261934,0.22261594
1.189000000,0.22473943,0.22474562
1.190000000,0.22685952,0.22686528
1.191000000,0.2289796,0.22898497
1.192000000,0.2310897,0.23109464
1.193000000,0.23317978,0.23317431
1.194000000,0.23522986,0.23522399
1.195000000,0.23724994,0.2372537
1.196000000,0.23927003,0.23927337
1.197000000,0.24129012,0.24128307
1.198000000,0.2433002,0.24330276
1.199000000,0.24531028,0.24531244
1.200000000,0.24732038,0.24732214
1.201000000,0.24933046,0.24933183
1.202000000,0.25132054,0.25132152
1.203000000,0.25328064,0.25328124
1.204000000,0.25518069,0.25518093
1.205000000,0.25704077,0.25704065
1.206000000,0.25890085,0.25890037
1.207000000,0.26075092,0.26075009
1.208000000,0.26260102,0.26259977
1.209000000,0.26445109,0.26444951
1.210000000,0.26630116,0.26629922
1.211000000,0.26815125,0.26814893
1.212000000,0.26998132,0.26997864
1.213000000,0.2717514,0.27174836
1.214000000,0.27345148,0.27345812
1.215000000,0.27511153,0.27510786
1.216000000,0.27676162,0.2767576
1.217000000,0.27840167,0.27839735
1.218000000,0.28004172,0.28004709
1.219000000,0.28168181,0.28168684
1.220000000,0.28332189,0.2833266
1.221000000,0.28496194,0.28496635
1.222000000,0.28658202,0.28658611
1.223000000,0.28813207,0.28813586
1.224000000,0.28959215,0.28959563
1.225000000,0.2909922,0.29099542
1.226000000,0.29238227,0.29238522
1.227000000,0.29377231,0.29377499
1.228000000,0.29516238,0.29516476
1.229000000,0.29655245,0.29655457
1.230000000,0.29793251,0.29793435
1.231000000,0.29932255,0.29932413
1.232000000,0.3006826,0.30068392
1.233000000,0.30196264,0.30196372
1.234000000,0.3031427,0.30313355
1.235000000,0.30424276,0.30424339
1.236000000,0.30534279,0.30534321
1.237000000,0.30643284,0.30643302
1.238000000,0.30752289,0.30752286
1.239000000,0.30862296,0.30862272
1.240000000,0.30971298,0.30971253
1.241000000,0.31080303,0.31080237
1.242000000,0.31186306,0.3118622
1.243000000,0.3128331,0.31283206
1.244000000,0.31368312,0.3136819
1.245000000,0.31446317,0.3144618
1.246000000,0.31521317,0.31521168
1.247000000,0.31597322,0.31597158
1.248000000,0.31673324,0.31673145
1.249000000,0.31749329,0.31749132
1.250000000,0.31824332,0.31825122
1.251000000,0.31900337,0.31900111
1.252000000,0.31973341,0.319731
1.253000000,0.32035342,0.3203609
1.254000000,0.32085344,0.32085085
1.255000000,0.32126346,0.32126075
1.256000000,0.32165346,0.32166067
1.257000000,0.32205346,0.32205063
1.258000000,0.32244352,0.32245055
1.259000000,0.32284352,0.32284051
1.260000000,0.32323352,0.32324043
1.261000000,0.32363355,0.32363039
1.262000000,0.32399359,0.32399035
1.263000000,0.32425359,0.32425028
1.264000000,0.32436359,0.32436028
1.265000000,0.32438359,0.32438025
1.266000000,0.32438359,0.32438025
1.267000000,0.32438359,0.32438025
1.268000000,0.32439357,0.32439029
1.269000000,0.32439357,0.32439029
1.270000000,0.32439357,0.32440025
1.271000000,0.32440358,0.32440025
1.272000000,0.32437357,0.32437027
1.273000000,0.32423356,0.32423028
1.274000000,0.32394356,0.32394037
1.275000000,0.32355353,0.3235504
1.276000000,0.32314351,0.32314044
1.277000000,0.32273349,0.32274053
1.278000000,0.32233351,0.32233056
1.279000000,0.32193348,0.32193065
1.280000000,0.32152346,0.3215307
1.281000000,0.32112345,0.32112077
1.282000000,0.32069343,0.32069084
1.283000000,0.32013339,0.32014093
1.284000000,0.31942338,0.31942105
1.285000000,0.31861335,0.31862116
1.286000000,0.31779331,0.31779131
1.287000000,0.31696326,0.31696141
1.288000000,0.31614321,0.31614155
1.289000000,0.3153232,0.31532168
1.290000000,0.31449318,0.31450179
1.291000000,0.31367314,0.31367192
1.292000000,0.31282312,0.31282207
1.293000000,0.31185308,0.31185219
1.294000000,0.31072304,0.31072238
1.295000000,0.30949298,0.30949256
1.296000000,0.3082329,0.30823275
1.297000000,0.30699289,0.30699295
1.298000000,0.30574283,0.30574313
1.299000000,0.30450276,0.30450332
1.300000000,0.30326271,0.30326355
1.301000000,0.30202267,0.30202371
1.302000000,0.3007426,0.30074391
1.303000000,0.29935256,0.29935414
1.304000000,0.29780248,0.29780439
1.305000000,0.29615241,0.29615462
1.306000000,0.29449233,0.29448488
1.307000000,0.29282227,0.29282513
1.308000000,0.29116222,0.29116538
1.309000000,0.28950214,0.28950563
1.310000000,0.28785205,0.28784591
1.311000000,0.286192,0.28619614
1.312000000,0.28450194,0.28450641
1.313000000,0.28270185,0.28270671
1.314000000,0.28075176,0.280747
1.315000000,0.27870169,0.27869731
1.316000000,0.27663159,0.27662763
1.317000000,0.27456152,0.27456796
1.318000000,0.27250144,0.27249825
1.319000000,0.27044132,0.27043858
1.320000000,0.26838124,0.2683889
1.321000000,0.26633117,0.2663292
1.322000000,0.26425108,0.26424953
1.323000000,0.26205099,0.26204988
1.324000000,0.25971091,0.25971022
1.325000000,0.2572808,0.25728062
1.326000000,0.25483069,0.25483099
1.327000000,0.25238058,0.25238135
1.328000000,0.24994048,0.24994174
1.329000000,0.24750039,0.24750212
1.330000000,0.24506027,0.24506249
1.331000000,0.24263017,0.24263285
1.332000000,0.24017006,0.24017324
1.333000000,0.23760997,0.23760363
1.334000000,0.23490985,0.23490405
1.335000000,0.23211972,0.23212448
1.336000000,0.22931963,0.22932492
1.337000000,0.22652951,0.22652535
1.338000000,0.22372939,0.22373578
1.339000000,0.22094926,0.22094621
1.340000000,0.21815914,0.21815664
1.341000000,0.21537904,0.21537706
1.342000000,0.21256891,0.21256748
1.343000000,0.2096688,0.20966795
1.344000000,0.20664868,0.20664841
1.345000000,0.20354855,0.20354888
1.346000000,0.20042841,0.20042935
1.347000000,0.19731827,0.19731985
1.348000000,0.19421814,0.19421032
1.349000000,0.19110802,0.1911108
1.350000000,0.18801789,0.18801127
1.351000000,0.18491775,0.18492174
1.352000000,0.18180762,0.18180223
1.353000000,0.17860749,0.17860273
1.354000000,0.17529735,0.17530322
1.355000000,0.17192721,0.17192376
1.356000000,0.16853707,0.16854426
1.357000000,0.16515693,0.1651548
1.358000000,0.16178679,0.16178532
1.359000000,0.15841664,0.15841584
1.360000000,0.15504651,0.15504634
1.361000000,0.15167637,0.15167686
1.362000000,0.14829622,0.14829738
1.363000000,0.14485608,0.14484791
1.364000000,0.14130594,0.14130847
1.365000000,0.13771579,0.13770902
1.366000000,0.13410562,0.13410957
1.367000000,0.13050547,0.13051014
1.368000000,0.12690534,0.12691067
1.369000000,0.12331518,0.12332124
1.370000000,0.11973503,0.11973179
1.371000000,0.11614488,0.11614234
1.372000000,0.11255473,0.1125529
1.373000000,0.10890457,0.10890346
1.374000000,0.10517441,0.10517403
1.375000000,0.10140426,0.10140461
1.376000000,0.097634099,0.097635195
1.377000000,0.093863949,0.093865767
1.378000000,0.09010379,0.090106346
1.379000000,0.086343631,0.086346924
1.380000000,0.082593471,0.082587503
1.381000000,0.078833312,0.078838088
1.382000000,0.075083159,0.075078666
1.383000000,0.071282998,0.07127925
1.384000000,0.067432836,0.067429848
1.385000000,0.06355267,0.063550442
1.386000000,0.059672512,0.059671041
1.387000000,0.05579235,0.055791639
1.388000000,0.051922187,0.051922232
1.389000000,0.048052024,0.048052829
1.390000000,0.044181865,0.044183422
1.391000000,0.0403217,0.040324017
1.392000000,0.03646154,0.036464613
1.393000000,0.032581374,0.032575212
1.394000000,0.028661212,0.028655814
1.395000000,0.024731047,0.024726421
1.396000000,0.020790881,0.020797025
1.397000000,0.016870718,0.01686763
1.398000000,0.012940555,0.012938236
1.399000000,0.0090203891,0.0090188393
1.400000000,0.0051102256,0.0051094405
1.401000000,0.0012000622,0.0012000126
1.402000000,-0.0027098267,-0.0027098048
1.403000000,-0.0066295448,-0.0066297422
1.404000000,-0.010549262,-0.010549679
1.405000000,-0.014478978,-0.014479617
1.406000000,-0.018398697,-0.018399555
1.407000000,-0.022328414,-0.022319492
1.408000000,-0.026238132,-0.026239431
1.409000000,-0.030147852,-0.030149367
1.410000000,-0.034057569,-0.034059305
1.411000000,-0.037957288,-0.037959244
1.412000000,-0.041857008,-0.04185918
1.413000000,-0.045746725,-0.045739114
1.414000000,-0.049616445,-0.049609054
1.415000000,-0.05347617,-0.053468991
1.416000000,-0.057325892,-0.057328932
1.417000000,-0.061175615,-0.06117887
1.418000000,-0.065015338,-0.06501881
1.419000000,-0.068855062,-0.068858743
1.420000000,-0.072694786,-0.07269869
1.421000000,-0.076524504,-0.076528624
1.422000000,-0.080354229,-0.080348566
1.423000000,-0.084143959,-0.084148504
1.424000000,-0.087903686,-0.087898448
1.425000000,-0.091633417,-0.091638394
1.426000000,-0.095363148,-0.095358327
1.427000000,-0.09908288,-0.099078268
1.428000000,-0.10279262,-0.10279822
1.429000000,-0.10651235,-0.10650815
1.430000000,-0.11022208,-0.11021809
1.431000000,-0.11392181,-0.11392803
1.432000000,-0.11761155,-0.11761797
1.433000000,-0.12126128,-0.12125792
1.434000000,-0.12485103,-0.12484786
1.435000000,-0.12840077,-0.12839781
1.436000000,-0.13194051,-0.13193774
1.437000000,-0.13547027,-0.13546769
1.438000000,-0.13900001,-0.13900764
1.439000000,-0.14252976,-0.14253758
1.440000000,-0.1460595,-0.14605752
1.441000000,-0.14957924,-0.14957745
1.442000000,-0.15307899,-0.15307741
1.443000000,-0.15652874,-0.15652736
1.444000000,-0.15988851,-0.1598873
1.445000000,-0.16320826,-0.16320725
1.446000000,-0.16650802,-0.1665072
1.447000000,-0.16980779,-0.16980715
1.448000000,-0.17310755,-0.1731071
1.449000000,-0.17639731,-0.17639704
1.450000000,-0.17968708,-0.17968699
1.451000000,-0.18296683,-0.18296693
1.452000000,-0.18623661,-0.18623689
1.453000000,-0.18942636,-0.18942682
1.454000000,-0.19251616,-0.19251677
1.455000000,-0.19554593,-0.19554672
1.456000000,-0.19856572,-0.19856668
1.457000000,-0.2015755,-0.20157664
1.458000000,-0.2045953,-0.20459659
1.459000000,-0.20760506,-0.20759654
1.460000000,-0.21060485,-0.2106065
1.461000000,-0.21360464,-0.21360645
1.462000000,-0.21658443,-0.2165864
1.463000000,-0.21947421,-0.21947634
1.464000000,-0.22225402,-0.2222563
1.465000000,-0.22496381,-0.22496627
1.466000000,-0.22765364,-0.22765622
1.467000000,-0.23034343,-0.23034617
1.468000000,-0.23303324,-0.23302613
1.469000000,-0.23571303,-0.23571609
1.470000000,-0.23839284,-0.23839605
1.471000000,-0.24107264,-0.24107601
1.472000000,-0.24372247,-0.24372596
1.473000000,-0.24628228,-0.24627593
1.474000000,-0.24871211,-0.24870588
1.475000000,-0.25105193,-0.25105587
1.476000000,-0.25338176,-0.25338581
1.477000000,-0.25571159,-0.25571576
1.478000000,-0.25804144,-0.25804573
1.479000000,-0.26036128,-0.26036569
1.480000000,-0.26269111,-0.26268566
1.481000000,-0.26501092,-0.26500562
1.482000000,-0.26729077,-0.2672956
1.483000000,-0.26948062,-0.26948553
1.484000000,-0.27153045,-0.27152553
1.485000000,-0.27349034,-0.27348548
1.486000000,-0.27543017,-0.27542546
1.487000000,-0.27737004,-0.27736542
1.488000000,-0.27929991,-0.2793054
1.489000000,-0.28123975,-0.28124538
1.490000000,-0.28317961,-0.28317532
1.491000000,-0.28510949,-0.28510529
1.492000000,-0.28700936,-0.28700528
1.493000000,-0.28879923,-0.28879523
1.494000000,-0.2904391,-0.29044521
1.495000000,-0.29199898,-0.2919952
1.496000000,-0.29352888,-0.29352516
1.497000000,-0.29505879,-0.29506513
1.498000000,-0.29659867,-0.29659513
1.499000000,-0.29812855,-0.29812509
1.500000000,-0.29964843,-0.29965508
1.501000000,-0.30117831,-0.30118504
1.502000000,-0.30267823,-0.30267504
1.503000000,-0.30405813,-0.30405501
1.504000000,-0.30528802,-0.30528498
1.505000000,-0.30641794,-0.30641496
1.506000000,-0.30753788,-0.30753493
1.507000000,-0.30864778,-0.30864492
1.508000000,-0.30975771,-0.30976489
1.509000000,-0.31087762,-0.31087491
1.510000000,-0.31198755,-0.31198487
1.511000000,-0.31309745,-0.31309485
1.512000000,-0.31417739,-0.31417486
1.513000000,-0.31513733,-0.31513485
1.514000000,-0.31594726,-0.31594479
1.515000000,-0.31665725,-0.3166548
1.516000000,-0.31734717,-0.31734478
1.517000000,-0.31803712,-0.31803477
1.518000000,-0.31872708,-0.31872478
1.519000000,-0.31941703,-0.31941473
1.520000000,-0.32010698,-0.32010475
1.521000000,-0.32079691,-0.3207947
1.522000000,-0.32145688,-0.32145473
1.523000000,-0.32199684,-0.32199469
1.524000000,-0.32238683,-0.32238469
1.525000000,-0.32267678,-0.32267469
1.526000000,-0.32295677,-0.32295468
1.527000000,-0.32322675,-0.32322469
1.528000000,-0.32350674,-0.32350469
1.529000000,-0.32377669,-0.32377467
1.530000000,-0.32405668,-0.32405469
1.531000000,-0.32432666,-0.32432467
1.532000000,-0.32457668,-0.32457465
1.533000000,-0.32470664,-0.32470468
1.534000000,-0.32468665,-0.32468468
1.535000000,-0.32457668,-0.32457465
1.536000000,-0.32443666,-0.32444468
1.537000000,-0.32430667,-0.32431468
1.538000000,-0.3241767,-0.32418466
1.539000000,-0.32405668,-0.32405469
1.540000000,-0.32392672,-0.32392466
1.541000000,-0.32379672,-0.32379469
1.542000000,-0.32363671,-0.32363468
1.543000000,-0.32337674,-0.32337472
1.544000000,-0.32296678,-0.32296473
1.545000000,-0.32246682,-0.3224647
1.546000000,-0.32195684,-0.32195473
1.547000000,-0.32143688,-0.32144469
1.548000000,-0.32092693,-0.32093471
1.549000000,-0.32041696,-0.32042474
1.550000000,-0.31990698,-0.31991476
1.551000000,-0.31939703,-0.31940475
1.552000000,-0.31886706,-0.31886476
1.553000000,-0.31822711,-0.31822479
1.554000000,-0.31745717,-0.31745479
1.555000000,-0.31659722,-0.31660482
1.556000000,-0.31572732,-0.31572482
1.557000000,-0.31485736,-0.31485483
1.558000000,-0.31398743,-0.31399482
1.559000000,-0.31312749,-0.31312484
1.560000000,-0.31225753,-0.31226486
1.561000000,-0.31139758,-0.31139487
1.562000000,-0.31050766,-0.31050491
1.563000000,-0.30952772,-0.30952489
1.564000000,-0.30842781,-0.30842492
1.565000000,-0.30724791,-0.30724496
1.566000000,-0.30604798,-0.30605495
1.567000000,-0.30485806,-0.30485499
1.568000000,-0.30366814,-0.303675
1.569000000,-0.30248824,-0.30248502
1.570000000,-0.30129832,-0.30129504
1.571000000,-0.3001084,-0.30011505
1.572000000,-0.29890847,-0.29890507
1.573000000,-0.29761857,-0.29761511
1.574000000,-0.29621869,-0.29621512
1.575000000,-0.2947588,-0.29475513
1.576000000,-0.2932789,-0.29327518
1.577000000,-0.29179898,-0.29180518
1.578000000,-0.2903291,-0.29032519
1.579000000,-0.28885922,-0.28885522
1.580000000,-0.28738934,-0.28738526
1.581000000,-0.28591943,-0.28592527
1.582000000,-0.28443953,-0.28443533
1.583000000,-0.28287965,-0.28288534
1.584000000,-0.28122976,-0.28122535
1.585000000,-0.27951989,-0.2795254
1.586000000,-0.27780002,-0.27780542
1.587000000,-0.27609015,-0.27608544
1.588000000,-0.27437025,-0.27437547
1.589000000,-0.27266037,-0.2726655
1.590000000,-0.2709505,-0.2709555
1.591000000,-0.26925063,-0.26924556
1.592000000,-0.26752076,-0.26752558
1.593000000,-0.26574087,-0.26574561
1.594000000,-0.26388103,-0.26388565
1.595000000,-0.26198116,-0.26197568
1.596000000,-0.26006129,-0.2600657
1.597000000,-0.25815144,-0.25815573
1.598000000,-0.25624156,-0.25624576
1.599000000,-0.25434169,-0.25433579
1.600000000,-0.25243184,-0.25243583
1.601000000,-0.25053197,-0.25053585
1.602000000,-0.2486221,-0.24861589
1.603000000,-0.24666226,-0.24666591
1.604000000,-0.24464239,-0.24464594
1.605000000,-0.24259254,-0.24258597
1.606000000,-0.2405327,-0.24052601
1.607000000,-0.23847283,-0.23847604
1.608000000,-0.23641299,-0.23641607
1.609000000,-0.23436314,-0.2343661
1.610000000,-0.23231329,-0.23231615
1.611000000,-0.23026344,-0.23026618
1.612000000,-0.22821359,-0.22820622
1.613000000,-0.22612374,-0.22612624
1.614000000,-0.22399388,-0.22399627
1.615000000,-0.22184403,-0.22183631
1.616000000,-0.2196842,-0.21967636
1.617000000,-0.21752435,-0.21752638
1.618000000,-0.21537451,-0.21536642
1.619000000,-0.21322466,-0.21321644
1.620000000,-0.21107481,-0.21107648
1.621000000,-0.20892496,-0.20892651
1.622000000,-0.20677513,-0.20677656
1.623000000,-0.20460528,-0.20460659
1.624000000,-0.20241544,-0.20241663
1.625000000,-0.20020559,-0.20020665
1.626000000,-0.19799577,-0.19799669
1.627000000,-0.19579592,-0.19579673
1.628000000,-0.19359608,-0.19358677
1.629000000,-0.19138624,-0.19138679
1.630000000,-0.18919639,-0.18919683
1.631000000,-0.18699656,-0.18699688
1.632000000,-0.18479672,-0.1847969
1.633000000,-0.18259688,-0.18259694
1.634000000,-0.18039703,-0.18039697
1.635000000,-0.17818719,-0.178187
1.636000000,-0.17597735,-0.17597705
1.637000000,-0.17376751,-0.17376707
1.638000000,-0.17155766,-0.17155711
1.639000000,-0.16935782,-0.16935714
1.640000000,-0.16715798,-0.16715719
1.641000000,-0.16495813,-0.16495723
1.642000000,-0.16276829,-0.16276725
1.643000000,-0.16057846,-0.16057728
1.644000000,-0.15839861,-0.15839732
1.645000000,-0.15622877,-0.15622735
1.646000000,-0.15405893,-0.15405738
1.647000000,-0.15189907,-0.15189743
1.648000000,-0.14972924,-0.14972746
1.649000000,-0.14756939,-0.1475675
1.650000000,-0.14540954,-0.14540753
1.651000000,-0.1432597,-0.14325756
1.652000000,-0.14110985,-0.1411076
1.653000000,-0.13898002,-0.13897763
1.654000000,-0.13687016,-0.13686766
1.655000000,-0.13478032,-0.13477769
1.656000000,-0.13269046,-0.13268773
1.657000000,-0.13061062,-0.13060777
1.658000000,-0.12852076,-0.12852781
1.659000000,-0.12644091,-0.12644783
1.660000000,-0.12437106,-0.12436787
1.661000000,-0.12229121,-0.12228791
1.662000000,-0.12023136,-0.12022793
1.663000000,-0.11819151,-0.11818796
1.664000000,-0.11619165,-0.116188
1.665000000,-0.1142118,-0.11420803
1.666000000,-0.11224193,-0.11223806
1.667000000,-0.11027208,-0.11027809
1.668000000,-0.10830221,-0.10830813
1.669000000,-0.10634236,-0.10633815
1.670000000,-0.1043825,-0.10437819
1.671000000,-0.10242264,-0.10241822
1.672000000,-0.10047279,-0.10046825
1.673000000,-0.098562919,-0.098558277
1.674000000,-0.096703053,-0.096698307
1.675000000,-0.09487319,-0.09486834
1.676000000,-0.093053319,-0.093048364
1.677000000,-0.091233447,-0.091228396
1.678000000,-0.089413583,-0.089408427
1.679000000,-0.087593712,-0.08759845
1.680000000,-0.085783839,-0.085778482
1.681000000,-0.083963968,-0.083968505
1.682000000,-0.0821741,-0.082168542
1.683000000,-0.080414221,-0.080418564
1.684000000,-0.078724347,-0.078718595
1.685000000,-0.077064469,-0.077058613
1.686000000,-0.075414591,-0.075408638
1.687000000,-0.073764704,-0.073768668
1.688000000,-0.072114825,-0.072118692
1.689000000,-0.070474945,-0.070478722
1.690000000,-0.068835065,-0.068828747
1.691000000,-0.067185178,-0.067188777
1.692000000,-0.065565296,-0.065558799
1.693000000,-0.063985407,-0.063988827
1.694000000,-0.062475517,-0.062478848
1.695000000,-0.061005626,-0.061008874
1.696000000,-0.059545729,-0.059548896
1.697000000,-0.058085836,-0.058088917
1.698000000,-0.056635939,-0.056628942
1.699000000,-0.055176046,-0.055178966
1.700000000,-0.053726152,-0.053718988
1.701000000,-0.052266255,-0.052269015
1.702000000,-0.050836358,-0.050829038
1.703000000,-0.04944646,-0.049449056
1.704000000,-0.048136555,-0.048139077
1.705000000,-0.046866644,-0.046869099
1.706000000,-0.045606732,-0.045609117
1.707000000,-0.044356827,-0.044349141
1.708000000,-0.043096919,-0.043099161
1.709000000,-0.041847005,-0.041839179
1.710000000,-0.040587097,-0.040589198
1.711000000,-0.039337188,-0.039339218
1.712000000,-0.038097277,-0.038099241
1.713000000,-0.036917362,-0.036919259
1.714000000,-0.035807442,-0.035809278
1.715000000,-0.034747519,-0.034749296
1.716000000,-0.033687595,-0.033689313
1.717000000,-0.032637671,-0.032639328
1.718000000,-0.031587746,-0.031589344
1.719000000,-0.030537823,-0.030539362
1.720000000,-0.029487899,-0.029489379
1.721000000,-0.028437974,-0.028439397
1.722000000,-0.027408047,-0.027409412
1.723000000,-0.026428118,-0.026429428
1.724000000,-0.025518186,-0.025519442
1.725000000,-0.024658246,-0.024659455
1.726000000,-0.023808306,-0.02380947
1.727000000,-0.022948369,-0.022949483
1.728000000,-0.022098431,-0.022099497
1.729000000,-0.021248491,-0.02124951
1.730000000,-0.020398553,-0.020399524
1.731000000,-0.019548614,-0.019549537
1.732000000,-0.018718673,-0.018719548
1.733000000,-0.017938729,-0.01793956
1.734000000,-0.01722878,-0.017229574
1.735000000,-0.016558828,-0.016559584
1.736000000,-0.015898876,-0.015899595
1.737000000,-0.015238924,-0.015239606
1.738000000,-0.014588971,-0.014589615
1.739000000,-0.013929018,-0.013929626
1.740000000,-0.013269065,-0.013269636
1.741000000,-0.012619113,-0.012619647
1.742000000,-0.011969158,-0.011969657
1.743000000,-0.011379201,-0.011379667
1.744000000,-0.01084924,-0.010849675
1.745000000,-0.010359276,-0.010359683
1.746000000,-0.0098793106,-0.0098796897
1.747000000,-0.0093993451,-0.0093996981
1.748000000,-0.0089093801,-0.008909706
1.749000000,-0.0084294146,-0.0084297126
1.750000000,-0.0079494501,-0.0079497211
1.751000000,-0.0074694841,-0.0074697291
1.752000000,-0.0069995178,-0.0069997362
1.753000000,-0.0065795486,-0.0065797428
1.754000000,-0.0062095746,-0.0062097488
1.755000000,-0.0058695991,-0.0058697541
1.756000000,-0.0055496222,-0.0055497591
1.757000000,-0.0052196463,-0.005219765
1.758000000,-0.0048896694,-0.0048897699
1.759000000,-0.004569693,-0.004569775
1.760000000,-0.0042397166,-0.0042397804
1.761000000,-0.0039097406,-0.0039097858
1.762000000,-0.0035997629,-0.0035997904
1.763000000,-0.0033197829,-0.0033197948
1.764000000,-0.0030798002,-0.003079799
1.765000000,-0.0028798145,-0.0028798024
1.766000000,-0.0026798288,-0.002679805
1.767000000,-0.0024798433,-0.0024798084
1.768000000,-0.002289857,-0.0022898116
1.769000000,-0.0020898716,-0.002089815
1.770000000,-0.0018898859,-0.0018898179
1.771000000,-0.0016899003,-0.0016898212
1.772000000,-0.0014999141,-0.0014998242
1.773000000,-0.0013399255,-0.0013398267
1.774000000,-0.0012199341,-0.0012198288
1.775000000,-0.0011099421,-0.0011098305
1.776000000,-0.0010199486,-0.0010198319
1.777000000,-0.00091995305,-0.00091983355
1.778000000,-0.00081995683,-0.00081983494
1.779000000,-0.0007199606,-0.00071983662
1.780000000,-0.00061996444,-0.00061983831
1.781000000,-0.00052996789,-0.00052983977
1.782000000,-0.00042997167,-0.00042984134
1.783000000,-0.00035997434,-0.00035984244
1.784000000,-0.00030997625,-0.00030984328
1.785000000,-0.00026997778,-0.00026984391
1.786000000,-0.00023997892,-0.00023984436
1.787000000,-0.00020998005,-0.0002098448
1.788000000,-0.00017998117,-0.00017984524
1.789000000,-0.00013998272,-0.00013984588
1.790000000,-0.00010998385,-0.00010984634
1.791000000,-7.9984973e-05,-7.9846926e-05
1.792000000,-4.9986167e-05,-4.9847375e-05
1.793000000,-2.998687e-05,-2.9847622e-05
1.794000000,-1.9987294e-05,-1.9847819e-05
1.795000000,-9.9876443e-06,-9.8480168e-06
1.796000000,-9.9876443e-06,-9.8480168e-06
1.797000000,-9.9876443e-06,-9.8480168e-06
1.798000000,1.1932928e-08,1.5177039e-07
1.799000000,1.1932928e-08,1.5177039e-07
1.800000000,1.1932928e-08,1.5177039e-07
1.801000000,1.1932928e-08,1.5177039e-07
1.802000000,1.0012382e-05,1.0150718e-05
1.803000000,1.0012382e-05,1.0150718e-05
1.804000000,1.0012382e-05,1.0150718e-05
1.805000000,1.0012382e-05,1.0150718e-05
1.806000000,1.0012382e-05,1.0150718e-05
1.807000000,1.0012382e-05,1.0150718e-05
1.808000000,1.0012382e-05,1.0150718e-05
1.809000000,1.0012382e-05,1.0150718e-05
1.810000000,2.0012829e-05,2.014952e-05
1.811000000,2.0012829e-05,2.014952e-05
1.812000000,2.0012829e-05,2.014952e-05
1.813000000,2.0012829e-05,2.014952e-05
1.814000000,2.0012829e-05,2.014952e-05
1.815000000,1.0012382e-05,1.0150718e-05
1.816000000,1.0012382e-05,1.0150718e-05
1.817000000,1.0012382e-05,1.0150718e-05
1.818000000,1.0012382e-05,1.0150718e-05
1.819000000,1.1932928e-08,1.5177039e-07
1.820000000,1.1932928e-08,1.5177039e-07
1.821000000,1.1932928e-08,1.5177039e-07
1.822000000,1.1932928e-08,1.5177039e-07
1.823000000,1.1932928e-08,1.5177039e-07
1.824000000,-9.9876443e-06,-9.8480168e-06
1.825000000,-9.9876443e-06,-9.8480168e-06
1.826000000,-9.9876443e-06,-9.8480168e-06
1.827000000,-9.9876443e-06,-9.8480168e-06
1.828000000,-9.9876443e-06,-9.8480168e-06
1.829000000,-9.9876443e-06,-9.8480168e-06
1.830000000,-9.9876443e-06,-9.8480168e-06
1.831000000,-9.9876443e-06,-9.8480168e-06
1.832000000,-9.9876443e-06,-9.8480168e-06
1.833000000,-9.9876443e-06,-9.8480168e-06
1.834000000,-1.9987294e-05,-1.9847819e-05
1.835000000,-1.9987294e-05,-1.9847819e-05
1.836000000,-1.9987294e-05,-1.9847819e-05
1.837000000,-1.9987294e-05,-1.9847819e-05
1.838000000,-1.9987294e-05,-1.9847819e-05
1.839000000,-1.9987294e-05,-1.9847819e-05
1.840000000,-2.998687e-05,-2.9847622e-05
1.841000000,-2.998687e-05,-2.9847622e-05
1.842000000,-2.998687e-05,-2.9847622e-05
1.843000000,-2.998687e-05,-2.9847622e-05
1.844000000,-2.998687e-05,-2.9847622e-05
1.845000000,-2.998687e-05,-2.9847622e-05
1.846000000,-2.998687e-05,-2.9847622e-05
1.847000000,-2.998687e-05,-2.9847622e-05
1.848000000,-2.998687e-05,-2.9847622e-05
1.849000000,-2.998687e-05,-2.9847622e-05
1.850000000,-2.998687e-05,-2.9847622e-05
1.851000000,-2.998687e-05,-2.9847622e-05
1.852000000,-1.9987294e-05,-2.9847622e-05
1.853000000,-1.9987294e-05,-1.9847819e-05
1.854000000,-1.9987294e-05,-1.9847819e-05
1.855000000,-1.9987294e-05,-1.9847819e-05
1.856000000,-1.9987294e-05,-1.9847819e-05
1.857000000,-1.9987294e-05,-1.9847819e-05
1.858000000,-1.9987294e-05,-1.9847819e-05
1.859000000,-1.9987294e-05,-1.9847819e-05
1.860000000,-1.9987294e-05,-1.9847819e-05
1.861000000,-1.9987294e-05,-1.9847819e-05
1.862000000,-1.9987294e-05,-1.9847819e-05
1.863000000,-1.9987294e-05,-1.9847819e-05
1.864000000,-1.9987294e-05,-1.9847819e-05
1.865000000,-1.9987294e-05,-1.9847819e-05
1.866000000,-1.9987294e-05,-1.9847819e-05
1.867000000,-1.9987294e-05,-1.9847819e-05
1.868000000,-1.9987294e-05,-1.9847819e-05
1.869000000,-1.9987294e-05,-1.9847819e-05
1.870000000,-1.9987294e-05,-1.9847819e-05
1.871000000,-1.9987294e-05,-1.9847819e-05
1.872000000,-1.9987294e-05,-1.9847819e-05
1.873000000,-1.9987294e-05,-1.9847819e-05
1.874000000,-9.9876443e-06,-9.8480168e-06
1.875000000,-9.9876443e-06,-9.8480168e-06
1.876000000,-9.9876443e-06,-9.8480168e-06
1.877000000,-9.9876443e-06,-9.8480168e-06
1.878000000,-9.9876443e-06,-9.8480168e-06
1.879000000,-9.9876443e-06,-9.8480168e-06
1.880000000,-9.9876443e-06,-9.8480168e-06
1.881000000,-9.9876443e-06,-9.8480168e-06
1.882000000,1.1932928e-08,1.5177039e-07
1.883000000,1.1932928e-08,1.5177039e-07
1.884000000,1.1932928e-08,1.5177039e-07
1.885000000,1.1932928e-08,1.5177039e-07
1.886000000,1.1932928e-08,1.5177039e-07
1.887000000,1.1932928e-08,1.5177039e-07
1.888000000,1.1932928e-08,1.5177039e-07
1.889000000,1.1932928e-08,1.5177039e-07
1.890000000,1.1932928e-08,1.5177039e-07
1.891000000,1.1932928e-08,1.5177039e-07
1.892000000,1.1932928e-08,1.5177039e-07
1.893000000,1.1932928e-08,1.5177039e-07
1.894000000,1.1932928e-08,1.5177039e-07
1.895000000,1.1932928e-08,1.5177039e-07
1.896000000,1.1932928e-08,1.5177039e-07
1.897000000,1.1932928e-08,1.5177039e-07
1.898000000,1.1932928e-08,1.5177039e-07
1.899000000,1.1932928e-08,1.5177039e-07
1.900000000,1.1932928e-08,1.5177039e-07
1.901000000,1.1932928e-08,1.5177039e-07
1.902000000,1.1932928e-08,1.5177039e-07
1.903000000,1.1932928e-08,1.5177039e-07
1.904000000,1.1932928e-08,1.5177039e-07
1.905000000,1.1932928e-08,1.5177039e-07
1.906000000,1.1932928e-08,1.5177039e-07
1.907000000,1.1932928e-08,1.5177039e-07
1.908000000,1.1932928e-08,1.5177039e-07
1.909000000,1.1932928e-08,1.5177039e-07
1.910000000,1.1932928e-08,1.5177039e-07
1.911000000,1.1932928e-08,1.5177039e-07
1.912000000,1.1932928e-08,1.5177039e-07
1.913000000,1.1932928e-08,1.5177039e-07
1.914000000,1.1932928e-08,1.5177039e-07
1.915000000,1.1932928e-08,1.5177039e-07
1.916000000,1.1932928e-08,1.5177039e-07
1.917000000,1.1932928e-08,1.5177039e-07
1.918000000,1.1932928e-08,1.5177039e-07
1.919000000,1.1932928e-08,1.5177039e-07
1.920000000,1.1932928e-08,1.5177039e-07
1.921000000,1.1932928e-08,1.5177039e-07
1.922000000,1.1932928e-08,1.5177039e-07
1.923000000,1.1932928e-08,1.5177039e-07
1.924000000,1.1932928e-08,1.5177039e-07
1.925000000,1.1932928e-08,1.5177039e-07
1.926000000,1.1932928e-08,1.5177039e-07
1.927000000,1.1932928e-08,1.5177039e-07
1.928000000,1.1932928e-08,1.5177039e-07
1.929000000,1.0012382e-05,1.0150718e-05
1.930000000,1.0012382e-05,1.0150718e-05
1.931000000,1.0012382e-05,1.0150718e-05
1.932000000,1.0012382e-05,1.0150718e-05
1.933000000,1.0012382e-05,1.0150718e-05
1.934000000,1.0012382e-05,1.5177039e-07
1.935000000,1.1932928e-08,1.5177039e-07
1.936000000,1.1932928e-08,1.5177039e-07
1.937000000,1.1932928e-08,1.5177039e-07
1.938000000,1.1932928e-08,1.5177039e-07
1.939000000,1.1932928e-08,1.5177039e-07
1.940000000,1.1932928e-08,1.5177039e-07
1.941000000,1.1932928e-08,1.5177039e-07
1.942000000,-9.9876443e-06,-9.8480168e-06
1.943000000,-9.9876443e-06,-9.8480168e-06
1.944000000,-9.9876443e-06,-9.8480168e-06
1.945000000,-9.9876443e-06,-9.8480168e-06
1.946000000,-9.9876443e-06,-9.8480168e-06
1.947000000,-9.9876443e-06,-9.8480168e-06
1.948000000,-9.9876443e-06,-9.8480168e-06
1.949000000,-9.9876443e-06,-9.8480168e-06
1.950000000,-9.9876443e-06,-9.8480168e-06
1.951000000,-9.9876443e-06,-9.8480168e-06
1.952000000,1.1932928e-08,-9.8480168e-06
1.953000000,1.1932928e-08,1.5177039e-07
1.954000000,1.1932928e-08,1.5177039e-07
1.955000000,1.1932928e-08,1.5177039e-07
1.956000000,1.1932928e-08,1.5177039e-07
1.957000000,1.1932928e-08,1.5177039e-07
1.958000000,1.1932928e-08,1.5177039e-07
1.959000000,1.1932928e-08,1.5177039e-07
1.960000000,1.1932928e-08,1.5177039e-07
1.961000000,1.0012382e-05,1.0150718e-05
1.962000000,1.0012382e-05,1.0150718e-05
1.963000000,1.0012382e-05,1.0150718e-05
1.964000000,1.0012382e-05,1.0150718e-05
1.965000000,1.0012382e-05,1.0150718e-05
1.966000000,1.0012382e-05,1.0150718e-05
1.967000000,1.0012382e-05,1.0150718e-05
1.968000000,1.0012382e-05,1.0150718e-05
1.969000000,1.0012382e-05,1.0150718e-05
1.970000000,1.0012382e-05,1.0150718e-05
1.971000000,1.0012382e-05,1.0150718e-05
1.972000000,1.0012382e-05,1.0150718e-05
1.973000000,1.0012382e-05,1.0150718e-05
1.974000000,1.0012382e-05,1.0150718e-05
1.975000000,1.0012382e-05,1.0150718e-05
1.976000000,1.1932928e-08,1.5177039e-07
1.977000000,1.1932928e-08,1.5177039e-07
1.978000000,1.1932928e-08,1.5177039e-07
1.979000000,1.1932928e-08,1.5177039e-07
1.980000000,1.1932928e-08,1.5177039e-07
1.981000000,1.1932928e-08,1.5177039e-07
1.982000000,1.1932928e-08,1.5177039e-07
1.983000000,1.1932928e-08,1.5177039e-07
1.984000000,1.1932928e-08,1.5177039e-07
1.985000000,1.1932928e-08,1.5177039e-07
1.986000000,1.1932928e-08,1.5177039e-07
1.987000000,1.1932928e-08,1.5177039e-07
1.988000000,1.1932928e-08,1.5177039e-07
1.989000000,1.1932928e-08,1.5177039e-07
1.990000000,1.1932928e-08,1.5177039e-07
1.991000000,1.1932928e-08,1.5177039e-07
1.992000000,1.1932928e-08,1.5177039e-07
1.993000000,1.1932928e-08,1.5177039e-07
1.994000000,1.1932928e-08,1.5177039e-07
1.995000000,1.1932928e-08,1.5177039e-07
1.996000000,1.1932928e-08,1.5177039e-07
1.997000000,1.1932928e-08,1.5177039e-07
1.998000000,1.1932928e-08,1.5177039e-07
1.999000000,1.1932928e-08,1.5177039e-07
2.000000000,1.1932928e-08,1.5177039e-07
2.001000000,1.1932928e-08,1.5177039e-07
2.002000000,1.1932928e-08,1.5177039e-07
2.003000000,4.0013652e-05,4.0147126e-05
2.004000000,0.00011001658,0.00011013904
2.005000000,0.00020002032,0.00020012869
2.006000000,0.00030002458,0.00030011701
2.007000000,0.00040002877,0.00040010546
2.008000000,0.00049003243,0.000490095
2.009000000,0.00059003662,0.00059008342
2.010000000,0.00069004082,0.00069007179
2.011000000,0.00078004465,0.00078006135
2.012000000,0.00089004921,0.00089004863
2.013000000,0.001050056,0.00105003
2.014000000,0.0012600648,0.0012600056
2.015000000,0.0015100751,0.0015099766
2.016000000,0.0017800863,0.0017799453
2.017000000,0.0020400973,0.0020399138
2.018000000,0.0023001083,0.0022998736
2.019000000,0.0025501188,0.0025498352
2.020000000,0.0028101297,0.0028097951
2.021000000,0.0030701403,0.0030697552
2.022000000,0.0033401516,0.0033397134
2.023000000,0.0036401644,0.0036396671
2.024000000,0.0040001795,0.0039996118
2.025000000,0.0043801954,0.0043795537
2.026000000,0.0047702119,0.0047694929
2.027000000,0.0051602283,0.0051594335
2.028000000,0.0055502444,0.0055493736
2.029000000,0.0059402608,0.0059393132
2.030000000,0.0063202763,0.0063192546
2.031000000,0.0067102928,0.0067091943
2.032000000,0.0071103093,0.0071091331
2.033000000,0.0075403275,0.007539067
2.034000000,0.0080103474,0.0080089942
2.035000000,0.0085103689,0.0085089179
2.036000000,0.0090203891,0.0090188393
2.037000000,0.0095304111,0.0095287608
2.038000000,0.010030433,0.010028683
2.039000000,0.010540454,0.010538604
2.040000000,0.011040475,0.011038528
2.041000000,0.011540497,0.011548449
2.042000000,0.012060517,0.012058372
2.043000000,0.012600539,0.012598287
2.044000000,0.013180565,0.013178199
2.045000000,0.01378059,0.013778106
2.046000000,0.014380614,0.014388013
2.047000000,0.01499064,0.01498792
2.048000000,0.015600666,0.015597826
2.049000000,0.016200691,0.016197734
2.050000000,0.016800717,0.01680764
2.051000000,0.017410742,0.017407548
2.052000000,0.018020768,0.018017454
2.053000000,0.018650793,0.018647356
2.054000000,0.019300822,0.019307256
2.055000000,0.019980848,0.019977152
2.056000000,0.020660875,0.020657046
2.057000000,0.021340905,0.021336943
2.058000000,0.022020934,0.022016836
2.059000000,0.022690961,0.022696733
2.060000000,0.023370989,0.02336663
2.061000000,0.024051018,0.024046523
2.062000000,0.024721047,0.024726421
2.063000000,0.025411075,0.025416315
2.064000000,0.026121104,0.026126202
2.065000000,0.026841136,0.026846092
2.066000000,0.027561165,0.02756598
2.067000000,0.028281195,0.028285872
2.068000000,0.029001227,0.028995762
2.069000000,0.029721256,0.02971565
2.070000000,0.030431286,0.030435542
2.071000000,0.031151317,0.031145429
2.072000000,0.031861346,0.031865321
2.073000000,0.032581374,0.032585207
2.074000000,0.033301406,0.033305097
2.075000000,0.034031436,0.034024987
2.076000000,0.034751467,0.034744877
2.077000000,0.035471499,0.035474762
2.078000000,0.036191527,0.036194652
2.079000000,0.036911555,0.036914542
2.080000000,0.037631586,0.037634432
2.081000000,0.038351618,0.038354319
2.082000000,0.039071653,0.039064214
2.083000000,0.039771676,0.039774105
2.084000000,0.04047171,0.040473994
2.085000000,0.041161738,0.041163888
2.086000000,0.041851766,0.041853786
2.087000000,0.042541794,0.042543676
2.088000000,0.043221824,0.043223571
2.089000000,0.043911852,0.043913469
2.090000000,0.04460188,0.04459336
2.091000000,0.045281909,0.045283258
2.092000000,0.045961939,0.045963153
2.093000000,0.046621967,0.046623051
2.094000000,0.047251992,0.047252953
2.095000000,0.047872018,0.047862858
2.096000000,0.048482046,0.048482761
2.097000000,0.049092069,0.049092669
2.098000000,0.049702097,0.049702574
2.099000000,0.05031212,0.050312482
2.100000000,0.050922144,0.050922386
2.101000000,0.051532172,0.051532295
2.102000000,0.052132197,0.0521322
2.103000000,0.052702222,0.052702114
2.104000000,0.053232245,0.053232033
2.105000000,0.053732261,0.053731956
2.106000000,0.054232284,0.054231878
2.107000000,0.054722305,0.054721802
2.108000000,0.055222325,0.055221725
2.109000000,0.055712346,0.055711649
2.110000000,0.056212369,0.056211572
2.111000000,0.05670239,0.0567015
2.112000000,0.057192408,0.05719142
2.113000000,0.057632428,0.057631355
2.114000000,0.058012441,0.058011297
2.115000000,0.058362458,0.05836124
2.116000000,0.058702469,0.058701187
2.117000000,0.059042487,0.059041139
2.118000000,0.059382502,0.059381086
2.119000000,0.059722513,0.059721034
2.120000000,0.060062531,0.060060982
2.121000000,0.060402542,0.060400929
2.122000000,0.060722556,0.060730878
2.123000000,0.061002571,0.061000835
2.124000000,0.061202578,0.061200805
2.125000000,0.061362583,0.06136078
2.126000000,0.061502591,0.06151076
2.127000000,0.061652597,0.061660733
2.128000000,0.0618026,0.061810713
2.129000000,0.06195261,0.061960686
2.130000000,0.062102616,0.062100668
2.131000000,0.062252618,0.06225064
2.132000000,0.062382627,0.062390622
2.133000000,0.062452629,0.062450614
2.134000000,0.062442631,0.062440615
2.135000000,0.062372625,0.062370624
2.136000000,0.062292621,0.062300634
2.137000000,0.062222622,0.062220648
2.138000000,0.062142618,0.062140662
2.139000000,0.062072612,0.062070671
2.140000000,0.061992612,0.061990682
2.141000000,0.061922606,0.061920691
2.142000000,0.061822601,0.061820708
2.143000000,0.061652597,0.061660733
2.144000000,0.061392583,0.061390776
2.145000000,0.061072569,0.061070826
2.146000000,0.060732558,0.060730878
2.147000000,0.060402542,0.060400929
2.148000000,0.06007253,0.060070977
2.149000000,0.059742514,0.059741028
2.150000000,0.059402499,0.059411079
2.151000000,0.059072487,0.059071131
2.152000000,0.05872247,0.058721188
2.153000000,0.058292456,0.058291253
2.154000000,0.05775243,0.057751339
2.155000000,0.057152405,0.057151426
2.156000000,0.056532383,0.056531526
2.157000000,0.055922356,0.055921618
2.158000000,0.055302329,0.055301711
2.159000000,0.054692302,0.05469181
2.160000000,0.054082278,0.054081902
2.161000000,0.053472254,0.053471994
2.162000000,0.052832223,0.052842092
2.163000000,0.052122194,0.052122202
2.164000000,0.051282164,0.051282331
2.165000000,0.050382126,0.050382473
2.166000000,0.049472082,0.049462613
2.167000000,0.048552044,0.048552752
2.168000000,0.047642007,0.04764289
2.169000000,0.046731971,0.046733033
2.170000000,0.045821931,0.045823175
2.171000000,0.044911895,0.044913314
2.172000000,0.043981858,0.043973457
2.173000000,0.042951811,0.042953614
2.174000000,0.041811764,0.041813791
2.175000000,0.040601715,0.040603977
2.176000000,0.039371662,0.039374165
2.177000000,0.038141608,0.038144354
2.178000000,0.036921557,0.036924541
2.179000000,0.035701506,0.03569473
2.180000000,0.034471456,0.03447492
2.181000000,0.033251405,0.033255104
2.182000000,0.032011352,0.032015298
2.183000000,0.030681297,0.030675502
2.184000000,0.029221235,0.029215727
2.185000000,0.027691171,0.027685963
2.186000000,0.026141105,0.026136203
2.187000000,0.024601042,0.024596438
2.188000000,0.023060977,0.023056677
2.189000000,0.021520913,0.021516914
2.190000000,0.019980848,0.019977152
2.191000000,0.018440785,0.018447388
2.192000000,0.01689072,0.016887628
2.193000000,0.01523065,0.015237882
2.194000000,0.013460577,0.013458156
2.195000000,0.011610499,0.01160844
2.196000000,0.0097504202,0.0097487271
2.197000000,0.0078903427,0.0078890128
2.198000000,0.0060302643,0.006029299
2.199000000,0.0041701864,0.0041695861
2.200000000,0.0023201089,0.0023198705
2.201000000,0.00047003169,0.00047009738
2.202000000,-0.0013999213,-0.0013998259
2.203000000,-0.0033697793,-0.0033697942
2.204000000,-0.0054496294,-0.0054497612
2.205000000,-0.007609474,-0.0076097264
2.206000000,-0.0097793164,-0.0097796917
2.207000000,-0.011949161,-0.011949657
2.208000000,-0.014109005,-0.014109623
2.209000000,-0.016268849,-0.016269589
2.210000000,-0.018428694,-0.018429555
2.211000000,-0.02058854,-0.020589519
2.212000000,-0.022768384,-0.022759484
2.213000000,-0.025028219,-0.025029451
2.214000000,-0.027408047,-0.027409412
2.215000000,-0.029857872,-0.029849373
2.216000000,-0.032317694,-0.032309335
2.217000000,-0.03476752,-0.034769293
2.218000000,-0.03722734,-0.037219252
2.219000000,-0.039677165,-0.039669216
2.220000000,-0.042116985,-0.042119171
2.221000000,-0.04456681,-0.044569135
2.222000000,-0.04702663,-0.047029097
2.223000000,-0.049576446,-0.049569055
2.224000000,-0.052226257,-0.052219015
2.225000000,-0.054936063,-0.054938968
2.226000000,-0.057665866,-0.057658926
2.227000000,-0.060385671,-0.060388882
2.228000000,-0.063105479,-0.06309884
2.229000000,-0.065815277,-0.065818794
2.230000000,-0.068525083,-0.068528756
2.231000000,-0.071234889,-0.071238711
2.232000000,-0.073964693,-0.073958665
2.233000000,-0.076754488,-0.076758616
2.234000000,-0.079654284,-0.079648577
2.235000000,-0.082594067,-0.08259853
2.236000000,-0.085553862,-0.085558482
2.237000000,-0.088513643,-0.088508435
2.238000000,-0.091463432,-0.091458395
2.239000000,-0.094413221,-0.094408348
2.240000000,-0.097353011,-0.097348295
2.241000000,-0.10029279,-0.10029826
2.242000000,-0.10325258,-0.1032482
2.243000000,-0.10626236,-0.10626816
2.244000000,-0.10936214,-0.10935811
2.245000000,-0.11251192,-0.11250806
2.246000000,-0.11566169,-0.11565801
2.247000000,-0.11881146,-0.11881795
2.248000000,-0.12196123,-0.12195791
2.249000000,-0.12510101,-0.12509786
2.250000000,-0.12824078,-0.1282378
2.251000000,-0.13138056,-0.13137776
2.252000000,-0.13452032,-0.13452771
2.253000000,-0.13772009,-0.13771765
2.254000000,-0.14097986,-0.14097761
2.255000000,-0.14427963,-0.14427756
2.256000000,-0.14758939,-0.14758749
2.257000000,-0.15088916,-0.15088744
2.258000000,-0.15418892,-0.1541874
2.259000000,-0.15747869,-0.15747733
2.260000000,-0.16076843,-0.16076729
2.261000000,-0.16405821,-0.16405722
2.262000000,-0.16734795,-0.16734718
2.263000000,-0.17067774,-0.17067713
2.264000000,-0.17405748,-0.17405707
2.265000000,-0.17745724,-0.17745702
2.266000000,-0.18086699,-0.18086697
2.267000000,-0.18427674,-0.18427691
2.268000000,-0.1876765,-0.18767685
2.269000000,-0.19107625,-0.19106679
2.270000000,-0.19446601,-0.19446675
2.271000000,-0.19785577,-0.19785669
2.272000000,-0.20124553,-0.20124665
2.273000000,-0.20465529,-0.20465659
2.274000000,-0.20810503,-0.20810653
2.275000000,-0.21156478,-0.21156646
2.276000000,-0.21502455,-0.21502642
2.277000000,-0.21847428,-0.21847637
2.278000000,-0.22192402,-0.2219263
2.279000000,-0.22537379,-0.22537626
2.280000000,-0.22882354,-0.2288162
2.281000000,-0.2322633,-0.23225614
2.282000000,-0.23570304,-0.23569608
2.283000000,-0.23914281,-0.23914604
2.284000000,-0.24260254,-0.24259597
2.285000000,-0.24605229,-0.24605592
2.286000000,-0.24951203,-0.24951588
2.287000000,-0.25296181,-0.25296581
2.288000000,-0.25641155,-0.25641575
2.289000000,-0.25986132,-0.25985572
2.290000000,-0.26330104,-0.26329565
2.291000000,-0.2667408,-0.26673558
2.292000000,-0.27017054,-0.27016553
2.293000000,-0.2735903,-0.2735855
2.294000000,-0.27700007,-0.27699542
2.295000000,-0.28039983,-0.28039536
2.296000000,-0.28378958,-0.28379533
2.297000000,-0.28717935,-0.28718528
2.298000000,-0.2905691,-0.29056519
2.299000000,-0.29394883,-0.29395518
2.300000000,-0.29732862,-0.29733509
2.301000000,-0.30070835,-0.30070505
2.302000000,-0.3040781,-0.304075
2.303000000,-0.30741787,-0.30741495
2.304000000,-0.31071764,-0.31072488
2.305000000,-0.31400743,-0.31400484
2.306000000,-0.31727716,-0.31727478
2.307000000,-0.32054695,-0.3205547
2.308000000,-0.32381672,-0.32382467
2.309000000,-0.32708651,-0.32708466
2.310000000,-0.33034626,-0.33034459
2.311000000,-0.33360603,-0.33360451
2.312000000,-0.33684579,-0.33685446
2.313000000,-0.34005556,-0.34005442
2.314000000,-0.34319535,-0.34319437
2.315000000,-0.3463051,-0.34631434
2.316000000,-0.34941489,-0.34941426
2.317000000,-0.35250464,-0.35250422
2.318000000,-0.35560444,-0.35560417
2.319000000,-0.3586942,-0.35869414
2.320000000,-0.36178398,-0.36178407
2.321000000,-0.36487377,-0.36487404
2.322000000,-0.36793354,-0.36793399
2.323000000,-0.37094334,-0.37094393
2.324000000,-0.37387308,-0.37387389
2.325000000,-0.37676287,-0.37676385
2.326000000,-0.37963271,-0.37963381
2.327000000,-0.3825025,-0.38250375
2.328000000,-0.38537228,-0.38536373
2.329000000,-0.38823205,-0.38823366
2.330000000,-0.39109185,-0.39109358
2.331000000,-0.39395165,-0.39394358
2.332000000,-0.39678144,-0.39678353
2.333000000,-0.39954126,-0.39954346
2.334000000,-0.40221107,-0.40221342
2.335000000,-0.40482089,-0.40482339
2.336000000,-0.40741068,-0.40741336
2.337000000,-0.4100005,-0.4100033
2.338000000,-0.41259032,-0.41258326
2.339000000,-0.41517013,-0.41517323
2.340000000,-0.41774994,-0.41775319
2.341000000,-0.42032975,-0.42033315
2.342000000,-0.42288959,-0.42288309
2.343000000,-0.42534941,-0.42535305
2.344000000,-0.42770922,-0.42770302
2.345000000,-0.42998907,-0.42999297
2.346000000,-0.43225887,-0.43225294
2.347000000,-0.43451872,-0.43452293
2.348000000,-0.4367786,-0.4367829
2.349000000,-0.43903843,-0.43904287
2.350000000,-0.44129825,-0.44130278
2.351000000,-0.4435581,-0.44355276
2.352000000,-0.44577792,-0.44578272
2.353000000,-0.44790778,-0.44791272
2.354000000,-0.44990766,-0.44990265
2.355000000,-0.4518275,-0.45182264
2.356000000,-0.45371735,-0.4537226
2.357000000,-0.45561722,-0.45561257
2.358000000,-0.45750707,-0.45751253
2.359000000,-0.45940697,-0.45940253
2.360000000,-0.46129683,-0.46129248
2.361000000,-0.46318668,-0.46318248
2.362000000,-0.46504655,-0.46504244
2.363000000,-0.4667964,-0.46679237
2.364000000,-0.46839631,-0.46840236
2.365000000,-0.46991619,-0.46991235
2.366000000,-0.47141606,-0.47141233
2.367000000,-0.47290596,-0.4729023
2.368000000,-0.47440585,-0.47440228
2.369000000,-0.47589576,-0.47589225
2.370000000,-0.47738564,-0.47739223
2.371000000,-0.47887555,-0.47888219
2.372000000,-0.48033544,-0.48033217
2.373000000,-0.48167533,-0.48167217
2.374000000,-0.48286524,-0.48286211
2.375000000,-0.48394519,-0.48395213
2.376000000,-0.48501512,-0.48501211
2.377000000,-0.48607501,-0.48608208
2.378000000,-0.48714495,-0.48714206
2.379000000,-0.48821488,-0.48821208
2.380000000,-0.4892748,-0.48927206
2.381000000,-0.49033472,-0.49034202
2.382000000,-0.49136463,-0.49137202
2.383000000,-0.49227455,-0.49227199
2.384000000,-0.49301451,-0.49301198
2.385000000,-0.49365449,-0.49365196
2.386000000,-0.49426442,-0.49427196
2.387000000,-0.4948844,-0.49489197
2.388000000,-0.49550435,-0.49550194
2.389000000,-0.4961243,-0.49612194
2.390000000,-0.49674425,-0.49674195
2.391000000,-0.49735421,-0.4973619
2.392000000,-0.49794418,-0.49794188
2.393000000,-0.49839413,-0.4983919
2.394000000,-0.49867409,-0.49868187
2.395000000,-0.4988541,-0.4988519
2.396000000,-0.49901408,-0.4990119
2.397000000,-0.49916407,-0.49917185
2.398000000,-0.49932405,-0.49933186
2.399000000,-0.49948406,-0.4994919
2.400000000,-0.49964404,-0.49964187
2.401000000,-0.49980405,-0.49980187
2.402000000,-0.49992403,-0.49992189
2.403000000,-0.49992403,-0.49992189
2.404000000,-0.49974403,-0.49974188
2.405000000,-0.49945405,-0.49946186
2.406000000,-0.49915409,-0.49915189
2.407000000,-0.49884412,-0.4988519
2.408000000,-0.49854413,-0.49854189
2.409000000,-0.49824417,-0.4982419
2.410000000,-0.49794418,-0.49794188
2.411000000,-0.49764419,-0.49764192
2.412000000,-0.49730423,-0.49730191
2.413000000,-0.49683425,-0.49684194
2.414000000,-0.4961943,-0.49620193
2.415000000,-0.49545434,-0.49545193
2.416000000,-0.49469438,-0.49469197
2.417000000,-0.49392444,-0.493922
2.418000000,-0.49316454,-0.49316198
2.419000000,-0.49240458,-0.49240199
2.420000000,-0.49164462,-0.49165198
2.421000000,-0.49089468,-0.49089202
2.422000000,-0.49009475,-0.49010202
2.423000000,-0.4891848,-0.48918205
2.424000000,-0.4880949,-0.48809206
2.425000000,-0.48690498,-0.4869121
2.426000000,-0.48570505,-0.4857021
2.427000000,-0.48449513,-0.48449212
2.428000000,-0.48329523,-0.48329213
2.429000000,-0.4820953,-0.48209217
2.430000000,-0.4808954,-0.48089218
2.431000000,-0.47969547,-0.47969219
2.432000000,-0.47846556,-0.47846222
2.433000000,-0.47711566,-0.47711223
2.434000000,-0.47560576,-0.47560224
2.435000000,-0.47399589,-0.47399226
2.436000000,-0.47236601,-0.47236231
2.437000000,-0.47073612,-0.47074232
2.438000000,-0.46911627,-0.46912235
2.439000000,-0.46749637,-0.4674924
2.440000000,-0.46587649,-0.46588242
2.441000000,-0.46425658,-0.46426243
2.442000000,-0.46261668,-0.46261248
2.443000000,-0.46085685,-0.4608525
2.444000000,-0.45894697,-0.45894253
2.445000000,-0.45693713,-0.45694256
2.446000000,-0.45491728,-0.45492259
2.447000000,-0.45289743,-0.45290262
2.448000000,-0.45088756,-0.45088264
2.449000000,-0.44887769,-0.44887269
2.450000000,-0.44686785,-0.4468627
2.451000000,-0.44485801,-0.44485277
2.452000000,-0.44281814,-0.44282281
2.453000000,-0.44068831,-0.44068283
2.454000000,-0.43840846,-0.43841285
2.455000000,-0.43604863,-0.43605292
2.456000000,-0.43366879,-0.43367293
2.457000000,-0.43129897,-0.43130296
2.458000000,-0.42892912,-0.42893299
2.459000000,-0.42656931,-0.42656305
2.460000000,-0.42419946,-0.4242031
2.461000000,-0.42183965,-0.42184314
2.462000000,-0.41945985,-0.41946316
2.463000000,-0.41698,-0.41698319
2.464000000,-0.41438016,-0.41438323
2.465000000,-0.41171038,-0.41171327
2.466000000,-0.40902057,-0.40902334
2.467000000,-0.40634078,-0.40634334
2.468000000,-0.40366095,-0.4036634
2.469000000,-0.40098116,-0.40098345
2.470000000,-0.39831135,-0.39831349
2.471000000,-0.39564154,-0.39564353
2.472000000,-0.39295173,-0.39294356
2.473000000,-0.39018193,-0.39018363
2.474000000,-0.38730213,-0.38730368
2.475000000,-0.38436234,-0.38436371
2.476000000,-0.38140258,-0.38140374
2.477000000,-0.37846279,-0.37845382
2.478000000,-0.37551299,-0.37551388
2.479000000,-0.37257323,-0.37257391
2.480000000,-0.36963341,-0.36963397
2.481000000,-0.3667036,-0.36670399
2.482000000,-0.36375386,-0.36375406
2.483000000,-0.36073405,-0.36073408
2.484000000,-0.35763428,-0.35763416
2.485000000,-0.3544845,-0.3544842
2.486000000,-0.35131472,-0.35131425
2.487000000,-0.34815496,-0.34815428
2.488000000,-0.34500518,-0.34500432
2.489000000,-0.34185541,-0.34185442
2.490000000,-0.33870566,-0.33870444
2.491000000,-0.33556587,-0.33556452
2.492000000,-0.3324061,-0.33240452
2.493000000,-0.32920635,-0.32920462
2.494000000,-0.32592657,-0.32592463
2.495000000,-0.32261682,-0.3226147
2.496000000,-0.31929705,-0.31929475
2.497000000,-0.31597728,-0.3159748
2.498000000,-0.31266752,-0.31266487
2.499000000,-0.30935773,-0.3093549
2.500000000,-0.30604798,-0.30605495
2.501000000,-0.3027482,-0.30274501
2.502000000,-0.29943845,-0.29944509
2.503000000,-0.29609868,-0.2960951
2.504000000,-0.29270893,-0.29270518
2.505000000,-0.28928918,-0.28929523
2.506000000,-0.28586942,-0.28586528
2.507000000,-0.28244966,-0.28245533
2.508000000,-0.27903992,-0.27903539
2.509000000,-0.27563015,-0.27563545
2.510000000,-0.27223042,-0.2722255
2.511000000,-0.26882064,-0.26882556
2.512000000,-0.26542088,-0.26542559
2.513000000,-0.26200113,-0.26199567
2.514000000,-0.25855139,-0.25854573
2.515000000,-0.25509164,-0.25508577
2.516000000,-0.2516219,-0.25162584
2.517000000,-0.24816214,-0.24816589
2.518000000,-0.2447124,-0.24470595
2.519000000,-0.24125265,-0.241256
2.520000000,-0.23781288,-0.23780607
2.521000000,-0.23436314,-0.2343661
2.522000000,-0.23092338,-0.23092616
2.523000000,-0.22747363,-0.22747622
2.524000000,-0.22402389,-0.22402628
2.525000000,-0.22057413,-0.22057633
2.526000000,-0.21712439,-0.21712638
2.527000000,-0.21367463,-0.21367644
2.528000000,-0.21023488,-0.2102365
2.529000000,-0.20679513,-0.20679654
2.530000000,-0.20336537,-0.20336661
2.531000000,-0.19993562,-0.19993666
2.532000000,-0.19650587,-0.19650671
2.533000000,-0.19309612,-0.19309677
2.534000000,-0.18969637,-0.18969683
2.535000000,-0.18631659,-0.18631688
2.536000000,-0.18292685,-0.18292694
2.537000000,-0.17955709,-0.17955698
2.538000000,-0.17617732,-0.17617702
2.539000000,-0.17280757,-0.1728071
2.540000000,-0.16943781,-0.16943716
2.541000000,-0.16607805,-0.1660772
2.542000000,-0.16272831,-0.16272725
2.543000000,-0.15939854,-0.1593973
2.544000000,-0.15610878,-0.15610735
2.545000000,-0.152839,-0.15283741
2.546000000,-0.14957924,-0.14957745
2.547000000,-0.14631948,-0.14631751
2.548000000,-0.14305972,-0.14306757
2.549000000,-0.13980995,-0.13981763
2.550000000,-0.13657019,-0.13656767
2.551000000,-0.13332042,-0.13331772
2.552000000,-0.13009065,-0.13008778
2.553000000,-0.12690088,-0.12689783
2.554000000,-0.12376111,-0.12375788
2.555000000,-0.12065133,-0.12065793
2.556000000,-0.11756155,-0.11755797
2.557000000,-0.11446178,-0.11446802
2.558000000,-0.111372,-0.11137807
2.559000000,-0.10828222,-0.10828812
2.560000000,-0.10520244,-0.10519817
2.561000000,-0.10212267,-0.10211822
2.562000000,-0.099052884,-0.09905827
2.563000000,-0.096043102,-0.096048318
2.564000000,-0.093103319,-0.093108363
2.565000000,-0.090203524,-0.090208404
2.566000000,-0.087323733,-0.087318458
2.567000000,-0.084433936,-0.084438503
2.568000000,-0.081554145,-0.081558548
2.569000000,-0.078674361,-0.078678593
2.570000000,-0.075804561,-0.075798638
2.571000000,-0.072934769,-0.072928682
2.572000000,-0.070074975,-0.070078731
2.573000000,-0.067285173,-0.067288771
2.574000000,-0.064585365,-0.064578816
2.575000000,-0.06192556,-0.061928857
2.576000000,-0.059285749,-0.059278898
2.577000000,-0.056645941,-0.056638945
2.578000000,-0.054006133,-0.054008983
2.579000000,-0.051366322,-0.051369026
2.580000000,-0.048736509,-0.048739072
2.581000000,-0.0461067,-0.04610911
2.582000000,-0.043496884,-0.043499153
2.583000000,-0.04096707,-0.040959194
2.584000000,-0.038517248,-0.038519233
2.585000000,-0.036137421,-0.036139272
2.586000000,-0.033767588,-0.03376931
2.587000000,-0.031397764,-0.031399347
2.588000000,-0.029037932,-0.029039385
2.589000000,-0.026678102,-0.026679425
2.590000000,-0.024318272,-0.024309462
2.591000000,-0.021958441,-0.021959499
2.592000000,-0.019618608,-0.019619536
2.593000000,-0.017368771,-0.01736957
2.594000000,-0.015218926,-0.015219605
2.595000000,-0.013129076,-0.013129639
2.596000000,-0.011059226,-0.011059672
2.597000000,-0.0089793755,-0.0089797052
2.598000000,-0.0069095246,-0.0069097378
2.599000000,-0.0048496728,-0.0048497706
2.600000000,-0.0027798216,-0.0027798037
2.601000000,-0.0007199606,-0.00071983662
2.602000000,0.0013200673,0.0013199988
2.603000000,0.0032701488,0.0032797228
2.604000000,0.0051202262,0.0051194392
2.605000000,0.0069003012,0.0068991655
2.606000000,0.0086603751,0.0086588943
2.607000000,0.010420448,0.010418624
2.608000000,0.012180523,0.012178352
2.609000000,0.013940596,0.013938082
2.610000000,0.015690669,0.015687812
2.611000000,0.017450742,0.017447541
2.612000000,0.019170815,0.019177275
2.613000000,0.020820882,0.020817023
2.614000000,0.022350946,0.022346785
2.615000000,0.023811009,0.023806563
2.616000000,0.02525107,0.025256338
2.617000000,0.026701128,0.026696116
2.618000000,0.028141189,0.028145893
2.619000000,0.029581251,0.029585671
2.620000000,0.031031311,0.031025451
2.621000000,0.032461371,0.032465227
2.622000000,0.03388143,0.033875011
2.623000000,0.035211485,0.035204805
2.624000000,0.036421537,0.036424618
2.625000000,0.037561584,0.037564442
2.626000000,0.038681634,0.038684271
2.627000000,0.039811678,0.0398141
2.628000000,0.040931728,0.040933922
2.629000000,0.042061776,0.042063754
2.630000000,0.043181822,0.043183576
2.631000000,0.044301867,0.044303406
2.632000000,0.045401916,0.045403238
2.633000000,0.046411954,0.046413083
2.634000000,0.047311995,0.047312941
2.635000000,0.04815203,0.048152812
2.636000000,0.048962064,0.04896269
2.637000000,0.049782097,0.049782563
2.638000000,0.050602134,0.050602436
2.639000000,0.051422168,0.051422309
2.640000000,0.052232202,0.052232187
2.641000000,0.053052235,0.053052057
2.642000000,0.053842269,0.053841937
2.643000000,0.054552298,0.054551829
2.644000000,0.055152327,0.055151738
2.645000000,0.055692345,0.055691656
2.646000000,0.056212369,0.056211572
2.647000000,0.05673239,0.056741495
2.648000000,0.057262413,0.057261411
2.649000000,0.057782434,0.057781328
2.650000000,0.058302455,0.058301251
2.651000000,0.058822475,0.058821172
2.652000000,0.059322499,0.059321094
2.653000000,0.059752516,0.05975103
2.654000000,0.06007253,0.060070977
2.655000000,0.060332537,0.060330939
2.656000000,0.060582548,0.060580898
2.657000000,0.06083256,0.060830861
2.658000000,0.061082572,0.061080821
2.659000000,0.06133258,0.061330784
2.660000000,0.061582591,0.061580744
2.661000000,0.061822601,0.061830707
2.662000000,0.062052611,0.062060673
2.663000000,0.06221262,0.062220648
2.664000000,0.062282622,0.06228064
2.665000000,0.062292621,0.062300634
2.666000000,0.062292621,0.062300634
2.667000000,0.062302623,0.062300634
2.668000000,0.062302623,0.062300634
2.669000000,0.062302623,0.062300634
2.670000000,0.062302623,0.062300634
2.671000000,0.062302623,0.062300634
2.672000000,0.062292621,0.062290635
2.673000000,0.06221262,0.062210649
2.674000000,0.062062614,0.062060673
2.675000000,0.061852604,0.061860703
2.676000000,0.061642595,0.061640739
2.677000000,0.061432585,0.061430771
2.678000000,0.061212577,0.061220802
2.679000000,0.061002571,0.061000835
2.680000000,0.060792562,0.060790867
2.681000000,0.060582548,0.060580898
2.682000000,0.06036254,0.060360935
2.683000000,0.060082532,0.060080975
2.684000000,0.059732515,0.059741028
2.685000000,0.059352499,0.05935109
2.686000000,0.058952481,0.058951151
2.687000000,0.058562465,0.05856121
2.688000000,0.058172449,0.058171272
2.689000000,0.057772432,0.057781328
2.690000000,0.057382416,0.057381395
2.691000000,0.0569924,0.056991454
2.692000000,0.056592382,0.056591514
2.693000000,0.056152366,0.05615158
2.694000000,0.055652343,0.055651661
2.695000000,0.055122323,0.055121742
2.696000000,0.054582302,0.054581825
2.697000000,0.054052278,0.054051906
2.698000000,0.053512253,0.053511988
2.699000000,0.052982233,0.052982073
2.700000000,0.052442212,0.052442156
2.701000000,0.051912189,0.051912233
2.702000000,0.051372163,0.051372316
2.703000000,0.050802141,0.05080241
2.704000000,0.050192114,0.050192501
2.705000000,0.049552087,0.049552601
2.706000000,0.048912063,0.048912697
2.707000000,0.048272036,0.048272796
2.708000000,0.047632009,0.047632895
2.709000000,0.047001984,0.047002994
2.710000000,0.046361957,0.046363093
2.711000000,0.045721926,0.045723189
2.712000000,0.045081902,0.045083288
2.713000000,0.044421874,0.044423386
2.714000000,0.043741848,0.043743495
2.715000000,0.043041818,0.043043599
2.716000000,0.042331789,0.042333711
2.717000000,0.041631758,0.041633815
2.718000000,0.040931728,0.040933922
2.719000000,0.040231701,0.040234033
2.720000000,0.039531671,0.03953414
2.721000000,0.038831636,0.038834248
2.722000000,0.03813161,0.038134355
2.723000000,0.037421577,0.037424464
2.724000000,0.036701549,0.036704574
2.725000000,0.035971519,0.035974685
2.726000000,0.035251487,0.0352448
2.727000000,0.034521457,0.03452491
2.728000000,0.033801429,0.033795021
2.729000000,0.033071395,0.033075135
2.730000000,0.032351367,0.032355245
2.731000000,0.031631336,0.031625357
2.732000000,0.030911306,0.030905468
2.733000000,0.030191276,0.03018558
2.734000000,0.029471247,0.029475689
2.735000000,0.028761216,0.028765798
2.736000000,0.028051186,0.028045908
2.737000000,0.027341157,0.027336016
2.738000000,0.026631126,0.026626125
2.739000000,0.025921097,0.025916236
2.740000000,0.025211068,0.025206346
2.741000000,0.024501037,0.024506453
2.742000000,0.023801008,0.023796562
2.743000000,0.02311098,0.023106668
2.744000000,0.022430949,0.022426775
2.745000000,0.021770922,0.021766875
2.746000000,0.021100895,0.021106977
2.747000000,0.020440867,0.020447079
2.748000000,0.019780841,0.019787181
2.749000000,0.019120812,0.019127283
2.750000000,0.018460786,0.018467385
2.751000000,0.017800758,0.017807486
2.752000000,0.01715073,0.017147588
2.753000000,0.016520705,0.016517684
2.754000000,0.01592068,0.015917776
2.755000000,0.015330655,0.015327867
2.756000000,0.01475063,0.014747957
2.757000000,0.014160605,0.014168046
2.758000000,0.013580581,0.013578137
2.759000000,0.013000557,0.012998227
2.760000000,0.012420533,0.012418316
2.761000000,0.011840508,0.011838405
2.762000000,0.011270485,0.011268493
2.763000000,0.010730462,0.010728575
2.764000000,0.010220441,0.010218655
2.765000000,0.0097404197,0.0097387284
2.766000000,0.0092703998,0.0092688007
2.767000000,0.0087903794,0.0087888744
2.768000000,0.0083203604,0.0083189467
2.769000000,0.00784034,0.0078390213
2.770000000,0.0073703206,0.0073690931
2.771000000,0.0069003012,0.0068991655
2.772000000,0.0064302813,0.0064392365
2.773000000,0.0060102637,0.0060093026
2.774000000,0.0056202472,0.0056193625
2.775000000,0.0052702329,0.0052694161
2.776000000,0.0049202181,0.0049194703
2.777000000,0.0045702029,0.004569524
2.778000000,0.0042301891,0.0042295763
2.779000000,0.0038801744,0.0038796302
2.780000000,0.0035301596,0.0035296842
2.781000000,0.0031801451,0.0031897365
2.782000000,0.0028501311,0.0028497889
2.783000000,0.0025501188,0.0025498352
2.784000000,0.0023101086,0.0023098721
2.785000000,0.0021000998,0.0020999045
2.786000000,0.0018900911,0.0018899326
2.787000000,0.0016900827,0.0016899558
2.788000000,0.0014900743,0.001489979
2.789000000,0.0012800655,0.0012800033
2.790000000,0.0010800572,0.0010800266
2.791000000,0.00087004848,0.00087005092
2.792000000,0.00068004045,0.00068007299
2.793000000,0.00053003407,0.00053009036
2.794000000,0.0004300299,0.00043010202
2.795000000,0.0003700275,0.00037010893
2.796000000,0.00032002534,0.00032011475
2.797000000,0.0002700233,0.00027012045
2.798000000,0.00021002076,0.0002101275
2.799000000,0.00016001867,0.00016013334
2.800000000,0.00010001613,0.00010014023
2.801000000,5.001403e-05,5.0146074e-05
2.802000000,1.1932928e-08,1.5177039e-07
2.803000000,-2.998687e-05,-2.9847622e-05
2.804000000,-3.998652e-05,-3.9847571e-05
2.805000000,-3.998652e-05,-3.9847571e-05
2.806000000,-2.998687e-05,-2.9847622e-05
2.807000000,-2.998687e-05,-2.9847622e-05
2.808000000,-1.9987294e-05,-1.9847819e-05
2.809000000,-1.9987294e-05,-1.9847819e-05
2.810000000,-9.9876443e-06,-9.8480168e-06
2.811000000,-9.9876443e-06,-9.8480168e-06
2.812000000,1.1932928e-08,1.5177039e-07
2.813000000,-9.9876443e-06,-9.8480168e-06
2.814000000,-9.9876443e-06,-9.8480168e-06
2.815000000,-1.9987294e-05,-1.9847819e-05
2.816000000,-2.998687e-05,-2.9847622e-05
2.817000000,-3.998652e-05,-3.9847571e-05
2.818000000,-4.9986167e-05,-4.9847375e-05
2.819000000,-5.9985745e-05,-5.9847178e-05
2.820000000,-6.9985392e-05,-6.9846981e-05
2.821000000,-8.998462e-05,-8.9846733e-05
2.822000000,-8.998462e-05,-8.9846733e-05
2.823000000,-9.9984267e-05,-9.9846533e-05
2.824000000,-9.9984267e-05,-9.9846533e-05
2.825000000,-9.9984267e-05,-9.9846533e-05
2.826000000,-9.9984267e-05,-9.9846533e-05
2.827000000,-9.9984267e-05,-9.9846533e-05
2.828000000,-8.998462e-05,-8.9846733e-05
2.829000000,-8.998462e-05,-8.9846733e-05
2.830000000,-8.998462e-05,-8.9846733e-05
2.831000000,-8.998462e-05,-8.9846733e-05
2.832000000,-8.998462e-05,-8.9846733e-05
2.833000000,-7.9984973e-05,-7.9846926e-05
2.834000000,-7.9984973e-05,-7.9846926e-05
2.835000000,-6.9985392e-05,-6.9846981e-05
2.836000000,-6.9985392e-05,-6.9846981e-05
2.837000000,-5.9985745e-05,-5.9847178e-05
2.838000000,-4.9986167e-05,-4.9847375e-05
2.839000000,-4.9986167e-05,-4.9847375e-05
2.840000000,-3.998652e-05,-3.9847571e-05
2.841000000,-3.998652e-05,-3.9847571e-05
2.842000000,-2.998687e-05,-2.9847622e-05
2.843000000,-1.9987294e-05,-1.9847819e-05
2.844000000,-1.9987294e-05,-1.9847819e-05
2.845000000,-1.9987294e-05,-1.9847819e-05
2.846000000,-9.9876443e-06,-9.8480168e-06
2.847000000,-9.9876443e-06,-9.8480168e-06
2.848000000,-9.9876443e-06,-9.8480168e-06
2.849000000,1.1932928e-08,1.5177039e-07
2.850000000,1.1932928e-08,1.5177039e-07
2.851000000,1.1932928e-08,1.5177039e-07
2.852000000,1.0012382e-05,1.0150718e-05
2.853000000,1.0012382e-05,1.0150718e-05
2.854000000,1.0012382e-05,1.0150718e-05
2.855000000,1.0012382e-05,1.0150718e-05
2.856000000,2.0012829e-05,2.014952e-05
2.857000000,2.0012829e-05,2.014952e-05
2.858000000,2.0012829e-05,2.014952e-05
2.859000000,2.0012829e-05,2.014952e-05
2.860000000,3.0013205e-05,3.0148323e-05
2.861000000,3.0013205e-05,3.0148323e-05
2.862000000,3.0013205e-05,3.0148323e-05
2.863000000,3.0013205e-05,3.0148323e-05
2.864000000,3.0013205e-05,3.0148323e-05
2.865000000,3.0013205e-05,3.0148323e-05
2.866000000,3.0013205e-05,3.0148323e-05
2.867000000,3.0013205e-05,3.0148323e-05
2.868000000,3.0013205e-05,3.0148323e-05
2.869000000,3.0013205e-05,3.0148323e-05
2.870000000,3.0013205e-05,3.0148323e-05
2.871000000,3.0013205e-05,3.0148323e-05
2.872000000,3.0013205e-05,3.0148323e-05
2.873000000,3.0013205e-05,3.0148323e-05
2.874000000,3.0013205e-05,3.0148323e-05
2.875000000,3.0013205e-05,3.0148323e-05
2.876000000,3.0013205e-05,3.0148323e-05
2.877000000,3.0013205e-05,3.0148323e-05
2.878000000,3.0013205e-05,3.0148323e-05
2.879000000,4.0013652e-05,4.0147126e-05
2.880000000,4.0013652e-05,4.0147126e-05
2.881000000,4.0013652e-05,4.0147126e-05
2.882000000,4.0013652e-05,4.0147126e-05
2.883000000,4.0013652e-05,4.0147126e-05
2.884000000,4.0013652e-05,3.0148323e-05
2.885000000,3.0013205e-05,3.0148323e-05
2.886000000,3.0013205e-05,3.0148323e-05
2.887000000,3.0013205e-05,3.0148323e-05
2.888000000,3.0013205e-05,3.0148323e-05
2.889000000,2.0012829e-05,2.014952e-05
2.890000000,2.0012829e-05,2.014952e-05
2.891000000,2.0012829e-05,2.014952e-05
2.892000000,2.0012829e-05,2.014952e-05
2.893000000,2.0012829e-05,2.014952e-05
2.894000000,2.0012829e-05,1.0150718e-05
2.895000000,1.0012382e-05,1.0150718e-05
2.896000000,1.0012382e-05,1.0150718e-05
2.897000000,1.0012382e-05,1.0150718e-05
2.898000000,1.0012382e-05,1.0150718e-05
2.899000000,1.0012382e-05,1.0150718e-05
2.900000000,1.0012382e-05,1.0150718e-05
