temp_filter,internal,,
,filter_period_s,const,0.2
,time_constant_s_p,const,&property_fgc.analog.tau_temp
,warning.min_c,const,20
,warning.max_c_p,const,(cc_float *)&dpcom.mcu.vref_temp.ref
,invalid.min_c,const,5
,invalid.max_c,const,60
,max_delta_temp_c,const,1
,,,
temp_filter,dcct_a,,
,filter_period_s,const,0.2
,time_constant_s_p,const,&property_fgc.dcct.tau_temp
,warning.min_c,const,15
,warning.max_c,const,45
,invalid.min_c,const,5
,invalid.max_c,const,60
,max_delta_temp_c,const,1
,,,
temp_filter,dcct_b,,
,filter_period_s,const,0.2
,time_constant_s_p,const,&property_fgc.dcct.tau_temp
,warning.min_c,const,15
,warning.max_c,const,45
,invalid.min_c,const,5
,invalid.max_c,const,60
,max_delta_temp_c,const,1
,,,
cal_ref,internal,,
,temp_c,const,(cc_float*)&dpcom.mcu.vref_temp.ref
,,,
cal_ref,external,,
,temp_c,const,NULL
,,,
adc,adc_a,,
,cal.cal_ref_index,cal_ref,internal
,stuck.limit,const,ADC_STUCK_LIMIT
,cal.temp_filter_index,temp_filter,internal
,cal.cal_limit_index,cal_limit,ana103
,cal_num_samples,const,CALIBRATION_NUM_SAMPLES
,,,
adc,adc_b,,
,cal.cal_ref_index,cal_ref,internal
,stuck.limit,const,ADC_STUCK_LIMIT
,cal.temp_filter_index,temp_filter,internal
,cal.cal_limit_index,cal_limit,ana103
,cal_num_samples,const,CALIBRATION_NUM_SAMPLES
,,,
adc,adc_c,,
,cal.cal_ref_index,cal_ref,internal
,stuck.limit,const,ADC_STUCK_LIMIT
,cal.temp_filter_index,temp_filter,internal
,cal.cal_limit_index,cal_limit,ana103
,cal_num_samples,const,CALIBRATION_NUM_SAMPLES
,,,
adc,adc_d,,
,cal.cal_ref_index,cal_ref,internal
,stuck.limit,const,ADC_STUCK_LIMIT
,cal.temp_filter_index,temp_filter,internal
,cal.cal_limit_index,cal_limit,ana103
,cal_num_samples,const,CALIBRATION_NUM_SAMPLES
,,,
transducer,dcct_a,,
,nominal_gain,const,1
,primary_turns_p,const,&property_fgc.dcct.primary_turns
,cal.cal_ref_index,cal_ref,external
,cal.cal_limit_index,cal_limit,dcct
,cal.temp_filter_index,temp_filter,dcct_a
,,,
transducer,dcct_b,,
,nominal_gain,const,1
,primary_turns_p,const,&property_fgc.dcct.primary_turns
,cal.cal_ref_index,cal_ref,external
,cal.temp_filter_index,temp_filter,dcct_b
,cal.cal_limit_index,cal_limit,dcct
,,,
transducer,aux,,
,nominal_gain,const,1
,primary_turns,const,1
,cal.cal_ref_index,const,SIG_NOT_IN_USE
,cal.temp_filter_index,const,SIG_NOT_IN_USE
,,,
#,EOF,,
