source:ccrt device:log(04)_03 epoch:1673450014 timeOrigin:0.000000000 firstSampleTime:0.100000000 period:0.000100000 name:ACQ_DISC(4) type:analog,I_A_INTRP_(A),I_B_INTRP_(A)
0.100000000,0.25907087,0.22867501
0.100100000,0.2595529,0.22915694
0.100200000,0.26003492,0.22963887
0.100300000,0.26051694,0.23012081
0.100400000,0.26099896,0.23060274
0.100500000,0.26148099,0.23108467
0.100600000,0.26196301,0.23156661
0.100700000,0.26244503,0.23204854
0.100800000,0.26292706,0.23253047
0.100900000,0.26340908,0.23301241
0.101000000,0.26389107,0.23349427
0.101100000,0.26437408,0.2339772
0.101200000,0.26485708,0.23446013
0.101300000,0.26534009,0.23494306
0.101400000,0.2658231,0.23542599
0.101500000,0.2663061,0.23590893
0.101600000,0.26678911,0.23639186
0.101700000,0.26727211,0.23687479
0.101800000,0.26775512,0.23735772
0.101900000,0.26823813,0.23784065
0.102000000,0.26872125,0.23832352
0.102100000,0.26920927,0.23881145
0.102200000,0.26969728,0.23929937
0.102300000,0.27018529,0.2397873
0.102400000,0.2706733,0.24027522
0.102500000,0.27116132,0.24076314
0.102600000,0.27164933,0.24125107
0.102700000,0.27213734,0.24173899
0.102800000,0.27262536,0.24222691
0.102900000,0.27311337,0.24271484
0.103000000,0.27360147,0.24320276
0.103100000,0.27409649,0.24369769
0.103200000,0.27459151,0.24419262
0.103300000,0.27508652,0.24468754
0.103400000,0.27558154,0.24518247
0.103500000,0.27607656,0.2456774
0.103600000,0.27657157,0.24617232
0.103700000,0.27706659,0.24666725
0.103800000,0.2775616,0.24716218
0.103900000,0.27805662,0.24765711
0.104000000,0.2785517,0.248152
0.104100000,0.27905071,0.24865192
0.104200000,0.27954972,0.24915184
0.104300000,0.28004873,0.24965176
0.104400000,0.28054774,0.25015169
0.104500000,0.28104675,0.25065163
0.104600000,0.28154576,0.25115156
0.104700000,0.28204477,0.2516515
0.104800000,0.28254378,0.25215143
0.104900000,0.28304279,0.25265136
0.105000000,0.28354189,0.25315124
0.105100000,0.28404191,0.25365016
0.105200000,0.28454193,0.25414908
0.105300000,0.28504196,0.254648
0.105400000,0.28554198,0.25514692
0.105500000,0.286042,0.25564584
0.105600000,0.28654203,0.25614476
0.105700000,0.28704205,0.25664368
0.105800000,0.28754207,0.2571426
0.105900000,0.2880421,0.25764152
0.106000000,0.28854209,0.25814047
0.106100000,0.2890411,0.25864041
0.106200000,0.28954011,0.25914034
0.106300000,0.29003912,0.25964028
0.106400000,0.29053813,0.26014021
0.106500000,0.29103714,0.26064014
0.106600000,0.29153615,0.26114008
0.106700000,0.29203516,0.26164001
0.106800000,0.29253417,0.26213995
0.106900000,0.29303318,0.26263988
0.107000000,0.29353231,0.26313969
0.107100000,0.29403132,0.2636376
0.107200000,0.29453033,0.26413554
0.107300000,0.29502934,0.26463348
0.107400000,0.29552835,0.26513141
0.107500000,0.29602736,0.26562935
0.107600000,0.29652637,0.26612729
0.107700000,0.29702538,0.26662523
0.107800000,0.29752439,0.26712316
0.107900000,0.2980234,0.2676211
0.108000000,0.29852253,0.26811892
0.108100000,0.29902056,0.26861784
0.108200000,0.29951859,0.26911676
0.108300000,0.30001661,0.26961568
0.108400000,0.30051464,0.2701146
0.108500000,0.30101267,0.27061352
0.108600000,0.30151069,0.27111244
0.108700000,0.30200872,0.27161136
0.108800000,0.30250674,0.27211028
0.108900000,0.30300477,0.2726092
0.109000000,0.30350271,0.27310815
0.109100000,0.30399972,0.27360508
0.109200000,0.30449674,0.274102
0.109300000,0.30499375,0.27459893
0.109400000,0.30549076,0.27509585
0.109500000,0.30598778,0.27559277
0.109600000,0.30648479,0.2760897
0.109700000,0.3069818,0.27658662
0.109800000,0.30747882,0.27708355
0.109900000,0.30797583,0.27758047
0.110000000,0.30847293,0.27807739
0.110100000,0.30896994,0.27857432
0.110200000,0.30946696,0.27907124
0.110300000,0.30996397,0.27956817
0.110400000,0.31046098,0.28006509
0.110500000,0.310958,0.28056201
0.110600000,0.31145501,0.28105894
0.110700000,0.31195202,0.28155586
0.110800000,0.31244904,0.28205279
0.110900000,0.31294605,0.28254971
0.111000000,0.31344312,0.28304663
0.111100000,0.31393915,0.28354257
0.111200000,0.31443518,0.28403848
0.111300000,0.31493121,0.28453439
0.111400000,0.31542724,0.28503031
0.111500000,0.31592327,0.28552622
0.111600000,0.3164193,0.28602213
0.111700000,0.31691533,0.28651804
0.111800000,0.31741136,0.28701395
0.111900000,0.31790739,0.28750986
0.112000000,0.3184033,0.28800589
0.112100000,0.31889734,0.28850082
0.112200000,0.31939137,0.28899574
0.112300000,0.3198854,0.28949067
0.112400000,0.32037944,0.2899856
0.112500000,0.32087347,0.29048052
0.112600000,0.3213675,0.29097545
0.112700000,0.32186154,0.29147038
0.112800000,0.32235557,0.29196531
0.112900000,0.3228496,0.29246023
0.113000000,0.32334355,0.29295513
0.113100000,0.32383555,0.29344705
0.113200000,0.32432759,0.29393896
0.113300000,0.32481962,0.29443088
0.113400000,0.32531166,0.2949228
0.113500000,0.3258037,0.29541472
0.113600000,0.32629573,0.29590663
0.113700000,0.32678777,0.29639855
0.113800000,0.32727981,0.29689047
0.113900000,0.32777184,0.29738238
0.114000000,0.32826376,0.29787436
0.114100000,0.32875478,0.29836529
0.114200000,0.32924581,0.29885623
0.114300000,0.32973683,0.29934716
0.114400000,0.33022785,0.2998381
0.114500000,0.33071887,0.30032903
0.114600000,0.3312099,0.30081996
0.114700000,0.33170092,0.3013109
0.114800000,0.33219194,0.30180183
0.114900000,0.33268297,0.30229276
0.115000000,0.33317393,0.30278361
0.115100000,0.33366394,0.30327353
0.115200000,0.33415395,0.30376345
0.115300000,0.33464396,0.30425337
0.115400000,0.33513397,0.30474329
0.115500000,0.33562398,0.30523321
0.115600000,0.33611399,0.30572313
0.115700000,0.336604,0.30621305
0.115800000,0.33709401,0.30670297
0.115900000,0.33758402,0.30719289
0.116000000,0.33807415,0.30768284
0.116100000,0.33856317,0.30817178
0.116200000,0.3390522,0.30866072
0.116300000,0.33954123,0.30914965
0.116400000,0.34003025,0.30963859
0.116500000,0.34051928,0.31012753
0.116600000,0.34100831,0.31061646
0.116700000,0.34149733,0.3111054
0.116800000,0.34198636,0.31159434
0.116900000,0.34247538,0.31208327
0.117000000,0.34296438,0.31257212
0.117100000,0.34345341,0.31306106
0.117200000,0.34394243,0.31355
0.117300000,0.34443146,0.31403893
0.117400000,0.34492049,0.31452787
0.117500000,0.34540951,0.31501681
0.117600000,0.34589854,0.31550574
0.117700000,0.34638757,0.31599468
0.117800000,0.34687659,0.31648362
0.117900000,0.34736562,0.31697255
0.118000000,0.34785455,0.31746134
0.118100000,0.34834257,0.31794927
0.118200000,0.34883058,0.31843719
0.118300000,0.34931859,0.31892511
0.118400000,0.34980661,0.31941304
0.118500000,0.35029462,0.31990096
0.118600000,0.35078263,0.32038888
0.118700000,0.35127065,0.32087681
0.118800000,0.35175866,0.32136473
0.118900000,0.35224667,0.32185265
0.119000000,0.35273474,0.32234061
0.119100000,0.35322276,0.32282853
0.119200000,0.35371077,0.32331645
0.119300000,0.35419878,0.32380438
0.119400000,0.3546868,0.3242923
0.119500000,0.35517481,0.32478023
0.119600000,0.35566282,0.32526815
0.119700000,0.35615084,0.32575607
0.119800000,0.35663885,0.326244
0.119900000,0.35712686,0.32673192
0.120000000,0.35761496,0.32721981
0.120100000,0.35810199,0.32770675
0.120200000,0.35858902,0.32819369
0.120300000,0.35907605,0.32868063
0.120400000,0.35956308,0.32916757
0.120500000,0.36005011,0.32965451
0.120600000,0.36053714,0.33014145
0.120700000,0.36102417,0.3306284
0.120800000,0.3615112,0.33111534
0.120900000,0.36199823,0.33160228
0.121000000,0.36248517,0.3320891
0.121100000,0.3629722,0.33257702
0.121200000,0.36345923,0.33306494
0.121300000,0.36394626,0.33355287
0.121400000,0.36443329,0.33404079
0.121500000,0.36492032,0.33452871
0.121600000,0.36540735,0.33501664
0.121700000,0.36589438,0.33550456
0.121800000,0.36638141,0.33599249
0.121900000,0.36686844,0.33648041
0.122000000,0.36735541,0.33696833
0.122100000,0.36784342,0.33745527
0.122200000,0.36833143,0.33794218
0.122300000,0.36881945,0.33842909
0.122400000,0.36930746,0.338916
0.122500000,0.36979547,0.33940291
0.122600000,0.37028348,0.33988982
0.122700000,0.3707715,0.34037673
0.122800000,0.37125951,0.34086365
0.122900000,0.37174752,0.34135056
0.123000000,0.3722356,0.34183758
0.123100000,0.37272462,0.34232652
0.123200000,0.37321365,0.34281546
0.123300000,0.37370268,0.3433044
0.123400000,0.3741917,0.34379333
0.123500000,0.37468073,0.34428227
0.123600000,0.37516975,0.34477121
0.123700000,0.37565878,0.34526014
0.123800000,0.37614781,0.34574908
0.123900000,0.37663683,0.34623802
0.124000000,0.37712577,0.3467268
0.124100000,0.3776148,0.34721574
0.124200000,0.37810382,0.34770468
0.124300000,0.37859285,0.34819362
0.124400000,0.37908188,0.34868255
0.124500000,0.3795709,0.34917149
0.124600000,0.38005993,0.34966043
0.124700000,0.38054895,0.35014936
0.124800000,0.38103798,0.3506383
0.124900000,0.38152701,0.35112724
0.125000000,0.382016,0.35161605
0.125100000,0.38250503,0.35210499
0.125200000,0.38299406,0.35259393
0.125300000,0.38348308,0.35308287
0.125400000,0.38397211,0.3535718
0.125500000,0.38446113,0.35406074
0.125600000,0.38495016,0.35454968
0.125700000,0.38543919,0.35503861
0.125800000,0.38592821,0.35552755
0.125900000,0.38641724,0.35601649
0.126000000,0.38690621,0.3565053
0.126100000,0.38739422,0.35699323
0.126200000,0.38788223,0.35748115
0.126300000,0.38837025,0.35796908
0.126400000,0.38885826,0.358457
0.126500000,0.38934627,0.35894492
0.126600000,0.38983428,0.35943285
0.126700000,0.3903223,0.35992077
0.126800000,0.39081031,0.36040869
0.126900000,0.39129832,0.36089662
0.127000000,0.3917864,0.36138457
0.127100000,0.39227343,0.36187249
0.127200000,0.39276046,0.36236042
0.127300000,0.39324749,0.36284834
0.127400000,0.39373451,0.36333627
0.127500000,0.39422154,0.36382419
0.127600000,0.39470857,0.36431211
0.127700000,0.3951956,0.36480004
0.127800000,0.39568263,0.36528796
0.127900000,0.39616966,0.36577588
0.128000000,0.3966566,0.36626381
0.128100000,0.39714462,0.36675075
0.128200000,0.39763263,0.36723769
0.128300000,0.39812064,0.36772463
0.128400000,0.39860865,0.36821157
0.128500000,0.39909667,0.36869851
0.128600000,0.39958468,0.36918545
0.128700000,0.40007269,0.36967239
0.128800000,0.40056071,0.37015933
0.128900000,0.40104872,0.37064627
0.129000000,0.40153682,0.37113309
0.129100000,0.40202284,0.37162
0.129200000,0.40250885,0.37210691
0.129300000,0.40299487,0.37259382
0.129400000,0.40348089,0.37308073
0.129500000,0.4039669,0.37356764
0.129600000,0.40445292,0.37405455
0.129700000,0.40493894,0.37454146
0.129800000,0.40542495,0.37502837
0.129900000,0.40591097,0.37551528
0.130000000,0.40639701,0.37600234
0.130100000,0.40688303,0.37648827
0.130200000,0.40736905,0.3769742
0.130300000,0.40785506,0.37746012
0.130400000,0.40834108,0.37794605
0.130500000,0.4088271,0.37843198
0.130600000,0.40931311,0.3789179
0.130700000,0.40979913,0.37940383
0.130800000,0.41028515,0.37988976
0.130900000,0.41077116,0.38037568
0.131000000,0.41125721,0.38086158
0.131100000,0.41174322,0.38134751
0.131200000,0.41222924,0.38183343
0.131300000,0.41271526,0.38231936
0.131400000,0.41320127,0.38280529
0.131500000,0.41368729,0.38329121
0.131600000,0.41417331,0.38377714
0.131700000,0.41465932,0.38426307
0.131800000,0.41514534,0.384749
0.131900000,0.41563135,0.38523492
0.132000000,0.4161174,0.38572082
0.132100000,0.41660243,0.38620573
0.132200000,0.41708747,0.38669068
0.132300000,0.4175725,0.38717562
0.132400000,0.41805753,0.38766056
0.132500000,0.41854256,0.38814551
0.132600000,0.4190276,0.38863045
0.132700000,0.41951263,0.38911539
0.132800000,0.41999766,0.38960034
0.132900000,0.4204827,0.39008528
0.133000000,0.42096761,0.3905701
0.133100000,0.42145362,0.39105603
0.133200000,0.42193964,0.39154196
0.133300000,0.42242566,0.39202788
0.133400000,0.42291167,0.39251381
0.133500000,0.42339769,0.39299974
0.133600000,0.42388371,0.39348567
0.133700000,0.42436972,0.39397159
0.133800000,0.42485574,0.39445752
0.133900000,0.42534176,0.39494345
0.134000000,0.4258278,0.39542931
0.134100000,0.42631283,0.39591426
0.134200000,0.42679787,0.3963992
0.134300000,0.4272829,0.39688414
0.134400000,0.42776793,0.39736909
0.134500000,0.42825297,0.39785403
0.134600000,0.428738,0.39833897
0.134700000,0.42922303,0.39882392
0.134800000,0.42970806,0.39930886
0.134900000,0.4301931,0.3997938
0.135000000,0.43067801,0.4002786
0.135100000,0.43116203,0.40076351
0.135200000,0.43164605,0.40124843
0.135300000,0.43213007,0.40173334
0.135400000,0.43261409,0.40221825
0.135500000,0.43309811,0.40270317
0.135600000,0.43358213,0.40318808
0.135700000,0.43406615,0.40367299
0.135800000,0.43455017,0.40415791
0.135900000,0.43503419,0.40464282
0.136000000,0.43551821,0.40512782
0.136100000,0.43600222,0.40561175
0.136200000,0.43648624,0.40609568
0.136300000,0.43697026,0.40657961
0.136400000,0.43745428,0.40706354
0.136500000,0.4379383,0.40754747
0.136600000,0.43842232,0.4080314
0.136700000,0.43890634,0.40851533
0.136800000,0.43939036,0.40899926
0.136900000,0.43987438,0.40948319
0.137000000,0.44035843,0.40996709
0.137100000,0.44084245,0.41045102
0.137200000,0.44132647,0.41093495
0.137300000,0.44181049,0.41141888
0.137400000,0.44229451,0.41190282
0.137500000,0.44277853,0.41238675
0.137600000,0.44326255,0.41287068
0.137700000,0.44374657,0.41335461
0.137800000,0.44423059,0.41383854
0.137900000,0.44471461,0.41432247
0.138000000,0.44519863,0.41480634
0.138100000,0.44568163,0.41528925
0.138200000,0.44616467,0.41577217
0.138300000,0.4466477,0.41625509
0.138400000,0.44713074,0.416738
0.138500000,0.44761378,0.41722092
0.138600000,0.44809681,0.41770384
0.138700000,0.44857985,0.41818675
0.138800000,0.44906288,0.41866967
0.138900000,0.44954592,0.41915259
0.139000000,0.45002884,0.41963562
0.139100000,0.45051086,0.42011756
0.139200000,0.45099288,0.42059949
0.139300000,0.45147491,0.42108142
0.139400000,0.45195693,0.42156336
0.139500000,0.45243895,0.42204529
0.139600000,0.45292097,0.42252722
0.139700000,0.453403,0.42300916
0.139800000,0.45388502,0.42349109
0.139900000,0.45436704,0.42397302
0.140000000,0.45484903,0.42445487
0.140100000,0.45533106,0.4249368
0.140200000,0.45581308,0.42541873
0.140300000,0.4562951,0.42590067
0.140400000,0.45677713,0.4263826
0.140500000,0.45725915,0.42686453
0.140600000,0.45774117,0.42734647
0.140700000,0.45822319,0.4278284
0.140800000,0.45870522,0.42831033
0.140900000,0.45918724,0.42879227
0.141000000,0.45966926,0.42927411
0.141100000,0.46015128,0.42975605
0.141200000,0.46063331,0.43023798
0.141300000,0.46111533,0.43071991
0.141400000,0.46159735,0.43120185
0.141500000,0.46207938,0.43168378
0.141600000,0.4625614,0.43216571
0.141700000,0.46304342,0.43264765
0.141800000,0.46352544,0.43312958
0.141900000,0.46400747,0.43361151
0.142000000,0.46448943,0.43409339
0.142100000,0.46496946,0.43457431
0.142200000,0.46544948,0.43505523
0.142300000,0.46592951,0.43553615
0.142400000,0.46640953,0.43601707
0.142500000,0.46688956,0.43649799
0.142600000,0.46736959,0.43697891
0.142700000,0.46784961,0.43745983
0.142800000,0.46832964,0.43794075
0.142900000,0.46880966,0.43842167
0.143000000,0.46928966,0.43890265
0.143100000,0.46976969,0.43938258
0.143200000,0.47024971,0.43986252
0.143300000,0.47072974,0.44034246
0.143400000,0.47120976,0.44082239
0.143500000,0.47168979,0.44130233
0.143600000,0.47216982,0.44178227
0.143700000,0.47264984,0.4422622
0.143800000,0.47312987,0.44274214
0.143900000,0.47360989,0.44322208
0.144000000,0.47408983,0.44370189
0.144100000,0.47456986,0.44418082
0.144200000,0.47504988,0.44465974
0.144300000,0.47552991,0.44513866
0.144400000,0.47600994,0.44561759
0.144500000,0.47648996,0.44609651
0.144600000,0.47696999,0.44657543
0.144700000,0.47745001,0.44705436
0.144800000,0.47793004,0.44753328
0.144900000,0.47841007,0.4480122
0.145000000,0.47889006,0.44849116
0.145100000,0.47936907,0.44897008
0.145200000,0.47984809,0.449449
0.145300000,0.4803271,0.44992793
0.145400000,0.48080611,0.45040685
0.145500000,0.48128513,0.45088577
0.145600000,0.48176414,0.4513647
0.145700000,0.48224315,0.45184362
0.145800000,0.48272216,0.45232254
0.145900000,0.48320118,0.45280147
0.146000000,0.48368025,0.45328042
0.146100000,0.48415828,0.45375934
0.146200000,0.48463631,0.45423827
0.146300000,0.48511434,0.45471719
0.146400000,0.48559237,0.45519611
0.146500000,0.48607039,0.45567504
0.146600000,0.48654842,0.45615396
0.146700000,0.48702645,0.45663288
0.146800000,0.48750448,0.45711181
0.146900000,0.48798251,0.45759073
0.147000000,0.48846045,0.45806968
0.147100000,0.48893848,0.45854762
0.147200000,0.48941651,0.45902556
0.147300000,0.48989454,0.4595035
0.147400000,0.49037257,0.45998144
0.147500000,0.4908506,0.46045938
0.147600000,0.49132863,0.46093732
0.147700000,0.49180666,0.46141526
0.147800000,0.49228469,0.4618932
0.147900000,0.49276271,0.46237114
0.148000000,0.49324062,0.46284896
0.148100000,0.49371865,0.46332589
0.148200000,0.49419668,0.46380281
0.148300000,0.49467471,0.46427974
0.148400000,0.49515274,0.46475667
0.148500000,0.49563077,0.46523359
0.148600000,0.4961088,0.46571052
0.148700000,0.49658683,0.46618745
0.148800000,0.49706486,0.46666437
0.148900000,0.49754289,0.4671413
0.149000000,0.49802086,0.46761823
0.149100000,0.49849787,0.46809515
0.149200000,0.49897489,0.46857208
0.149300000,0.49945191,0.46904901
0.149400000,0.49992892,0.46952593
0.149500000,0.50040597,0.47000286
0.149600000,0.50088298,0.47047979
0.149700000,0.50136,0.47095671
0.149800000,0.50183702,0.47143364
0.149900000,0.50231403,0.47191057
0.150000000,0.50279105,0.47238749
0.150100000,0.50326705,0.47286442
0.150200000,0.50374305,0.47334135
0.150300000,0.50421906,0.47381827
0.150400000,0.50469506,0.4742952
0.150500000,0.50517106,0.47477213
0.150600000,0.50564706,0.47524905
0.150700000,0.50612307,0.47572598
0.150800000,0.50659907,0.47620291
0.150900000,0.50707507,0.47667983
0.151000000,0.50755125,0.47715676
0.151100000,0.50802726,0.4776327
0.151200000,0.50850326,0.47810864
0.151300000,0.50897926,0.47858459
0.151400000,0.50945526,0.47906053
0.151500000,0.50993127,0.47953647
0.151600000,0.51040727,0.48001242
0.151700000,0.51088327,0.48048836
0.151800000,0.51135927,0.4809643
0.151900000,0.51183528,0.48144025
0.152000000,0.51231146,0.48191604
0.152100000,0.51278651,0.48239097
0.152200000,0.51326156,0.4828659
0.152300000,0.51373661,0.48334083
0.152400000,0.51421165,0.48381576
0.152500000,0.5146867,0.48429069
0.152600000,0.51516175,0.48476562
0.152700000,0.5156368,0.48524055
0.152800000,0.51611185,0.48571548
0.152900000,0.5165869,0.48619041
0.153000000,0.51706165,0.48666528
0.153100000,0.51753664,0.48714021
0.153200000,0.51801169,0.48761514
0.153300000,0.51848674,0.48809007
0.153400000,0.51896179,0.488565
0.153500000,0.51943684,0.48903993
0.153600000,0.51991189,0.48951486
0.153700000,0.52038693,0.48998979
0.153800000,0.52086198,0.49046472
0.153900000,0.52133703,0.49093965
0.154000000,0.52181184,0.49141455
0.154100000,0.52228588,0.49188846
0.154200000,0.52275991,0.49236238
0.154300000,0.52323395,0.4928363
0.154400000,0.52370799,0.49331021
0.154500000,0.52418202,0.49378413
0.154600000,0.52465606,0.49425805
0.154700000,0.52513009,0.49473196
0.154800000,0.52560413,0.49520588
0.154900000,0.52607816,0.4956798
0.155000000,0.52655208,0.4961538
0.155100000,0.5270251,0.49662673
0.155200000,0.52749813,0.49709967
0.155300000,0.52797115,0.4975726
0.155400000,0.52844417,0.49804553
0.155500000,0.52891719,0.49851847
0.155600000,0.52939022,0.4989914
0.155700000,0.52986324,0.49946433
0.155800000,0.53033626,0.49993727
0.155900000,0.53080928,0.5004102
0.156000000,0.53128225,0.5008831
0.156100000,0.53175527,0.50135601
0.156200000,0.53222829,0.50182891
0.156300000,0.53270131,0.50230181
0.156400000,0.53317434,0.50277472
0.156500000,0.53364736,0.50324762
0.156600000,0.53412038,0.50372052
0.156700000,0.5345934,0.50419343
0.156800000,0.53506643,0.50466633
0.156900000,0.53553945,0.50513923
0.157000000,0.53601247,0.50561237
0.157100000,0.53648448,0.50608528
0.157200000,0.53695649,0.50655818
0.157300000,0.5374285,0.50703108
0.157400000,0.53790051,0.50750399
0.157500000,0.53837252,0.50797689
0.157600000,0.53884453,0.50844979
0.157700000,0.53931653,0.5089227
0.157800000,0.53978854,0.5093956
0.157900000,0.54026055,0.5098685
0.158000000,0.54073268,0.51034164
0.158100000,0.54120469,0.51081359
0.158200000,0.5416767,0.51128554
0.158300000,0.54214871,0.51175749
0.158400000,0.54262072,0.51222944
0.158500000,0.54309273,0.51270139
0.158600000,0.54356474,0.51317334
0.158700000,0.54403675,0.51364529
0.158800000,0.54450876,0.51411724
0.158900000,0.54498076,0.51458919
0.159000000,0.54545283,0.5150609
0.159100000,0.54592484,0.51553184
0.159200000,0.54639685,0.51600277
0.159300000,0.54686886,0.51647371
0.159400000,0.54734087,0.51694465
0.159500000,0.54781288,0.51741558
0.159600000,0.54828489,0.51788652
0.159700000,0.5487569,0.51835746
0.159800000,0.54922891,0.51882839
0.159900000,0.54970092,0.51929933
0.160000000,0.55017304,0.51977021
0.160100000,0.55064309,0.52024114
0.160200000,0.55111313,0.52071208
0.160300000,0.55158317,0.52118301
0.160400000,0.55205321,0.52165395
0.160500000,0.55252326,0.52212489
0.160600000,0.5529933,0.52259582
0.160700000,0.55346334,0.52306676
0.160800000,0.55393338,0.5235377
0.160900000,0.55440342,0.52400863
0.161000000,0.55487323,0.52447945
0.161100000,0.55534422,0.52495039
0.161200000,0.55581522,0.52542132
0.161300000,0.55628622,0.52589226
0.161400000,0.55675721,0.52636319
0.161500000,0.55722821,0.52683413
0.161600000,0.5576992,0.52730507
0.161700000,0.5581702,0.527776
0.161800000,0.5586412,0.52824694
0.161900000,0.55911219,0.52871788
0.162000000,0.55958343,0.52918875
0.162100000,0.56005245,0.52965766
0.162200000,0.56052148,0.53012657
0.162300000,0.56099051,0.53059548
0.162400000,0.56145954,0.53106439
0.162500000,0.56192857,0.5315333
0.162600000,0.5623976,0.53200221
0.162700000,0.56286663,0.53247112
0.162800000,0.56333566,0.53294003
0.162900000,0.56380469,0.53340894
0.163000000,0.5642736,0.53387803
0.163100000,0.56474262,0.53434694
0.163200000,0.56521165,0.53481585
0.163300000,0.56568068,0.53528476
0.163400000,0.56614971,0.53575367
0.163500000,0.56661874,0.53622258
0.163600000,0.56708777,0.53669149
0.163700000,0.5675568,0.5371604
0.163800000,0.56802583,0.53762931
0.163900000,0.56849486,0.53809822
0.164000000,0.56896383,0.5385673
0.164100000,0.56943285,0.53903621
0.164200000,0.56990188,0.53950512
0.164300000,0.57037091,0.53997403
0.164400000,0.57083994,0.54044294
0.164500000,0.57130897,0.54091185
0.164600000,0.571778,0.54138076
0.164700000,0.57224703,0.54184967
0.164800000,0.57271606,0.54231858
0.164900000,0.57318509,0.54278749
0.165000000,0.57365406,0.54325658
0.165100000,0.57412207,0.54372454
0.165200000,0.57459009,0.54419243
0.165300000,0.5750581,0.54466033
0.165400000,0.57552612,0.54512823
0.165500000,0.57599413,0.54559612
0.165600000,0.57646215,0.54606402
0.165700000,0.57693017,0.54653192
0.165800000,0.57739818,0.54699981
0.165900000,0.5778662,0.54746771
0.166000000,0.57833421,0.54793584
0.166100000,0.57880121,0.5484038
0.166200000,0.57926822,0.54887176
0.166300000,0.57973522,0.54933971
0.166400000,0.58020222,0.54980767
0.166500000,0.58066922,0.55027562
0.166600000,0.58113623,0.55074358
0.166700000,0.58160323,0.55121154
0.166800000,0.58207023,0.55167949
0.166900000,0.58253723,0.55214745
0.167000000,0.58300442,0.55261517
0.167100000,0.58347142,0.5530811
0.167200000,0.58393842,0.55354702
0.167300000,0.58440542,0.55401295
0.167400000,0.58487242,0.55447888
0.167500000,0.58533943,0.55494481
0.167600000,0.58580643,0.55541074
0.167700000,0.58627343,0.55587667
0.167800000,0.58674043,0.5563426
0.167900000,0.58720744,0.55680853
0.168000000,0.58767462,0.5572744
0.168100000,0.58814061,0.55774134
0.168200000,0.5886066,0.55820829
0.168300000,0.58907259,0.55867523
0.168400000,0.58953857,0.55914217
0.168500000,0.59000456,0.55960912
0.168600000,0.59047055,0.56007606
0.168700000,0.59093654,0.560543
0.168800000,0.59140253,0.56100994
0.168900000,0.59186852,0.56147689
0.169000000,0.59233481,0.56194365
0.169100000,0.59280086,0.56240958
0.169200000,0.59326684,0.56287551
0.169300000,0.59373283,0.56334144
0.169400000,0.59419882,0.56380737
0.169500000,0.59466481,0.5642733
0.169600000,0.5951308,0.56473923
0.169700000,0.59559679,0.56520516
0.169800000,0.59606278,0.56567109
0.169900000,0.59652877,0.56613702
0.170000000,0.596995,0.56660295
0.170100000,0.59746099,0.56706786
0.170200000,0.59792697,0.56753278
0.170300000,0.59839296,0.56799769
0.170400000,0.59885895,0.56846261
0.170500000,0.59932494,0.56892753
0.170600000,0.59979093,0.56939244
0.170700000,0.60025692,0.56985736
0.170800000,0.60072291,0.57032228
0.170900000,0.6011889,0.57078719
0.171000000,0.60165519,0.57125223
0.171100000,0.60211921,0.57171714
0.171200000,0.60258323,0.57218206
0.171300000,0.60304725,0.57264698
0.171400000,0.60351127,0.57311189
0.171500000,0.6039753,0.57357681
0.171600000,0.60443932,0.57404172
0.171700000,0.60490334,0.57450664
0.171800000,0.60536736,0.57497156
0.171900000,0.60583138,0.57543647
0.172000000,0.60629535,0.57590157
0.172100000,0.60676038,0.57636648
0.172200000,0.60722542,0.5768314
0.172300000,0.60769045,0.57729632
0.172400000,0.60815549,0.57776123
0.172500000,0.60862052,0.57822615
0.172600000,0.60908556,0.57869107
0.172700000,0.6095506,0.57915598
0.172800000,0.61001563,0.5796209
0.172900000,0.61048067,0.58008581
0.173000000,0.61094558,0.58055085
0.173100000,0.61140859,0.5810138
0.173200000,0.6118716,0.58147675
0.173300000,0.61233461,0.5819397
0.173400000,0.61279762,0.58240265
0.173500000,0.61326063,0.5828656
0.173600000,0.61372364,0.58332855
0.173700000,0.61418664,0.58379149
0.173800000,0.61464965,0.58425444
0.173900000,0.61511266,0.58471739
0.174000000,0.61557579,0.5851801
0.174100000,0.6160388,0.58564401
0.174200000,0.61650181,0.58610791
0.174300000,0.61696482,0.58657181
0.174400000,0.61742783,0.58703572
0.174500000,0.61789083,0.58749962
0.174600000,0.61835384,0.58796352
0.174700000,0.61881685,0.58842742
0.174800000,0.61927986,0.58889133
0.174900000,0.61974287,0.58935523
0.175000000,0.620206,0.58981937
0.175100000,0.62066901,0.59028131
0.175200000,0.62113202,0.59074324
0.175300000,0.62159503,0.59120518
0.175400000,0.62205803,0.59166712
0.175500000,0.62252104,0.59212905
0.175600000,0.62298405,0.59259099
0.175700000,0.62344706,0.59305292
0.175800000,0.62391007,0.59351486
0.175900000,0.62437308,0.5939768
0.176000000,0.62483615,0.59443867
0.176100000,0.62529814,0.59490162
0.176200000,0.62576014,0.59536457
0.176300000,0.62622213,0.59582752
0.176400000,0.62668413,0.59629047
0.176500000,0.62714612,0.59675342
0.176600000,0.62760812,0.59721637
0.176700000,0.62807012,0.59767932
0.176800000,0.62853211,0.59814227
0.176900000,0.62899411,0.59860522
0.177000000,0.62945634,0.59906799
0.177100000,0.62991834,0.59952891
0.177200000,0.63038039,0.59998983
0.177300000,0.63084245,0.60045075
0.177400000,0.6313045,0.60091168
0.177500000,0.63176656,0.6013726
0.177600000,0.63222861,0.60183352
0.177700000,0.63269067,0.60229445
0.177800000,0.63315272,0.60275537
0.177900000,0.63361478,0.60321629
0.178000000,0.6340766,0.60367727
0.178100000,0.63453764,0.6041382
0.178200000,0.63499868,0.60459912
0.178300000,0.63545972,0.60506004
0.178400000,0.63592076,0.60552096
0.178500000,0.6363818,0.60598189
0.178600000,0.63684285,0.60644281
0.178700000,0.63730389,0.60690373
0.178800000,0.63776493,0.60736465
0.178900000,0.63822597,0.60782558
0.179000000,0.63868678,0.60828656
0.179100000,0.6391468,0.60874748
0.179200000,0.63960683,0.60920841
0.179300000,0.64006686,0.60966933
0.179400000,0.64052689,0.61013025
0.179500000,0.64098692,0.61059117
0.179600000,0.64144695,0.6110521
0.179700000,0.64190698,0.61151302
0.179800000,0.64236701,0.61197394
0.179900000,0.64282703,0.61243486
0.180000000,0.64328694,0.61289585
0.180100000,0.64374799,0.61335576
0.180200000,0.64420903,0.61381567
0.180300000,0.64467007,0.61427557
0.180400000,0.64513111,0.61473548
0.180500000,0.64559215,0.61519539
0.180600000,0.64605319,0.6156553
0.180700000,0.64651424,0.61611521
0.180800000,0.64697528,0.61657512
0.180900000,0.64743632,0.61703503
0.181000000,0.64789712,0.61749512
0.181100000,0.64835614,0.61795408
0.181200000,0.64881516,0.61841303
0.181300000,0.64927417,0.61887199
0.181400000,0.64973319,0.61933094
0.181500000,0.6501922,0.6197899
0.181600000,0.65065122,0.62024885
0.181700000,0.65111023,0.62070781
0.181800000,0.65156925,0.62116677
0.181900000,0.65202826,0.62162572
0.182000000,0.65248728,0.62208444
0.182100000,0.65294331,0.62254137
0.182200000,0.65339935,0.6229983
0.182300000,0.65385538,0.62345523
0.182400000,0.65431142,0.62391216
0.182500000,0.65476745,0.62436908
0.182600000,0.65522349,0.62482601
0.182700000,0.65567952,0.62528294
0.182800000,0.65613556,0.62573987
0.182900000,0.65659159,0.6261968
0.183000000,0.65704751,0.62665373
0.183100000,0.65750152,0.62710768
0.183200000,0.65795553,0.62756163
0.183300000,0.65840954,0.62801558
0.183400000,0.65886354,0.62846953
0.183500000,0.65931755,0.62892348
0.183600000,0.65977156,0.62937742
0.183700000,0.66022557,0.62983137
0.183800000,0.66067958,0.63028532
0.183900000,0.66113359,0.63073927
0.184000000,0.66158772,0.63119304
0.184100000,0.66203874,0.63164496
0.184200000,0.66248977,0.63209689
0.184300000,0.6629408,0.63254881
0.184400000,0.66339183,0.63300073
0.184500000,0.66384286,0.63345265
0.184600000,0.66429389,0.63390458
0.184700000,0.66474491,0.6343565
0.184800000,0.66519594,0.63480842
0.184900000,0.66564697,0.63526034
0.185000000,0.66609788,0.63571239
0.185100000,0.66654891,0.63616234
0.185200000,0.66699994,0.6366123
0.185300000,0.66745096,0.63706225
0.185400000,0.66790199,0.63751221
0.185500000,0.66835302,0.63796216
0.185600000,0.66880405,0.63841212
0.185700000,0.66925508,0.63886207
0.185800000,0.66970611,0.63931203
0.185900000,0.67015713,0.63976198
0.186000000,0.6706081,0.6402117
0.186100000,0.67105812,0.64066261
0.186200000,0.67150813,0.64111352
0.186300000,0.67195815,0.64156443
0.186400000,0.67240816,0.64201534
0.186500000,0.67285818,0.64246625
0.186600000,0.67330819,0.64291716
0.186700000,0.67375821,0.64336807
0.186800000,0.67420822,0.64381897
0.186900000,0.67465824,0.64426988
0.187000000,0.67510825,0.64472097
0.187100000,0.67555827,0.64517093
0.187200000,0.67600828,0.64562088
0.187300000,0.6764583,0.64607084
0.187400000,0.67690831,0.64652079
0.187500000,0.67735833,0.64697075
0.187600000,0.67780834,0.6474207
0.187700000,0.67825836,0.64787066
0.187800000,0.67870837,0.64832062
0.187900000,0.67915839,0.64877057
0.188000000,0.67960846,0.64922029
0.188100000,0.68005848,0.64966923
0.188200000,0.68050849,0.65011817
0.188300000,0.68095851,0.65056711
0.188400000,0.68140852,0.65101606
0.188500000,0.68185854,0.651465
0.188600000,0.68230855,0.65191394
0.188700000,0.68275857,0.65236288
0.188800000,0.68320858,0.65281183
0.188900000,0.6836586,0.65326077
0.189000000,0.68410867,0.65370959
0.189100000,0.68455666,0.65415853
0.189200000,0.68500465,0.65460747
0.189300000,0.68545264,0.65505642
0.189400000,0.68590063,0.65550536
0.189500000,0.68634862,0.6559543
0.189600000,0.68679661,0.65640324
0.189700000,0.68724459,0.65685219
0.189800000,0.68769258,0.65730113
0.189900000,0.68814057,0.65775007
0.190000000,0.6885888,0.65819889
0.190100000,0.6890378,0.65864682
0.190200000,0.6894868,0.65909475
0.190300000,0.6899358,0.65954268
0.190400000,0.69038481,0.65999061
0.190500000,0.69083381,0.66043854
0.190600000,0.69128281,0.66088647
0.190700000,0.69173181,0.6613344
0.190800000,0.69218081,0.66178232
0.190900000,0.69262981,0.66223025
0.191000000,0.69307905,0.66267824
0.191100000,0.69352406,0.66312414
0.191200000,0.69396907,0.66357005
0.191300000,0.69441408,0.66401595
0.191400000,0.69485909,0.66446185
0.191500000,0.6953041,0.66490775
0.191600000,0.6957491,0.66535366
0.191700000,0.69619411,0.66579956
0.191800000,0.69663912,0.66624546
0.191900000,0.69708413,0.66669136
0.192000000,0.6975292,0.6671375
0.192100000,0.69796723,0.66757542
0.192200000,0.69840527,0.66801333
0.192300000,0.6988433,0.66845125
0.192400000,0.69928133,0.66888916
0.192500000,0.69971937,0.66932708
0.192600000,0.7001574,0.669765
0.192700000,0.70059544,0.67020291
0.192800000,0.70103347,0.67064083
0.192900000,0.70147151,0.67107874
0.193000000,0.70190936,0.6715169
0.193100000,0.70233536,0.67194283
0.193200000,0.70276141,0.67236876
0.193300000,0.70318747,0.6727947
0.193400000,0.70361352,0.67322063
0.193500000,0.70403957,0.67364657
0.193600000,0.70446563,0.6740725
0.193700000,0.70489168,0.67449844
0.193800000,0.70531774,0.67492437
0.193900000,0.70574379,0.67535031
0.194000000,0.70616961,0.67577618
0.194100000,0.70658964,0.6761961
0.194200000,0.70700967,0.67661601
0.194300000,0.70742971,0.67703593
0.194400000,0.70784974,0.67745584
0.194500000,0.70826977,0.67787576
0.194600000,0.70868981,0.67829567
0.194700000,0.70910984,0.67871559
0.194800000,0.70952988,0.6791355
0.194900000,0.70994991,0.67955542
0.195000000,0.71036977,0.67997557
0.195100000,0.71078777,0.68039352
0.195200000,0.71120578,0.68081146
0.195300000,0.71162379,0.68122941
0.195400000,0.7120418,0.68164736
0.195500000,0.7124598,0.68206531
0.195600000,0.71287781,0.68248326
0.195700000,0.71329582,0.6829012
0.195800000,0.71371382,0.68331915
0.195900000,0.71413183,0.6837371
0.196000000,0.7145499,0.68415493
0.196100000,0.71496689,0.68457186
0.196200000,0.71538389,0.6849888
0.196300000,0.71580088,0.68540573
0.196400000,0.71621788,0.68582267
0.196500000,0.71663487,0.6862396
0.196600000,0.71705186,0.68665653
0.196700000,0.71746886,0.68707347
0.196800000,0.71788585,0.6874904
0.196900000,0.71830285,0.68790734
0.197000000,0.71872008,0.68832427
0.197100000,0.71913707,0.68874121
0.197200000,0.71955407,0.68915814
0.197300000,0.71997106,0.68957508
0.197400000,0.72038805,0.68999201
0.197500000,0.72080505,0.69040895
0.197600000,0.72122204,0.69082588
0.197700000,0.72163904,0.69124281
0.197800000,0.72205603,0.69165975
0.197900000,0.72247303,0.69207668
0.198000000,0.72289026,0.69249362
0.198100000,0.72330725,0.69291055
0.198200000,0.72372425,0.69332749
0.198300000,0.72414124,0.69374442
0.198400000,0.72455823,0.69416136
0.198500000,0.72497523,0.69457829
0.198600000,0.72539222,0.69499522
0.198700000,0.72580922,0.69541216
0.198800000,0.72622621,0.69582909
0.198900000,0.7266432,0.69624603
0.199000000,0.72706044,0.69666302
0.199100000,0.72747648,0.69707894
0.199200000,0.72789252,0.69749486
0.199300000,0.72830856,0.69791079
0.199400000,0.7287246,0.69832671
0.199500000,0.72914064,0.69874263
0.199600000,0.72955668,0.69915855
0.199700000,0.72997272,0.69957447
0.199800000,0.73038876,0.69999039
0.199900000,0.7308048,0.70040631
