Group,Property Name,Class/Category
SYS,ADC.EXTERNAL.CONTROL,51
SYS,CAL.CALSYS.CDC_NAME,51
SYS,CAL.CALSYS.SM_CHANNEL,51
SYS,CAL.CALSYS.SM_NAME,51
SYS,DCCT.PRIMARY_TURNS,51
SYS,DCCT.SELECT,51
SYS,DEVICE.PPM,51
SYS,LIMITS.I.ACCELERATION,51
SYS,LIMITS.I.ACCESS,51
SYS,LIMITS.I.CLOSELOOP,51
SYS,LIMITS.I.EARTH,51
SYS,LIMITS.I.ERR_FAULT,51
SYS,LIMITS.I.ERR_WARNING,51
SYS,LIMITS.I.HARDWARE,51
SYS,LIMITS.I.LOW,51
SYS,LIMITS.I.STANDBY,51
SYS,LIMITS.I.NEG,51
SYS,LIMITS.I.POS,51
SYS,LIMITS.I.QUADRANTS41,51
SYS,LIMITS.I.RATE,51
SYS,LIMITS.I.RMS,51
SYS,LIMITS.I.ZERO,51
SYS,LIMITS.V.ERR_FAULT,51
SYS,LIMITS.V.ERR_WARNING,51
SYS,LIMITS.V.NEG,51
SYS,LIMITS.V.POS,51
SYS,LIMITS.V.QUADRANTS41,51
SYS,LIMITS.V.RATE,51
SYS,LOAD.HENRYS,51
SYS,LOAD.HENRYS_SAT,51
SYS,LOAD.I_SAT_END,51
SYS,LOAD.I_SAT_START,51
SYS,LOAD.OHMS_MAG,51
SYS,LOAD.OHMS_PAR,51
SYS,LOAD.OHMS_SER,51
SYS,LOAD.SELECT,51
SYS,MODE.RT,51
SYS,REF.DEFAULTS.I.ACCELERATION,51
SYS,REF.DEFAULTS.I.LINEAR_RATE,51
SYS,REF.DEFAULTS.V.ACCELERATION,51
SYS,REF.DEFAULTS.V.LINEAR_RATE,51
SYS,REF.RATE.I.STARTING,51
SYS,REF.RATE.I.STOPPING,51
SYS,REF.RATE.I.TO_STANDBY,51
SYS,REG.I.INTERNAL.AUXPOLE1_HZ,51
SYS,REG.I.INTERNAL.AUXPOLES2_HZ,51
SYS,REG.I.EXTERNAL.OP.R,51
SYS,REG.I.EXTERNAL.OP.S,51
SYS,REG.I.EXTERNAL.OP.T,51
SYS,REG.I.EXTERNAL.TRACK_DELAY,51
SYS,REG.I.PERIOD_DIV,51
SYS,REG.I.INTERNAL.PURE_DELAY,51
SYS,REG.I.INTERNAL.AUXPOLES2_Z,51
SYS,REG.MODE_INIT,51
SYS,REG.V.TRACK_DELAY,51
SYS,SWITCH.POLARITY.TIMEOUT,51
SYS,VS.DAC_CLAMP,51
SYS,VS.GAIN,51
SYS,VS.OFFSET,51
SYS,VS.VSRUN_TIMEOUT,51
SYS,ADC.EXTERNAL.CONTROL,53
SYS,DCCT.PRIMARY_TURNS,53
SYS,DCCT.SELECT,53
SYS,DEVICE.PPM,53
SYS,LIMITS.B.ERR_FAULT,53
SYS,LIMITS.B.ERR_WARNING,53
SYS,LIMITS.B.POS,53
SYS,LIMITS.B.RATE,53
SYS,LIMITS.I.ACCELERATION,53
SYS,LIMITS.I.ACCESS,53
SYS,LIMITS.I.EARTH,53
SYS,LIMITS.I.ERR_FAULT,53
SYS,LIMITS.I.ERR_WARNING,53
SYS,LIMITS.I.HARDWARE,53
SYS,LIMITS.I.LOW,53
SYS,LIMITS.I.STANDBY,53
SYS,LIMITS.I.NEG,53
SYS,LIMITS.I.POS,53
SYS,LIMITS.I.QUADRANTS41,53
SYS,LIMITS.I.RATE,53
SYS,LIMITS.I.RMS,53
SYS,LIMITS.I.ZERO,53
SYS,LIMITS.V.ERR_FAULT,53
SYS,LIMITS.V.ERR_WARNING,53
SYS,LIMITS.V.NEG,53
SYS,LIMITS.V.POS,53
SYS,LIMITS.V.QUADRANTS41,53
SYS,LIMITS.V.RATE,53
SYS,LOAD.GAUSS_PER_AMP,53
SYS,LOAD.HENRYS,53
SYS,LOAD.HENRYS_SAT,53
SYS,LOAD.I_SAT_END,53
SYS,LOAD.I_SAT_START,53
SYS,LOAD.OHMS_MAG,53
SYS,LOAD.OHMS_PAR,53
SYS,LOAD.OHMS_SER,53
SYS,LOAD.SELECT,53
SYS,PAL.CHAN.DIVPAM_ID,53
SYS,PAL.DIVPAM.CAL_HIGH,53
SYS,PAL.DIVPAM.CAL_LOW,53
SYS,PAL.DIVPAM.VREF_NEG,53
SYS,PAL.DIVPAM.VREF_POS,53
SYS,PAL.DIVPAM.VREF_ZERO,53
SYS,REF.DEFAULTS.B.ACCELERATION,53
SYS,REF.DEFAULTS.I.ACCELERATION,53
SYS,REF.DEFAULTS.I.LINEAR_RATE,53
SYS,REF.DEFAULTS.V.ACCELERATION,53
SYS,REF.DEFAULTS.V.LINEAR_RATE,53
SYS,REF.RATE.I.TO_STANDBY,53
SYS,REG.B.PERIOD_DIV,53
SYS,REG.B.EXTERNAL.OP.R,53
SYS,REG.B.EXTERNAL.OP.S,53
SYS,REG.B.EXTERNAL.OP.T,53
SYS,REG.B.EXTERNAL.TRACK_DELAY,53
SYS,REG.I.INTERNAL.AUXPOLE1_HZ,53
SYS,REG.I.INTERNAL.AUXPOLES2_HZ,53
SYS,REG.I.EXTERNAL.OP.R,53
SYS,REG.I.EXTERNAL.OP.S,53
SYS,REG.I.EXTERNAL.OP.T,53
SYS,REG.I.EXTERNAL.TRACK_DELAY,53
SYS,REG.I.PERIOD_DIV,53
SYS,REG.I.INTERNAL.PURE_DELAY,53
SYS,REG.I.INTERNAL.AUXPOLES2_Z,53
SYS,REG.MODE_INIT,53
SYS,REG.V.TRACK_DELAY,53
SYS,SWITCH.POLARITY.TIMEOUT,53
SYS,VS.GAIN,53
SYS,VS.SIM.CTRL_DELAY,53
SYS,VS.SIM.DEN,53
SYS,VS.SIM.NUM,53
SYS,VS.VSRUN_TIMEOUT,53
SYS,FGCONF.TRIGGER,59
SYS,FGCONF.CHAN.UNITS,59
SYS,FGCONF.GAIN,59
SYS,FGCONF.OFFSET,59
SYS,FGCONF.DEFAULT.ACCELERATION,59
SYS,FGCONF.DEFAULT.LINEAR_RATE,59
SYS,FGCONF.LIMIT.RT.POS,59
SYS,FGCONF.LIMIT.RT.NEG,59
SYS,FGCONF.LIMIT.USER.MAX,59
SYS,FGCONF.LIMIT.USER.MIN,59
SYS,FGCONF.LIMIT.RATE.POS,59
SYS,FGCONF.LIMIT.RATE.NEG,59
SYS,FGRT.CONTROL,59
SYS,FGRT.PERIOD,59
SYS,ADC.INTERNAL.SIGNALS,62
SYS,ADC.INTERNAL.VREF_TEMP.REF,62
SYS,DCCT.A.POSITION,62
SYS,DCCT.B.POSITION,62
SYS,DCCT.PRIMARY_TURNS,62
SYS,DCCT.SELECT,62
SYS,DEVICE.PPM,62
SYS,DEVICE.MULTI_PPM,62
SYS,INTER_FGC.BROADCAST,62
SYS,INTER_FGC.ISR_OFFSET_US,62
SYS,INTER_FGC.SIG_SOURCES,62
SYS,INTER_FGC.MASTER,62
SYS,INTER_FGC.SLAVES,62
SYS,INTER_FGC.TOPOLOGY,62
SYS,INTER_FGC.CONSUMERS,62
SYS,INTER_FGC.PRODUCED_SIGS,62
SYS,LIMITS.I.EARTH,62
SYS,LIMITS.PULSE.NOMINAL,62
SYS,LIMITS.PULSE.POS,62
SYS,LIMITS.PULSE.MIN,62
SYS,LIMITS.PULSE.NEG,62
SYS,LIMITS.PULSE.ERR_FAULT,62
SYS,LIMITS.PULSE.ERR_WARNING,62
SYS,LOG.OASIS.SUBSAMPLE,62
SYS,REF.EVENT_CYC,62
SYS,REGFGC3.PARAMS,62
SYS,SWITCH.POLARITY.TIMEOUT,62
SYS,VS.BLOCKABLE,62
SYS,VS.GAIN,62
SYS,VS.OFFSET,62
SYS,VS.PULSE.TIMING,62
SYS,VS.VSRDY_TIMEOUT,62
SYS,VS.VSRUN_TIMEOUT,62
SYS,V_PROBE.CAPA.GAIN,62
SYS,V_PROBE.CAPA.POSITION,62
SYS,V_PROBE.LOAD.GAIN,62
SYS,V_PROBE.LOAD.POSITION,62
SYS,ADC.EXTERNAL.SIGNALS,63
SYS,ADC.EXTERNAL.TYPE,63
SYS,ADC.INTERNAL.SIGNALS,63
SYS,ADC.INTERNAL.VREF_TEMP.REF,63
SYS,B_PROBE.SELECT,63
SYS,B_PROBE.A.GAIN,63
SYS,B_PROBE.B.GAIN,63
SYS,DCCT.SELECT,63
SYS,DCCT.PRIMARY_TURNS,63
SYS,DCCT.A.POSITION,63
SYS,DCCT.B.POSITION,63
SYS,DEVICE.PPM,63
SYS,DEVICE.MULTI_PPM,63
SYS,INTER_FGC.VS_PRESENT,63
SYS,INTER_FGC.BROADCAST,63
SYS,INTER_FGC.ISR_OFFSET_US,63
SYS,INTER_FGC.SIG_SOURCES,63
SYS,INTER_FGC.MASTER,63
SYS,INTER_FGC.SLAVES,63
SYS,INTER_FGC.TOPOLOGY,63
SYS,INTER_FGC.CONSUMERS,63
SYS,INTER_FGC.PRODUCED_SIGS,63
SYS,INTER_FGC.DECO.PHASE,63
SYS,INTER_FGC.DECO.INDEX,63
SYS,INTER_FGC.DECO.K,63
SYS,INTER_FGC.DECO.D,63
SYS,INTER_FGC.DECO.PARTNERS,63
SYS,I_PROBE.CAPA.GAIN,63
SYS,LIMITS.B.POS,63
SYS,LIMITS.B.STANDBY,63
SYS,LIMITS.B.NEG,63
SYS,LIMITS.B.RATE,63
SYS,LIMITS.B.CLOSELOOP,63
SYS,LIMITS.B.ERR_WARNING,63
SYS,LIMITS.B.ERR_FAULT,63
SYS,LIMITS.I.POS,63
SYS,LIMITS.I.STANDBY,63
SYS,LIMITS.I.NEG,63
SYS,LIMITS.I.RATE,63
SYS,LIMITS.I.CLOSELOOP,63
SYS,LIMITS.I.ERR_WARNING,63
SYS,LIMITS.I.ERR_FAULT,63
SYS,LIMITS.I.QUADRANTS41,63
SYS,LIMITS.I.LOW,63
SYS,LIMITS.I.ZERO,63
SYS,LIMITS.I.RMS_WARNING,63
SYS,LIMITS.I.RMS_FAULT,63
SYS,LIMITS.I.RMS_TC,63
SYS,LIMITS.I.ACCESS,63
SYS,LIMITS.I.EARTH,63
SYS,LIMITS.I.LOAD.RMS_WARNING,63
SYS,LIMITS.I.LOAD.RMS_FAULT,63
SYS,LIMITS.I.LOAD.RMS_TC,63
SYS,LIMITS.V.POS,63
SYS,LIMITS.V.NEG,63
SYS,LIMITS.V.RATE,63
SYS,LIMITS.V.RATE_RMS_FAULT,63
SYS,LIMITS.V.RATE_RMS_TC,63
SYS,LIMITS.V.ERR_WARNING,63
SYS,LIMITS.V.ERR_FAULT,63
SYS,LIMITS.V.QUADRANTS41,63
SYS,LIMITS.P.POS,63
SYS,LIMITS.P.NEG,63
SYS,LOAD.OHMS_SER,63
SYS,LOAD.OHMS_PAR,63
SYS,LOAD.OHMS_MAG,63
SYS,LOAD.HENRYS,63
SYS,LOAD.HENRYS_SAT,63
SYS,LOAD.I_SAT_GAIN,63
SYS,LOAD.I_SAT_START,63
SYS,LOAD.I_SAT_END,63
SYS,LOAD.GAUSS_PER_AMP,63
SYS,LOAD.SAT_SMOOTHING,63
SYS,LOAD.SELECT,63
SYS,LOG.OASIS.SUBSAMPLE,63
SYS,MEAS.B.DELAY_ITERS,63
SYS,MEAS.B.FIR_LENGTHS,63
SYS,MEAS.I.DELAY_ITERS,63
SYS,MEAS.I.FIR_LENGTHS,63
SYS,MEAS.V.DELAY_ITERS,63
SYS,MODE.PC_ON,63
SYS,MODE.PRE_FUNC,63
SYS,MODE.POST_FUNC,63
SYS,MODE.RT,63
SYS,MODE.RT_NUM_STEPS,63
SYS,MODE.SLOW_ABORT_FAULTS,63
SYS,MODE.USE_ARM_NOW,63
SYS,REF.DIRECT.DEGAUSS_PP,63
SYS,REF.DIRECT.DEGAUSS_PERIOD,63
SYS,REF.EVENT_CYC,63
SYS,REF.DEFAULTS.PLATEAU_DUR,63
SYS,REF.DEFAULTS.B.ACCELERATION,63
SYS,REF.DEFAULTS.B.DECELERATION,63
SYS,REF.DEFAULTS.B.LINEAR_RATE,63
SYS,REF.DEFAULTS.B.PRE_FUNC_MAX,63
SYS,REF.DEFAULTS.B.PRE_FUNC_MIN,63
SYS,REF.DEFAULTS.B.MIN_RMS,63
SYS,REF.DEFAULTS.I.ACCELERATION,63
SYS,REF.DEFAULTS.I.DECELERATION,63
SYS,REF.DEFAULTS.I.LINEAR_RATE,63
SYS,REF.DEFAULTS.I.PRE_FUNC_MAX,63
SYS,REF.DEFAULTS.I.PRE_FUNC_MIN,63
SYS,REF.DEFAULTS.I.MIN_RMS,63
SYS,REF.DEFAULTS.V.ACCELERATION,63
SYS,REF.DEFAULTS.V.DECELERATION,63
SYS,REF.DEFAULTS.V.LINEAR_RATE,63
SYS,REF.DEFAULTS.V.PRE_FUNC_MAX,63
SYS,REF.DEFAULTS.V.PRE_FUNC_MIN,63
SYS,REF.DEFAULTS.V.MIN_RMS,63
SYS,REF.EXTERNAL.GAIN,63
SYS,REF.V_FEED_FWD.GAIN,63
SYS,REF.V_FEED_FWD.SIGNAL,63
SYS,REF.ILC.ORDER,63
SYS,REF.ILC.FUNCTION,63
SYS,REF.ILC.START_TIME,63
SYS,REF.ILC.STOP_REF,63
SYS,REG.B.PERIOD_ITERS,63
SYS,REG.B.EXTERNAL_ALG,63
SYS,REG.B.INTERNAL.PURE_DELAY_PERIODS,63
SYS,REG.B.EXTERNAL.TRACK_DELAY_PERIODS,63
SYS,REG.B.INTERNAL.AUXPOLE1_HZ,63
SYS,REG.B.INTERNAL.AUXPOLES2_HZ,63
SYS,REG.B.INTERNAL.AUXPOLES2_Z,63
SYS,REG.B.EXTERNAL.OP.R,63
SYS,REG.B.EXTERNAL.OP.S,63
SYS,REG.B.EXTERNAL.OP.T,63
SYS,REG.B.INTERNAL.MEAS_SELECT,63
SYS,REG.B.EXTERNAL.MEAS_SELECT,63
SYS,REG.B.EXTERNAL.CLBW,63
SYS,REG.B.EXTERNAL.Z,63
SYS,REG.B.EXTERNAL.MOD_MARGIN,63
SYS,REG.I.PERIOD_ITERS,63
SYS,REG.I.EXTERNAL_ALG,63
SYS,REG.I.INTERNAL.PURE_DELAY_PERIODS,63
SYS,REG.I.EXTERNAL.TRACK_DELAY_PERIODS,63
SYS,REG.I.INTERNAL.AUXPOLE1_HZ,63
SYS,REG.I.INTERNAL.AUXPOLES2_HZ,63
SYS,REG.I.INTERNAL.AUXPOLES2_Z,63
SYS,REG.I.EXTERNAL.OP.R,63
SYS,REG.I.EXTERNAL.OP.S,63
SYS,REG.I.EXTERNAL.OP.T,63
SYS,REG.I.INTERNAL.MEAS_SELECT,63
SYS,REG.I.EXTERNAL.MEAS_SELECT,63
SYS,REG.I.EXTERNAL.CLBW,63
SYS,REG.I.EXTERNAL.Z,63
SYS,REG.I.EXTERNAL.MOD_MARGIN,63
SYS,REG.MODE_CYC,63
SYS,REG.V.EXTERNAL.CLBW,63
SYS,REG.V.EXTERNAL.Z,63
SYS,REG.V.EXTERNAL.K_INT,63
SYS,REG.V.EXTERNAL.K_P,63
SYS,REG.V.EXTERNAL.K_FF,63
SYS,REG.V.FILTER.V_MEAS_SOURCE,63
SYS,REG.V.FILTER.I_CAPA_SOURCE,63
SYS,REG.V.FILTER.FULL_I_CAPA,63
SYS,REG.V.FILTER.EXTERNAL.CLBW,63
SYS,REG.V.FILTER.EXTERNAL.Z,63
SYS,REG.V.FILTER.EXTERNAL.K_U,63
SYS,REG.V.FILTER.EXTERNAL.K_I,63
SYS,REG.V.FILTER.EXTERNAL.K_D,63
SYS,REGFGC3.PARAMS,63
SYS,SWITCH.POLARITY.AUTO,63
SYS,SWITCH.POLARITY.TIMEOUT,63
SYS,V_PROBE.CAPA.GAIN,63
SYS,V_PROBE.CAPA.POSITION,63
SYS,V_PROBE.LOAD.GAIN,63
SYS,V_PROBE.LOAD.POSITION,63
SYS,VS.ACTUATION,63
SYS,VS.ACT_DELAY_ITERS,63
SYS,VS.BLOCKABLE,63
SYS,VS.DAC_CLAMP,63
SYS,VS.FIRING.DELAY,63
SYS,VS.FIRING.MODE,63
SYS,VS.FILTER.HENRYS,63
SYS,VS.FILTER.OHMS,63
SYS,VS.FILTER.FARADS1,63
SYS,VS.FILTER.FARADS2,63
SYS,VS.GAIN,63
SYS,VS.I_LIMIT.GAIN,63
SYS,VS.OFFSET,63
SYS,VS.SIM.BANDWIDTH,63
SYS,VS.SIM.Z,63
SYS,VS.SIM.NUM,63
SYS,VS.SIM.DEN,63
SYS,VS.VSRUN_TIMEOUT,63
SYS,ADC.INTERNAL.SIGNALS,64
SYS,ADC.INTERNAL.VREF_TEMP.REF,64
SYS,LIMITS.I.EARTH,64
SYS,LIMITS.A.MAX,64
SYS,LIMITS.A.MIN,64
SYS,LIMITS.Q.MAX,64
SYS,LIMITS.Q.MIN,64
SYS,LIMITS.V.MAX,64
SYS,LIMITS.V.MIN,64
SYS,REGFGC3.PARAMS,64
SYS,VS.BLOCKABLE,64
SYS,VS.VSRUN_TIMEOUT,64
SYS,DCCT.SELECT,91
SYS,LIMITS.I.ACCELERATION,91
SYS,LIMITS.I.POS,91
SYS,LIMITS.I.STANDBY,91
SYS,LIMITS.I.NEG,91
SYS,LIMITS.I.RATE,91
SYS,LIMITS.I.ERR_WARNING,91
SYS,LIMITS.I.ERR_FAULT,91
SYS,LOAD.SELECT,91
SYS,LOAD.OHMS_SER,91
SYS,LOAD.OHMS_PAR,91
SYS,LOAD.OHMS_MAG,91
SYS,LOAD.HENRYS,91
SYS,LOAD.HENRYS_SAT,91
SYS,LOAD.I_SAT_START,91
SYS,LOAD.I_SAT_END,91
SYS,MODE.RT,91
SYS,MUGEF.FAMILY,91
SYS,REF.DEFAULTS.I.ACCELERATION,91
SYS,REF.DEFAULTS.I.LINEAR_RATE,91
SYS,SWITCH.LOAD1.TIMEOUT,91
SYS,SWITCH.LOAD2.TIMEOUT,91
SYS,SWITCH.POLARITY.AUTO,91
SYS,SWITCH.POLARITY.TIMEOUT,91
SYS,VS.VSRUN_TIMEOUT,91
SYS,VS.REF_TYPE,91
SYS,DCCT.PRIMARY_TURNS,92
SYS,DCCT.SELECT,92
SYS,DEVICE.PPM,92
SYS,LIMITS.I.ACCESS,92
SYS,LIMITS.I.CLOSELOOP,92
SYS,LIMITS.I.EARTH,92
SYS,LIMITS.I.ERR_FAULT,92
SYS,LIMITS.I.ERR_WARNING,92
SYS,LIMITS.I.HARDWARE,92
SYS,LIMITS.I.LOW,92
SYS,LIMITS.I.STANDBY,92
SYS,LIMITS.I.NEG,92
SYS,LIMITS.I.POS,92
SYS,LIMITS.I.QUADRANTS41,92
SYS,LIMITS.I.RATE,92
SYS,LIMITS.I.ZERO,92
SYS,LIMITS.V.ERR_FAULT,92
SYS,LIMITS.V.ERR_WARNING,92
SYS,LIMITS.V.NEG,92
SYS,LIMITS.V.POS,92
SYS,LIMITS.V.QUADRANTS41,92
SYS,LIMITS.V.RATE,92
SYS,LOAD.HENRYS,92
SYS,LOAD.HENRYS_SAT,92
SYS,LOAD.I_SAT_END,92
SYS,LOAD.I_SAT_START,92
SYS,LOAD.OHMS_MAG,92
SYS,LOAD.OHMS_PAR,92
SYS,LOAD.OHMS_SER,92
SYS,LOAD.SELECT,92
SYS,MODE.RT,92
SYS,REF.DEFAULTS.I.ACCELERATION,92
SYS,REF.DEFAULTS.I.LINEAR_RATE,92
SYS,REF.DEFAULTS.V.ACCELERATION,92
SYS,REF.DEFAULTS.V.LINEAR_RATE,92
SYS,REG.I.EXTERNAL_ALG,92
SYS,REG.I.EXTERNAL.CLBW,92
SYS,REG.I.EXTERNAL.Z,92
SYS,REG.I.EXTERNAL.MEAS_SELECT,92
SYS,REG.I.EXTERNAL.MOD_MARGIN,92
SYS,REG.I.EXTERNAL.OP.R,92
SYS,REG.I.EXTERNAL.OP.S,92
SYS,REG.I.EXTERNAL.OP.T,92
SYS,REG.I.EXTERNAL.TRACK_DELAY_PERIODS,92
SYS,REG.I.INTERNAL.AUXPOLE1_HZ,92
SYS,REG.I.INTERNAL.AUXPOLES2_HZ,92
SYS,REG.I.INTERNAL.AUXPOLES2_Z,92
SYS,REG.I.INTERNAL.MEAS_SELECT,92
SYS,REG.I.INTERNAL.PURE_DELAY_PERIODS,92
SYS,REG.I.PERIOD_ITERS,92
SYS,REG.MODE_CYC,92
SYS,SWITCH.POLARITY.TIMEOUT,92
SYS,VS.GAIN,92
SYS,VS.OFFSET,92
SYS,VS.SIM.BANDWIDTH,92
SYS,VS.SIM.DEN,92
SYS,VS.SIM.NUM,92
SYS,VS.SIM.Z,92
SYS,VS.VSRUN_TIMEOUT,92
SYS,DEVICE.PPM,93
SYS,ISEG.CHANNEL.PARAMS.CURRENT_TRIP_SET,93
SYS,ISEG.CHANNEL.PARAMS.DELAYED_TRIP_ACTION,93
SYS,ISEG.CHANNEL.PARAMS.DELAYED_TRIP_TIME,93
SYS,ISEG.CHANNEL.PARAMS.VOLTAGE_BOUNDS,93
SYS,LIMITS.I.POS,93
SYS,LIMITS.I.NEG,93
SYS,LIMITS.V.POS,93
SYS,LIMITS.V.NEG,93
SYS,LOAD.SELECT,93
SYS,REF.EVENT_CYC,93
SYS,MODE.PC_ON,93
SYS,VS.VSRUN_TIMEOUT,93
SYS,ADC.INTERNAL.SIGNALS,94
SYS,DCCT.PRIMARY_TURNS,94
SYS,DCCT.SELECT,94
SYS,LIMITS.I.CLOSELOOP,94
SYS,LIMITS.I.ERR_FAULT,94
SYS,LIMITS.I.ERR_WARNING,94
SYS,LIMITS.I.LOAD.RMS_FAULT,94
SYS,LIMITS.I.LOAD.RMS_TC,94
SYS,LIMITS.I.LOAD.RMS_WARNING,94
SYS,LIMITS.I.LOW,94
SYS,LIMITS.I.STANDBY,94
SYS,LIMITS.I.POS,94
SYS,LIMITS.I.RATE,94
SYS,LIMITS.I.ZERO,94
SYS,LIMITS.P.NEG,94
SYS,LIMITS.P.POS,94
SYS,LIMITS.V.ERR_FAULT,94
SYS,LIMITS.V.ERR_WARNING,94
SYS,LIMITS.V.NEG,94
SYS,LIMITS.V.POS,94
SYS,LIMITS.V.RATE,94
SYS,LIMITS.V.RATE_RMS_FAULT,94
SYS,LIMITS.V.RATE_RMS_TC,94
SYS,LOAD.HENRYS,94
SYS,LOAD.HENRYS_SAT,94
SYS,LOAD.I_SAT_END,94
SYS,LOAD.I_SAT_START,94
SYS,LOAD.OHMS_MAG,94
SYS,LOAD.OHMS_PAR,94
SYS,LOAD.OHMS_SER,94
SYS,LOAD.SAT_SMOOTHING,94
SYS,LOAD.SELECT,94
SYS,MEAS.I.FIR_LENGTHS,94
SYS,MODE.RT,94
SYS,REF.DEFAULTS.I.ACCELERATION,94
SYS,REF.DEFAULTS.I.DECELERATION,94
SYS,REF.DEFAULTS.I.LINEAR_RATE,94
SYS,REF.DEFAULTS.I.MIN_RMS,94
SYS,REF.DEFAULTS.V.ACCELERATION,94
SYS,REF.DEFAULTS.V.DECELERATION,94
SYS,REF.DEFAULTS.V.LINEAR_RATE,94
SYS,REF.DEFAULTS.V.MIN_RMS,94
SYS,REG.I.EXTERNAL_ALG,94
SYS,REG.I.EXTERNAL.CLBW,94
SYS,REG.I.EXTERNAL.Z,94
SYS,REG.I.EXTERNAL.MEAS_SELECT,94
SYS,REG.I.EXTERNAL.MOD_MARGIN,94
SYS,REG.I.EXTERNAL.OP.R,94
SYS,REG.I.EXTERNAL.OP.S,94
SYS,REG.I.EXTERNAL.OP.T,94
SYS,REG.I.EXTERNAL.TRACK_DELAY_PERIODS,94
SYS,REG.I.INTERNAL.AUXPOLE1_HZ,94
SYS,REG.I.INTERNAL.AUXPOLES2_HZ,94
SYS,REG.I.INTERNAL.AUXPOLES2_Z,94
SYS,REG.I.INTERNAL.MEAS_SELECT,94
SYS,REG.I.INTERNAL.PURE_DELAY_PERIODS,94
SYS,REG.I.PERIOD_ITERS,94
SYS,REG.MODE_CYC,94
SYS,V_PROBE.LOAD.GAIN,94
SYS,VS.GAIN,94
SYS,VS.OFFSET,94
SYS,VS.SIM.BANDWIDTH,94
SYS,VS.SIM.Z,94
SYS,VS.VSRUN_TIMEOUT,94
CMP,BARCODE.?.EXADC.CASSETTE,BC_EXADC
CMP,BARCODE.?.DCCT.ELEC,BC_DCCT_ELEC
CMP,BARCODE.?.DCCT.HEAD,BC_DCCT_HEAD
CMP,BARCODE.FGC.CASSETTE,BC_FGC
CMP,CAL.?.DCCT.HEADERR,DCCT_HEAD
CMP,CAL.?.DCCT.ERR,DCCT_ELEC
CMP,CAL.?.DCCT.TC,DCCT_ELEC
CMP,CAL.?.DCCT.DTC,DCCT_ELEC
CMP,BARCODE.A.DCCT.ELEC,ONE_BC_DCCT_CAL
CMP,BARCODE.B.DCCT.ELEC,ONE_BC_DCCT_CAL
CMP,BARCODE.A.DCCT.HEAD,ONE_BC_DCCT_CAL
CMP,BARCODE.B.DCCT.HEAD,ONE_BC_DCCT_CAL
CMP,CAL.A.DCCT.HEADERR,ONE_BC_DCCT_CAL
CMP,CAL.A.DCCT.ERR,ONE_BC_DCCT_CAL
CMP,CAL.A.DCCT.TC,ONE_BC_DCCT_CAL
CMP,CAL.A.DCCT.DTC,ONE_BC_DCCT_CAL
CMP,CAL.B.DCCT.HEADERR,ONE_BC_DCCT_CAL
CMP,CAL.B.DCCT.ERR,ONE_BC_DCCT_CAL
CMP,CAL.B.DCCT.TC,ONE_BC_DCCT_CAL
CMP,CAL.B.DCCT.DTC,ONE_BC_DCCT_CAL
CMP,CAL.A.DCCT.HEADERR,ONE_BC_DCCT_HEAD
CMP,CAL.B.DCCT.HEADERR,ONE_BC_DCCT_HEAD
CMP,CAL.A.DCCT.DTC,LEM
CMP,CAL.A.DCCT.ERR,LEM
CMP,CAL.A.DCCT.HEADERR,LEM
CMP,CAL.A.DCCT.TC,LEM
CMP,CAL.B.DCCT.DTC,LEM
CMP,CAL.B.DCCT.ERR,LEM
CMP,CAL.B.DCCT.HEADERR,LEM
CMP,CAL.B.DCCT.TC,LEM
CMP,CAL.?.ADC.EXTERNAL.ERR,EXADC
CMP,CAL.?.ADC.EXTERNAL.GAIN,EXADC
CMP,CAL.?.ADC.EXTERNAL.ONE_MHZ,EXADC
CMP,ADC.INTERNAL.TAU_TEMP,FGC2_ANA
CMP,CAL.A.ADC.INTERNAL.DTC,FGC2_ANA
CMP,CAL.A.ADC.INTERNAL.GAIN,FGC2_ANA
CMP,CAL.A.ADC.INTERNAL.TC,FGC2_ANA
CMP,CAL.A.ADC.INTERNAL.ERR,FGC2_ANA
CMP,CAL.B.ADC.INTERNAL.DTC,FGC2_ANA
CMP,CAL.B.ADC.INTERNAL.GAIN,FGC2_ANA
CMP,CAL.B.ADC.INTERNAL.TC,FGC2_ANA
CMP,CAL.B.ADC.INTERNAL.ERR,FGC2_ANA
CMP,CAL.VREF.ERR,FGC2_ANA
CMP,ADC.INTERNAL.TAU_TEMP,FGCLITE_ANA
CMP,CAL.A.ADC.INTERNAL.DTC,FGCLITE_ANA
CMP,CAL.A.ADC.INTERNAL.GAIN,FGCLITE_ANA
CMP,CAL.A.ADC.INTERNAL.TC,FGCLITE_ANA
CMP,CAL.A.ADC.INTERNAL.ERR,FGCLITE_ANA
CMP,CAL.B.ADC.INTERNAL.DTC,FGCLITE_ANA
CMP,CAL.B.ADC.INTERNAL.GAIN,FGCLITE_ANA
CMP,CAL.B.ADC.INTERNAL.TC,FGCLITE_ANA
CMP,CAL.B.ADC.INTERNAL.ERR,FGCLITE_ANA
CMP,CAL.C.ADC.INTERNAL.DTC,FGCLITE_ANA
CMP,CAL.C.ADC.INTERNAL.GAIN,FGCLITE_ANA
CMP,CAL.C.ADC.INTERNAL.TC,FGCLITE_ANA
CMP,CAL.C.ADC.INTERNAL.ERR,FGCLITE_ANA
CMP,CAL.VREF.ERR,FGCLITE_ANA
CMP,ADC.INTERNAL.TAU_TEMP,FGC3_ANA
CMP,CAL.A.ADC.INTERNAL.DTC,FGC3_ANA
CMP,CAL.A.ADC.INTERNAL.GAIN,FGC3_ANA
CMP,CAL.A.ADC.INTERNAL.TC,FGC3_ANA
CMP,CAL.A.ADC.INTERNAL.ERR,FGC3_ANA
CMP,CAL.B.ADC.INTERNAL.DTC,FGC3_ANA
CMP,CAL.B.ADC.INTERNAL.GAIN,FGC3_ANA
CMP,CAL.B.ADC.INTERNAL.TC,FGC3_ANA
CMP,CAL.B.ADC.INTERNAL.ERR,FGC3_ANA
CMP,CAL.C.ADC.INTERNAL.DTC,FGC3_ANA
CMP,CAL.C.ADC.INTERNAL.GAIN,FGC3_ANA
CMP,CAL.C.ADC.INTERNAL.TC,FGC3_ANA
CMP,CAL.C.ADC.INTERNAL.ERR,FGC3_ANA
CMP,CAL.D.ADC.INTERNAL.DTC,FGC3_ANA
CMP,CAL.D.ADC.INTERNAL.GAIN,FGC3_ANA
CMP,CAL.D.ADC.INTERNAL.TC,FGC3_ANA
CMP,CAL.D.ADC.INTERNAL.ERR,FGC3_ANA
CMP,CAL.VREF.ERR,FGC3_ANA
CMP,CAL.VREF.TC,FGC3_ANA
TYPE,DCCT.A.GAIN,LEM
TYPE,DCCT.B.GAIN,LEM
TYPE,DCCT.TAU_TEMP,LEM
TYPE,LIMITS.I.MEAS_DIFF,LEM
TYPE,DCCT.A.GAIN,ONE_BC_DCCT_CAL
TYPE,DCCT.B.GAIN,ONE_BC_DCCT_CAL
TYPE,DCCT.TAU_TEMP,ONE_BC_DCCT_CAL
TYPE,LIMITS.I.MEAS_DIFF,ONE_BC_DCCT_CAL
TYPE,DCCT.A.GAIN,ONE_BC_DCCT_HEAD
TYPE,DCCT.B.GAIN,ONE_BC_DCCT_HEAD
TYPE,LIMITS.I.MEAS_DIFF,ONE_BC_DCCT_HEAD
TYPE,DCCT.?.GAIN,DCCT_HEAD
TYPE,LIMITS.I.MEAS_DIFF,DCCT_HEAD
TYPE,DCCT.TAU_TEMP,DCCT_ELEC
