source:ccrt device:log epoch:1673450527 timeOrigin:2.600000000 firstSampleTime:0.500000000 period:0.010000000 name:I_REG type:analog,I_MEAS_REG_(A),I_REF_USER_(A) STEP +0.010000000,I_REF_ADV_(A) STEP,I_REF_LIMITED_(A) STEP,I_REF_CLOSED_(A) STEP,V_REF_(V) STEP,V_MEAS_(V)
0.500000000,0.10115305,0,0,0,0,0,0.00018996504
0.510000000,0.10115305,0,0,0,0,0,0.00018996504
0.520000000,0.10115305,0,0,0,0,0,0.00018996504
0.530000000,0.10115305,0,0,0,0,0,0.00018996504
0.540000000,0.10115305,0,0,0,0,0,0.00018996504
0.550000000,0.10115305,0.10115305,0.10115305,0.10115305,0.10115305,0,0.00018996504
0.560000000,0.10115305,0.10626806,0.10626806,0.10626806,0.10961089,0.21919495,0.00018996504
0.570000000,0.11161729,0.12161306,0.12161306,0.12161306,0.13070184,0.44067439,0.21934962
0.580000000,0.13469815,0.14718805,0.14718805,0.14718805,0.16545919,0.67340684,0.44072884
0.590000000,0.16955753,0.18299305,0.18299305,0.18299305,0.21302947,0.91739249,0.673576
0.600000000,0.21597616,0.22902805,0.22902805,0.22902805,0.27240971,1.1726308,0.91745108
0.610000000,0.27372536,0.28529307,0.28529307,0.28529307,0.3427704,1.439123,1.1724242
0.620000000,0.34260905,0.35178807,0.35178807,0.35178807,0.41529685,1.5015001,1.4389151
0.630000000,0.41216636,0.41683286,0.41683286,0.41683286,0.48291472,1.5015001,1.5013336
0.640000000,0.47668788,0.5432083,0.5432083,0.5432083,0.5432083,1.5015001,1.5013336
0.650000000,0.5361895,0.6208657,0.6208657,0.6208657,0.59687376,1.5015001,1.5013336
0.660000000,0.59117895,0.669608,0.669608,0.669608,0.64540118,1.5015001,1.5013336
0.670000000,0.64199251,0.71339273,0.71339273,0.71339273,0.69009477,1.5015001,1.5013336
0.680000000,0.68895876,0.75342172,0.75342172,0.75342172,0.731839,1.5015001,1.5013336
0.690000000,0.73235124,0.79049444,0.79049444,0.79049444,0.77105433,1.5015001,1.5013336
0.700000000,0.77246135,0.82497662,0.82497662,0.82497662,0.80789369,1.5015001,1.5013336
0.710000000,0.80953383,0.85698408,0.85698408,0.85698408,0.84234935,1.5015001,1.5013336
0.720000000,0.84378475,0.88647985,0.88647985,0.88647985,0.87437344,1.5015001,1.5013336
0.730000000,0.87543416,0.91337949,0.91337949,0.91337949,0.90398574,1.5015001,1.5013336
0.740000000,0.90469074,0.93763155,0.93763155,0.93763155,0.93128991,1.5015001,1.5013336
0.750000000,0.93173075,0.95919549,0.95919549,0.95919549,0.95643091,1.5015001,1.5013336
0.760000000,0.95671129,0.97791588,0.97791588,0.97791588,0.97791588,1.4586045,1.5013336
0.770000000,0.97775871,0.99217087,0.99217087,0.99217087,0.99217087,1.3386792,1.4585016
0.780000000,0.99092722,0.99919587,0.99919587,0.99919587,0.99919587,1.2546027,1.3386035
0.790000000,0.99761081,1,1,1,1,1.1732215,1.2544391
0.800000000,0.99906009,1,1,1,1,1.2030224,1.173064
0.810000000,1.0009615,1,1,1,1,1.1805204,1.2029885
0.820000000,1.0021911,1,1,1,1,1.1639146,1.1803827
0.830000000,1.002179,1,1,1,1,1.1597099,1.1638157
0.840000000,1.0017991,1,1,1,1,1.1560439,1.1595066
0.850000000,1.0012418,1,1,1,1,1.1563503,1.1558472
0.860000000,1.0007231,1,1,1,1,1.1574377,1.1562772
0.870000000,1.0003048,1,1,1,1,1.1595541,1.157357
0.880000000,1.000033,1,1,1,1,1.1613748,1.1595066
0.890000000,0.99988985,1,1,1,1,1.1628131,1.1612263
0.900000000,0.99984288,1,1,1,1,1.1636888,1.1627359
0.910000000,0.99986202,1,1,1,1,1.1638676,1.1635958
0.920000000,0.9998945,1,1,1,1,1.1640503,1.1638157
0.930000000,0.99993581,1,1,1,1,1.1639059,1.1640258
0.940000000,0.99996459,1,1,1,1,1.1639075,1.1638157
0.950000000,0.99999464,1,1,1,1,1.1635808,1.1638157
0.960000000,0.9999907,1,1,1,1,1.1639919,1.1633859
0.970000000,1.0000132,1,1,1,1,1.1634958,1.1638157
0.980000000,1.0000219,1,1,1,1,1.1633151,1.1633859
0.990000000,0.99999815,1,1,1,1,1.163843,1.1631658
1.000000000,1.0000232,1,1,1,1,1.1630281,1.1638157
1.010000000,0.99999815,1,1,1,1,1.1636707,1.1629559
1.020000000,1.0000007,0.99488503,0.99488503,0.99488503,0.99488503,1.030871,1.1635958
1.030000000,0.99367243,0.97953999,0.97953999,0.97953999,0.97953999,0.82983482,1.0307802
1.040000000,0.97651184,0.95396501,0.95396501,0.95396501,0.95396501,0.67048734,0.8300572
1.050000000,0.95072538,0.91816002,0.91816002,0.91816002,0.91816002,0.4716945,0.67070657
1.060000000,0.91575569,0.87212503,0.87212503,0.87212503,0.87212503,0.25130457,0.47184315
1.070000000,0.87066251,0.81585997,0.81585997,0.81585997,0.81585997,0.016540971,0.25135371
1.080000000,0.81534427,0.74936497,0.74936497,0.74936497,0.75847238,0,0.016746916
1.090000000,0.76085472,0.68306041,0.68306041,0.68306041,0.70553273,0,0.00018996504
1.100000000,0.71077323,0.6227982,0.6227982,0.6227982,0.65869111,0,0.00018996504
1.110000000,0.66454172,0.57026619,0.57026619,0.57026619,0.6171326,0,0.00018996504
1.120000000,0.62179881,0.5272463,0.5272463,0.5272463,0.57956725,0,0.00018996504
1.130000000,0.58231491,0.49163693,0.49163693,0.49163693,0.5449512,0,0.00018996504
1.140000000,0.545816,0.45979691,0.45979691,0.45979691,0.51256996,0,0.00018996504
1.150000000,0.51208854,0.43009332,0.43009332,0.43009332,0.4820987,0,0.00018996504
1.160000000,0.48091266,0.4022204,0.4022204,0.4022204,0.45344293,0,0.00018996504
1.170000000,0.45211348,0.42664811,0.42664811,0.42664811,0.42664811,0,0.00018996504
1.180000000,0.42548838,0.35171801,0.35171801,0.35171801,0.40173104,0,0.00018996504
1.190000000,0.40089381,0.33155054,0.33155054,0.33155054,0.37870055,0,0.00018996504
1.200000000,0.37815726,0.3124876,0.3124876,0.3124876,0.35747334,0,0.00018996504
1.210000000,0.35714254,0.29447067,0.29447067,0.29447067,0.33793363,0,0.00018996504
1.220000000,0.33772105,0.27744338,0.27744338,0.27744338,0.3199442,0,0.00018996504
1.230000000,0.3197853,0.26135308,0.26135308,0.26135308,0.30337813,0,0.00018996504
1.240000000,0.30320275,0.24614966,0.24614966,0.24614966,0.28808352,0,0.00018996504
1.250000000,0.28787714,0.23178528,0.23178528,0.23178528,0.27394396,0,0.00018996504
1.260000000,0.2737087,0.21821551,0.21821551,0.21821551,0.26085725,0,0.00018996504
1.270000000,0.26061985,0.20539692,0.20539692,0.20539692,0.24875255,0,0.00018996504
1.280000000,0.24851932,0.19329029,0.19329029,0.19329029,0.23755215,0,0.00018996504
1.290000000,0.23735106,0.18185636,0.18185636,0.18185636,0.22721143,0,0.00018996504
1.300000000,0.22700983,0.17105933,0.17105933,0.17105933,0.21763591,0,0.00018996504
1.310000000,0.21747473,0.1608651,0.1608651,0.1608651,0.20880532,0,0.00018996504
1.320000000,0.20864794,0.15124092,0.15124092,0.15124092,0.20063613,0,0.00018996504
1.330000000,0.20049602,0.14215608,0.14215608,0.14215608,0.19308969,0,0.00018996504
1.340000000,0.19295628,0.13358174,0.13358174,0.13358174,0.18611051,0,0.00018996504
1.350000000,0.18599142,0.12549001,0.12549001,0.12549001,0.17966279,0,0.00018996504
1.360000000,0.17956132,0.11785477,0.11785477,0.11785477,0.17371336,0,0.00018996504
1.370000000,0.17361479,0.11065167,0.11065167,0.11065167,0.16821383,0,0.00018996504
1.380000000,0.16811305,0.10385692,0.10385692,0.10385692,0.16312261,0,0.00018996504
1.390000000,0.16303873,0.097448498,0.097448498,0.097448498,0.15842563,0,0.00018996504
1.400000000,0.15833795,0.09140522,0.09140522,0.09140522,0.15407509,0,0.00018996504
1.410000000,0.15400587,0.085707709,0.085707709,0.085707709,0.15006483,0,0.00018996504
1.420000000,0.14999861,0.080336682,0.080336682,0.080336682,0.14635874,0,0.00018996504
1.430000000,0.14628744,0.075274423,0.075274423,0.075274423,0.14292391,0,0.00018996504
1.440000000,0.14286499,0.070504248,0.070504248,0.070504248,0.13975413,0,0.00018996504
1.450000000,0.13969867,0.066010118,0.066010118,0.066010118,0.13682327,0,0.00018996504
1.460000000,0.13678105,0.061776701,0.061776701,0.061776701,0.13412431,0,0.00018996504
1.470000000,0.13407953,0.057790086,0.057790086,0.057790086,0.13162751,0,0.00018996504
1.480000000,0.13157542,0.054036435,0.054036435,0.054036435,0.12930933,0,0.00018996504
1.490000000,0.12927133,0.050502922,0.050502922,0.050502922,0.12717453,0,0.00018996504
1.500000000,0.12713334,0.04717765,0.04717765,0.04717765,0.12519524,0,0.00018996504
1.510000000,0.12516534,0.044048987,0.044048987,0.044048987,0.12337293,0,0.00018996504
1.520000000,0.12334478,0.041106086,0.041106086,0.041106086,0.1216898,0,0.00018996504
1.530000000,0.12166291,0.038338635,0.038338635,0.038338635,0.12013498,0,0.00018996504
1.540000000,0.12010974,0.035736822,0.035736822,0.035736822,0.11869914,0,0.00018996504
1.550000000,0.11866397,0.033291779,0.033291779,0.033291779,0.11735993,0,0.00018996504
1.560000000,0.11733952,0.03099441,0.03099441,0.03099441,0.11613126,0,0.00018996504
1.570000000,0.11611248,0.02883671,0.02883671,0.02883671,0.11499664,0,0.00018996504
1.580000000,0.11497413,0.026810691,0.026810691,0.026810691,0.11394314,0,0.00018996504
1.590000000,0.11392578,0.024909167,0.024909167,0.024909167,0.1129719,0,0.00018996504
1.600000000,0.11295614,0.023124913,0.023124913,0.023124913,0.11207467,0,0.00018996504
1.610000000,0.11206651,0.021451708,0.021451708,0.021451708,0.11125318,0,0.00018996504
1.620000000,0.11123428,0.019882947,0.019882947,0.019882947,0.11048477,0,0.00018996504
1.630000000,0.11047334,0.018412823,0.018412823,0.018412823,0.1097799,0,0.00018996504
1.640000000,0.10975981,0.017035807,0.017035807,0.017035807,0.10911863,0,0.00018996504
1.650000000,0.10910759,0.015746552,0.015746552,0.015746552,0.10851224,0,0.00018996504
1.660000000,0.10850405,0.014540023,0.014540023,0.014540023,0.10795365,0,0.00018996504
1.670000000,0.10795054,0.013411733,0.013411733,0.013411733,0.10744324,0,0.00018996504
1.680000000,0.10743572,0.012356916,0.012356916,0.012356916,0.10696953,0,0.00018996504
1.690000000,0.10696089,0.011371459,0.011371459,0.011371459,0.10653118,0,0.00018996504
1.700000000,0.10651477,0.010451367,0.010451367,0.010451367,0.10611686,0,0.00018996504
1.710000000,0.10610996,0.0095928879,0.0095928879,0.0095928879,0.10573932,0,0.00018996504
1.720000000,0.10573383,0.008792351,0.008792351,0.008792351,0.10539103,0,0.00018996504
1.730000000,0.10538773,0.0080466066,0.0080466066,0.0080466066,0.10507131,0,0.00018996504
1.740000000,0.10506032,0.0073522083,0.0073522083,0.0073522083,0.10476779,0,0.00018996504
1.750000000,0.10476419,0.0067062671,0.0067062671,0.0067062671,0.10449185,0,0.00018996504
1.760000000,0.1044981,0.0061059161,0.0061059161,0.0061059161,0.10424809,0,0.00018996504
1.770000000,0.10423937,0.0055484907,0.0055484907,0.0055484907,0.1040117,0,0.00018996504
1.780000000,0.10400197,0.0050314087,0.0050314087,0.0050314087,0.10378985,0,0.00018996504
1.790000000,0.10378456,0.0045522265,0.0045522265,0.0045522265,0.10358632,0,0.00018996504
1.800000000,0.10358714,0.0041088173,0.0041088173,0.0041088173,0.10340359,0,0.00018996504
1.810000000,0.10339844,0.0036988831,0.0036988831,0.0036988831,0.10322967,0,0.00018996504
1.820000000,0.10323104,0.0033205154,0.0033205154,0.0033205154,0.10307494,0,0.00018996504
1.830000000,0.10307233,0.0029716936,0.0029716936,0.0029716936,0.10292961,0,0.00018996504
1.840000000,0.10292362,0.002650742,0.002650742,0.002650742,0.10279155,0,0.00018996504
1.850000000,0.10279622,0.0023558084,0.0023558084,0.0023558084,0.10267419,0,0.00018996504
1.860000000,0.10266621,0.002085459,0.002085459,0.002085459,0.10255529,0,0.00018996504
1.870000000,0.10255881,0.001838029,0.001838029,0.001838029,0.10245562,0,0.00018996504
1.880000000,0.10244881,0.0016121413,0.0016121413,0.0016121413,0.10235498,0,0.00018996504
1.890000000,0.1023501,0.0014064563,0.0014064563,0.0014064563,0.10226161,0,0.00018996504
1.900000000,0.10226139,0.0012196791,0.0012196791,0.0012196791,0.10217861,0,0.00018996504
1.910000000,0.1021714,0.001050589,0.001050589,0.001050589,0.10209419,0,0.00018996504
1.920000000,0.10209268,0.00089812255,0.00089812255,0.00089812255,0.10201873,0,0.00018996504
1.930000000,0.10202399,0.00076113874,0.00076113874,0.00076113874,0.10195564,0,0.00018996504
1.940000000,0.10195399,0.00063866726,0.00063866726,0.00063866726,0.10189245,0,0.00018996504
1.950000000,0.10189528,0.00052973232,0.00052973232,0.00052973232,0.10183872,0,0.00018996504
1.960000000,0.10183528,0.00043346448,0.00043346448,0.00043346448,0.10178407,0,0.00018996504
1.970000000,0.10178657,0.00034899483,0.00034899483,0.00034899483,0.10173914,0,0.00018996504
1.980000000,0.10173658,0.00027555926,0.00027555926,0.00027555926,0.10169392,0,0.00018996504
1.990000000,0.10169787,0.0002123835,0.0002123835,0.0002123835,0.10165901,0,0.00018996504
2.000000000,0.10165787,0.00015876468,0.00015876468,0.00015876468,0.10162415,0,0.00018996504
2.010000000,0.10161787,0.00011404003,0.00011404003,0.00011404003,0.10158657,0,0.00018996504
2.020000000,0.10157786,7.7597899e-05,7.7597899e-05,7.7597899e-05,0.10154618,0,0.00018996504
2.030000000,0.10154917,4.8828224e-05,4.8828224e-05,4.8828224e-05,0.10151718,0,0.00018996504
2.040000000,0.10151917,2.7198425e-05,2.7198425e-05,2.7198425e-05,0.10149046,0,0.00018996504
2.050000000,0.10148916,1.2175148e-05,1.2175148e-05,1.2175148e-05,0.10146298,0,0.00018996504
2.060000000,0.10145917,3.2720595e-06,3.2720595e-06,3.2720595e-06,0.10143388,0,0.00018996504
2.070000000,0.10144047,2.9652091e-08,2.9652091e-08,2.9652091e-08,0.1014165,0,0.00018996504
2.080000000,0.10142046,0,0,0,0.10140114,0,0.00018996504
2.090000000,0.10140046,0,0,0,0.10138457,0,0.00018996504
2.100000000,0.10138046,0,0,0,0.10136583,0,0.00018996504
2.110000000,0.10136046,0,0,0,0.1013453,0,0.00018996504
2.120000000,0.10134046,0,0,0,0.10132381,0,0.00018996504
2.130000000,0.10133175,0,0,0,0.10131529,0,0.00018996504
2.140000000,0.10132176,0,0,0,0.10130993,0,0.00018996504
2.150000000,0.10130046,0,0,0,0.10129084,0,0.00018996504
2.160000000,0.10129175,0,0,0,0.10128014,0,0.00018996504
2.170000000,0.10128176,0,0,0,0.10127146,0,0.00018996504
2.180000000,0.10127176,0,0,0,0.1012629,0,0.00018996504
2.190000000,0.10126175,0,0,0,0.10125367,0,0.00018996504
2.200000000,0.10125174,0,0,0,0.10124372,0,0.00018996504
2.210000000,0.10124176,0,0,0,0.1012333,0,0.00018996504
2.220000000,0.10124306,0,0,0,0.10123584,0,0.00018996504
2.230000000,0.10123176,0,0,0,0.10122808,0,0.00018996504
2.240000000,0.10122175,0,0,0,0.10121658,0,0.00018996504
2.250000000,0.10122305,0,0,0,0.10121708,0,0.00018996504
2.260000000,0.10121176,0,0,0,0.1012076,0,0.00018996504
2.270000000,0.10121305,0,0,0,0.10120831,0,0.00018996504
2.280000000,0.10120176,0,0,0,0.1011983,0,0.00018996504
2.290000000,0.10120305,0,0,0,0.10119837,0,0.00018996504
2.300000000,0.10120305,0,0,0,0.10120104,0,0.00018996504
2.310000000,0.10119176,0,0,0,0.1011906,0,0.00018996504
2.320000000,0.10119306,0,0,0,0.10118942,0,0.00018996504
2.330000000,0.10119306,0,0,0,0.10119093,0,0.00018996504
2.340000000,0.10118175,0,0,0,0.10117978,0,0.00018996504
2.350000000,0.10118305,0,0,0,0.1011784,0,0.00018996504
2.360000000,0.10118305,0,0,0,0.10118006,0,0.00018996504
2.370000000,0.10117175,0,0,0,0.10116924,0,0.00018996504
2.380000000,0.10117305,0,0,0,0.10116817,0,0.00018996504
2.390000000,0.10117305,0,0,0,0.10117006,0,0.00018996504
2.400000000,0.10117305,0,0,0,0.10117249,0,0.00018996504
2.410000000,0.10117305,0,0,0,0.10117425,0,0.00018996504
2.420000000,0.10117305,0,0,0,0.10117501,0,0.00018996504
2.430000000,0.10116176,0,0,0,0.10116181,0,0.00018996504
2.440000000,0.10116305,0,0,0,0.10115848,0,0.00018996504
2.450000000,0.10116305,0,0,0,0.10115893,0,0.00018996504
2.460000000,0.10116305,0,0,0,0.10116084,0,0.00018996504
2.470000000,0.10116305,0,0,0,0.10116275,0,0.00018996504
2.480000000,0.10116305,0,0,0,0.10116399,0,0.00018996504
2.490000000,0.10116305,0,0,0,0.10116446,0,0.00018996504
2.500000000,0.10116305,0,0,0,0.10116435,0,0.00018996504
2.510000000,0.10116305,0,0,0,0.10116394,0,0.00018996504
2.520000000,0.10116305,0,0,0,0.10116348,0,0.00018996504
2.530000000,0.10116305,0,0,0,0.10116311,0,0.00018996504
2.540000000,0.10115176,0,0,0,0.10114976,0,0.00018996504
2.550000000,0.10115305,0,0,0,0.10114688,0,0.00018996504
2.560000000,0.10115305,0,0,0,0.10114801,0,0.00018996504
2.570000000,0.10115305,0,0,0,0.10115053,0,0.00018996504
2.580000000,0.10115305,0,0,0,0.10115284,0,0.00018996504
2.590000000,0.10115305,0,0,0,0.10115428,0,0.00018996504
2.600000000,0.10115305,0,0,0,0.10115477,0,0.00018996504
