! S MEAS.SIM                       DISABLED
! S LOAD.SELECT                    3
! S DCCT.A.GAIN                    8.7020000E+02
! S DCCT.B.GAIN                    8.7020000E+02
! S LIMITS.V.RATE_RMS_FAULT        0.0000000E+00
! S REF.ILC.ORDER                  2
! S REF.ILC.Q_FUNCTION             8.0000000E-01
! S VS.ACT_DELAY_ITERS             1.0000000E-01
! S VS.OFFSET                     -4.0000000E+01
! S VS.SIM.Z                       1.0000000E+00
! S VS.SIM.BANDWIDTH               1.0000000E+04
! S PC                             OFF
! S MODE.OP                        SIMULATION
