HCRDCDA001,DCCT.A.GAIN,1.0000E+01
HCRDCDA001,DCCT.B.GAIN,1.00000E+01
HCRDCDA001,DCCT.TAU_TEMP,8.00000E+01
HCRPPCO___,DCCT.PRIMARY_TURNS,1
HCRPPCO___,LIMITS.I.ACCESS,1.00000E+03
HCRPPCO___,LIMITS.I.EARTH,5.00000E-02
HCRPPCO___,LIMITS.I.MEAS_DIFF,1.00000E-02
HCRPPCO___,LIMITS.I.QUADRANTS41,0.00000E+00,0.00000E+00
HCRPPCO___,LIMITS.V.ERR_FAULT,0.00000E+00
HCRPPCO___,LIMITS.V.ERR_WARNING,1.00000E+01
HCRPPCO___,LIMITS.V.QUADRANTS41,0.00000E+00,0.00000E+00
HCRPPCO___,LIMITS.V.RATE,1.00000E+06
HCRPPCO___,REF.DEFAULTS.V.ACCELERATION,1.00000E+06
HCRPPCO___,REF.DEFAULTS.V.LINEAR_RATE,1.00000E+06
HCRPPCO___,SWITCH.POLARITY.TIMEOUT,0
HCRPPCO___,VS.GAIN,2.10000E+01
HCRPPCO___,VS.VSRUN_TIMEOUT,1.00000E+01
