source:ccrt device:log_10 epoch:1673449986 timeOrigin:0.944000000 firstSampleTime:0.344000000 period:0.001000000 name:I_MEAS_MPX[10] type:analog,V_REF_(V) STEP,I_MEAS_(A)
0.344000000,-1,-0.094325781
0.345000000,-1,-0.094325781
0.346000000,-1,-0.094325781
0.347000000,-1,-0.094325781
0.348000000,-1,-0.094325781
0.349000000,-1,-0.094325781
0.350000000,-1,-0.094325781
0.351000000,-1,-0.094325781
0.352000000,-1,-0.094325781
0.353000000,-1,-0.094325781
0.354000000,-1,-0.094325781
0.355000000,-1,-0.094325781
0.356000000,-1,-0.094325781
0.357000000,-1,-0.094325781
0.358000000,-1,-0.094325781
0.359000000,-1,-0.094325781
0.360000000,-1,-0.094325781
0.361000000,-1,-0.094325781
0.362000000,-1,-0.094325781
0.363000000,-1,-0.094325781
0.364000000,-1,-0.094325781
0.365000000,-1,-0.094325781
0.366000000,-1,-0.094325781
0.367000000,-1,-0.094325781
0.368000000,-1,-0.094325781
0.369000000,-1,-0.094325781
0.370000000,-1,-0.094325781
0.371000000,-1,-0.094325781
0.372000000,-1,-0.094325781
0.373000000,-1,-0.094325781
0.374000000,-1,-0.094325781
0.375000000,-1,-0.094325781
0.376000000,-1,-0.094325781
0.377000000,-1,-0.094325781
0.378000000,-1,-0.094325781
0.379000000,-1,-0.094325781
0.380000000,-1,-0.094325781
0.381000000,-1,-0.094325781
0.382000000,-1,-0.094325781
0.383000000,-1,-0.094325781
0.384000000,-1,-0.094325781
0.385000000,-1,-0.094325781
0.386000000,-1,-0.094325781
0.387000000,-1,-0.094325781
0.388000000,-1,-0.094325781
0.389000000,-1,-0.094325781
0.390000000,-1,-0.094325781
0.391000000,-1,-0.094325781
0.392000000,-1,-0.094325781
0.393000000,-1,-0.094325781
0.394000000,-1,-0.094325781
0.395000000,-1,-0.094325781
0.396000000,-1,-0.094325781
0.397000000,-1,-0.094325781
0.398000000,-1,-0.094325781
0.399000000,-1,-0.094325781
0.400000000,-1,-0.094325781
0.401000000,-1,-0.094325781
0.402000000,-1,-0.094325781
0.403000000,-1,-0.094325781
0.404000000,-1,-0.094325781
0.405000000,-1,-0.094325781
0.406000000,-1,-0.094325781
0.407000000,-1,-0.094325781
0.408000000,-1,-0.094325781
0.409000000,-1,-0.094325781
0.410000000,-1,-0.094325781
0.411000000,-1,-0.094325781
0.412000000,-1,-0.094325781
0.413000000,-1,-0.094325781
0.414000000,-1,-0.094325781
0.415000000,-1,-0.094325781
0.416000000,-1,-0.094325781
0.417000000,-1,-0.094325781
0.418000000,-1,-0.094325781
0.419000000,-1,-0.094325781
0.420000000,-1,-0.094325781
0.421000000,-1,-0.094325781
0.422000000,-1,-0.094325781
0.423000000,-1,-0.094325781
0.424000000,-1,-0.094325781
0.425000000,-1,-0.094325781
0.426000000,-1,-0.094325781
0.427000000,-1,-0.094325781
0.428000000,-1,-0.094325781
0.429000000,-1,-0.094325781
0.430000000,-1,-0.094325781
0.431000000,-1,-0.094325781
0.432000000,-1,-0.094325781
0.433000000,-1,-0.094325781
0.434000000,-1,-0.094325781
0.435000000,-1,-0.094325781
0.436000000,-1,-0.094325781
0.437000000,-1,-0.094325781
0.438000000,-1,-0.094325781
0.439000000,-1,-0.094325781
0.440000000,-1,-0.094325781
0.441000000,-1,-0.094325781
0.442000000,-1,-0.094325781
0.443000000,-1,-0.094325781
0.444000000,-0.99999988,-0.094325781
0.445000000,-0.99997145,-0.094325781
0.446000000,-0.99989301,-0.094325781
0.447000000,-0.99976456,-0.094325781
0.448000000,-0.99958616,-0.094325781
0.449000000,-0.9993577,-0.094325781
0.450000000,-0.99907929,-0.094325781
0.451000000,-0.99875087,-0.094325781
0.452000000,-0.99837244,-0.094325781
0.453000000,-0.997944,-0.094320789
0.454000000,-0.99746555,-0.094320789
0.455000000,-0.9969371,-0.094320789
0.456000000,-0.99635869,-0.094320789
0.457000000,-0.99573028,-0.094315782
0.458000000,-0.9950518,-0.094315782
0.459000000,-0.99432337,-0.09431079
0.460000000,-0.99354494,-0.094305784
0.461000000,-0.99271655,-0.094305784
0.462000000,-0.9918381,-0.094300784
0.463000000,-0.99090964,-0.094295785
0.464000000,-0.98993123,-0.094285786
0.465000000,-0.98890281,-0.094280787
0.466000000,-0.98782438,-0.094270788
0.467000000,-0.98669595,-0.094265789
0.468000000,-0.9855175,-0.09425579
0.469000000,-0.98428905,-0.094245791
0.470000000,-0.98301065,-0.094230786
0.471000000,-0.98168218,-0.094220787
0.472000000,-0.98030376,-0.094205797
0.473000000,-0.97887534,-0.094190791
0.474000000,-0.97739691,-0.094175793
0.475000000,-0.97586846,-0.094160795
0.476000000,-0.97429001,-0.09414079
0.477000000,-0.97266161,-0.094120793
0.478000000,-0.97098315,-0.094100796
0.479000000,-0.96925473,-0.094080791
0.480000000,-0.96747631,-0.094055802
0.481000000,-0.96564788,-0.094030797
0.482000000,-0.96376944,-0.094005793
0.483000000,-0.96184099,-0.093975797
0.484000000,-0.95986259,-0.093950801
0.485000000,-0.95783412,-0.093920797
0.486000000,-0.95575571,-0.093885809
0.487000000,-0.95362729,-0.093850806
0.488000000,-0.95144886,-0.093815811
0.489000000,-0.94922042,-0.093780808
0.490000000,-0.94694197,-0.093740821
0.491000000,-0.94461358,-0.093700811
0.492000000,-0.94223511,-0.093660817
0.493000000,-0.9398067,-0.093615815
0.494000000,-0.93732828,-0.093570821
0.495000000,-0.93479979,-0.09352082
0.496000000,-0.93222141,-0.093470827
0.497000000,-0.92959297,-0.093420826
0.498000000,-0.92691451,-0.093365826
0.499000000,-0.92418611,-0.093310833
0.500000000,-0.92140764,-0.093255833
0.501000000,-0.91857922,-0.093195841
0.502000000,-0.91570079,-0.093135841
0.503000000,-0.91277236,-0.093070835
0.504000000,-0.90979391,-0.093005843
0.505000000,-0.90676552,-0.092935845
0.506000000,-0.90368706,-0.092865855
0.507000000,-0.90055865,-0.092795849
0.508000000,-0.89738017,-0.092720851
0.509000000,-0.89415175,-0.092645869
0.510000000,-0.89087331,-0.092565864
0.511000000,-0.88754487,-0.092485867
0.512000000,-0.88416648,-0.092400871
0.513000000,-0.88073802,-0.092315875
0.514000000,-0.87725961,-0.092225879
0.515000000,-0.8737312,-0.092135876
0.516000000,-0.87015271,-0.092040882
0.517000000,-0.86652428,-0.091945887
0.518000000,-0.8628459,-0.091850892
0.519000000,-0.85911745,-0.091745898
0.520000000,-0.85533899,-0.091645911
0.521000000,-0.85151058,-0.091540903
0.522000000,-0.84763211,-0.091430917
0.523000000,-0.84370369,-0.091320917
0.524000000,-0.83972526,-0.091205917
0.525000000,-0.83569682,-0.091090925
0.526000000,-0.83161843,-0.090970933
0.527000000,-0.82748997,-0.090850934
0.528000000,-0.82331157,-0.090725943
0.529000000,-0.81908309,-0.090600953
0.530000000,-0.81480467,-0.090470955
0.531000000,-0.81047624,-0.090340964
0.532000000,-0.80609781,-0.090205967
0.533000000,-0.80166936,-0.090065971
0.534000000,-0.79719096,-0.089925975
0.535000000,-0.7926625,-0.089780986
0.536000000,-0.78808409,-0.089635998
0.537000000,-0.78345567,-0.089486003
0.538000000,-0.77877724,-0.089336008
0.539000000,-0.77404881,-0.089181006
0.540000000,-0.76927036,-0.089021027
0.541000000,-0.76444191,-0.088861026
0.542000000,-0.75956351,-0.088696033
0.543000000,-0.75463504,-0.08853104
0.544000000,-0.74965662,-0.088361047
0.545000000,-0.74462819,-0.088186055
0.546000000,-0.73954976,-0.088011064
0.547000000,-0.73442131,-0.087831065
0.548000000,-0.72924292,-0.087651074
0.549000000,-0.72401446,-0.087466091
0.550000000,-0.71873605,-0.087276094
0.551000000,-0.71340758,-0.087086096
0.552000000,-0.70802915,-0.086891115
0.553000000,-0.70260072,-0.086691119
0.554000000,-0.69712228,-0.08649113
0.555000000,-0.69159389,-0.086286142
0.556000000,-0.68601543,-0.086081147
0.557000000,-0.68038702,-0.08587116
0.558000000,-0.67470855,-0.085656166
0.559000000,-0.66898012,-0.085436173
0.560000000,-0.66320169,-0.085216179
0.561000000,-0.65737325,-0.084996194
0.562000000,-0.65149486,-0.084766209
0.563000000,-0.6455664,-0.084536217
0.564000000,-0.639588,-0.084301233
0.565000000,-0.63355953,-0.084066242
0.566000000,-0.6274811,-0.083826244
0.567000000,-0.62135267,-0.083581254
0.568000000,-0.61517423,-0.083336264
0.569000000,-0.60894579,-0.083081275
0.570000000,-0.60266739,-0.082826294
0.571000000,-0.59633893,-0.082571305
0.572000000,-0.58996052,-0.082311317
0.573000000,-0.58353209,-0.08204633
0.574000000,-0.57705367,-0.081776336
0.575000000,-0.57052523,-0.081506349
0.576000000,-0.56394678,-0.081231356
0.577000000,-0.55731833,-0.080951378
0.578000000,-0.55063993,-0.080671385
0.579000000,-0.54391146,-0.0803864
0.580000000,-0.53713304,-0.080096409
0.581000000,-0.53030461,-0.079801425
0.582000000,-0.52342618,-0.079506435
0.583000000,-0.51649773,-0.079206452
0.584000000,-0.50951934,-0.07890147
0.585000000,-0.50249088,-0.07859648
0.586000000,-0.49541244,-0.078286491
0.587000000,-0.48828402,-0.077971503
0.588000000,-0.4811056,-0.077651516
0.589000000,-0.47387716,-0.077331528
0.590000000,-0.46659872,-0.077006549
0.591000000,-0.4592703,-0.076676562
0.592000000,-0.45189187,-0.076346576
0.593000000,-0.44446343,-0.076006591
0.594000000,-0.43698499,-0.075666606
0.595000000,-0.42945656,-0.075326622
0.596000000,-0.42187813,-0.074976638
0.597000000,-0.41424969,-0.074626647
0.598000000,-0.40657127,-0.074266672
0.599000000,-0.39884284,-0.073911682
0.600000000,-0.39106441,-0.073546693
0.601000000,-0.38323596,-0.073181719
0.602000000,-0.37535754,-0.072811723
0.603000000,-0.36742911,-0.07243675
0.604000000,-0.35945067,-0.072056755
0.605000000,-0.35142222,-0.071676783
0.606000000,-0.34334379,-0.071291789
0.607000000,-0.33521536,-0.070901811
0.608000000,-0.32703695,-0.070506826
0.609000000,-0.3188085,-0.070111848
0.610000000,-0.31053007,-0.069711864
0.611000000,-0.30220163,-0.06930688
0.612000000,-0.29382321,-0.068896905
0.613000000,-0.28539476,-0.068486921
0.614000000,-0.27691635,-0.06806694
0.615000000,-0.26838791,-0.067646958
0.616000000,-0.25980946,-0.067221969
0.617000000,-0.25118104,-0.066796988
0.618000000,-0.24250261,-0.066362008
0.619000000,-0.23377417,-0.065927029
0.620000000,-0.22499575,-0.065487057
0.621000000,-0.21616732,-0.065042071
0.622000000,-0.20728888,-0.064592093
0.623000000,-0.19836044,-0.064142108
0.624000000,-0.18938202,-0.063687131
0.625000000,-0.18035358,-0.063227147
0.626000000,-0.17127515,-0.062757172
0.627000000,-0.16214672,-0.062292192
0.628000000,-0.15296829,-0.061817214
0.629000000,-0.14373985,-0.061342232
0.630000000,-0.13446142,-0.060862258
0.631000000,-0.12513299,-0.060377277
0.632000000,-0.11575455,-0.059887297
0.633000000,-0.10632612,-0.059397317
0.634000000,-0.096847691,-0.058902342
0.635000000,-0.087319255,-0.058397364
0.636000000,-0.077740826,-0.057897385
0.637000000,-0.068112388,-0.057387408
0.638000000,-0.058433957,-0.056877431
0.639000000,-0.048705526,-0.056357455
0.640000000,-0.038927093,-0.055837475
0.641000000,-0.02909866,-0.055312499
0.642000000,-0.019220227,-0.054782525
0.643000000,-0.0092917951,-0.054247547
0.644000000,0.0006863426,-0.053712569
0.645000000,0.01065791,-0.053167596
0.646000000,0.020579478,-0.05262262
0.647000000,0.030451046,-0.052072644
0.648000000,0.040272612,-0.051517665
0.649000000,0.050044183,-0.050957695
0.650000000,0.059765749,-0.050397716
0.651000000,0.069437318,-0.049832739
0.652000000,0.079058886,-0.049262766
0.653000000,0.088630453,-0.048687793
0.654000000,0.098152019,-0.048112817
0.655000000,0.10762358,-0.047532842
0.656000000,0.11704516,-0.046947867
0.657000000,0.12641673,-0.046357892
0.658000000,0.13573828,-0.045767918
0.659000000,0.14500986,-0.045177944
0.660000000,0.15423143,-0.044577971
0.661000000,0.16340299,-0.043977998
0.662000000,0.17252456,-0.043378025
0.663000000,0.18159613,-0.042768054
0.664000000,0.1906177,-0.042158082
0.665000000,0.19958927,-0.041548103
0.666000000,0.20851083,-0.040933132
0.667000000,0.2173824,-0.040318161
0.668000000,0.22620396,-0.039698191
0.669000000,0.23497553,-0.039078213
0.670000000,0.24369711,-0.038448244
0.671000000,0.25236866,-0.037828274
0.672000000,0.26099023,-0.037198301
0.673000000,0.2695618,-0.036568329
0.674000000,0.27808338,-0.035938356
0.675000000,0.28655493,-0.035298385
0.676000000,0.2949765,-0.034663409
0.677000000,0.30334806,-0.034028441
0.678000000,0.31166965,-0.033388466
0.679000000,0.31994122,-0.032743495
0.680000000,0.32816279,-0.032098524
0.681000000,0.33633435,-0.031458549
0.682000000,0.34445593,-0.030808579
0.683000000,0.35252747,-0.030158609
0.684000000,0.36054906,-0.029508639
0.685000000,0.36852062,-0.028858665
0.686000000,0.37644219,-0.028208695
0.687000000,0.38431376,-0.027558723
0.688000000,0.39213532,-0.026903752
0.689000000,0.3999069,-0.026248779
0.690000000,0.40762845,-0.02559381
0.691000000,0.41530001,-0.024938839
0.692000000,0.4229216,-0.024278868
0.693000000,0.43049315,-0.023618897
0.694000000,0.43801472,-0.022958925
0.695000000,0.44548631,-0.022298954
0.696000000,0.45290786,-0.021638986
0.697000000,0.46027943,-0.020979013
0.698000000,0.467601,-0.020319043
0.699000000,0.47487256,-0.019659072
0.700000000,0.48209414,-0.018999098
0.701000000,0.48926571,-0.018329129
0.702000000,0.49638727,-0.017669156
0.703000000,0.50345886,-0.017009187
0.704000000,0.5104804,-0.016339216
0.705000000,0.517452,-0.015679244
0.706000000,0.52437353,-0.015019273
0.707000000,0.53124511,-0.014349303
0.708000000,0.53806669,-0.013689333
0.709000000,0.54483825,-0.013029361
0.710000000,0.55155981,-0.012359391
0.711000000,0.55823135,-0.011699419
0.712000000,0.56485295,-0.011039449
0.713000000,0.57142448,-0.010369479
0.714000000,0.57794607,-0.0097095072
0.715000000,0.58441764,-0.0090495367
0.716000000,0.59083921,-0.0083895661
0.717000000,0.59721076,-0.0077195955
0.718000000,0.60353237,-0.0070596244
0.719000000,0.60980392,-0.0063996534
0.720000000,0.61602551,-0.0057396824
0.721000000,0.62219703,-0.0050797118
0.722000000,0.62831861,-0.0044297399
0.723000000,0.63439018,-0.0037697693
0.724000000,0.64041173,-0.0031097981
0.725000000,0.64638335,-0.0024598269
0.726000000,0.65230489,-0.0017998558
0.727000000,0.65817648,-0.0011498847
0.728000000,0.66399801,-0.00048990484
0.729000000,0.66976959,0.000160076
0.730000000,0.67549115,0.00081005192
0.731000000,0.68116271,0.0014600279
0.732000000,0.68678433,0.0021100016
0.733000000,0.69235587,0.0027599651
0.734000000,0.69787741,0.0034099286
0.735000000,0.70334899,0.0040498925
0.736000000,0.70877057,0.004699856
0.737000000,0.71414214,0.0053398204
0.738000000,0.71946371,0.0059797848
0.739000000,0.72473526,0.0066197487
0.740000000,0.72995687,0.007259713
0.741000000,0.7351284,0.0078996774
0.742000000,0.74024999,0.0085396413
0.743000000,0.74532157,0.0091696065
0.744000000,0.75034308,0.0098045692
0.745000000,0.75531471,0.010439536
0.746000000,0.76023626,0.011069499
0.747000000,0.76510781,0.011699464
0.748000000,0.76992941,0.012324429
0.749000000,0.77470094,0.012949395
0.750000000,0.77942252,0.01356936
0.751000000,0.7840941,0.014194325
0.752000000,0.78871566,0.014814289
0.753000000,0.79328722,0.015434255
0.754000000,0.79780877,0.016049221
0.755000000,0.80228037,0.016664186
0.756000000,0.8067019,0.017279152
0.757000000,0.81107348,0.017889116
0.758000000,0.81539506,0.018499084
0.759000000,0.81966662,0.019104049
0.760000000,0.82388818,0.019709013
0.761000000,0.82805979,0.020308983
0.762000000,0.83218133,0.020908948
0.763000000,0.83625293,0.021508913
0.764000000,0.84027445,0.022108879
0.765000000,0.84424603,0.022698848
0.766000000,0.8481676,0.023293812
0.767000000,0.85203916,0.023883779
0.768000000,0.85586071,0.024468746
0.769000000,0.85963231,0.025058713
0.770000000,0.86335385,0.025638681
0.771000000,0.86702543,0.026218651
0.772000000,0.87064701,0.026798619
0.773000000,0.87421858,0.027373586
0.774000000,0.87774014,0.027948553
0.775000000,0.8812117,0.02851852
0.776000000,0.8846333,0.02908849
0.777000000,0.88800484,0.029653456
0.778000000,0.89132643,0.030218426
0.779000000,0.89459801,0.030783392
0.780000000,0.89781958,0.031338364
0.781000000,0.90099114,0.031898331
0.782000000,0.9041127,0.032448299
0.783000000,0.90718424,0.033003271
0.784000000,0.91020584,0.03354824
0.785000000,0.91317737,0.034093209
0.786000000,0.91609895,0.034638178
0.787000000,0.91897053,0.035178147
0.788000000,0.92179209,0.035718117
0.789000000,0.92456365,0.036253087
0.790000000,0.92728525,0.036783058
0.791000000,0.92995679,0.037313025
0.792000000,0.93257838,0.037842996
0.793000000,0.93514991,0.038362972
0.794000000,0.93767148,0.038882941
0.795000000,0.94014305,0.03940291
0.796000000,0.94256461,0.039922882
0.797000000,0.94493622,0.040432855
0.798000000,0.94725776,0.040942825
0.799000000,0.94952935,0.041447796
0.800000000,0.95175087,0.041952766
0.801000000,0.95392245,0.042452741
0.802000000,0.95604402,0.042952713
0.803000000,0.95811558,0.043442689
0.804000000,0.96013719,0.043932658
0.805000000,0.96210873,0.04442263
0.806000000,0.96403033,0.044912606
0.807000000,0.96590185,0.045392577
0.808000000,0.96772343,0.04587255
0.809000000,0.969495,0.046352521
0.810000000,0.97121656,0.046822496
0.811000000,0.97288817,0.047292471
0.812000000,0.97450972,0.047762446
0.813000000,0.97608131,0.048222419
0.814000000,0.97760284,0.048682392
0.815000000,0.97907442,0.049142368
0.816000000,0.98049599,0.049592342
0.817000000,0.98186755,0.050042316
0.818000000,0.98318911,0.05049229
0.819000000,0.98446071,0.050932266
0.820000000,0.98568225,0.051372238
0.821000000,0.98685384,0.051812217
0.822000000,0.98797542,0.052252192
0.823000000,0.98904693,0.052682169
0.824000000,0.99006855,0.053102143
0.825000000,0.99104011,0.05353212
0.826000000,0.99196166,0.053952098
0.827000000,0.99283326,0.054372072
0.828000000,0.99365479,0.054782052
0.829000000,0.99442637,0.055192031
0.830000000,0.99514794,0.055602007
0.831000000,0.99581951,0.056001984
0.832000000,0.99644107,0.056401961
0.833000000,0.99701262,0.056801938
0.834000000,0.99753422,0.057191916
0.835000000,0.99800575,0.057581894
0.836000000,0.99842733,0.057971872
0.837000000,0.99879891,0.058351852
0.838000000,0.99912047,0.058731828
0.839000000,0.99939203,0.059111807
0.840000000,0.99961358,0.059481785
0.841000000,0.99978518,0.059851766
0.842000000,0.99990672,0.060211748
0.843000000,0.9999783,0.060571726
0.844000000,1,0.060931705
0.845000000,1,0.061286688
0.846000000,1,0.061636668
0.847000000,1,0.061981648
0.848000000,1,0.062326625
0.849000000,1,0.062661611
0.850000000,1,0.063001588
0.851000000,1,0.063331574
0.852000000,1,0.063661553
0.853000000,1,0.06398654
0.854000000,1,0.064311519
0.855000000,1,0.0646265
0.856000000,1,0.064941481
0.857000000,1,0.065251462
0.858000000,1,0.065561444
0.859000000,1,0.065866426
0.860000000,1,0.066171408
0.861000000,1,0.066466391
0.862000000,1,0.066761382
0.863000000,1,0.067056365
0.864000000,1,0.067341343
0.865000000,1,0.067631334
0.866000000,1,0.067911312
0.867000000,1,0.068191297
0.868000000,1,0.068471283
0.869000000,1,0.068746269
0.870000000,1,0.069016248
0.871000000,1,0.069286235
0.872000000,1,0.069551229
0.873000000,1,0.06981121
0.874000000,1,0.070071191
0.875000000,1,0.070331179
0.876000000,1,0.070586167
0.877000000,1,0.070836157
0.878000000,1,0.071086138
0.879000000,1,0.071331128
0.880000000,1,0.071576104
0.881000000,1,0.071816094
0.882000000,1,0.072056085
0.883000000,1,0.072291061
0.884000000,1,0.072526053
0.885000000,1,0.072756045
0.886000000,1,0.072986029
0.887000000,1,0.073211014
0.888000000,1,0.073436007
0.889000000,1,0.073655993
0.890000000,1,0.073875979
0.891000000,1,0.074095964
0.892000000,1,0.074310958
0.893000000,1,0.074520946
0.894000000,1,0.074730933
0.895000000,1,0.07494092
0.896000000,1,0.075145915
0.897000000,1,0.075345896
0.898000000,1,0.075550884
0.899000000,1,0.075750872
0.900000000,1,0.075945869
0.901000000,1,0.076140851
0.902000000,1,0.07633584
0.903000000,1,0.076525837
0.904000000,1,0.07671082
0.905000000,1,0.07690081
0.906000000,1,0.077085793
0.907000000,1,0.077265792
0.908000000,1,0.077450782
0.909000000,1,0.077625766
0.910000000,1,0.077805758
0.911000000,1,0.077980749
0.912000000,1,0.078155741
0.913000000,1,0.078325734
0.914000000,1,0.078495726
0.915000000,1,0.078660712
0.916000000,1,0.078830704
0.917000000,1,0.07899569
0.918000000,1,0.079155684
0.919000000,1,0.079315677
0.920000000,1,0.079475671
0.921000000,1,0.079635665
0.922000000,1,0.079790652
0.923000000,1,0.079945639
0.924000000,1,0.080095626
0.925000000,1,0.080245622
0.926000000,1,0.080395617
0.927000000,1,0.080545604
0.928000000,1,0.0806906
0.929000000,1,0.080835588
0.930000000,1,0.080980584
0.931000000,1,0.081120573
0.932000000,1,0.081260569
0.933000000,1,0.081400558
0.934000000,1,0.081535548
0.935000000,1,0.081670538
0.936000000,1,0.081805527
0.937000000,1,0.081940524
0.938000000,1,0.082070515
0.939000000,1,0.082200512
0.940000000,1,0.082330503
0.941000000,1,0.082455494
0.942000000,1,0.082585484
0.943000000,1,0.082705483
0.944000000,1,0.082830474
