source:ccrt device:log(05) epoch:1673450032 timeOrigin:0.000000000 firstSampleTime:0.000000000 period:0.020000000 name:CODIM3(5) type:analog,CODIM3_ANA_1 +0.003000000,CODIM3_ANA_2 +0.004000000,CODIM3_ANA_3 +0.005000000,CODIM3_ANA_4 +0.006000000
0.000000000,2.003,2.0039999,2.0050001,2.006
0.020000000,2.023,2.0240002,2.0250001,2.026
0.040000000,2.043,2.0440001,2.0450001,2.046
0.060000000,2.063,2.0640001,2.0650001,2.066
0.080000000,2.0829999,2.0840001,2.085,2.086
0.100000000,2.1030002,2.1040001,2.105,2.1059999
0.120000000,2.1230001,2.1240001,2.125,2.1259999
0.140000000,2.1430001,2.1440001,2.145,2.1459999
0.160000000,2.1630001,2.164,2.165,2.1659999
0.180000000,2.1830001,2.184,2.1849999,2.1859999
0.200000000,2.2030001,2.204,2.2049999,2.2059999
0.220000000,2.223,2.224,2.2249999,2.2259998
0.240000000,2.243,2.244,2.2449999,2.2460001
0.260000000,2.263,2.2639999,2.2649999,2.266
0.280000000,2.283,2.2839999,2.2849998,2.286
0.300000000,2.303,2.3039999,2.3050001,2.306
0.320000000,2.323,2.3239999,2.325,2.326
0.340000000,2.3429999,2.3439999,2.345,2.346
0.360000000,2.3629999,2.3639998,2.365,2.3659999
0.380000000,2.3829999,2.3840001,2.385,2.3860002
0.400000000,2.4029999,2.404,2.405,2.4060001
0.420000000,2.4229999,2.424,2.425,2.4260001
0.440000000,2.4429998,2.444,2.4449999,2.4460001
0.460000000,2.4630001,2.464,2.4650002,2.4660001
0.480000000,2.483,2.484,2.4850001,2.4860001
0.500000000,2.503,2.5039999,2.5050001,2.506
0.520000000,2.523,2.5239999,2.5250001,2.526
0.540000000,2.543,2.5440001,2.5450001,2.546
0.560000000,2.563,2.5640001,2.5650001,2.566
0.580000000,2.5829999,2.5840001,2.585,2.586
0.600000000,2.6029999,2.6040001,2.605,2.6059999
0.620000000,2.6230001,2.6240001,2.625,2.6259999
0.640000000,2.6430001,2.6440001,2.645,2.6459999
0.660000000,2.6630001,2.664,2.665,2.6659999
0.680000000,2.6830001,2.684,2.6849999,2.6859999
0.700000000,2.7030001,2.704,2.7049999,2.7059999
0.720000000,2.723,2.724,2.7249999,2.7260001
0.740000000,2.743,2.744,2.7449999,2.7460001
0.760000000,2.763,2.7639999,2.7649999,2.766
0.780000000,2.783,2.7839999,2.7850001,2.786
0.800000000,2.803,2.8039999,2.8050001,2.806
0.820000000,2.823,2.8239999,2.825,2.826
0.840000000,2.8429999,2.8439999,2.845,2.846
0.860000000,2.8629999,2.8640001,2.865,2.8659999
0.880000000,2.8829999,2.8840001,2.885,2.8859999
0.900000000,2.9029999,2.904,2.905,2.9060001
0.920000000,2.9229999,2.924,2.925,2.9260001
0.940000000,2.9430001,2.944,2.9449999,2.9460001
0.960000000,2.9630001,2.964,2.9649999,2.9660001
0.980000000,2.983,2.984,2.9850001,2.9860001
