source:ccrt device:log_07 epoch:1673449979 timeOrigin:1.095000000 firstSampleTime:0.845000000 period:0.001000000 name:I_MEAS_MPX[7] type:analog,V_REF_(V) STEP,I_MEAS_(A)
0.845000000,10,0.94339222
0.846000000,10,0.94339222
0.847000000,10,0.94339222
0.848000000,10,0.94339222
0.849000000,10,0.94339222
0.850000000,10,0.94339222
0.851000000,10,0.94339222
0.852000000,10,0.94339222
0.853000000,10,0.94339222
0.854000000,10,0.94339222
0.855000000,10,0.94339222
0.856000000,10,0.94339222
0.857000000,10,0.94339222
0.858000000,10,0.94339222
0.859000000,9.9999981,0.94339222
0.860000000,9.9994287,0.94339222
0.861000000,9.99786,0.94339222
0.862000000,9.9952917,0.94339222
0.863000000,9.9917231,0.94339222
0.864000000,9.987154,0.94339222
0.865000000,9.9815855,0.94338727
0.866000000,9.9750175,0.94338226
0.867000000,9.9674482,0.94337225
0.868000000,9.9588795,0.94336224
0.869000000,9.9493113,0.94334221
0.870000000,9.9387426,0.94331729
0.871000000,9.9271736,0.94328225
0.872000000,9.9146051,0.94324225
0.873000000,9.9010363,0.94318724
0.874000000,9.8864679,0.94312727
0.875000000,9.8708992,0.94305724
0.876000000,9.854331,0.94297224
0.877000000,9.8367615,0.94287729
0.878000000,9.8181934,0.94276232
0.879000000,9.798625,0.94263732
0.880000000,9.7780561,0.94249725
0.881000000,9.7564869,0.94234228
0.882000000,9.7339182,0.94216728
0.883000000,9.71035,0.94197732
0.884000000,9.6857815,0.94176733
0.885000000,9.6602125,0.94153738
0.886000000,9.6336441,0.94128734
0.887000000,9.6060753,0.94101739
0.888000000,9.577507,0.94072241
0.889000000,9.5479383,0.9404074
0.890000000,9.5173693,0.94006741
0.891000000,9.4858007,0.93970746
0.892000000,9.4532318,0.93931746
0.893000000,9.4196634,0.9389075
0.894000000,9.3850946,0.93846756
0.895000000,9.3495264,0.93799752
0.896000000,9.3129578,0.93750757
0.897000000,9.2753887,0.93698263
0.898000000,9.2368202,0.93642759
0.899000000,9.1972542,0.9358477
0.900000000,9.1572542,0.93523771
0.901000000,9.1172543,0.93459272
0.902000000,9.0772543,0.93391776
0.903000000,9.0372534,0.93320781
0.904000000,8.9972534,0.93246788
0.905000000,8.9572535,0.93169796
0.906000000,8.9172535,0.93089294
0.907000000,8.8772535,0.930058
0.908000000,8.8372536,0.92918801
0.909000000,8.7972536,0.9282881
0.910000000,8.7572536,0.92736816
0.911000000,8.7172537,0.92640817
0.912000000,8.6772537,0.92541826
0.913000000,8.6372538,0.9243983
0.914000000,8.5972538,0.92335337
0.915000000,8.5572538,0.9222784
0.916000000,8.5172539,0.92117852
0.917000000,8.4772539,0.92003852
0.918000000,8.437254,0.91887861
0.919000000,8.397254,0.91768873
0.920000000,8.3573627,0.91647875
0.921000000,8.3176603,0.91523385
0.922000000,8.2781467,0.91396391
0.923000000,8.2388201,0.91266894
0.924000000,8.1996813,0.91134906
0.925000000,8.1607275,0.90999913
0.926000000,8.1219597,0.90862918
0.927000000,8.0833759,0.9072293
0.928000000,8.0449753,0.90580434
0.929000000,8.0067568,0.90435946
0.930000000,7.9687195,0.90288949
0.931000000,7.9308639,0.90139961
0.932000000,7.8931875,0.8998847
0.933000000,7.85569,0.89834476
0.934000000,7.8183708,0.8967849
0.935000000,7.781229,0.89520502
0.936000000,7.7442636,0.89360499
0.937000000,7.7074742,0.89198506
0.938000000,7.6708589,0.89034522
0.939000000,7.634418,0.88868034
0.940000000,7.5981498,0.88700044
0.941000000,7.5620542,0.88530052
0.942000000,7.5261302,0.88358557
0.943000000,7.4903765,0.88184571
0.944000000,7.454793,0.88009584
0.945000000,7.4193783,0.87832087
0.946000000,7.3841319,0.87653601
0.947000000,7.3490529,0.87472606
0.948000000,7.3141408,0.87290621
0.949000000,7.2793941,0.87106633
0.950000000,7.244813,0.86921644
0.951000000,7.2103958,0.86734653
0.952000000,7.1761422,0.86545658
0.953000000,7.1420512,0.86355674
0.954000000,7.1081223,0.86164683
0.955000000,7.0743546,0.85971689
0.956000000,7.0407472,0.85777706
0.957000000,7.0072994,0.85582215
0.958000000,6.9740109,0.85385728
0.959000000,6.9408803,0.85187232
0.960000000,6.907907,0.84987748
0.961000000,6.8750906,0.84787261
0.962000000,6.8424296,0.84585774
0.963000000,6.8099241,0.84382784
0.964000000,6.7775731,0.84178293
0.965000000,6.7453756,0.839733
0.966000000,6.7133312,0.83766818
0.967000000,6.6814389,0.83559328
0.968000000,6.6496983,0.83351344
0.969000000,6.6181083,0.83141851
0.970000000,6.5866685,0.82931364
0.971000000,6.555378,0.82720375
0.972000000,6.5242357,0.82507396
0.973000000,6.4932418,0.82294405
0.974000000,6.4623952,0.82080412
0.975000000,6.431695,0.8186543
0.976000000,6.4011407,0.81649435
0.977000000,6.3707318,0.81433445
0.978000000,6.340467,0.8121596
0.979000000,6.3103461,0.80997467
0.980000000,6.2803683,0.80778986
0.981000000,6.2505326,0.80559492
0.982000000,6.220839,0.80339015
0.983000000,6.1912866,0.80118024
0.984000000,6.1618743,0.79896533
0.985000000,6.1326017,0.79674542
0.986000000,6.1034684,0.79451561
0.987000000,6.0744734,0.79228073
0.988000000,6.0456161,0.79004085
0.989000000,6.0168958,0.78779101
0.990000000,5.9883118,0.78554106
0.991000000,5.9598641,0.78328621
0.992000000,5.931551,0.78102636
0.993000000,5.9033728,0.77876151
0.994000000,5.8753281,0.77649164
0.995000000,5.8474169,0.77421176
0.996000000,5.8196383,0.77193189
0.997000000,5.7919917,0.76965201
0.998000000,5.7644763,0.76736212
0.999000000,5.7370915,0.76507223
1.000000000,5.709837,0.76278234
1.001000000,5.6827121,0.76048249
1.002000000,5.6557159,0.75818259
1.003000000,5.6288481,0.75588274
1.004000000,5.6021075,0.75357282
1.005000000,5.5754943,0.75126302
1.006000000,5.5490074,0.74895316
1.007000000,5.5226464,0.74664325
1.008000000,5.4964108,0.74432337
1.009000000,5.4702997,0.74200857
1.010000000,5.4443126,0.73968863
1.011000000,5.4184489,0.73736382
1.012000000,5.3927078,0.73504394
1.013000000,5.3670893,0.73271906
1.014000000,5.3415928,0.73038924
1.015000000,5.3162169,0.7280643
1.016000000,5.2909617,0.72573948
1.017000000,5.2658267,0.72340953
1.018000000,5.2408109,0.72107971
1.019000000,5.2159138,0.71874988
1.020000000,5.1911354,0.71641999
1.021000000,5.1664743,0.7140801
1.022000000,5.1419306,0.71175021
1.023000000,5.1175032,0.70942032
1.024000000,5.0931921,0.7070905
1.025000000,5.0689964,0.70475566
1.026000000,5.0449162,0.70242572
1.027000000,5.0209498,0.70009089
1.028000000,4.997097,0.697761
1.029000000,4.9733582,0.69543111
1.030000000,4.9497318,0.69310129
1.031000000,4.9262176,0.69077146
1.032000000,4.9028153,0.68844652
1.033000000,4.8795238,0.6861167
1.034000000,4.8563433,0.68379176
1.035000000,4.8332729,0.68146694
1.036000000,4.8103118,0.67914206
1.037000000,4.7874603,0.67681718
1.038000000,4.7647171,0.67449737
1.039000000,4.7420816,0.67217743
1.040000000,4.7195539,0.66985756
1.041000000,4.6971335,0.6675477
1.042000000,4.6748195,0.66522783
1.043000000,4.6526113,0.66291797
1.044000000,4.6305084,0.66060805
1.045000000,4.608511,0.65829825
1.046000000,4.5866179,0.65599334
1.047000000,4.5648289,0.65368855
1.048000000,4.5431433,0.65138865
1.049000000,4.5215607,0.64908874
1.050000000,4.5000806,0.64678884
1.051000000,4.4787025,0.644499
1.052000000,4.4574261,0.64220417
1.053000000,4.4362507,0.63991928
1.054000000,4.4151759,0.63762939
1.055000000,4.3942013,0.63534951
1.056000000,4.3733263,0.63306963
1.057000000,4.3525505,0.63078976
1.058000000,4.3318729,0.62851489
1.059000000,4.3112941,0.62624502
1.060000000,4.290813,0.62397516
1.061000000,4.2704291,0.62171525
1.062000000,4.2501421,0.61945534
1.063000000,4.2299514,0.61719549
1.064000000,4.2098565,0.61494565
1.065000000,4.1899743,0.6126858
1.066000000,4.1709819,0.61044586
1.067000000,4.1529899,0.60819602
1.068000000,4.1359973,0.60595614
1.069000000,4.1200051,0.60372627
1.070000000,4.1050129,0.6014964
1.071000000,4.0910206,0.59926653
1.072000000,4.0780282,0.59705162
1.073000000,4.0660362,0.59484172
1.074000000,4.0550437,0.59263688
1.075000000,4.0450516,0.59044707
1.076000000,4.0360594,0.58826715
1.077000000,4.0280671,0.58609223
1.078000000,4.0210748,0.58393741
1.079000000,4.0150824,0.58179247
1.080000000,4.0100904,0.57965761
1.081000000,4.0060978,0.57754272
1.082000000,4.0031056,0.57544285
1.083000000,4.0011134,0.57335293
1.084000000,4.0001211,0.57128811
1.085000000,4,0.56923819
1.086000000,4,0.56720328
1.087000000,4,0.56519341
1.088000000,4,0.56320357
1.089000000,4,0.56123364
1.090000000,4,0.55928373
1.091000000,4,0.55735385
1.092000000,4,0.55544895
1.093000000,4,0.55356407
1.094000000,4,0.55169415
1.095000000,4,0.54984426
