HCRALDH___,DCCT.A.GAIN,1.00E+00,
HCRALDH___,DCCT.B.GAIN,2.23E-01,
HCRALDH___,DCCT.TAU_TEMP,5.00E+02,
HCRPADK___,DCCT.PRIMARY_TURNS,1,
HCRPADK___,LIMITS.I.ACCESS,5.00E+01,
HCRPADK___,LIMITS.I.EARTH,1.00E+00,
HCRPADK___,LIMITS.I.MEAS_DIFF,1.00E+00,
HCRPADK___,LIMITS.I.QUADRANTS41,0.00E+00,0.00E+00
HCRPADK___,LIMITS.V.ERR_FAULT,0.00E+00,
HCRPADK___,LIMITS.V.ERR_WARNING,5.00E+01,
HCRPADK___,LIMITS.V.QUADRANTS41,0.00E+00,0.00E+00
HCRPADK___,LIMITS.V.RATE,1.00E+03,
HCRPADK___,REF.DEFAULTS.V.ACCELERATION,1.00E+03,
HCRPADK___,REF.DEFAULTS.V.LINEAR_RATE,1.00E+03,
HCRPADK___,SWITCH.POLARITY.TIMEOUT,0,
HCRPADK___,VS.BLOCKABLE,ENABLED,
HCRPADK___,VS.GAIN,9.00E+02,
HCRPADK___,VS.VSRUN_TIMEOUT,2.00E+01,
