source:ccrt device:change_on_ramp epoch:1673450510 timeOrigin:11.820000000 firstSampleTime:0.820000000 period:0.010000000 name:B_REG type:analog,B_MEAS_REG_(G),B_REF_USER_(G) STEP +0.010000000,B_REF_ADV_(G) STEP,B_REF_LIMITED_(G) STEP,B_REF_CLOSED_(G) STEP,V_REF_(V) STEP,V_MEAS_(V)
0.820000000,1.2000043,0,0,0,0,1.099457,1.1007373
0.830000000,1.2,0,0,0,0,1.1005701,1.0994476
0.840000000,1.2000037,0,0,0,0,1.0994529,1.1005274
0.850000000,1.2,0,0,0,0,1.1003549,1.0994476
0.860000000,1.2000016,0,0,0,0,1.1000981,1.1003075
0.870000000,1.2000036,0,0,0,0,1.0993617,1.1000974
0.880000000,1.1999955,0,0,0,0,1.1001294,1.0992377
0.890000000,1.1999953,0,0,0,0,1.1007382,1.1000974
0.900000000,1.200001,0,0,0,0,1.1000865,1.1005274
0.910000000,1.2000004,0,0,0,0,1.100433,1.0998775
0.920000000,1.2000027,0,0,0,0,1.0996201,1.1003075
0.930000000,1.1999991,0,0,0,0,1.1004887,1.0994476
0.940000000,1.2000005,0,0,0,0,1.1002865,1.1003075
0.950000000,1.2000027,0,0,0,0,1.0995817,1.1000974
0.960000000,1.1999968,0,0,0,0,1.1003871,1.0994476
0.970000000,1.1999985,0,0,0,0,1.1001664,1.1003075
0.980000000,1.2000006,0,0,0,0,1.1002879,1.1000974
0.990000000,1.2000016,0,0,0,0,1.1003362,1.1000974
1.000000000,1.2000048,0,0,0,0,1.0995631,1.1003075
1.010000000,1.1999999,0,0,0,0,1.1003833,1.0994476
1.020000000,1.2000016,0,0,0,0,1.1001557,1.1003075
1.030000000,1.2000036,0,0,0,0,1.0994195,1.1000974
1.040000000,1.1999967,0,0,0,0,1.1001949,1.0992377
1.050000000,1.1999952,0,0,0,0,1.1008095,1.1000974
1.060000000,1.2000034,0,0,0,0,1.0992985,1.1007373
1.070000000,1.1999968,0,0,0,0,1.1003878,1.0992377
1.080000000,1.1999985,0,0,0,0,1.1001029,1.1003075
1.090000000,1.2000006,0,0,0,0,1.100251,1.1000974
1.100000000,1.2000016,0,0,0,0,1.1003021,1.1000974
1.110000000,1.2000026,0,0,0,0,1.1001521,1.1000974
1.120000000,1.2000014,0,0,0,0,1.0997021,1.0997576
1.130000000,1.1999946,0,0,0,0,1.0989521,1.0991176
1.140000000,1.1999774,0,0,0,0,1.0979021,1.0981479
1.150000000,1.1999466,0,0,0,0,1.0965521,1.096928
1.160000000,1.1998997,0,0,0,0,1.0949022,1.0954183
1.170000000,1.199832,0,0,0,0,1.0929521,1.0934987
1.180000000,1.1997411,0,0,0,0,1.0907021,1.091349
1.190000000,1.1996226,0,0,0,0,1.0881521,1.0889496
1.200000000,1.1994749,0,0,0,0,1.0853021,1.0862
1.210000000,1.1992936,0,0,0,0,1.0821521,1.0831506
1.220000000,1.199075,0,0,0,0,1.0787021,1.0797812
1.230000000,1.1988169,0,0,0,0,1.0749521,1.0761518
1.240000000,1.1985154,0,0,0,0,1.0709021,1.0722526
1.250000000,1.1981686,0,0,0,0,1.0665522,1.0679634
1.260000000,1.1977725,0,0,0,0,1.061902,1.0634443
1.270000000,1.1973238,0,0,0,0,1.0569521,1.0585152
1.280000000,1.1968198,0,0,0,0,1.0517021,1.053426
1.290000000,1.1962575,0,0,0,0,1.0461521,1.047927
1.300000000,1.1956336,0,0,0,0,1.0403022,1.0421882
1.310000000,1.1949468,0,0,0,0,1.0341522,1.0361893
1.320000000,1.1941912,0,0,0,0,1.0277021,1.0297304
1.330000000,1.1933675,0,0,0,0,1.0209521,1.0231516
1.340000000,1.1924704,0,0,0,0,1.0139021,1.0161829
1.350000000,1.1914979,0,0,0,0,1.0065521,1.0089443
1.360000000,1.1904471,0,0,0,0,0.99890208,1.0014056
1.370000000,1.1893183,0,0,0,0,0.99095207,0.99373704
1.380000000,1.1881061,0,0,0,0,0.98270208,0.9855786
1.390000000,1.1868072,0,0,0,0,0.97415209,0.97715014
1.400000000,1.1854191,0,0,0,0,0.96530211,0.96834177
1.410000000,1.1839397,0,0,0,0,0.95615208,0.95937341
1.420000000,1.182366,0,0,0,0,0.94670206,0.95002508
1.430000000,1.1806972,0,0,0,0,0.93695211,0.94038689
1.440000000,1.1789278,0,0,0,0,0.92690212,0.93045866
1.450000000,1.1770571,0,0,0,0,0.91655207,0.92019057
1.460000000,1.1750811,0,0,0,0,0.90590209,0.9096725
1.470000000,1.1730002,0,0,0,0,0.89495212,0.89888453
1.480000000,1.1708097,0,0,0,0,0.8837021,0.88762653
1.490000000,1.1685081,0,0,0,0,0.87215209,0.87616867
1.500000000,1.1660919,0,0,0,0,0.86030209,0.86444086
1.510000000,1.1635607,0,0,0,0,0.84815204,0.85240304
1.520000000,1.1609101,0,0,0,0,0.83570206,0.84001535
1.530000000,1.1581383,0,0,0,0,0.82295209,0.82742763
1.540000000,1.1552444,0,0,0,0,0.80990207,0.81443006
1.550000000,1.1522251,0,0,0,0,0.79655206,0.80119252
1.560000000,1.1490786,0,0,0,0,0.78290206,0.78769499
1.570000000,1.1458029,0,0,0,0,0.76895213,0.77378756
1.580000000,1.1423948,0,0,0,0,0.75470209,0.75968015
1.590000000,1.1388525,0,0,0,0,0.74015206,0.74519283
1.600000000,1.1351751,0,0,0,0,0.7253021,0.7304256
1.610000000,1.1313583,0,0,0,0,0.71015209,0.71541834
1.620000000,1.1274014,0,0,0,0,0.69470203,0.69996113
1.630000000,1.1233033,0,0,0,0,0.67895466,0.684394
1.640000000,1.1190609,0,0,0,0,0.66347635,0.66865689
1.650000000,1.1146836,0,0,0,0,0.64869797,0.65373963
1.660000000,1.1101782,0,0,0,0,0.63461965,0.63943231
1.670000000,1.1055588,0,0,0,0,0.62124133,0.62572479
1.680000000,1.100831,0,0,0,0,0.60856289,0.61290717
1.690000000,1.0960057,0,0,0,0,0.59658456,0.60066944
1.700000000,1.0910938,0,0,0,0,0.58530623,0.58923149
1.710000000,1.0861042,0,0,0,0,0.57472789,0.57831353
1.720000000,1.0810434,0,0,0,0,0.56484956,0.5681954
1.730000000,1.0759242,0,0,0,0,0.55567122,0.55878711
1.740000000,1.0707518,0,0,0,0,0.54719287,0.55007875
1.750000000,1.065539,0,0,0,0,0.53941453,0.54204023
1.760000000,1.0602921,0,0,0,0,0.53233618,0.53477156
1.770000000,1.0550215,0,0,0,0,0.52595782,0.52815276
1.780000000,1.0497339,0,0,0,0,0.52027947,0.52220386
1.790000000,1.0444394,0,0,0,0,0.51530117,0.51703483
1.800000000,1.039145,0,0,0,0,0.51102281,0.51243567
1.810000000,1.0338609,0,0,0,0,0.50744444,0.50867635
1.820000000,1.0285938,0,0,0,0,0.50456607,0.50556695
1.830000000,1.0233526,0,0,0,0,0.50238776,0.50316739
1.840000000,1.0181456,0,0,0,0,0.50090939,0.50140768
1.850000000,1.0129795,0,0,0,0,0.50013107,0.50040787
1.860000000,1.0078634,1.0024611,1.0024611,1.0024611,1.0024611,0.47168097,0.50009793
1.870000000,1.0025309,0.99695182,0.99695182,0.99695182,0.99695182,0.45130241,0.47184315
1.880000000,0.99698091,0.99124259,0.99124259,0.99124259,0.99124259,0.43108049,0.45131689
1.890000000,0.99125528,0.98533338,0.98533338,0.98533338,0.98533338,0.40923375,0.43123063
1.900000000,0.98533505,0.97922409,0.97922409,0.97922409,0.97922409,0.38757437,0.40938464
1.910000000,0.97921968,0.97291487,0.97291487,0.97291487,0.97291487,0.36558425,0.38775861
1.920000000,0.97290933,0.96640563,0.96640563,0.96640563,0.96640563,0.34319022,0.36568269
1.930000000,0.96640182,0.95969635,0.95969635,0.95969635,0.95969635,0.32044339,0.34339678
1.940000000,0.95969617,0.95278716,0.95278716,0.95278716,0.95278716,0.29728884,0.32066095
1.950000000,0.95278698,0.94567794,0.94567794,0.94567794,0.94567794,0.27427009,0.29748523
1.960000000,0.94567597,0.93836868,0.93836868,0.93836868,0.93836868,0.25121504,0.27430949
1.970000000,0.93836868,0.93085939,0.93085939,0.93085939,0.93085939,0.22758216,0.25135371
1.980000000,0.93086219,0.92315018,0.92315018,0.92315018,0.92315018,0.20367093,0.22773808
1.990000000,0.92315006,0.91524094,0.91524094,0.91524094,0.91524094,0.18013005,0.2036825
2.000000000,0.91524082,0.90713173,0.90713173,0.90713173,0.90713173,0.15605199,0.18028679
2.010000000,0.90713364,0.89882243,0.89882243,0.89882243,0.89882243,0.13161385,0.15623124
2.020000000,0.89882404,0.89031321,0.89031321,0.89031321,0.89031321,0.10721939,0.13173574
2.030000000,0.89031136,0.88160396,0.88160396,0.88160396,0.88160396,0.082965598,0.10723025
2.040000000,0.88160366,0.87269473,0.87269473,0.87269473,0.87269473,0.058021367,0.083174691
2.050000000,0.87269658,0.86358547,0.86358547,0.86358547,0.86358547,0.032865968,0.058239281
2.060000000,0.86358607,0.85427624,0.85427624,0.85427624,0.85427624,0.0078340657,0.033073913
2.070000000,0.85427493,0.84476697,0.84476697,0.84476697,0.84476697,-0.017325984,0.0079185423
2.080000000,0.84476507,0.83505774,0.83505774,0.83505774,0.83505774,-0.042725194,-0.017246101
2.090000000,0.8350563,0.82514846,0.82514846,0.82514846,0.82514846,-0.068377882,-0.042630363
2.100000000,0.82514966,0.81503928,0.81503928,0.81503928,0.81503928,-0.09446165,-0.068224579
2.110000000,0.81504065,0.80473,0.80473,0.80473,0.80473,-0.12052719,-0.094268687
2.120000000,0.80473083,0.79422081,0.79422081,0.79422081,0.79422081,-0.14674738,-0.1203128
2.130000000,0.79422116,0.78351158,0.78351158,0.78351158,0.78351158,-0.17316173,-0.14657687
2.140000000,0.78351158,0.77260232,0.77260232,0.77260232,0.77260232,-0.19975157,-0.17306088
2.150000000,0.77260089,0.76149309,0.76149309,0.76149309,0.76149309,-0.22636494,-0.19955488
2.160000000,0.76149273,0.75018382,0.75018382,0.75018382,0.75018382,-0.25343272,-0.22625886
2.170000000,0.75018203,0.73867458,0.73867458,0.73867458,0.73867458,-0.28033981,-0.25340271
2.180000000,0.73867399,0.72696531,0.72696531,0.72696531,0.72696531,-0.30775955,-0.28032663
2.190000000,0.72696573,0.715056,0.715056,0.715056,0.715056,-0.33530882,-0.30770046
2.200000000,0.7150563,0.70294678,0.70294678,0.70294678,0.70294678,-0.36295816,-0.3352842
2.210000000,0.70294827,0.69063759,0.69063759,0.69063759,0.69063759,-0.39098367,-0.36287796
2.220000000,0.69063795,0.6781283,0.6781283,0.6781283,0.6781283,-0.41894266,-0.39090163
2.230000000,0.67812794,0.6654191,0.6654191,0.6654191,0.6654191,-0.44712955,-0.4189353
2.240000000,0.66542137,0.65250987,0.65250987,0.65250987,0.65250987,-0.47588298,-0.44696897
2.250000000,0.6525088,0.63940066,0.63940066,0.63940066,0.63940066,-0.50412488,-0.47587243
2.260000000,0.6394015,0.62609142,0.62609142,0.62609142,0.62609142,-0.53321403,-0.50390607
2.270000000,0.62609261,0.61258215,0.61258215,0.61258215,0.61258215,-0.56222868,-0.53303951
2.280000000,0.61258161,0.59887284,0.59887284,0.59887284,0.59887284,-0.59126383,-0.56217289
2.290000000,0.59887099,0.58496362,0.58496362,0.58496362,0.58496362,-0.62046635,-0.59108639
2.300000000,0.58496273,0.57085443,0.57085443,0.57085443,0.57085443,-0.65005583,-0.62043971
2.310000000,0.57085305,0.55654508,0.55654508,0.55654508,0.55654508,-0.67965019,-0.65001309
2.320000000,0.55654472,0.54203588,0.54203588,0.54203588,0.54203588,-0.70958853,-0.67958641
2.330000000,0.54203862,0.52732664,0.52732664,0.52732664,0.52732664,-0.7400015,-0.70938957
2.340000000,0.52732778,0.51241738,0.51241738,0.51241738,0.51241738,-0.77012455,-0.73984271
2.350000000,0.51241636,0.49730816,0.49730816,0.49730816,0.49730816,-0.80040729,-0.77008593
2.360000000,0.49730742,0.48199886,0.48199886,0.48199886,0.48199886,-0.83107495,-0.80031908
2.370000000,0.48199943,0.46648961,0.46648961,0.46648961,0.46648961,-0.86199445,-0.83099216
2.380000000,0.46648908,0.45078039,0.45078039,0.45078039,0.45078039,-0.89285243,-0.86189514
2.390000000,0.45077908,0.43487117,0.43487117,0.43487117,0.43487117,-0.92393661,-0.89279819
2.400000000,0.43487144,0.41876194,0.41876194,0.41876194,0.41876194,-0.95543355,-0.92391109
2.410000000,0.41876355,0.40245271,0.40245271,0.40245271,0.40245271,-0.98711109,-0.95525408
2.420000000,0.40245232,0.38594338,0.38594338,0.38594338,0.38594338,-1.0186505,-0.98703688
2.430000000,0.38594383,0.36934713,0.36934713,0.36934713,0.36934713,-1.0387518,-1.0185997
2.440000000,0.36934811,0.35284814,0.35284814,0.35284814,0.35284814,-1.0424883,-1.0386852
2.450000000,0.35285804,0.33644915,0.33644915,0.33644915,0.33644915,-1.0512031,-1.0424343
2.460000000,0.33646345,0.32015017,0.32015017,0.32015017,0.32015017,-1.0585378,-1.0510423
2.470000000,0.32015607,0.30395117,0.30395117,0.30395117,0.30395117,-1.0649213,-1.0583308
2.480000000,0.30395022,0.28785211,0.28785211,0.28785211,0.28785211,-1.0712785,-1.0647293
2.490000000,0.28784436,0.27185312,0.27185312,0.27185312,0.27185312,-1.0771426,-1.0711279
2.500000000,0.27184409,0.25595415,0.25595415,0.25595415,0.25595415,-1.0832602,-1.0770864
2.510000000,0.25594652,0.24015515,0.24015515,0.24015515,0.24015515,-1.0893484,-1.0830451
2.520000000,0.24015082,0.22445616,0.22445616,0.22445616,0.22445616,-1.0955347,-1.0892237
2.530000000,0.22445367,0.20885718,0.20885718,0.20885718,0.20885718,-1.1015083,-1.0954024
2.540000000,0.20885664,0.19335818,0.19335818,0.19335818,0.19335818,-1.1075008,-1.101361
2.550000000,0.19335957,0.17795911,0.17795911,0.17795911,0.17795911,-1.1134713,-1.1073197
2.560000000,0.17796022,0.16266012,0.16266012,0.16266012,0.16266012,-1.1191566,-1.1132784
2.570000000,0.16266108,0.14746115,0.14746115,0.14746115,0.14746115,-1.1248245,-1.119017
2.580000000,0.14746077,0.13236216,0.13236216,0.13236216,0.13236216,-1.1302401,-1.1247557
2.590000000,0.13236284,0.11736316,0.11736316,0.11736316,0.11736316,-1.1358335,-1.1300545
2.600000000,0.11736234,0.10246418,0.10246418,0.10246418,0.10246418,-1.1410025,-1.1357932
2.610000000,0.10246434,0.087665014,0.087665014,0.087665014,0.087665014,-1.1464123,-1.1408721
2.620000000,0.087664917,0.072966032,0.072966032,0.072966032,0.072966032,-1.151502,-1.1463908
2.630000000,0.072964452,0.058367044,0.058367044,0.058367044,0.058367044,-1.1564084,-1.1514697
2.640000000,0.058367491,0.043868057,0.043868057,0.043868057,0.043868057,-1.1615928,-1.1563187
2.650000000,0.043870103,0.029469071,0.029469071,0.029469071,0.029469071,-1.1666484,-1.1613975
2.660000000,0.02947042,0.015170083,0.015170083,0.015170083,0.015170083,-1.1714431,-1.1664762
2.670000000,0.015170965,0.00097109622,0.00097109622,0.00097109622,0.00097109622,-1.1762015,-1.1713252
2.680000000,0.00096922205,-0.013127891,-0.013127891,-0.013127891,-0.013127891,-1.1805499,-1.1761842
2.690000000,-0.013128363,-0.027126878,-0.027126878,-0.027126878,-0.027126878,-1.1852472,-1.1803832
2.700000000,-0.027127702,-0.041025866,-0.041025866,-0.041025866,-0.041025866,-1.1895822,-1.185232
2.710000000,-0.04102692,-0.054824855,-0.054824855,-0.054824855,-0.054824855,-1.1938818,-1.1894311
2.720000000,-0.054823909,-0.068523839,-0.068523839,-0.068523839,-0.068523839,-1.1983315,-1.1938401
2.730000000,-0.068524569,-0.082122833,-0.082122833,-0.082122833,-0.082122833,-1.2022789,-1.1982591
2.740000000,-0.082122609,-0.095621817,-0.095621817,-0.095621817,-0.095621817,-1.2064759,-1.2022282
2.750000000,-0.095620945,-0.10902081,-0.10902081,-0.10902081,-0.10902081,-1.2105086,-1.2064173
2.760000000,-0.10902043,-0.1223198,-0.1223198,-0.1223198,-0.1223198,-1.2143692,-1.2103964
2.770000000,-0.1223198,-0.13551879,-0.13551879,-0.13551879,-0.13551879,-1.2181525,-1.2143655
2.780000000,-0.13552035,-0.14861777,-0.14861777,-0.14861777,-0.14861777,-1.2216693,-1.2181246
2.790000000,-0.14861739,-0.16161676,-0.16161676,-0.16161676,-0.16161676,-1.2254835,-1.2216538
2.800000000,-0.16161598,-0.1745159,-0.1745159,-0.1745159,-0.1745159,-1.2290314,-1.225403
2.810000000,-0.17451449,-0.1873149,-0.1873149,-0.1873149,-0.1873149,-1.2325641,-1.2289323
2.820000000,-0.18731526,-0.20001388,-0.20001388,-0.20001388,-0.20001388,-1.2357454,-1.2324615
2.830000000,-0.20001242,-0.21261287,-0.21261287,-0.21261287,-0.21261287,-1.2392646,-1.2355607
2.840000000,-0.21261224,-0.22511186,-0.22511186,-0.22511186,-0.22511186,-1.2423575,-1.2390898
2.850000000,-0.22511184,-0.23751085,-0.23751085,-0.23751085,-0.23751085,-1.2454391,-1.2421792
2.860000000,-0.23751149,-0.24980985,-0.24980985,-0.24980985,-0.24980985,-1.2483718,-1.2452685
2.870000000,-0.24981226,-0.26200882,-0.26200882,-0.26200882,-0.26200882,-1.2510372,-1.2483578
2.880000000,-0.26201183,-0.27410781,-0.27410781,-0.27410781,-0.27410781,-1.2536855,-1.2510072
2.890000000,-0.27410811,-0.28610694,-0.28610694,-0.28610694,-0.28610694,-1.2565815,-1.2536566
2.900000000,-0.28610599,-0.29800594,-0.29800594,-0.29800594,-0.29800594,-1.2592227,-1.256526
2.910000000,-0.2980049,-0.30980492,-0.30980492,-0.30980492,-0.30980492,-1.2617589,-1.2591754
2.920000000,-0.30980369,-0.32150391,-0.32150391,-0.32150391,-0.32150391,-1.2642409,-1.2615948
2.930000000,-0.32150134,-0.33310291,-0.33310291,-0.33310291,-0.33310291,-1.2667961,-1.2640243
2.940000000,-0.33310258,-0.3446019,-0.3446019,-0.3446019,-0.3446019,-1.2688649,-1.2666737
2.950000000,-0.34460121,-0.3560009,-0.3560009,-0.3560009,-0.3560009,-1.2711647,-1.2686633
2.960000000,-0.35600236,-0.36729988,-0.36729988,-0.36729988,-0.36729988,-1.2729952,-1.2710927
2.970000000,-0.36730218,-0.37849888,-0.37849888,-0.37849888,-0.37849888,-1.2748688,-1.2728523
2.980000000,-0.37850097,-0.38959786,-0.38959786,-0.38959786,-0.38959786,-1.2766691,-1.2748419
2.990000000,-0.38959771,-0.40059686,-0.40059686,-0.40059686,-0.40059686,-1.2786162,-1.2766113
3.000000000,-0.40059698,-0.41149583,-0.41149583,-0.41149583,-0.41149583,-1.2802079,-1.278591
3.010000000,-0.41149601,-0.42229483,-0.42229483,-0.42229483,-0.42229483,-1.2817906,-1.2801406
3.020000000,-0.4222928,-0.43299395,-0.43299395,-0.43299395,-0.43299395,-1.2835556,-1.2816803
3.030000000,-0.43299216,-0.44359294,-0.44359294,-0.44359294,-0.44359294,-1.2849633,-1.2834499
3.040000000,-0.4435924,-0.45409194,-0.45409194,-0.45409194,-0.45409194,-1.2862475,-1.2847697
3.050000000,-0.45409143,-0.46449092,-0.46449092,-0.46449092,-0.46449092,-1.2875421,-1.2860992
3.060000000,-0.46449172,-0.47478992,-0.47478992,-0.47478992,-0.47478992,-1.288564,-1.2874188
3.070000000,-0.47479081,-0.4849889,-0.4849889,-0.4849889,-0.4849889,-1.2896132,-1.2885287
3.080000000,-0.4849889,-0.49508789,-0.49508789,-0.49508789,-0.49508789,-1.2906511,-1.2894084
3.090000000,-0.49508828,-0.5050869,-0.5050869,-0.5050869,-0.5050869,-1.2914605,-1.2905083
3.100000000,-0.50508755,-0.51498586,-0.51498586,-0.51498586,-0.51498586,-1.292197,-1.291398
3.110000000,-0.51498687,-0.52478486,-0.52478486,-0.52478486,-0.52478486,-1.2928116,-1.292058
3.120000000,-0.52478397,-0.53448385,-0.53448385,-0.53448385,-0.53448385,-1.2935917,-1.2927177
3.130000000,-0.53448242,-0.54408288,-0.54408288,-0.54408288,-0.54408288,-1.2941583,-1.2933776
3.140000000,-0.54408306,-0.55358195,-0.55358195,-0.55358195,-0.55358195,-1.2944403,-1.2940476
3.150000000,-0.55358237,-0.56298095,-0.56298095,-0.56298095,-0.56298095,-1.2947553,-1.2942674
3.160000000,-0.56298184,-0.57227993,-0.57227993,-0.57227993,-0.57227993,-1.2949036,-1.2947073
3.170000000,-0.57227898,-0.58147895,-0.58147895,-0.58147895,-0.58147895,-1.2952446,-1.2947073
3.180000000,-0.58147991,-0.5905779,-0.5905779,-0.5905779,-0.5905779,-1.2950401,-1.2951472
3.190000000,-0.5905782,-0.59957689,-0.59957689,-0.59957689,-0.59957689,-1.2950871,-1.2949274
3.200000000,-0.59957558,-0.60847592,-0.60847592,-0.60847592,-0.60847592,-1.2951051,-1.2949274
3.210000000,-0.60847545,-0.61727488,-0.61727488,-0.61727488,-0.61727488,-1.2947949,-1.2949274
3.220000000,-0.61727619,-0.62597388,-0.62597388,-0.62597388,-0.62597388,-1.2943083,-1.2947073
3.230000000,-0.62597454,-0.63457286,-0.63457286,-0.63457286,-0.63457286,-1.2939442,-1.2942674
3.240000000,-0.63457316,-0.64307189,-0.64307189,-0.64307189,-0.64307189,-1.2934266,-1.2938175
3.250000000,-0.64307189,-0.6514709,-0.6514709,-0.6514709,-0.6514709,-1.2928345,-1.2933776
3.260000000,-0.6514706,-0.65976989,-0.65976989,-0.65976989,-0.65976989,-1.2921621,-1.2927177
3.270000000,-0.65976936,-0.66796899,-0.66796899,-0.66796899,-0.66796899,-1.29142,-1.292058
3.280000000,-0.66796923,-0.67606795,-0.67606795,-0.67606795,-0.67606795,-1.2904465,-1.291398
3.290000000,-0.67606682,-0.68406695,-0.68406695,-0.68406695,-0.68406695,-1.2896656,-1.2902882
3.300000000,-0.68406683,-0.69196594,-0.69196594,-0.69196594,-0.69196594,-1.2884974,-1.2896285
3.310000000,-0.69196558,-0.69976491,-0.69976491,-0.69976491,-0.69976491,-1.2874223,-1.2883089
3.320000000,-0.69976556,-0.70746392,-0.70746392,-0.70746392,-0.70746392,-1.2860719,-1.2874188
3.330000000,-0.70746326,-0.71506292,-0.71506292,-0.71506292,-0.71506292,-1.2849048,-1.2858794
3.340000000,-0.71506345,-0.7225619,-0.7225619,-0.7225619,-0.7225619,-1.2833341,-1.2847697
3.350000000,-0.72256225,-0.72996092,-0.72996092,-0.72996092,-0.72996092,-1.2818635,-1.2832298
3.360000000,-0.72996014,-0.73725992,-0.73725992,-0.73725992,-0.73725992,-1.280371,-1.2816803
3.370000000,-0.73726153,-0.74445891,-0.74445891,-0.74445891,-0.74445891,-1.2783915,-1.2803605
3.380000000,-0.74446034,-0.75155789,-0.75155789,-0.75155789,-0.75155789,-1.2766012,-1.2783711
3.390000000,-0.75155598,-0.75855696,-0.75855696,-0.75855696,-0.75855696,-1.2750505,-1.2763915
3.400000000,-0.75855553,-0.76545596,-0.76545596,-0.76545596,-0.76545596,-1.2730206,-1.2748419
3.410000000,-0.76545465,-0.77225494,-0.77225494,-0.77225494,-0.77225494,-1.2710468,-1.2728523
3.420000000,-0.77225488,-0.77895397,-0.77895397,-0.77895397,-0.77895397,-1.2688168,-1.2708726
3.430000000,-0.77895617,-0.78555292,-0.78555292,-0.78555292,-0.78555292,-1.2663311,-1.2686633
3.440000000,-0.78555399,-0.79205191,-0.79205191,-0.79205191,-0.79205191,-1.264091,-1.2662338
3.450000000,-0.79205334,-0.79845095,-0.79845095,-0.79845095,-0.79845095,-1.2615266,-1.2640243
3.460000000,-0.79845035,-0.80474991,-0.80474991,-0.80474991,-0.80474991,-1.2591835,-1.2613748
3.470000000,-0.80474991,-0.81094891,-0.81094891,-0.81094891,-0.81094891,-1.2564614,-1.2591754
3.480000000,-0.81094807,-0.81704789,-0.81704789,-0.81704789,-0.81704789,-1.253867,-1.2563061
3.490000000,-0.81704646,-0.82304692,-0.82304692,-0.82304692,-0.82304692,-1.2511556,-1.2536566
3.500000000,-0.82304591,-0.82894593,-0.82894593,-0.82894593,-0.82894593,-1.2482755,-1.2510072
3.510000000,-0.82894647,-0.83474493,-0.83474493,-0.83474493,-0.83474493,-1.2451717,-1.2481378
3.520000000,-0.83474576,-0.84044397,-0.84044397,-0.84044397,-0.84044397,-1.2420869,-1.2450485
3.530000000,-0.84044409,-0.84604299,-0.84604299,-0.84604299,-0.84604299,-1.2389771,-1.2419592
3.540000000,-0.84604371,-0.85154194,-0.85154194,-0.85154194,-0.85154194,-1.2356211,-1.2388699
3.550000000,-0.85154319,-0.85694098,-0.85694098,-0.85694098,-0.85694098,-1.2321986,-1.2355508
3.560000000,-0.85694051,-0.86223996,-0.86223996,-0.86223996,-0.86223996,-1.2289017,-1.2320215
3.570000000,-0.86223799,-0.86743897,-0.86743897,-0.86743897,-0.86743897,-1.2255369,-1.2287122
3.580000000,-0.86743897,-0.87253797,-0.87253797,-0.87253797,-0.87253797,-1.2217342,-1.225403
3.590000000,-0.87253851,-0.87753689,-0.87753689,-0.87753689,-0.87753689,-1.2180018,-1.2216538
3.600000000,-0.87753814,-0.88243598,-0.88243598,-0.88243598,-0.88243598,-1.214102,-1.2178947
3.610000000,-0.8824355,-0.88723487,-0.88723487,-0.88723487,-0.88723487,-1.2103487,-1.2139256
3.620000000,-0.88723439,-0.89193398,-0.89193398,-0.89193398,-0.89193398,-1.2063636,-1.2101765
3.630000000,-0.89193302,-0.89653289,-0.89653289,-0.89653289,-0.89653289,-1.2023469,-1.2061973
3.640000000,-0.89653295,-0.90103197,-0.90103197,-0.90103197,-0.90103197,-1.1981093,-1.2022282
3.650000000,-0.90103275,-0.90543097,-0.90543097,-0.90543097,-0.90543097,-1.1937722,-1.1980392
3.660000000,-0.90543139,-0.90972996,-0.90972996,-0.90972996,-0.90972996,-1.1894398,-1.1936202
3.670000000,-0.90973133,-0.91392899,-0.91392899,-0.91392899,-0.91392899,-1.1848429,-1.1894311
3.680000000,-0.91393006,-0.91802794,-0.91802794,-0.91802794,-0.91802794,-1.1802768,-1.1847922
3.690000000,-0.91802675,-0.92202693,-0.92202693,-0.92202693,-0.92202693,-1.1758509,-1.1801531
3.700000000,-0.92202586,-0.92592597,-0.92592597,-0.92592597,-0.92592597,-1.1711059,-1.1757443
3.710000000,-0.92592484,-0.92972493,-0.92972493,-0.92972493,-0.92972493,-1.1663475,-1.1708853
3.720000000,-0.9297238,-0.93342394,-0.93342394,-0.93342394,-0.93342394,-1.161501,-1.1662564
3.730000000,-0.93342501,-0.93702292,-0.93702292,-0.93702292,-0.93702292,-1.1562908,-1.1613975
3.740000000,-0.93702269,-0.94052196,-0.94052196,-0.94052196,-0.94052196,-1.1513823,-1.1560986
3.750000000,-0.94052184,-0.94392097,-0.94392097,-0.94392097,-0.94392097,-1.1461639,-1.1512498
3.760000000,-0.94392091,-0.94721997,-0.94721997,-0.94721997,-0.94721997,-1.1409138,-1.1459509
3.770000000,-0.94722116,-0.95041901,-0.95041901,-0.95041901,-0.95041901,-1.1354086,-1.1408721
3.780000000,-0.9504202,-0.95351791,-0.95351791,-0.95351791,-0.95351791,-1.1299121,-1.1353533
3.790000000,-0.95351815,-0.95651704,-0.95651704,-0.95651704,-0.95651704,-1.1244403,-1.1298345
3.800000000,-0.95651752,-0.95941591,-0.95941591,-0.95941591,-0.95941591,-1.1186918,-1.1243159
3.810000000,-0.95941442,-0.96221501,-0.96221501,-0.96221501,-0.96221501,-1.1132116,-1.1185771
3.820000000,-0.96221513,-0.96491396,-0.96491396,-0.96491396,-0.96491396,-1.1071779,-1.1130584
3.830000000,-0.96491307,-0.96751302,-0.96751302,-0.96751302,-0.96751302,-1.1014452,-1.1070998
3.840000000,-0.96751368,-0.97001195,-0.97001195,-0.97001195,-0.97001195,-1.0952331,-1.101361
3.850000000,-0.97001278,-0.97241098,-0.97241098,-0.97241098,-0.97241098,-1.089139,-1.0951824
3.860000000,-0.9724099,-0.97470993,-0.97470993,-0.97470993,-0.97470993,-1.0831244,-1.0890038
3.870000000,-0.97470951,-0.97690898,-0.97690898,-0.97690898,-0.97690898,-1.0767819,-1.0830451
3.880000000,-0.97690892,-0.97900796,-0.97900796,-0.97900796,-0.97900796,-1.0703996,-1.0766466
3.890000000,-0.97900724,-0.98100698,-0.98100698,-0.98100698,-0.98100698,-1.0640358,-1.070248
3.900000000,-0.9810068,-0.98290592,-0.98290592,-0.98290592,-0.98290592,-1.0574319,-1.0638494
3.910000000,-0.98290521,-0.98470497,-0.98470497,-0.98470497,-0.98470497,-1.0509048,-1.0572209
3.920000000,-0.98470592,-0.98640394,-0.98640394,-0.98640394,-0.98640394,-1.0439807,-1.0508225
3.930000000,-0.98640424,-0.98800296,-0.98800296,-0.98800296,-0.98800296,-1.0372516,-1.0437641
3.940000000,-0.98800391,-0.98950195,-0.98950195,-0.98950195,-0.98950195,-1.0302134,-1.0371356
3.950000000,-0.98950243,-0.99090099,-0.99090099,-0.99090099,-0.99090099,-1.0232427,-1.0300771
3.960000000,-0.99090326,-0.99219996,-0.99219996,-0.99219996,-0.99219996,-1.0158565,-1.0232387
3.970000000,-0.99219936,-0.99339896,-0.99339896,-0.99339896,-0.99339896,-1.0089415,-1.0157304
3.980000000,-0.99339837,-0.99449795,-0.99449795,-0.99449795,-0.99449795,-1.0015773,-1.0088919
3.990000000,-0.99449706,-0.99549699,-0.99549699,-0.99549699,-0.99549699,-0.99426723,-1.0013835
4.000000000,-0.9954946,-0.99639595,-0.99639595,-0.99639595,-0.99639595,-0.9869951,-0.99410528
4.010000000,-0.99639577,-0.99719501,-0.99719501,-0.99719501,-0.99719501,-0.97925788,-0.98681688
4.020000000,-0.99719435,-0.99789399,-0.99789399,-0.99789399,-0.99789399,-0.97173506,-0.97908866
4.030000000,-0.99789536,-0.99849296,-0.99849296,-0.99849296,-0.99849296,-0.96376252,-0.97159034
4.040000000,-0.99849391,-0.99899197,-0.99899197,-0.99899197,-0.99899197,-0.95598286,-0.96364212
4.050000000,-0.99899399,-0.99939096,-0.99939096,-0.99939096,-0.99939096,-0.94785011,-0.9559139
4.060000000,-0.99939156,-0.99969,-0.99969,-0.99969,-0.99969,-0.93993396,-0.94775569
4.070000000,-0.99968839,-0.99988902,-0.99988902,-0.99988902,-0.99988902,-0.9320057,-0.93980753
4.080000000,-0.99988866,-0.99998802,-0.99998802,-0.99998802,-0.99998802,-0.92366397,-0.93185931
4.090000000,-0.99998641,-1,-1,-1,-1,-0.91694492,-0.92347121
4.100000000,-1.0000002,0,0,0,0,-0.91732413,-0.91685271
4.110000000,-1.0000038,0,0,0,0,-0.9171741,-0.91707265
4.120000000,-1.0000075,0,0,0,0,-0.91672415,-0.91682279
4.130000000,-1.0000036,0,0,0,0,-0.91597414,-0.91615289
4.140000000,-0.99999154,0,0,0,0,-0.91492414,-0.91518313
4.150000000,-0.99996477,0,0,0,0,-0.9135741,-0.91397339
4.160000000,-0.99992168,0,0,0,0,-0.91192412,-0.91242373
4.170000000,-0.99985921,0,0,0,0,-0.9099741,-0.9105342
4.180000000,-0.999771,0,0,0,0,-0.90772414,-0.90832466
4.190000000,-0.99965668,0,0,0,0,-0.90517414,-0.9059152
4.200000000,-0.99951291,0,0,0,0,-0.90232414,-0.90321577
4.210000000,-0.99933457,0,0,0,0,-0.89917415,-0.90014648
4.220000000,-0.99911994,0,0,0,0,-0.89572412,-0.89683723
4.230000000,-0.99886483,0,0,0,0,-0.89197415,-0.89315808
4.240000000,-0.9985674,0,0,0,0,-0.88792413,-0.88920897
4.250000000,-0.99822468,0,0,0,0,-0.88357413,-0.88500988
4.260000000,-0.99783236,0,0,0,0,-0.87892413,-0.88038093
4.270000000,-0.99738663,0,0,0,0,-0.87397414,-0.8755421
4.280000000,-0.99688673,0,0,0,0,-0.86872411,-0.87041324
4.290000000,-0.99632722,0,0,0,0,-0.86317414,-0.86499447
4.300000000,-0.99570763,0,0,0,0,-0.85732412,-0.85925579
4.310000000,-0.99502343,0,0,0,0,-0.85117412,-0.85312718
4.320000000,-0.99427193,0,0,0,0,-0.84472412,-0.84688854
4.330000000,-0.99345237,0,0,0,0,-0.83797413,-0.84017009
4.340000000,-0.99255794,0,0,0,0,-0.83092415,-0.83322167
4.350000000,-0.99158961,0,0,0,0,-0.82357413,-0.82596326
4.360000000,-0.99054164,0,0,0,0,-0.81592411,-0.81842494
4.370000000,-0.98941463,0,0,0,0,-0.8079741,-0.81055677
4.380000000,-0.98820192,0,0,0,0,-0.7997241,-0.80240858
4.390000000,-0.98690426,0,0,0,0,-0.79117411,-0.79402053
4.400000000,-0.98551708,0,0,0,0,-0.78232414,-0.78519249
4.410000000,-0.98403859,0,0,0,0,-0.77317411,-0.77614456
4.420000000,-0.9824658,0,0,0,0,-0.76372409,-0.76683664
4.430000000,-0.98079681,0,0,0,0,-0.75397414,-0.75714886
4.440000000,-0.97902727,0,0,0,0,-0.74392414,-0.74722111
4.450000000,-0.97715777,0,0,0,0,-0.73357409,-0.7369734
4.460000000,-0.97518265,0,0,0,0,-0.72292411,-0.72637582
4.470000000,-0.9731015,0,0,0,0,-0.71197414,-0.71552825
4.480000000,-0.97091198,0,0,0,0,-0.70072412,-0.70450073
4.490000000,-0.96861005,0,0,0,0,-0.68917412,-0.69298333
4.500000000,-0.96619505,0,0,0,0,-0.67732412,-0.68119597
4.510000000,-0.96366256,0,0,0,0,-0.66517407,-0.66916877
4.520000000,-0.96101308,0,0,0,0,-0.65272409,-0.65681154
4.530000000,-0.95824206,0,0,0,0,-0.63997412,-0.64413434
4.540000000,-0.95534903,0,0,0,0,-0.6269241,-0.6313073
4.550000000,-0.95233053,0,0,0,0,-0.61357409,-0.61806029
4.560000000,-0.94918489,0,0,0,0,-0.59992409,-0.60439336
4.570000000,-0.9459089,0,0,0,0,-0.58597416,-0.59056652
4.580000000,-0.94250065,0,0,0,0,-0.57172412,-0.57643968
4.590000000,-0.93895936,0,0,0,0,-0.55717409,-0.56198293
4.600000000,-0.93528163,0,0,0,0,-0.54232413,-0.54727626
4.610000000,-0.93146688,0,0,0,0,-0.52717412,-0.53226966
4.620000000,-0.92751062,0,0,0,0,-0.51172405,-0.51683319
4.630000000,-0.92341346,0,0,0,0,-0.49597406,-0.5011667
4.640000000,-0.91917074,0,0,0,0,-0.47992408,-0.48524028
4.650000000,-0.91478193,0,0,0,0,-0.46357411,-0.46904397
4.660000000,-0.91024494,0,0,0,0,-0.44692412,-0.45248771
4.670000000,-0.90555775,0,0,0,0,-0.42997414,-0.4356015
4.680000000,-0.9007194,0,0,0,0,-0.41272405,-0.4184854
4.690000000,-0.89572561,0,0,0,0,-0.39517406,-0.40104932
4.700000000,-0.89057684,0,0,0,0,-0.37732407,-0.38319337
4.710000000,-0.88526976,0,0,0,0,-0.3591741,-0.36525741
4.720000000,-0.87980354,0,0,0,0,-0.34072411,-0.34685159
4.730000000,-0.87417507,0,0,0,0,-0.32197413,-0.32819581
4.740000000,-0.86838341,0,0,0,0,-0.30292416,-0.30929008
4.750000000,-0.86242664,0,0,0,0,-0.28357404,-0.29001445
4.760000000,-0.85630369,0,0,0,0,-0.26392406,-0.27046886
4.770000000,-0.85001028,0,0,0,0,-0.24397409,-0.25060335
4.780000000,-0.84354812,0,0,0,0,-0.22372411,-0.2304879
4.790000000,-0.83691347,0,0,0,0,-0.20317413,-0.21001253
4.800000000,-0.83010477,0,0,0,0,-0.18232416,-0.18923722
4.810000000,-0.82312095,0,0,0,0,-0.16117404,-0.16826196
4.820000000,-0.81595868,0,0,0,0,-0.13972406,-0.1468568
4.830000000,-0.80861855,0,0,0,0,-0.11797409,-0.1252217
4.840000000,-0.80109823,0,0,0,0,-0.095924102,-0.10325666
4.850000000,-0.79339677,0,0,0,0,-0.073574126,-0.080981694
4.860000000,-0.78550988,0,0,0,0,-0.050924148,-0.058466785
4.870000000,-0.77743918,0,0,0,0,-0.027974032,-0.035591953
4.880000000,-0.76918107,0,0,0,0,-0.0047240532,-0.012527168
4.890000000,-0.76073498,0,0,0,0,0.018825926,0.010957982
4.900000000,-0.75209862,0,0,0,0,0.042675901,0.034703612
4.910000000,-0.74327117,0,0,0,0,0.066825882,0.058689196
4.920000000,-0.73425162,0,0,0,0,0.091049813,0.083134696
4.930000000,-0.72504246,0,0,0,0,0.11462753,0.10688032
4.940000000,-0.71565461,0,0,0,0,0.13750511,0.13001607
4.950000000,-0.70609921,0,0,0,0,0.15968269,0.15233195
4.960000000,-0.69638622,0,0,0,0,0.18116027,0.17413795
4.970000000,-0.68652552,0,0,0,0,0.20193785,0.19513407
4.980000000,-0.67652601,0,0,0,0,0.22201544,0.21551034
4.990000000,-0.66640013,0,0,0,0,0.24139303,0.23505673
5.000000000,-0.65615535,0,0,0,0,0.26007074,0.25399324
5.010000000,-0.6458019,0,0,0,0,0.27804831,0.2721099
5.020000000,-0.63535082,0,0,0,0,0.29532591,0.28973666
5.030000000,-0.62480873,0,0,0,0,0.31190348,0.30653358
5.040000000,-0.61418712,0,0,0,0,0.32778108,0.3226406
5.050000000,-0.6034947,0,0,0,0,0.34295866,0.33798778
5.060000000,-0.59274036,0,0,0,0,0.35743633,0.35274506
5.070000000,-0.58193332,0,0,0,0,0.37121394,0.36674249
5.080000000,-0.57108247,0,0,0,0,0.38429153,0.38000005
5.090000000,-0.5601967,0,0,0,0,0.39666912,0.3926577
5.100000000,-0.54928625,0,0,0,0,0.40834671,0.40456551
5.110000000,-0.53835666,0,0,0,0,0.41932431,0.41582346
5.120000000,-0.52741832,0,0,0,0,0.42960191,0.42629153
5.130000000,-0.51647907,0,0,0,0,0.43917948,0.43618971
5.140000000,-0.50554794,0,0,0,0,0.44805709,0.44525802
5.150000000,-0.49463284,0,0,0,0,0.45623478,0.45366648
5.160000000,-0.48374295,0,0,0,0,0.46371236,0.46135509
5.170000000,-0.47288492,0,0,0,0,0.47048998,0.46829379
5.180000000,-0.46206692,0,0,0,0,0.47656757,0.47471261
5.190000000,-0.45129809,0,0,0,0,0.48194516,0.48030156
5.200000000,-0.44058403,0,0,0,0,0.48662275,0.48514068
5.210000000,-0.42993525,0,0,0,0,0.49060035,0.4894399
5.220000000,-0.41935837,0,0,0,0,0.49387795,0.49296921
5.230000000,-0.40885809,0,0,0,0,0.49645555,0.4958187
5.240000000,-0.39844623,0,0,0,0,0.49833316,0.49782836
5.250000000,-0.38812813,0,0,0,0,0.49951077,0.49933806
5.260000000,-0.37791091,0,0,0,0,0.49998838,0.50007796
5.270000000,-0.36780271,0,0,0,0,0.54579651,0.50009793
5.280000000,-0.35736188,0,0,0,0,0.55950862,0.54599947
5.290000000,-0.34677923,0,0,0,0,0.57866579,0.55968696
5.300000000,-0.33611089,0,0,0,0,0.59804326,0.57866347
5.310000000,-0.32532716,0,0,0,0,0.61652988,0.59808987
5.320000000,-0.31443721,0,0,0,0,0.63526964,0.6166265
5.330000000,-0.30344254,0,0,0,0,0.65508324,0.63539302
5.340000000,-0.292335,0,0,0,0,0.67484647,0.65524936
5.350000000,-0.28111321,0,0,0,0,0.69529259,0.6748957
5.360000000,-0.26977071,0,0,0,0,0.71574837,0.69542199
5.370000000,-0.2583071,0,0,0,0,0.73652911,0.71594822
5.380000000,-0.2467214,0,0,0,0,0.75761068,0.7366944
5.390000000,-0.23501259,0,0,0,0,0.77734804,0.75766051
5.400000000,-0.22319324,0,0,0,0,0.80070561,0.77752686
5.410000000,-0.21123144,0,0,0,0,0.81895715,0.80092257
5.420000000,-0.19917133,0,0,0,0,0.84135413,0.8190192
5.430000000,-0.18698566,0,0,0,0,0.86283302,0.84153509
5.440000000,-0.17467473,0,0,0,0,0.88416815,0.86294115
5.450000000,-0.16224228,0,0,0,0,0.90570867,0.8843472
5.460000000,-0.14969122,0,0,0,0,0.92643946,0.90575325
5.470000000,-0.13702796,0,0,0,0,0.9488458,0.92649943
5.480000000,-0.12423819,0,0,0,0,0.97024107,0.94901532
5.490000000,-0.11133024,0,0,0,0,0.99201804,0.97042137
5.500000000,-0.098306693,0,0,0,0,1.0146062,0.99205738
5.510000000,-0.085159287,0,0,0,0,1.0365028,1.0144233
5.520000000,-0.071892299,0,0,0,0,1.059603,1.0363792
5.530000000,-0.058498558,0,0,0,0,1.0810992,1.059415
5.540000000,-0.044990148,0,0,0,0,1.1037372,1.0809411
5.550000000,-0.031363521,0,0,0,0,1.1260746,1.1035368
5.560000000,-0.017617788,0,0,0,0,1.1493943,1.1259227
5.570000000,-0.0037440513,0,0,0,0,1.1711117,1.1493884
5.580000000,0.010239268,0,0,0,0,1.1947789,1.1709144
5.590000000,0.024346737,0,0,0,0,1.2174073,1.1945901
5.600000000,0.038572688,0,0,0,0,1.2412921,1.2171959
5.610000000,0.052925501,0,0,0,0,1.2635523,1.2410915
5.620000000,0.067391858,0,0,0,0,1.2878087,1.2634773
5.630000000,0.081985585,0,0,0,0,1.3101618,1.2878029
5.640000000,0.096689478,0,0,0,0,1.3336961,1.3099688
5.650000000,0.1115121,0,0,0,0,1.357753,1.3336545
5.660000000,0.12645608,0,0,0,0,1.3820403,1.35754
5.670000000,0.1415278,0,0,0,0,1.405903,1.3818656
5.680000000,0.1567197,0,0,0,0,1.4292266,1.4057612
5.690000000,0.17202692,0,0,0,0,1.4542344,1.4292269
5.700000000,0.18746139,0,0,0,0,1.4774063,1.4541923
5.710000000,0.20300712,0,0,0,0,1.501758,1.4772282
5.720000000,0.21866924,0,0,0,0,1.5266412,1.5015535
5.730000000,0.23445632,0,0,0,0,1.5517632,1.5265189
5.740000000,0.2503719,0,0,0,0,1.5756071,1.5517044
5.750000000,0.26640075,0,0,0,0,1.5996528,1.5755999
5.760000000,0.28254005,0,0,0,0,1.6259029,1.5994955
5.770000000,0.29881063,0,0,0,0,1.6496174,1.6257607
5.780000000,0.31519213,0,0,0,0,1.6756241,1.6494364
5.790000000,0.33169901,0,0,0,0,1.7013663,1.6754816
5.800000000,0.34833547,0,0,0,0,1.7259866,1.7013168
5.810000000,0.36508623,0,0,0,0,1.7516545,1.7258524
5.820000000,0.38195524,0,0,0,0,1.7762343,1.7514676
5.830000000,0.39893875,0,0,0,0,1.8025559,1.7762231
5.840000000,0.41604519,0,0,0,0,1.8278515,1.8024881
5.850000000,0.43326905,0,0,0,0,1.8544004,1.8276734
5.860000000,0.45061877,0,0,0,0,1.8801807,1.8543587
5.870000000,0.46808782,0,0,0,0,1.906351,1.8799739
5.880000000,0.48567685,0,0,0,0,1.9325484,1.906239
5.890000000,0.50338805,0,0,0,0,1.9580078,1.9325042
5.900000000,0.52121001,0,0,0,0,1.9803228,1.9578996
5.910000000,0.53911102,0,0,0,0,1.9730504,1.9802855
5.920000000,0.5567947,0,0,0,0,1.9704216,1.9729668
5.930000000,0.57423091,0,0,0,0,1.9683686,1.9703872
5.940000000,0.59145212,0,0,0,0,1.9635526,1.9682376
5.950000000,0.60843384,0,0,0,0,1.9592044,1.9634986
5.960000000,0.62517649,0,0,0,0,1.9532465,1.9591893
5.970000000,0.64166772,0,0,0,0,1.9483806,1.9531704
5.980000000,0.65791583,0,0,0,0,1.9426391,1.9482113
5.990000000,0.67392117,0,0,0,0,1.9375137,1.9426224
6.000000000,0.68968922,0,0,0,0,1.9312006,1.9374533
6.010000000,0.70521033,0,0,0,0,1.9265512,1.9309945
6.020000000,0.72050238,0,0,0,0,1.9208759,1.9264753
6.030000000,0.73556131,0,0,0,0,1.9130342,1.9206665
6.040000000,0.75036699,0,0,0,0,1.9083494,1.9129179
6.050000000,0.76494664,0,0,0,0,1.8995442,1.9081788
6.060000000,0.77927125,0,0,0,0,1.8935562,1.8993503
6.070000000,0.79336214,0,0,0,0,1.8857836,1.8935413
6.080000000,0.80720913,0,0,0,0,1.8798687,1.8855728
6.090000000,0.82082897,0,0,0,0,1.8703233,1.8797638
6.100000000,0.83419627,0,0,0,0,1.8634868,1.8702958
6.110000000,0.84732711,0,0,0,0,1.8548859,1.8634069
6.120000000,0.86021787,0,0,0,0,1.8464518,1.8547885
6.130000000,0.8728652,0,0,0,0,1.8384511,1.8464
6.140000000,0.88527763,0,0,0,0,1.8294528,1.8384315
6.150000000,0.89744949,0,0,0,0,1.8204062,1.8293931
6.160000000,0.9093793,0,0,0,0,1.8110414,1.8203549
6.170000000,0.92106599,0,0,0,0,1.8031225,1.8108766
6.180000000,0.93252671,0,0,0,0,1.7917018,1.802918
6.190000000,0.94373465,0,0,0,0,1.7829541,1.7915101
6.200000000,0.95470846,0,0,0,0,1.7716089,1.7828918
6.210000000,0.96543396,0,0,0,0,1.7620002,1.7714839
6.220000000,0.97592157,0,0,0,0,1.7526505,1.7618058
6.230000000,0.98618269,0,0,0,0,1.7401551,1.7525473
6.240000000,0.99619097,0,0,0,0,1.7293634,1.7400597
6.250000000,1.0059551,0,0,0,0,1.7193079,1.7293017
6.260000000,1.0154911,0,0,0,0,1.7067301,1.7191834
6.270000000,1.0247792,0,0,0,0,1.6959933,1.7066958
6.280000000,1.0338326,0,0,0,0,1.6829429,1.6959279
6.290000000,1.0426365,0,0,0,0,1.6724319,1.6828002
6.300000000,1.0512096,0,0,0,0,1.6597489,1.6722522
6.310000000,1.0595452,0,0,0,0,1.6474365,1.6595545
6.320000000,1.0676403,0,0,0,0,1.6338416,1.6472867
6.330000000,1.0754877,0,0,0,0,1.621616,1.6337192
6.340000000,1.0830994,0,0,0,0,1.6080164,1.6214515
6.350000000,1.0904688,0,0,0,0,1.5953164,1.6078939
6.360000000,1.0976038,0,0,0,0,1.5805812,1.5951862
6.370000000,1.1044916,0,0,0,0,1.5674701,1.580549
6.380000000,1.1111416,0,0,0,0,1.5529159,1.5674214
6.390000000,1.1175491,0,0,0,0,1.539263,1.5527842
6.400000000,1.1237212,0,0,0,0,1.5244572,1.5392267
6.410000000,1.1296511,0,0,0,0,1.510545,1.5243695
6.420000000,1.1353478,0,0,0,0,1.4946092,1.5103819
6.430000000,1.1407948,0,0,0,0,1.4794739,1.4944448
6.440000000,1.1460006,0,0,0,0,1.4653794,1.4793776
6.450000000,1.1509782,0,0,0,0,1.4486942,1.4651703
6.460000000,1.15571,0,0,0,0,1.4338686,1.4486033
6.470000000,1.1602068,0,0,0,0,1.4158573,1.4337461
6.480000000,1.1644464,0,0,0,0,1.4011272,1.4156693
6.490000000,1.1684557,0,0,0,0,1.3847351,1.4010321
6.500000000,1.1722312,0,0,0,0,1.3671042,1.384665
6.510000000,1.1757568,0,0,0,0,1.3517816,1.3670183
6.520000000,1.1790559,0,0,0,0,1.3334614,1.3517311
6.530000000,1.1821082,0,0,0,0,1.3162433,1.3334346
6.540000000,1.1849165,0,0,0,0,1.2991349,1.3162177
6.550000000,1.1874901,0,0,0,0,1.2801949,1.2989908
6.560000000,1.1898129,0,0,0,0,1.2636358,1.2800543
6.570000000,1.1919062,0,0,0,0,1.2449003,1.2634773
6.580000000,1.1937594,0,0,0,0,1.2265087,1.2447509
6.590000000,1.1953716,0,0,0,0,1.2076427,1.2264543
6.600000000,1.1967417,0,0,0,0,1.1885099,1.2075077
6.610000000,1.1978676,0,0,0,0,1.1698793,1.1883512
6.620000000,1.1987587,0,0,0,0,1.1510284,1.1698346
6.630000000,1.199416,0,0,0,0,1.1305197,1.1508981
6.640000000,1.1998248,0,0,0,0,1.1115415,1.1304519
6.650000000,1.1999979,0,0,0,0,1.0990198,1.1115054
6.660000000,1.2000076,1.200231,1.200231,1.200231,1.200231,1.1006092,1.0990177
6.670000000,1.2000046,1.2003543,1.2003543,1.2003543,1.2003543,1.1134846,1.1005274
6.680000000,1.2001355,1.2002778,1.2002778,1.2002778,1.2002778,1.09428,1.113445
6.690000000,1.2001135,1.2000012,1.2000012,1.2000012,1.2000012,1.0798628,1.0940685
6.700000000,1.1998965,1.1995246,1.1995246,1.1995246,1.1995246,1.0627483,1.0798612
6.710000000,1.1994842,1.1988481,1.1988481,1.1988481,1.1988481,1.0438107,1.0626444
6.720000000,1.1988535,1.1979715,1.1979715,1.1979715,1.1979715,1.0246171,1.0436978
6.730000000,1.198001,1.1968949,1.1968949,1.1968949,1.1968949,1.0055333,1.0245414
6.740000000,1.1969287,1.1956184,1.1956184,1.1956184,1.1956184,0.98703098,1.0053849
6.750000000,1.1956489,1.1941417,1.1941417,1.1941417,1.1941417,0.96839207,0.98719829
6.760000000,1.1941602,1.1924652,1.1924652,1.1924652,1.1924652,0.95044136,0.96844172
6.770000000,1.1924727,1.1905886,1.1905886,1.1905886,1.1905886,0.93231022,0.95056504
6.780000000,1.1905887,1.1885121,1.1885121,1.1885121,1.1885121,0.91402787,0.93245834
6.790000000,1.1885066,1.1862354,1.1862354,1.1862354,1.1862354,0.89569074,0.91414165
6.800000000,1.186229,1.1837589,1.1837589,1.1837589,1.1837589,0.87694299,0.89582509
6.810000000,1.1837518,1.1810822,1.1810822,1.1810822,1.1810822,0.8581537,0.87706858
6.820000000,1.1810791,1.1782057,1.1782057,1.1782057,1.1782057,0.83870953,0.858302
6.830000000,1.178205,1.1751292,1.1751292,1.1751292,1.1751292,0.81922495,0.83888555
6.840000000,1.1751276,1.1718526,1.1718526,1.1718526,1.1718526,0.79981351,0.81923914
6.850000000,1.1718518,1.168376,1.168376,1.168376,1.168376,0.7800203,0.79981273
6.860000000,1.168377,1.1646994,1.1646994,1.1646994,1.1646994,0.75993007,0.7801764
6.870000000,1.1647022,1.1608229,1.1608229,1.1608229,1.1608229,0.73958808,0.76009005
6.880000000,1.1608251,1.1567463,1.1567463,1.1567463,1.1567463,0.71922725,0.73978376
6.890000000,1.156745,1.1524696,1.1524696,1.1524696,1.1524696,0.69902861,0.71925759
6.900000000,1.15247,1.1479931,1.1479931,1.1479931,1.1479931,0.67810869,0.6991713
6.910000000,1.1479931,1.1433165,1.1433165,1.1433165,1.1433165,0.65729809,0.67820513
6.920000000,1.1433167,1.1384399,1.1384399,1.1384399,1.1384399,0.63617086,0.65745896
6.930000000,1.1384391,1.1333634,1.1333634,1.1333634,1.1333634,0.61505872,0.63627291
6.940000000,1.1333628,1.1280868,1.1280868,1.1280868,1.1280868,0.59360051,0.61508679
6.950000000,1.1280854,1.1226102,1.1226102,1.1226102,1.1226102,0.57213378,0.59368068
6.960000000,1.1226116,1.1169336,1.1169336,1.1169336,1.1169336,0.55003154,0.57226467
6.970000000,1.116935,1.111057,1.111057,1.111057,1.111057,0.52806944,0.55019867
6.980000000,1.1110567,1.1049805,1.1049805,1.1049805,1.1049805,0.50603497,0.52812278
6.990000000,1.1049786,1.0987039,1.0987039,1.0987039,1.0987039,0.48385754,0.50605685
7.000000000,1.098704,1.0922273,1.0922273,1.0922273,1.0922273,0.46115202,0.48398089
7.010000000,1.0922279,1.0855508,1.0855508,1.0855508,1.0855508,0.43842903,0.46125507
7.020000000,1.0855521,1.0786742,1.0786742,1.0786742,1.0786742,0.41541547,0.43851927
7.030000000,1.078674,1.0715976,1.0715976,1.0715976,1.0715976,0.39247882,0.41556352
7.040000000,1.0715985,1.064321,1.064321,1.064321,1.064321,0.36903968,0.39260772
7.050000000,1.0643216,1.0568445,1.0568445,1.0568445,1.0568445,0.34560892,0.36921203
7.060000000,1.056844,1.0491679,1.0491679,1.0491679,1.0491679,0.32204652,0.34581634
7.070000000,1.0491675,1.0412912,1.0412912,1.0412912,1.0412912,0.29819891,0.32220069
7.080000000,1.041291,1.0332147,1.0332147,1.0332147,1.0332147,0.2742058,0.29836509
7.090000000,1.0332146,1.0249381,1.0249381,1.0249381,1.0249381,0.25000405,0.27430949
7.100000000,1.024936,1.0164615,1.0164615,1.0164615,1.0164615,0.22589424,0.25003397
7.110000000,1.0164599,1.007785,1.007785,1.007785,1.007785,0.20134512,0.2259784
7.120000000,1.0077859,0.9989084,0.9989084,0.9989084,0.9989084,0.17641407,0.20147291
7.130000000,0.99890941,0.98983181,0.98983181,0.98983181,0.98983181,0.15151685,0.1765375
7.140000000,0.98983222,0.98055524,0.98055524,0.98055524,0.98055524,0.12645213,0.15159209
7.150000000,0.98055631,0.97107863,0.97107863,0.97107863,0.97107863,0.10105998,0.12665668
7.160000000,0.9710803,0.96140206,0.96140206,0.96140206,0.96140206,0.075486213,0.10127135
7.170000000,0.96140218,0.95152551,0.95152551,0.95152551,0.95152551,0.049947135,0.075676069
7.180000000,0.95152432,0.94144893,0.94144893,0.94144893,0.94144893,0.024211634,0.050070785
7.190000000,0.94144762,0.93117231,0.93117231,0.93117231,0.93117231,-0.0017695623,0.024245538
7.200000000,0.93117201,0.92069572,0.92069572,0.92069572,0.92069572,-0.028031182,-0.0015796429
7.210000000,0.92069638,0.91001916,0.91001916,0.91001916,0.91001916,-0.054492686,-0.027843704
7.220000000,0.91001844,0.89914262,0.89914262,0.89914262,0.89914262,-0.080896735,-0.054327719
7.230000000,0.89914209,0.88806605,0.88806605,0.88806605,0.88806605,-0.107668,-0.080811739
7.240000000,0.88806677,0.87678945,0.87678945,0.87678945,0.87678945,-0.13471332,-0.10751569
7.250000000,0.87678903,0.86531281,0.86531281,0.86531281,0.86531281,-0.16169095,-0.13465956
7.260000000,0.86531168,0.85363626,0.85363626,0.85363626,0.85363626,-0.18889217,-0.16158348
7.270000000,0.85363781,0.84175968,0.84175968,0.84175968,0.84175968,-0.2166578,-0.18873733
7.280000000,0.84176022,0.82968313,0.82968313,0.82968313,0.82968313,-0.24419411,-0.21654105
7.290000000,0.82968307,0.81740659,0.81740659,0.81740659,0.81740659,-0.27202833,-0.24413481
7.300000000,0.81740594,0.80493003,0.80493003,0.80493003,0.80493003,-0.29998988,-0.2719385
7.310000000,0.8049289,0.79225338,0.79225338,0.79225338,0.79225338,-0.32813019,-0.29997218
7.320000000,0.79225421,0.7793768,0.7793768,0.7793768,0.7793768,-0.35670647,-0.32800585
7.330000000,0.77937704,0.7663002,0.7663002,0.7663002,0.7663002,-0.38520205,-0.35669938
7.340000000,0.7663002,0.75302368,0.75302368,0.75302368,0.75302368,-0.41395462,-0.38516295
7.350000000,0.75302345,0.73954707,0.73954707,0.73954707,0.73954707,-0.4428775,-0.41385645
7.360000000,0.73954785,0.72587055,0.72587055,0.72587055,0.72587055,-0.47211185,-0.44276989
7.370000000,0.72587329,0.71199387,0.71199387,0.71199387,0.71199387,-0.5017072,-0.47190332
7.380000000,0.71199197,0.69791734,0.69791734,0.69791734,0.69791734,-0.53070796,-0.50169659
7.390000000,0.69791704,0.68364078,0.68364078,0.68364078,0.68364078,-0.56063807,-0.53061002
7.400000000,0.68363935,0.66916418,0.66916418,0.66916418,0.66916418,-0.59028882,-0.5606333
7.410000000,0.66916418,0.65448761,0.65448761,0.65448761,0.65448761,-0.62048388,-0.59020656
7.420000000,0.65448773,0.63961107,0.63961107,0.63961107,0.63961107,-0.65067685,-0.62043971
7.430000000,0.63961262,0.62453449,0.62453449,0.62453449,0.62453449,-0.68128282,-0.65045297
7.440000000,0.62453514,0.60925782,0.60925782,0.60925782,0.60925782,-0.71181989,-0.68113601
7.450000000,0.60925692,0.59378129,0.59378129,0.59378129,0.59378129,-0.74245936,-0.71181905
7.460000000,0.59378105,0.57810473,0.57810473,0.57810473,0.57810473,-0.77350837,-0.7422722
7.470000000,0.57810503,0.56222814,0.56222814,0.56222814,0.56222814,-0.80469799,-0.77339518
7.480000000,0.5622291,0.54615158,0.54615158,0.54615158,0.54615158,-0.83612365,-0.80450809
7.490000000,0.54615092,0.52987504,0.52987504,0.52987504,0.52987504,-0.86747843,-0.83607101
7.500000000,0.52987307,0.51339835,0.51339835,0.51339835,0.51339835,-0.89904535,-0.86741388
7.510000000,0.51339757,0.4967218,0.4967218,0.4967218,0.4967218,-0.93097878,-0.8989768
7.520000000,0.49672076,0.47984526,0.47984526,0.47984526,0.47984526,-0.96292967,-0.93097955
7.530000000,0.47984752,0.46277729,0.46277729,0.46277729,0.46277729,-0.99462724,-0.96276236
7.540000000,0.46277848,0.44572306,0.44572306,0.44572306,0.44572306,-1.0045865,-0.99454516
7.550000000,0.44572699,0.42876881,0.42876881,0.42876881,0.42876881,-1.0115336,-1.0044729
7.560000000,0.42878371,0.41191447,0.41191447,0.41191447,0.41191447,-1.0204083,-1.0113114
7.570000000,0.41192526,0.39516023,0.39516023,0.39516023,0.39516023,-1.027511,-1.0203693
7.580000000,0.39515957,0.378506,0.378506,0.378506,0.378506,-1.0339688,-1.0274278
7.590000000,0.37850165,0.36195177,0.36195177,0.36195177,0.36195177,-1.0408542,-1.0338264
7.600000000,0.36194518,0.34549752,0.34549752,0.34549752,0.34549752,-1.0474421,-1.0406747
7.610000000,0.34548953,0.32914329,0.32914329,0.32914329,0.32914329,-1.0538847,-1.0472932
7.620000000,0.32913822,0.31288895,0.31288895,0.31288895,0.31288895,-1.060627,-1.0536919
7.630000000,0.31288528,0.29673472,0.29673472,0.29673472,0.29673472,-1.0670439,-1.0605302
7.640000000,0.2967324,0.28068048,0.28068048,0.28068048,0.28068048,-1.073458,-1.0669388
7.650000000,0.28067952,0.26472625,0.26472625,0.26472625,0.26472625,-1.0797964,-1.0733373
7.660000000,0.26472658,0.24887201,0.24887201,0.24887201,0.24887201,-1.0860901,-1.0797359
7.670000000,0.24887364,0.23311777,0.23311777,0.23311777,0.23311777,-1.0923527,-1.0859145
7.680000000,0.23311839,0.21746352,0.21746352,0.21746352,0.21746352,-1.0983067,-1.0923131
7.690000000,0.21746336,0.20190929,0.20190929,0.20190929,0.20190929,-1.1042078,-1.0982717
7.700000000,0.20191056,0.18645506,0.18645506,0.18645506,0.18645506,-1.1102463,-1.1040105
7.710000000,0.18645522,0.17110081,0.17110081,0.17110081,0.17110081,-1.1159059,-1.1101891
7.720000000,0.17110237,0.1558464,0.1558464,0.1558464,0.1558464,-1.1218274,-1.1157078
7.730000000,0.15584695,0.14069216,0.14069216,0.14069216,0.14069216,-1.1273191,-1.1216664
7.740000000,0.14069179,0.12563792,0.12563792,0.12563792,0.12563792,-1.13279,-1.1271851
7.750000000,0.12563656,0.11068368,0.11068368,0.11068368,0.11068368,-1.1380891,-1.1327039
7.760000000,0.11068244,0.095829442,0.095829442,0.095829442,0.095829442,-1.1433868,-1.1380028
7.770000000,0.095829301,0.081075206,0.081075206,0.081075206,0.081075206,-1.1486828,-1.1433016
7.780000000,0.081074864,0.066420965,0.066420965,0.066420965,0.066420965,-1.1537554,-1.1486003
7.790000000,0.06642165,0.051866729,0.051866729,0.051866729,0.051866729,-1.1589108,-1.1536692
7.800000000,0.051867146,0.037412491,0.037412491,0.037412491,0.037412491,-1.1638287,-1.158748
7.810000000,0.037411615,0.023058251,0.023058251,0.023058251,0.023058251,-1.1685542,-1.1638269
7.820000000,0.023058437,0.0088040102,0.0088040102,0.0088040102,0.0088040102,-1.1734334,-1.1684558
7.830000000,0.0088049704,-0.0053502289,-0.0053502289,-0.0053502289,-0.0053502289,-1.178179,-1.1733148
7.840000000,-0.0053509707,-0.019404635,-0.019404635,-0.019404635,-0.019404635,-1.1826007,-1.1781737
7.850000000,-0.019404951,-0.033358876,-0.033358876,-0.033358876,-0.033358876,-1.187127,-1.1825826
7.860000000,-0.033358026,-0.047213115,-0.047213115,-0.047213115,-0.047213115,-1.19164,-1.1870017
7.870000000,-0.047213517,-0.060967352,-0.060967352,-0.060967352,-0.060967352,-1.1958066,-1.1916306
7.880000000,-0.060965389,-0.074621588,-0.074621588,-0.074621588,-0.074621588,-1.2003369,-1.1956097
7.890000000,-0.074621059,-0.088175833,-0.088175833,-0.088175833,-0.088175833,-1.2043267,-1.2002387
7.900000000,-0.088177502,-0.10163007,-0.10163007,-0.10163007,-0.10163007,-1.2081742,-1.2042178
7.910000000,-0.10162932,-0.11498431,-0.11498431,-0.11498431,-0.11498431,-1.2123927,-1.2079669
7.920000000,-0.11498508,-0.12823854,-0.12823854,-0.12823854,-0.12823854,-1.2160354,-1.2123859
7.930000000,-0.12823935,-0.1413928,-0.1413928,-0.1413928,-0.1413928,-1.219813,-1.2159152
7.940000000,-0.1413915,-0.15444703,-0.15444703,-0.15444703,-0.15444703,-1.2236952,-1.2196643
7.950000000,-0.15444848,-0.16740127,-0.16740127,-0.16740127,-0.16740127,-1.2269486,-1.2236334
7.960000000,-0.16740268,-0.18025552,-0.18025552,-0.18025552,-0.18025552,-1.2304398,-1.2269526
7.970000000,-0.1802538,-0.1930099,-0.1930099,-0.1930099,-0.1930099,-1.2341427,-1.2302618
7.980000000,-0.19300874,-0.20566414,-0.20566414,-0.20566414,-0.20566414,-1.2373675,-1.2340111
7.990000000,-0.20566554,-0.21821839,-0.21821839,-0.21821839,-0.21821839,-1.2403463,-1.2373203
8.000000000,-0.21821761,-0.23067263,-0.23067263,-0.23067263,-0.23067263,-1.2437221,-1.2401897
8.010000000,-0.23067361,-0.24302687,-0.24302687,-0.24302687,-0.24302687,-1.2465037,-1.2437189
8.020000000,-0.24302587,-0.25528112,-0.25528112,-0.25528112,-0.25528112,-1.2496959,-1.2463682
8.030000000,-0.25528193,-0.26743534,-0.26743534,-0.26743534,-0.26743534,-1.2522976,-1.2496774
8.040000000,-0.26743424,-0.27948958,-0.27948958,-0.27948958,-0.27948958,-1.2553085,-1.2521069
8.050000000,-0.27948919,-0.29144382,-0.29144382,-0.29144382,-0.29144382,-1.2578795,-1.2551962
8.060000000,-0.29144511,-0.30329809,-0.30329809,-0.30329809,-0.30329809,-1.2602957,-1.2578456
8.070000000,-0.30329973,-0.3150523,-0.3150523,-0.3150523,-0.3150523,-1.2626913,-1.2602751
8.080000000,-0.31505004,-0.32670656,-0.32670656,-0.32670656,-0.32670656,-1.2654871,-1.2624847
8.090000000,-0.32670537,-0.33826095,-0.33826095,-0.33826095,-0.33826095,-1.2676769,-1.265354
8.100000000,-0.33826134,-0.34971517,-0.34971517,-0.34971517,-0.34971517,-1.2697734,-1.2675534
8.110000000,-0.34971723,-0.36106941,-0.36106941,-0.36106941,-0.36106941,-1.2716969,-1.269763
8.120000000,-0.36106864,-0.37232366,-0.37232366,-0.37232366,-0.37232366,-1.2740062,-1.2715327
8.130000000,-0.37232396,-0.3834779,-0.3834779,-0.3834779,-0.3834779,-1.2757598,-1.273962
8.140000000,-0.38347894,-0.39453214,-0.39453214,-0.39453214,-0.39453214,-1.2775267,-1.2757217
8.150000000,-0.39453277,-0.40548638,-0.40548638,-0.40548638,-0.40548638,-1.2792655,-1.2774911
8.160000000,-0.40548569,-0.41634062,-0.41634062,-0.41634062,-0.41634062,-1.2810265,-1.2792609
8.170000000,-0.41634098,-0.42709488,-0.42709488,-0.42709488,-0.42709488,-1.2824453,-1.2810204
8.180000000,-0.42709377,-0.43774912,-0.43774912,-0.43774912,-0.43774912,-1.2840934,-1.2823501
8.190000000,-0.43774688,-0.44830334,-0.44830334,-0.44830334,-0.44830334,-1.2856171,-1.2838898
8.200000000,-0.44830117,-0.45875761,-0.45875761,-0.45875761,-0.45875761,-1.2870034,-1.2854395
8.210000000,-0.45875871,-0.46911183,-0.46911183,-0.46911183,-0.46911183,-1.2879179,-1.286979
8.220000000,-0.46911475,-0.47936621,-0.47936621,-0.47936621,-0.47936621,-1.2888589,-1.287859
8.230000000,-0.47936645,-0.48952046,-0.48952046,-0.48952046,-0.48952046,-1.2900823,-1.2887487
8.240000000,-0.48952094,-0.49957469,-0.49957469,-0.49957469,-0.49957469,-1.2908957,-1.2900684
8.250000000,-0.4995741,-0.50952893,-0.50952893,-0.50952893,-0.50952893,-1.2918514,-1.2907281
8.260000000,-0.50952959,-0.51938319,-0.51938319,-0.51938319,-0.51938319,-1.2924235,-1.2918379
8.270000000,-0.51938272,-0.52913743,-0.52913743,-0.52913743,-0.52913743,-1.2932053,-1.2922778
8.280000000,-0.52913719,-0.53879166,-0.53879166,-0.53879166,-0.53879166,-1.2937088,-1.2931576
8.290000000,-0.53879154,-0.54834592,-0.54834592,-0.54834592,-0.54834592,-1.2941816,-1.2935975
8.300000000,-0.54834485,-0.55780017,-0.55780017,-0.55780017,-0.55780017,-1.2946727,-1.2940476
8.310000000,-0.5577994,-0.56715441,-0.56715441,-0.56715441,-0.56715441,-1.2949497,-1.2944875
8.320000000,-0.56715494,-0.57640862,-0.57640862,-0.57640862,-0.57640862,-1.2950329,-1.2949274
8.330000000,-0.57641047,-0.58556288,-0.58556288,-0.58556288,-0.58556288,-1.2949804,-1.2949274
8.340000000,-0.58556366,-0.59461725,-0.59461725,-0.59461725,-0.59461725,-1.2950627,-1.2949274
8.350000000,-0.59461606,-0.60357147,-0.60357147,-0.60357147,-0.60357147,-1.2951291,-1.2949274
8.360000000,-0.60356975,-0.61242574,-0.61242574,-0.61242574,-0.61242574,-1.2950414,-1.2949274
8.370000000,-0.61242568,-0.62117994,-0.62117994,-0.62117994,-0.62117994,-1.2946376,-1.2949274
8.380000000,-0.62118125,-0.62983423,-0.62983423,-0.62983423,-0.62983423,-1.2941699,-1.2944875
8.390000000,-0.62983465,-0.63838845,-0.63838845,-0.63838845,-0.63838845,-1.2937822,-1.2940476
8.400000000,-0.63838828,-0.64684272,-0.64684272,-0.64684272,-0.64684272,-1.2932743,-1.2935975
8.410000000,-0.646842,-0.65519696,-0.65519696,-0.65519696,-0.65519696,-1.2927024,-1.2931576
8.420000000,-0.65519685,-0.66345119,-0.66345119,-0.66345119,-0.66345119,-1.2919259,-1.2924979
8.430000000,-0.66345161,-0.67160541,-0.67160541,-0.67160541,-0.67160541,-1.291065,-1.2918379
8.440000000,-0.67160642,-0.67965966,-0.67965966,-0.67965966,-0.67965966,-1.2900751,-1.2909582
8.450000000,-0.67966121,-0.6876139,-0.6876139,-0.6876139,-0.6876139,-1.2889589,-1.2900684
8.460000000,-0.68761379,-0.69546819,-0.69546819,-0.69546819,-0.69546819,-1.2879974,-1.2887487
8.470000000,-0.6954667,-0.70322251,-0.70322251,-0.70322251,-0.70322251,-1.2869321,-1.287859
8.480000000,-0.7032218,-0.71087676,-0.71087676,-0.71087676,-0.71087676,-1.285586,-1.2867591
8.490000000,-0.71087563,-0.718431,-0.718431,-0.718431,-0.718431,-1.2843246,-1.2854395
8.500000000,-0.7184307,-0.72588521,-0.72588521,-0.72588521,-0.72588521,-1.2828041,-1.2841096
8.510000000,-0.72588676,-0.73323947,-0.73323947,-0.73323947,-0.73323947,-1.2810729,-1.2827899
8.520000000,-0.73324168,-0.74049371,-0.74049371,-0.74049371,-0.74049371,-1.2793071,-1.2810204
8.530000000,-0.74049437,-0.747648,-0.747648,-0.747648,-0.747648,-1.2776566,-1.2792609
8.540000000,-0.74764633,-0.75470221,-0.75470221,-0.75470221,-0.75470221,-1.2760196,-1.2774911
8.550000000,-0.75470185,-0.76165646,-0.76165646,-0.76165646,-0.76165646,-1.2739594,-1.2759416
8.560000000,-0.76165694,-0.7685107,-0.7685107,-0.7685107,-0.7685107,-1.2718842,-1.273962
8.570000000,-0.76850981,-0.77526498,-0.77526498,-0.77526498,-0.77526498,-1.2699338,-1.2717526
8.580000000,-0.77526295,-0.78191918,-0.78191918,-0.78191918,-0.78191918,-1.2678776,-1.269763
8.590000000,-0.78191954,-0.78847355,-0.78847355,-0.78847355,-0.78847355,-1.2653989,-1.2677834
8.600000000,-0.78847468,-0.79492778,-0.79492778,-0.79492778,-0.79492778,-1.2629572,-1.265354
8.610000000,-0.79492873,-0.80128205,-0.80128205,-0.80128205,-0.80128205,-1.2604737,-1.2629246
8.620000000,-0.80128187,-0.80753624,-0.80753624,-0.80753624,-0.80753624,-1.2579907,-1.2602751
8.630000000,-0.80753517,-0.81369054,-0.81369054,-0.81369054,-0.81369054,-1.255443,-1.2578456
8.640000000,-0.81369191,-0.81974477,-0.81974477,-0.81974477,-0.81974477,-1.2524151,-1.2554162
8.650000000,-0.81974488,-0.82569903,-0.82569903,-0.82569903,-0.82569903,-1.2497315,-1.252327
8.660000000,-0.82569939,-0.83155328,-0.83155328,-0.83155328,-0.83155328,-1.2467113,-1.2496774
8.670000000,-0.83155262,-0.83730751,-0.83730751,-0.83730751,-0.83730751,-1.2438051,-1.2465881
8.680000000,-0.83730721,-0.84296173,-0.84296173,-0.84296173,-0.84296173,-1.2406418,-1.2437189
8.690000000,-0.84296167,-0.84851599,-0.84851599,-0.84851599,-0.84851599,-1.2374369,-1.2406296
8.700000000,-0.84851617,-0.85397023,-0.85397023,-0.85397023,-0.85397023,-1.2341093,-1.2373203
8.710000000,-0.85396957,-0.85932451,-0.85932451,-0.85932451,-0.85932451,-1.230826,-1.2340111
8.720000000,-0.85932422,-0.86457872,-0.86457872,-0.86457872,-0.86457872,-1.2273047,-1.2307018
8.730000000,-0.86457771,-0.86973298,-0.86973298,-0.86973298,-0.86973298,-1.2238643,-1.2271726
8.740000000,-0.86973464,-0.87478721,-0.87478721,-0.87478721,-0.87478721,-1.2199004,-1.2238533
8.750000000,-0.87478906,-0.87974149,-0.87974149,-0.87974149,-0.87974149,-1.2161173,-1.2198843
8.760000000,-0.87973917,-0.88459575,-0.88459575,-0.88459575,-0.88459575,-1.2126842,-1.2159152
8.770000000,-0.88459551,-0.88935,-0.88935,-0.88935,-0.88935,-1.2085005,-1.212606
8.780000000,-0.88935,-0.89400434,-0.89400434,-0.89400434,-0.89400434,-1.2045379,-1.2084068
8.790000000,-0.89400482,-0.89855862,-0.89855862,-0.89855862,-0.89855862,-1.2003403,-1.2044377
8.800000000,-0.89855951,-0.90301281,-0.90301281,-0.90301281,-0.90301281,-1.196064,-1.2002387
8.810000000,-0.90301317,-0.90736711,-0.90736711,-0.90736711,-0.90736711,-1.1917984,-1.1960496
8.820000000,-0.90736699,-0.91162133,-0.91162133,-0.91162133,-0.91162133,-1.1874117,-1.1916306
8.830000000,-0.91161972,-0.9157756,-0.9157756,-0.9157756,-0.9157756,-1.1831095,-1.1872216
8.840000000,-0.91577482,-0.91982985,-0.91982985,-0.91982985,-0.91982985,-1.1784688,-1.1830225
8.850000000,-0.91983086,-0.92378408,-0.92378408,-0.92378408,-0.92378408,-1.1736461,-1.1783936
8.860000000,-0.92378455,-0.92763835,-0.92763835,-0.92763835,-0.92763835,-1.1689489,-1.1735346
8.870000000,-0.9276396,-0.93139255,-0.93139255,-0.93139255,-0.93139255,-1.1639456,-1.1689057
8.880000000,-0.93139237,-0.93504685,-0.93504685,-0.93504685,-0.93504685,-1.1591477,-1.1638269
8.890000000,-0.93504536,-0.93860108,-0.93860108,-0.93860108,-0.93860108,-1.1542251,-1.158968
8.900000000,-0.93860066,-0.94205534,-0.94205534,-0.94205534,-0.94205534,-1.1490186,-1.154119
8.910000000,-0.9420557,-0.9454096,-0.9454096,-0.9454096,-0.9454096,-1.1437514,-1.1488203
8.920000000,-0.94541079,-0.94866383,-0.94866383,-0.94866383,-0.94866383,-1.1383308,-1.1437415
8.930000000,-0.94866371,-0.95181805,-0.95181805,-0.95181805,-0.95181805,-1.1330472,-1.1382227
8.940000000,-0.95181793,-0.95487231,-0.95487231,-0.95487231,-0.95487231,-1.1275227,-1.1329238
8.950000000,-0.95487213,-0.95782655,-0.95782655,-0.95782655,-0.95782655,-1.1219485,-1.1274052
8.960000000,-0.95782632,-0.96068084,-0.96068084,-0.96068084,-0.96068084,-1.1162837,-1.1218864
8.970000000,-0.96068168,-0.96343505,-0.96343505,-0.96343505,-0.96343505,-1.1103766,-1.1161478
8.980000000,-0.9634335,-0.96608931,-0.96608931,-0.96608931,-0.96608931,-1.1048017,-1.1101891
8.990000000,-0.96608919,-0.96864355,-0.96864355,-0.96864355,-0.96864355,-1.0986804,-1.1046803
9.000000000,-0.96864331,-0.97109783,-0.97109783,-0.97109783,-0.97109783,-1.0927157,-1.0984917
9.010000000,-0.97109765,-0.97345209,-0.97345209,-0.97345209,-0.97345209,-1.0865754,-1.092533
9.020000000,-0.9734509,-0.97570634,-0.97570634,-0.97570634,-0.97570634,-1.0805013,-1.0863544
9.030000000,-0.97570771,-0.97786063,-0.97786063,-0.97786063,-0.97786063,-1.0739155,-1.0803957
9.040000000,-0.97786295,-0.9799149,-0.9799149,-0.9799149,-0.9799149,-1.0673915,-1.0737772
9.050000000,-0.97991616,-0.9818691,-0.9818691,-0.9818691,-0.9818691,-1.0609047,-1.0673786
9.060000000,-0.98186964,-0.9837234,-0.9837234,-0.9837234,-0.9837234,-1.0543053,-1.0607502
9.070000000,-0.9837209,-0.98547763,-0.98547763,-0.98547763,-0.98547763,-1.0479275,-1.0541317
9.080000000,-0.98547691,-0.98713189,-0.98713189,-0.98713189,-0.98713189,-1.0409698,-1.0477331
9.090000000,-0.9871313,-0.98868614,-0.98868614,-0.98868614,-0.98868614,-1.0341696,-1.0408947
9.100000000,-0.98868704,-0.99014038,-0.99014038,-0.99014038,-0.99014038,-1.0270401,-1.0340463
9.110000000,-0.99014151,-0.99149466,-0.99149466,-0.99149466,-0.99149466,-1.0199553,-1.0269878
9.120000000,-0.99149501,-0.99274886,-0.99274886,-0.99274886,-0.99274886,-1.0128313,-1.0199194
9.130000000,-0.99274749,-0.99390316,-0.99390316,-0.99390316,-0.99390316,-1.0057784,-1.0126411
9.140000000,-0.9939025,-0.99495739,-0.99495739,-0.99495739,-0.99495739,-0.99837214,-1.0055727
9.150000000,-0.99495721,-0.99591166,-0.99591166,-0.99591166,-0.99591166,-0.99095666,-0.99829435
9.160000000,-0.99591196,-0.99676591,-0.99676591,-0.99676591,-0.99676591,-0.98339909,-0.99078602
9.170000000,-0.99676555,-0.99752015,-0.99752015,-0.99752015,-0.99752015,-0.97587788,-0.98328769
9.180000000,-0.99752051,-0.99817437,-0.99817437,-0.99817437,-0.99817437,-0.96809673,-0.97577941
9.190000000,-0.99817646,-0.99872863,-0.99872863,-0.99872863,-0.99872863,-0.9601022,-0.96806115
9.200000000,-0.9987278,-0.99918288,-0.99918288,-0.99918288,-0.99918288,-0.9525131,-0.95989299
9.210000000,-0.99918193,-0.99953717,-0.99953717,-0.99953717,-0.99953717,-0.94451851,-0.95238471
9.220000000,-0.99953693,-0.99979138,-0.99979138,-0.99979138,-0.99979138,-0.93641496,-0.94443649
9.230000000,-0.99979186,-0.99994564,-0.99994564,-0.99994564,-0.99994564,-0.92820227,-0.93627834
9.240000000,-0.9999457,-0.99999988,-0.99999988,-0.99999988,-0.99999988,-0.91999602,-0.92811018
9.250000000,-1.0000008,-1,-1,-1,-1,-0.91637552,-0.91994202
9.260000000,-0.99999988,0,0,0,0,-0.91739148,-0.91619289
9.270000000,-1.0000035,0,0,0,0,-0.91971791,-0.91729259
9.280000000,-1.0000323,0,0,0,0,-0.90832162,-0.91950214
9.290000000,-0.99995893,0,0,0,0,-0.89815408,-0.90824473
9.300000000,-0.99975574,0,0,0,0,-0.88895917,-0.89809704
9.310000000,-0.99944228,0,0,0,0,-0.87735742,-0.8888191
9.320000000,-0.9990021,0,0,0,0,-0.86521399,-0.87734169
9.330000000,-0.99842119,0,0,0,0,-0.8550536,-0.86520439
9.340000000,-0.99771827,0,0,0,0,-0.84385139,-0.85483676
9.350000000,-0.99689364,0,0,0,0,-0.83349341,-0.84379923
9.360000000,-0.99595273,0,0,0,0,-0.82299662,-0.83342159
9.370000000,-0.99489701,0,0,0,0,-0.81104279,-0.82283401
9.380000000,-0.99371284,0,0,0,0,-0.80079663,-0.81091666
9.390000000,-0.99241531,0,0,0,0,-0.78850532,-0.80075896
9.400000000,-0.99099141,0,0,0,0,-0.77807933,-0.78840172
9.410000000,-0.98945272,0,0,0,0,-0.76647145,-0.77802414
9.420000000,-0.98779476,0,0,0,0,-0.75514662,-0.76632679
9.430000000,-0.98601997,0,0,0,0,-0.74282378,-0.75506932
9.440000000,-0.98411924,0,0,0,0,-0.73122591,-0.74271208
9.450000000,-0.98209804,0,0,0,0,-0.7192443,-0.73101473
9.460000000,-0.97995704,0,0,0,0,-0.70811212,-0.71909738
9.470000000,-0.97770512,0,0,0,0,-0.69438672,-0.70805997
9.480000000,-0.97532201,0,0,0,0,-0.68326378,-0.69438303
9.490000000,-0.97282344,0,0,0,0,-0.67065692,-0.68312556
9.500000000,-0.97020566,0,0,0,0,-0.65838546,-0.67053843
9.510000000,-0.96746784,0,0,0,0,-0.6450749,-0.65818125
9.520000000,-0.96460438,0,0,0,0,-0.63332808,-0.64494425
9.530000000,-0.96162951,0,0,0,0,-0.61957759,-0.63324684
9.540000000,-0.95852697,0,0,0,0,-0.60769892,-0.61955994
9.550000000,-0.95531315,0,0,0,0,-0.59376484,-0.60764265
9.560000000,-0.95197278,0,0,0,0,-0.58086413,-0.59373575
9.570000000,-0.94851089,0,0,0,0,-0.56749797,-0.5807187
9.580000000,-0.94492924,0,0,0,0,-0.55498362,-0.56747174
9.590000000,-0.94123554,0,0,0,0,-0.54076183,-0.55489457
9.600000000,-0.93741542,0,0,0,0,-0.52750766,-0.54054785
9.610000000,-0.93347466,0,0,0,0,-0.51381731,-0.52730078
9.620000000,-0.92941535,0,0,0,0,-0.50013703,-0.51361388
9.630000000,-0.92523813,0,0,0,0,-0.48634958,-0.49993697
9.640000000,-0.92094183,0,0,0,0,-0.47162592,-0.48625007
9.650000000,-0.91651982,0,0,0,0,-0.45755786,-0.47146344
9.660000000,-0.91197389,0,0,0,0,-0.4448311,-0.4573366
9.670000000,-0.90732551,0,0,0,0,-0.42883974,-0.44475946
9.680000000,-0.9025439,0,0,0,0,-0.41482687,-0.42864311
9.690000000,-0.89764249,0,0,0,0,-0.40002626,-0.41473624
9.700000000,-0.89262134,0,0,0,0,-0.385295,-0.39994958
9.710000000,-0.88747668,0,0,0,0,-0.37210053,-0.38516295
9.720000000,-0.88222831,0,0,0,0,-0.35563895,-0.37192589
9.730000000,-0.87684917,0,0,0,0,-0.34118533,-0.35558963
9.740000000,-0.87134993,0,0,0,0,-0.32595751,-0.34102291
9.750000000,-0.86573088,0,0,0,0,-0.31080544,-0.32579634
9.760000000,-0.85999405,0,0,0,0,-0.29550868,-0.31078973
9.770000000,-0.85413599,0,0,0,0,-0.28012279,-0.29533324
9.780000000,-0.84816021,0,0,0,0,-0.26291901,-0.28010669
9.790000000,-0.84204847,0,0,0,0,-0.24883954,-0.26289058
9.800000000,-0.83582759,0,0,0,0,-0.23252003,-0.24876377
9.810000000,-0.82948458,0,0,0,0,-0.21852943,-0.23243746
9.820000000,-0.82303756,0,0,0,0,-0.20108642,-0.21831065
9.830000000,-0.81646198,0,0,0,0,-0.18489133,-0.20087458
9.840000000,-0.80976039,0,0,0,0,-0.16867624,-0.18475823
9.850000000,-0.80294079,0,0,0,0,-0.15222223,-0.16865188
9.860000000,-0.79599887,0,0,0,0,-0.13653545,-0.15209562
9.870000000,-0.78894395,0,0,0,0,-0.11910636,-0.13642916
9.880000000,-0.78176266,0,0,0,0,-0.10263317,-0.1189931
9.890000000,-0.77445978,0,0,0,0,-0.086556196,-0.10243684
9.900000000,-0.76704508,0,0,0,0,-0.06884031,-0.086550429
9.910000000,-0.7595039,0,0,0,0,-0.052050862,-0.068674475
9.920000000,-0.75184113,0,0,0,0,-0.035703219,-0.051898267
9.930000000,-0.7440654,0,0,0,0,-0.017701386,-0.03556196
9.940000000,-0.73616672,0,0,0,0,-0.00065223896,-0.017686002
9.950000000,-0.72814602,0,0,0,0,0.016855724,-0.0004698938
9.960000000,-0.72000676,0,0,0,0,0.034357376,0.016966876
9.970000000,-0.71174628,0,0,0,0,0.052012376,0.034403667
9.980000000,-0.70336825,0,0,0,0,0.069742255,0.052060414
9.990000000,-0.69486654,0,0,0,0,0.086721458,0.069937125
10.000000000,-0.68625432,0,0,0,0,0.10539469,0.086934
10.010000000,-0.67751884,0,0,0,0,0.12309511,0.10547058
10.020000000,-0.66866481,0,0,0,0,0.14293963,0.12312733
10.030000000,-0.65967709,0,0,0,0,0.15958898,0.14299367
10.040000000,-0.65057772,0,0,0,0,0.17850998,0.15976058
10.050000000,-0.641361,0,0,0,0,0.19682659,0.17852715
10.060000000,-0.63202399,0,0,0,0,0.21626203,0.19684376
10.070000000,-0.62256128,0,0,0,0,0.23415665,0.21626018
10.080000000,-0.61298037,0,0,0,0,0.25318006,0.23436686
10.090000000,-0.60328168,0,0,0,0,0.27197134,0.25334334
10.100000000,-0.59346396,0,0,0,0,0.29092926,0.27209991
10.110000000,-0.58352828,0,0,0,0,0.31078997,0.29108641
10.120000000,-0.57346565,0,0,0,0,0.32914451,0.31095275
10.130000000,-0.56328946,0,0,0,0,0.34950078,0.32926941
10.140000000,-0.5529893,0,0,0,0,0.36885706,0.34957564
10.150000000,-0.54256606,0,0,0,0,0.38784906,0.36899206
10.160000000,-0.53202903,0,0,0,0,0.40761569,0.38797858
10.170000000,-0.52137583,0,0,0,0,0.42807341,0.40761498
10.180000000,-0.51059425,0,0,0,0,0.44793206,0.42814118
10.190000000,-0.49969366,0,0,0,0,0.46817157,0.44800752
10.200000000,-0.48866963,0,0,0,0,0.48761258,0.46831375
10.210000000,-0.47753286,0,0,0,0,0.50879979,0.48774022
10.220000000,-0.46626854,0,0,0,0,0.52732491,0.50892633
10.230000000,-0.45489973,0,0,0,0,0.54951328,0.5274629
10.240000000,-0.44340134,0,0,0,0,0.56960499,0.54953885
10.250000000,-0.43178275,0,0,0,0,0.59052622,0.56961513
10.260000000,-0.42004436,0,0,0,0,0.61138546,0.59058124
10.270000000,-0.40818372,0,0,0,0,0.63242018,0.61155742
10.280000000,-0.39620113,0,0,0,0,0.65357792,0.63252354
10.290000000,-0.38409883,0,0,0,0,0.67399454,0.65370965
10.300000000,-0.37188333,0,0,0,0,0.69613159,0.67401588
10.310000000,-0.35954145,0,0,0,0,0.7164728,0.69630182
10.320000000,-0.34708586,0,0,0,0,0.73887908,0.71660811
10.330000000,-0.33450517,0,0,0,0,0.76024055,0.73890394
10.340000000,-0.32180503,0,0,0,0,0.78123468,0.76030999
10.350000000,-0.3089928,0,0,0,0,0.80384761,0.78127617
10.360000000,-0.29605296,0,0,0,0,0.82555258,0.80401194
10.370000000,-0.28299278,0,0,0,0,0.84770703,0.82563806
10.380000000,-0.269815,0,0,0,0,0.8707661,0.84771395
10.390000000,-0.25650576,0,0,0,0,0.89151436,0.87088966
10.400000000,-0.24308909,0,0,0,0,0.91417545,0.89163589
10.410000000,-0.22955345,0,0,0,0,0.93629968,0.91436172
10.420000000,-0.21589983,0,0,0,0,0.96036607,0.93643761
10.430000000,-0.20211241,0,0,0,0,0.9812547,0.96049315
10.440000000,-0.18821903,0,0,0,0,1.0052292,0.98145932
10.450000000,-0.17420195,0,0,0,0,1.0286967,1.005165
10.460000000,-0.16005617,0,0,0,0,1.050289,1.0286306
10.470000000,-0.14580275,0,0,0,0,1.0745533,1.0501566
10.480000000,-0.13142353,0,0,0,0,1.0975757,1.0744822
10.490000000,-0.11692262,0,0,0,0,1.1211437,1.097508
10.500000000,-0.10230087,0,0,0,0,1.1438702,1.1209736
10.510000000,-0.087566063,0,0,0,0,1.1683549,1.1437894
10.520000000,-0.072702594,0,0,0,0,1.1918955,1.168335
10.530000000,-0.05771894,0,0,0,0,1.2141807,1.1918006
10.540000000,-0.042632394,0,0,0,0,1.239707,1.2139665
10.550000000,-0.027413763,0,0,0,0,1.2632555,1.2395818
10.560000000,-0.012074076,0,0,0,0,1.287606,1.2630475
10.570000000,0.0033863771,0,0,0,0,1.3119349,1.287583
10.580000000,0.018969327,0,0,0,0,1.3364539,1.3119085
10.590000000,0.034674194,0,0,0,0,1.3602549,1.336454
10.600000000,0.050491985,0,0,0,0,1.3849459,1.3601296
10.610000000,0.066429392,0,0,0,0,1.4094611,1.3848851
10.620000000,0.082486883,0,0,0,0,1.4341404,1.4094205
10.630000000,0.098660953,0,0,0,0,1.4597653,1.433966
10.640000000,0.11496101,0,0,0,0,1.4847604,1.4595813
10.650000000,0.13138266,0,0,0,0,1.510196,1.4845467
10.660000000,0.14792965,0,0,0,0,1.5340095,1.5101621
10.670000000,0.16458239,0,0,0,0,1.5603529,1.5338376
10.680000000,0.1813623,0,0,0,0,1.585475,1.5603228
10.690000000,0.1982604,0,0,0,0,1.6111482,1.5852882
10.700000000,0.21527971,0,0,0,0,1.6359538,1.6111233
10.710000000,0.23241208,0,0,0,0,1.6633942,1.6358788
10.720000000,0.24967536,0,0,0,0,1.6874287,1.6632138
10.730000000,0.26704729,0,0,0,0,1.7154781,1.6873194
10.740000000,0.28455275,0,0,0,0,1.7405722,1.7153043
10.750000000,0.30217561,0,0,0,0,1.7673411,1.7404896
10.760000000,0.31991857,0,0,0,0,1.7920771,1.7671847
10.770000000,0.33776903,0,0,0,0,1.8202883,1.7919402
10.780000000,0.35575223,0,0,0,0,1.845634,1.820135
10.790000000,0.37384957,0,0,0,0,1.8725582,1.8455403
10.800000000,0.39206514,0,0,0,0,1.8991477,1.8724453
10.810000000,0.4104009,0,0,0,0,1.9268283,1.8991404
10.820000000,0.42886338,0,0,0,0,1.9538876,1.9266853
10.830000000,0.44744849,0,0,0,0,1.9796479,1.9538103
10.840000000,0.46614182,0,0,0,0,1.9898671,1.9796455
10.850000000,0.48478702,0,0,0,0,1.9840996,1.9897637
10.860000000,0.50318867,0,0,0,0,1.9826231,1.9839448
10.870000000,0.5213545,0,0,0,0,1.9797405,1.982445
10.880000000,0.53929198,0,0,0,0,1.9764621,1.9796455
10.890000000,0.55699497,0,0,0,0,1.9712865,1.9764161
10.900000000,0.57444704,0,0,0,0,1.9672449,1.9712471
10.910000000,0.59165585,0,0,0,0,1.9621989,1.9671578
10.920000000,0.60861737,0,0,0,0,1.9576362,1.9619888
10.930000000,0.62533754,0,0,0,0,1.9534484,1.9574696
10.940000000,0.6418249,0,0,0,0,1.9484571,1.9533803
10.950000000,0.65807492,0,0,0,0,1.9427094,1.9484313
10.960000000,0.674079,0,0,0,0,1.9384317,1.9426224
10.970000000,0.68985391,0,0,0,0,1.9322038,1.9383131
10.980000000,0.70538557,0,0,0,0,1.9252962,1.9320743
10.990000000,0.72066623,0,0,0,0,1.9203197,1.9251857
11.000000000,0.73571497,0,0,0,0,1.9131293,1.9202365
11.010000000,0.75052083,0,0,0,0,1.9078475,1.9131278
11.020000000,0.76509494,0,0,0,0,1.900493,1.9077487
11.030000000,0.77942699,0,0,0,0,1.8924887,1.9004302
11.040000000,0.79350799,0,0,0,0,1.8863772,1.8924617
11.050000000,0.80735719,0,0,0,0,1.8780684,1.8862228
11.060000000,0.82096118,0,0,0,0,1.8716739,1.8780444
11.070000000,0.83433473,0,0,0,0,1.8631988,1.8715854
11.080000000,0.84746629,0,0,0,0,1.8549106,1.863187
11.090000000,0.86035347,0,0,0,0,1.8469568,1.8547885
11.100000000,0.87300348,0,0,0,0,1.8378286,1.8468299
11.110000000,0.88540995,0,0,0,0,1.8294111,1.8377917
11.120000000,0.897578,0,0,0,0,1.8205662,1.8293931
11.130000000,0.90950716,0,0,0,0,1.8108521,1.8203549
11.140000000,0.9211905,0,0,0,0,1.8017561,1.8106666
11.150000000,0.93263698,0,0,0,0,1.7931448,1.8016284
11.160000000,0.94385451,0,0,0,0,1.782037,1.79301
11.170000000,0.95482409,0,0,0,0,1.7717881,1.782032
11.180000000,0.96554649,0,0,0,0,1.7623973,1.7717038
11.190000000,0.97603786,0,0,0,0,1.7511598,1.7622356
11.200000000,0.98628503,0,0,0,0,1.7400147,1.7510377
11.210000000,0.99628478,0,0,0,0,1.7299989,1.7398398
11.220000000,1.0060545,0,0,0,0,1.7189212,1.7299415
11.230000000,1.0155878,0,0,0,0,1.7072209,1.7187536
11.240000000,1.0248773,0,0,0,0,1.6952664,1.7071258
11.250000000,1.0339227,0,0,0,0,1.6845716,1.6950679
11.260000000,1.0427388,0,0,0,0,1.6719375,1.68452
11.270000000,1.0513127,0,0,0,0,1.658602,1.6718222
11.280000000,1.0596346,0,0,0,0,1.6462595,1.6584747
11.290000000,1.0677155,0,0,0,0,1.6341758,1.646207
11.300000000,1.0755635,0,0,0,0,1.6212468,1.6341491
11.310000000,1.0831732,0,0,0,0,1.6076583,1.6212416
11.320000000,1.0905381,0,0,0,0,1.5954711,1.6074641
11.330000000,1.0976738,0,0,0,0,1.5813732,1.5954063
11.340000000,1.1045662,0,0,0,0,1.5674043,1.5811989
11.350000000,1.1112167,0,0,0,0,1.5529151,1.5672114
11.360000000,1.1176218,0,0,0,0,1.538825,1.5527842
11.370000000,1.1237887,0,0,0,0,1.5243983,1.5387967
11.380000000,1.1297166,0,0,0,0,1.5089998,1.5243695
11.390000000,1.1353979,0,0,0,0,1.4950467,1.5088723
11.400000000,1.1408457,0,0,0,0,1.4799454,1.4948847
11.410000000,1.1460574,0,0,0,0,1.4642088,1.4798076
11.420000000,1.151024,0,0,0,0,1.4490784,1.4641005
11.430000000,1.1557559,0,0,0,0,1.4335781,1.4490331
11.440000000,1.1602516,0,0,0,0,1.4163376,1.4335361
11.450000000,1.164497,0,0,0,0,1.4004443,1.4163094
11.460000000,1.1685013,0,0,0,0,1.3847394,1.4003823
11.470000000,1.1722738,0,0,0,0,1.3673871,1.384665
11.480000000,1.175802,0,0,0,0,1.3500614,1.3672283
11.490000000,1.1790841,0,0,0,0,1.3338788,1.3500116
11.500000000,1.1821347,0,0,0,0,1.3157387,1.3338645
11.510000000,1.1849402,0,0,0,0,1.2994015,1.3155677
11.520000000,1.187513,0,0,0,0,1.2810059,1.2992108
11.530000000,1.189845,0,0,0,0,1.2627629,1.2809143
11.540000000,1.1919315,0,0,0,0,1.2448015,1.2626176
11.550000000,1.193781,0,0,0,0,1.2256479,1.2447509
11.560000000,1.1953858,0,0,0,0,1.2071446,1.2255944
11.570000000,1.1967489,0,0,0,0,1.1890364,1.2070777
11.580000000,1.1978801,0,0,0,0,1.1692297,1.1890011
11.590000000,1.1987673,0,0,0,0,1.1503501,1.1691947
11.600000000,1.1994159,0,0,0,0,1.1309829,1.1502483
11.610000000,1.199827,0,0,0,0,1.1107286,1.1308818
11.620000000,1.1999943,0,0,0,0,1.099183,1.1106455
11.630000000,1.2000002,0,0,0,0,1.1013532,1.0990177
11.640000000,1.2000043,0,0,0,0,1.1002913,1.1011673
11.650000000,1.200009,0,0,0,0,1.1002984,1.1000974
11.660000000,1.2000096,0,0,0,0,1.099049,1.1000974
11.670000000,1.1999992,0,0,0,0,1.1002879,1.0990177
11.680000000,1.1999981,0,0,0,0,1.0996507,1.1000974
11.690000000,1.199994,0,0,0,0,1.1005015,1.0994476
11.700000000,1.1999944,0,0,0,0,1.1004694,1.1003075
11.710000000,1.1999989,0,0,0,0,1.0999604,1.1003075
11.720000000,1.1999984,0,0,0,0,1.1001868,1.0998775
11.730000000,1.1999996,0,0,0,0,1.1001788,1.1000974
11.740000000,1.2000005,0,0,0,0,1.100248,1.1000974
11.750000000,1.2000016,0,0,0,0,1.1003129,1.1000974
11.760000000,1.2000048,0,0,0,0,1.0995386,1.1003075
11.770000000,1.1999999,0,0,0,0,1.1003622,1.0994476
11.780000000,1.2000016,0,0,0,0,1.1001369,1.1003075
11.790000000,1.2000036,0,0,0,0,1.0994033,1.1000974
11.800000000,1.1999967,0,0,0,0,1.1001812,1.0992377
11.810000000,1.1999952,0,0,0,0,1.1007984,1.1000974
11.820000000,1.2000034,0,0,0,0,1.0992899,1.1007373
