source:ccrt device:td_2.5 epoch:1673450462 timeOrigin:0.670000000 firstSampleTime:0.270000000 period:0.001000000 name:I_MEAS_MPX type:analog,I_REF_DELAYED_(A) STEP,I_ERR_(A) STEP
0.270000000,-10,0.0079755783
0.271000000,-10,0.0079174042
0.272000000,-10,0.0077991486
0.273000000,-10,0.0076026917
0.274000000,-10,0.0073661804
0.275000000,-10,0.0071229935
0.276000000,-10,0.0068817139
0.277000000,-10,0.0066413879
0.278000000,-10,0.0064020157
0.279000000,-10,0.0061626434
0.280000000,-10,0.0059251785
0.281000000,-10,0.0056829453
0.282000000,-10,0.0054264069
0.283000000,-10,0.0051527023
0.284000000,-10,0.0048704147
0.285000000,-10,0.0045871735
0.286000000,-10,0.0043039322
0.287000000,-10,0.0040225983
0.288000000,-10,0.0037412643
0.289000000,-10,0.0034608841
0.290000000,-10,0.0031814575
0.291000000,-10,0.0029058456
0.292000000,-10,0.0026454926
0.293000000,-10,0.0024023056
0.294000000,-10,0.0021696091
0.295000000,-10,0.0019388199
0.296000000,-10,0.0017080307
0.297000000,-10,0.0014781952
0.298000000,-10,0.0012493134
0.299000000,-10,0.0010204315
0.300000000,-10,0.00079250336
0.301000000,-10,0.00057220459
0.302000000,-10,0.0003786087
0.303000000,-10,0.00021839142
0.304000000,-10,7.6293945e-05
0.305000000,-10,-6.1988831e-05
0.306000000,-10,-0.00020027161
0.307000000,-10,-0.00033950806
0.308000000,-10,-0.00047683716
0.309000000,-10,-0.00061511993
0.310000000,-10,-0.00075244904
0.311000000,-10,-0.00088214874
0.312000000,-10,-0.00098609924
0.313000000,-10,-0.0010566711
0.314000000,-10,-0.0011091232
0.315000000,-10,-0.001159668
0.316000000,-10,-0.001209259
0.317000000,-10,-0.0012598038
0.318000000,-10,-0.0013103485
0.319000000,-10,-0.0013599396
0.320000000,-10,-0.0014104843
0.321000000,-10,-0.0014543533
0.322000000,-10,-0.0014801025
0.323000000,-10,-0.0014829636
0.324000000,-10,-0.0014715195
0.325000000,-10,-0.0014591217
0.326000000,-10,-0.0014457703
0.327000000,-10,-0.0014333725
0.328000000,-10,-0.0014219284
0.329000000,-10,-0.0014095306
0.330000000,-10,-0.0013971329
0.331000000,-10,-0.0013809204
0.332000000,-10,-0.0013570786
0.333000000,-10,-0.0013198853
0.334000000,-10,-0.0012760162
0.335000000,-10,-0.0012321472
0.336000000,-10,-0.0011873245
0.337000000,-10,-0.0011434555
0.338000000,-10,-0.0011005402
0.339000000,-10,-0.0010566711
0.340000000,-10,-0.0010128021
0.341000000,-10,-0.00096893311
0.342000000,-10,-0.00092315674
0.343000000,-10,-0.00087451935
0.344000000,-10,-0.00082492828
0.345000000,-10,-0.00077438354
0.346000000,-10,-0.00072479248
0.347000000,-10,-0.00067520142
0.348000000,-10,-0.00062656403
0.349000000,-10,-0.00057697296
0.350000000,-10,-0.0005273819
0.351000000,-10,0.0018100739
0.352000000,-10,0.011994362
0.353000000,-10,0.032014847
0.354000000,-10,0.057297707
0.355000000,-10,0.083454132
0.356000000,-10,0.10939026
0.357000000,-10,0.1351738
0.358000000,-10,0.16087818
0.359000000,-10,0.18651295
0.360000000,-10,0.21207428
0.361000000,-10,0.24020863
0.362000000,-10,0.27734089
0.363000000,-10,0.3257494
0.364000000,-10,0.38010883
0.365000000,-10,0.43531609
0.366000000,-9.9800005,0.47009563
0.367000000,-9.96,0.50451088
0.368000000,-9.9400005,0.53863716
0.369000000,-9.9200001,0.57247257
0.370000000,-9.9000006,0.60600376
0.371000000,-9.8800011,0.63867474
0.372000000,-9.8600006,0.66917133
0.373000000,-9.8400011,0.6970396
0.374000000,-9.8200006,0.72336197
0.375000000,-9.8000011,0.74917412
0.376000000,-9.750001,0.74472523
0.377000000,-9.7000008,0.73999786
0.378000000,-9.6500015,0.73496819
0.379000000,-9.6000013,0.72962856
0.380000000,-9.5500011,0.72397709
0.381000000,-9.500001,0.71888351
0.382000000,-9.4500008,0.71644211
0.383000000,-9.4000015,0.7173605
0.384000000,-9.3500013,0.71985435
0.385000000,-9.3000011,0.72224617
0.386000000,-9.250001,0.72411633
0.387000000,-9.2000008,0.72548962
0.388000000,-9.1500015,0.72639275
0.389000000,-9.1000013,0.72682762
0.390000000,-9.0500011,0.72679138
0.391000000,-9.000001,0.72662735
0.392000000,-8.9500008,0.72715092
0.393000000,-8.9000015,0.72863293
0.394000000,-8.8500013,0.73037529
0.395000000,-8.8000011,0.73172379
0.396000000,-8.750001,0.73252106
0.397000000,-8.7000008,0.7327776
0.398000000,-8.6500015,0.732512
0.399000000,-8.6000013,0.73173571
0.400000000,-8.5500011,0.73046207
0.401000000,-8.500001,0.72930241
0.402000000,-8.4500008,0.72969723
0.403000000,-8.4000015,0.73212957
0.404000000,-8.3500013,0.73538399
0.405000000,-8.3000011,0.73832989
0.406000000,-8.250001,0.74069881
0.407000000,-8.2000008,0.74252224
0.408000000,-8.1500006,0.74383211
0.409000000,-8.1000013,0.74464607
0.410000000,-8.0500011,0.74497366
0.411000000,-8.000001,0.74522924
0.412000000,-7.9500008,0.74638319
0.413000000,-7.9000006,0.74876451
0.414000000,-7.8500009,0.75156498
0.415000000,-7.8000007,0.75402546
0.416000000,-7.7500005,0.75596952
0.417000000,-7.7000008,0.75742102
0.418000000,-7.6500006,0.7584033
0.419000000,-7.6000004,0.75893021
0.420000000,-7.5500007,0.75901079
0.421000000,-7.500001,0.75900936
0.422000000,-7.4500008,0.75978374
0.423000000,-7.4000006,0.76162434
0.424000000,-7.3500004,0.76381969
0.425000000,-7.3000007,0.76570225
0.426000000,-7.2500005,0.76711369
0.427000000,-7.2000008,0.76807499
0.428000000,-7.1500006,0.76860571
0.429000000,-7.1000004,0.76871824
0.430000000,-7.0500007,0.76842117
0.431000000,-7.000001,0.76801395
0.432000000,-6.9500008,0.76820421
0.433000000,-6.9000006,0.76923418
0.434000000,-6.8500004,0.77051878
0.435000000,-6.8000007,0.77150774
0.436000000,-6.7500005,0.77207088
0.437000000,-6.7000008,0.77222586
0.438000000,-6.6500006,0.77198935
0.439000000,-6.6000004,0.77137089
0.440000000,-6.5500007,0.77037764
0.441000000,-6.500001,0.76930428
0.442000000,-6.4500008,0.76884556
0.443000000,-6.4000006,0.76924181
0.444000000,-6.3500004,0.7699151
0.445000000,-6.3000007,0.77032423
0.446000000,-6.2500005,0.77033997
0.447000000,-6.2000008,0.76997852
0.448000000,-6.1500006,0.76925421
0.449000000,-6.1000004,0.76817703
0.450000000,-6.0500007,0.76675272
0.451000000,-6.000001,0.76527405
0.452000000,-5.9500008,0.76443624
0.453000000,-5.9000006,0.76447868
0.454000000,-5.8500004,0.76482487
0.455000000,-5.8000007,0.76493263
0.456000000,-5.7500005,0.76467085
0.457000000,-5.7000008,0.76405573
0.458000000,-5.6500006,0.76310539
0.459000000,-5.6000004,0.76183367
0.460000000,-5.5500007,0.76025295
0.461000000,-5.500001,0.75866175
0.462000000,-5.4500008,0.75776529
0.463000000,-5.4000006,0.75781155
0.464000000,-5.3500004,0.7582283
0.465000000,-5.3000007,0.75847435
0.466000000,-5.2500005,0.75842285
0.467000000,-5.2000008,0.75809288
0.468000000,-5.1500006,0.75750399
0.469000000,-5.1000004,0.75666666
0.470000000,-5.0500007,0.75559139
0.471000000,-5.000001,0.75450325
0.472000000,-4.9500008,0.75393534
0.473000000,-4.9000006,0.75407839
0.474000000,-4.8500004,0.7545042
0.475000000,-4.8000007,0.75480604
0.476000000,-4.7500005,0.75488758
0.477000000,-4.7000008,0.75476503
0.478000000,-4.6500006,0.75445271
0.479000000,-4.6000004,0.75396013
0.480000000,-4.5500002,0.75329447
0.481000000,-4.5000005,0.75260758
0.482000000,-4.4500003,0.75225353
0.483000000,-4.4000001,0.7523632
0.484000000,-4.3500004,0.75265574
0.485000000,-4.3000002,0.75286222
0.486000000,-4.25,0.7529223
0.487000000,-4.2000003,0.75284719
0.488000000,-4.1500001,0.75264835
0.489000000,-4.1000004,0.75233388
0.490000000,-4.0500002,0.75190926
0.491000000,-4.0000005,0.75146604
0.492000000,-3.9500003,0.75121355
0.493000000,-3.9000003,0.75123239
0.494000000,-3.8500004,0.75136018
0.495000000,-3.8000004,0.75144315
0.496000000,-3.7500005,0.75144744
0.497000000,-3.7000003,0.75138164
0.498000000,-3.6500006,0.75125313
0.499000000,-3.6000004,0.75106215
0.500000000,-3.5500004,0.75080895
0.501000000,-3.5000005,0.75052786
0.502000000,-3.4500003,0.7503016
0.503000000,-3.4000006,0.75016093
0.504000000,-3.3500004,0.75003672
0.505000000,-3.3000004,0.74986458
0.506000000,-3.2500005,0.74962807
0.507000000,-3.2000003,0.74932742
0.508000000,-3.1500006,0.74896526
0.509000000,-3.1000004,0.74854064
0.510000000,-3.0500004,0.7480545
0.511000000,-3.0000005,0.74755812
0.512000000,-2.9500003,0.74717712
0.513000000,-2.9000006,0.74695778
0.514000000,-2.8500004,0.74679613
0.515000000,-2.8000004,0.74659371
0.516000000,-2.7500005,0.74632549
0.517000000,-2.7000003,0.74599314
0.518000000,-2.6500003,0.74559867
0.519000000,-2.6000004,0.74514234
0.520000000,-2.5500002,0.7446239
0.521000000,-2.5000002,0.74411559
0.522000000,-2.4500003,0.74379182
0.523000000,-2.4000003,0.74371529
0.524000000,-2.3500001,0.74374294
0.525000000,-2.3000002,0.74373758
0.526000000,-2.2500002,0.74366522
0.527000000,-2.2000003,0.74352765
0.528000000,-2.1500001,0.74332738
0.529000000,-2.1000001,0.74306536
0.530000000,-2.0500002,0.74274111
0.531000000,-2.0000002,0.74242711
0.532000000,-1.9500002,0.74229944
0.533000000,-1.9000002,0.74242175
0.534000000,-1.8500001,0.74264932
0.535000000,-1.8000002,0.74284387
0.536000000,-1.7500002,0.74297106
0.537000000,-1.7000002,0.74303281
0.538000000,-1.6500002,0.74303192
0.539000000,-1.6000001,0.7429685
0.540000000,-1.5500002,0.74284285
0.541000000,-1.5000002,0.74272156
0.542000000,-1.4500002,0.74276656
0.543000000,-1.4000002,0.74303651
0.544000000,-1.3500001,0.74339831
0.545000000,-1.3000002,0.74372464
0.546000000,-1.2500002,0.74398369
0.547000000,-1.2000002,0.7441774
0.548000000,-1.1500002,0.74430829
0.549000000,-1.1000001,0.74437654
0.550000000,-1.0500002,0.74438232
0.551000000,-1.0000002,0.74209464
0.552000000,-0.95000017,0.73209417
0.553000000,-0.90000021,0.71243155
0.554000000,-0.85000014,0.68755251
0.555000000,-0.80000019,0.66172707
0.556000000,-0.75000018,0.63601685
0.557000000,-0.70000017,0.61035728
0.558000000,-0.65000021,0.58467329
0.559000000,-0.60000014,0.55895495
0.560000000,-0.55000019,0.53320533
0.561000000,-0.50000024,0.50487036
0.562000000,-0.45000011,0.46774334
0.563000000,-0.40000015,0.41959172
0.564000000,-0.35000008,0.36550689
0.565000000,-0.30000013,0.31037927
0.566000000,-0.2700001,0.27542451
0.567000000,-0.24000008,0.24056886
0.568000000,-0.21000011,0.20572606
0.569000000,-0.18000005,0.17088488
0.570000000,-0.15000007,0.13604864
0.571000000,-0.12000008,0.10204682
0.572000000,-0.090000026,0.070891462
0.573000000,-0.06000004,0.043306492
0.574000000,-0.029999984,0.017641101
0.575000000,0,-0.0076898714
0.576000000,0,-0.0030806996
0.577000000,0,0.0014926062
0.578000000,0,0.0060580052
0.579000000,0,0.010619108
0.580000000,0,0.015174895
0.581000000,0,0.019202916
0.582000000,0,0.021435076
0.583000000,0,0.021415176
0.584000000,0,0.020183548
0.585000000,0,0.018739324
0.586000000,0,0.017330941
0.587000000,0,0.015943293
0.588000000,0,0.014558759
0.589000000,0,0.013175066
0.590000000,0,0.01179286
0.591000000,0,0.010544648
0.592000000,0,0.0097516896
0.593000000,0,0.0095295487
0.594000000,0,0.009614666
0.595000000,0,0.0097539267
0.596000000,0,0.00988439
0.597000000,0,0.010009885
0.598000000,0,0.010134872
0.599000000,0,0.010259928
0.600000000,0,0.010384889
0.601000000,0,0.010424277
0.602000000,0,0.010170608
0.603000000,0,0.0095492406
0.604000000,0,0.0087303901
0.605000000,0,0.0078775268
0.606000000,0,0.0070312982
0.607000000,0,0.0061892318
0.608000000,0,0.0053484435
0.609000000,0,0.0045085615
0.610000000,0,0.0036696887
0.611000000,0,0.0028758449
0.612000000,0,0.0022338543
0.613000000,0,0.0017821463
0.614000000,0,0.0014330817
0.615000000,0,0.0011024924
0.616000000,0,0.00076944928
0.617000000,0,0.00043522409
0.618000000,0,0.00010130047
0.619000000,0,-0.00023213091
0.620000000,0,-0.00056512502
0.621000000,0,-0.00089291204
0.622000000,0,-0.0012038538
0.623000000,0,-0.001493762
0.624000000,0,-0.0017721858
0.625000000,0,-0.0020482959
0.626000000,0,-0.0023243735
0.627000000,0,-0.0026002799
0.628000000,0,-0.002875854
0.629000000,0,-0.0031510759
0.630000000,0,-0.0034259513
0.631000000,0,-0.0036779754
0.632000000,0,-0.0038524766
0.633000000,0,-0.0039297859
0.634000000,0,-0.0039547551
0.635000000,0,-0.0039704614
0.636000000,0,-0.003987615
0.637000000,0,-0.0040055648
0.638000000,0,-0.0040235524
0.639000000,0,-0.0040414794
0.640000000,0,-0.0040593729
0.641000000,0,-0.0040690363
0.642000000,0,-0.0040505314
0.643000000,0,-0.0039966847
0.644000000,0,-0.0039238525
0.645000000,0,-0.0038477443
0.646000000,0,-0.0037722669
0.647000000,0,-0.0036971818
0.648000000,0,-0.0036222124
0.649000000,0,-0.0035473227
0.650000000,0,-0.0034725228
0.651000000,0,-0.0033924512
0.652000000,0,-0.0032940758
0.653000000,0,-0.0031727077
0.654000000,0,-0.0030390383
0.655000000,0,-0.002903335
0.656000000,0,-0.0027681512
0.657000000,0,-0.0026333313
0.658000000,0,-0.002498694
0.659000000,0,-0.0023642159
0.660000000,0,-0.0022299038
0.661000000,0,-0.0020967084
0.662000000,0,-0.0019669356
0.663000000,0,-0.0018414141
0.664000000,0,-0.0017182527
0.665000000,0,-0.0015956345
0.666000000,0,-0.0014731077
0.667000000,0,-0.0013506997
0.668000000,0,-0.0012284421
0.669000000,0,-0.0011063389
0.670000000,0,-0.00098438875
