source:ccrt device:log_03 epoch:1673450026 timeOrigin:2.100000000 firstSampleTime:0.000000000 period:0.020000000 name:DCDIM2[3] type:analog,DCDIM2_ANA_1 +0.003000000,DCDIM2_ANA_2 +0.004000000,DCDIM2_ANA_3 +0.005000000,DCDIM2_ANA_4 +0.006000000
0.000000000,4.0030003,4.0039997,4.0050001,4.006
0.020000000,4.0229998,4.0240002,4.0250001,4.026
0.040000000,4.0430002,4.0440001,4.0450001,4.046
0.060000000,4.0629997,4.0640001,4.0650001,4.066
0.080000000,4.0830002,4.0840001,4.085,4.086
0.100000000,4.1030002,4.1040001,4.105,4.1059999
0.120000000,4.1230001,4.1240001,4.125,4.1259999
0.140000000,4.1430001,4.1440001,4.145,4.1459999
0.160000000,4.1630001,4.164,4.165,4.1659999
0.180000000,4.1830001,4.184,4.1849999,4.1859999
0.200000000,4.2030001,4.204,4.2049999,4.2059999
0.220000000,4.223,4.224,4.2249999,4.2259998
0.240000000,4.243,4.244,4.2449999,4.2460003
0.260000000,4.263,4.2639999,4.2649999,4.2659998
0.280000000,4.283,4.2839999,4.2849998,4.2860003
0.300000000,4.303,4.3039999,4.3050003,4.3059998
0.320000000,4.323,4.3239999,4.3249998,4.3260002
0.340000000,4.3429999,4.3439999,4.3450003,4.3459997
0.360000000,4.3629999,4.3639998,4.3649998,4.3660002
0.380000000,4.3829999,4.3839998,4.3850002,4.3860002
0.400000000,4.4029999,4.4040003,4.4049997,4.4060001
0.420000000,4.4229999,4.4239998,4.4250002,4.4260001
0.440000000,4.4429998,4.4440002,4.4449997,4.4460001
0.460000000,4.4630003,4.4639997,4.4650002,4.4660001
0.480000000,4.4829998,4.4840002,4.4850001,4.4860001
0.500000000,4.5030003,4.5039997,4.5050001,4.506
0.520000000,4.5229998,4.5240002,4.5250001,4.526
0.540000000,4.5430002,4.5440001,4.5450001,4.546
0.560000000,4.5629997,4.5640001,4.5650001,4.566
0.580000000,4.5830002,4.5840001,4.585,4.586
0.600000000,4.6029997,4.6040001,4.605,4.6059999
0.620000000,4.6230001,4.6240001,4.625,4.6259999
0.640000000,4.6430001,4.6440001,4.645,4.6459999
0.660000000,4.6630001,4.664,4.665,4.6659999
0.680000000,4.6830001,4.684,4.6849999,4.6859999
0.700000000,4.7030001,4.704,4.7049999,4.7059999
0.720000000,4.723,4.724,4.7249999,4.7259998
0.740000000,4.743,4.744,4.7449999,4.7460003
0.760000000,4.763,4.7639999,4.7649999,4.7659998
0.780000000,4.783,4.7839999,4.7849998,4.7860003
0.800000000,4.803,4.8039999,4.8050003,4.8059998
0.820000000,4.823,4.8239999,4.8249998,4.8260002
0.840000000,4.8429999,4.8439999,4.8450003,4.8459997
0.860000000,4.8629999,4.8640003,4.8649998,4.8660002
0.880000000,4.8829999,4.8839998,4.8850002,4.8859997
0.900000000,4.9029999,4.9040003,4.9049997,4.9060001
0.920000000,4.9229999,4.9239998,4.9250002,4.9260001
0.940000000,4.9429998,4.9440002,4.9449997,4.9460001
0.960000000,4.9630003,4.9639997,4.9650002,4.9660001
0.980000000,4.9829998,4.9840002,4.9850001,4.9860001
1.000000000,4.0030003,4.0039997,4.0050001,4.006
1.020000000,4.0229998,4.0240002,4.0250001,4.026
1.040000000,4.0430002,4.0440001,4.0450001,4.046
1.060000000,4.0629997,4.0640001,4.0650001,4.066
1.080000000,4.0830002,4.0840001,4.085,4.086
1.100000000,4.1030002,4.1040001,4.105,4.1059999
1.120000000,4.1230001,4.1240001,4.125,4.1259999
1.140000000,4.1430001,4.1440001,4.145,4.1459999
1.160000000,4.1630001,4.164,4.165,4.1659999
1.180000000,4.1830001,4.184,4.1849999,4.1859999
1.200000000,4.2030001,4.204,4.2049999,4.2059999
1.220000000,4.223,4.224,4.2249999,4.2259998
1.240000000,4.243,4.244,4.2449999,4.2460003
1.260000000,4.263,4.2639999,4.2649999,4.2659998
1.280000000,4.283,4.2839999,4.2849998,4.2860003
1.300000000,4.303,4.3039999,4.3050003,4.3059998
1.320000000,4.323,4.3239999,4.3249998,4.3260002
1.340000000,4.3429999,4.3439999,4.3450003,4.3459997
1.360000000,4.3629999,4.3639998,4.3649998,4.3660002
1.380000000,4.3829999,4.3839998,4.3850002,4.3860002
1.400000000,4.4029999,4.4040003,4.4049997,4.4060001
1.420000000,4.4229999,4.4239998,4.4250002,4.4260001
1.440000000,4.4429998,4.4440002,4.4449997,4.4460001
1.460000000,4.4630003,4.4639997,4.4650002,4.4660001
1.480000000,4.4829998,4.4840002,4.4850001,4.4860001
1.500000000,4.5030003,4.5039997,4.5050001,4.506
1.520000000,4.5229998,4.5240002,4.5250001,4.526
1.540000000,4.5430002,4.5440001,4.5450001,4.546
1.560000000,4.5629997,4.5640001,4.5650001,4.566
1.580000000,4.5830002,4.5840001,4.585,4.586
1.600000000,4.6029997,4.6040001,4.605,4.6059999
1.620000000,4.6230001,4.6240001,4.625,4.6259999
1.640000000,4.6430001,4.6440001,4.645,4.6459999
1.660000000,4.6630001,4.664,4.665,4.6659999
1.680000000,4.6830001,4.684,4.6849999,4.6859999
1.700000000,4.7030001,4.704,4.7049999,4.7059999
1.720000000,4.723,4.724,4.7249999,4.7259998
1.740000000,4.743,4.744,4.7449999,4.7460003
1.760000000,4.763,4.7639999,4.7649999,4.7659998
1.780000000,4.783,4.7839999,4.7849998,4.7860003
1.800000000,4.803,4.8039999,4.8050003,4.8059998
1.820000000,4.823,4.8239999,4.8249998,4.8260002
1.840000000,4.8429999,4.8439999,4.8450003,4.8459997
1.860000000,4.8629999,4.8640003,4.8649998,4.8660002
1.880000000,4.8829999,4.8839998,4.8850002,4.8859997
1.900000000,4.9029999,4.9040003,4.9049997,4.9060001
1.920000000,4.9229999,4.9239998,4.9250002,4.9260001
1.940000000,4.9429998,4.9440002,4.9449997,4.9460001
1.960000000,4.9630003,4.9639997,4.9650002,4.9660001
1.980000000,4.9829998,4.9840002,4.9850001,4.9860001
