source:ccrt device:log_03 epoch:1673450026 timeOrigin:2.100000000 firstSampleTime:0.000000000 period:0.020000000 name:DCDIM4[3] type:analog,DCDIM4_ANA_1 +0.003000000,DCDIM4_ANA_2 +0.004000000,DCDIM4_ANA_3 +0.005000000,DCDIM4_ANA_4 +0.006000000
0.000000000,6.0030003,6.0039997,6.0050001,6.006
0.020000000,6.0229998,6.0240002,6.0250001,6.026
0.040000000,6.0430002,6.0440001,6.0450001,6.046
0.060000000,6.0629997,6.0640001,6.0650001,6.066
0.080000000,6.0830002,6.0840001,6.085,6.086
0.100000000,6.1030002,6.1040001,6.105,6.1059999
0.120000000,6.1230001,6.1240001,6.125,6.1259999
0.140000000,6.1430001,6.1440001,6.145,6.1459999
0.160000000,6.1630001,6.164,6.165,6.1659999
0.180000000,6.1830001,6.184,6.1849999,6.1859999
0.200000000,6.2030001,6.204,6.2049999,6.2059999
0.220000000,6.223,6.224,6.2249999,6.2259998
0.240000000,6.243,6.244,6.2449999,6.2460003
0.260000000,6.263,6.2639999,6.2649999,6.2659998
0.280000000,6.283,6.2839999,6.2849998,6.2860003
0.300000000,6.303,6.3039999,6.3050003,6.3059998
0.320000000,6.323,6.3239999,6.3249998,6.3260002
0.340000000,6.3429999,6.3439999,6.3450003,6.3459997
0.360000000,6.3629999,6.3639998,6.3649998,6.3660002
0.380000000,6.3829999,6.3839998,6.3850002,6.3860002
0.400000000,6.4029999,6.4040003,6.4049997,6.4060001
0.420000000,6.4229999,6.4239998,6.4250002,6.4260001
0.440000000,6.4429998,6.4440002,6.4449997,6.4460001
0.460000000,6.4630003,6.4639997,6.4650002,6.4660001
0.480000000,6.4829998,6.4840002,6.4850001,6.4860001
0.500000000,6.5030003,6.5039997,6.5050001,6.506
0.520000000,6.5229998,6.5240002,6.5250001,6.526
0.540000000,6.5430002,6.5440001,6.5450001,6.546
0.560000000,6.5629997,6.5640001,6.5650001,6.566
0.580000000,6.5830002,6.5840001,6.585,6.586
0.600000000,6.6029997,6.6040001,6.605,6.6059999
0.620000000,6.6230001,6.6240001,6.625,6.6259999
0.640000000,6.6430001,6.6440001,6.645,6.6459999
0.660000000,6.6630001,6.664,6.665,6.6659999
0.680000000,6.6830001,6.684,6.6849999,6.6859999
0.700000000,6.7030001,6.704,6.7049999,6.7059999
0.720000000,6.723,6.724,6.7249999,6.7259998
0.740000000,6.743,6.744,6.7449999,6.7460003
0.760000000,6.763,6.7639999,6.7649999,6.7659998
0.780000000,6.783,6.7839999,6.7849998,6.7860003
0.800000000,6.803,6.8039999,6.8050003,6.8059998
0.820000000,6.823,6.8239999,6.8249998,6.8260002
0.840000000,6.8429999,6.8439999,6.8450003,6.8459997
0.860000000,6.8629999,6.8640003,6.8649998,6.8660002
0.880000000,6.8829999,6.8839998,6.8850002,6.8859997
0.900000000,6.9029999,6.9040003,6.9049997,6.9060001
0.920000000,6.9229999,6.9239998,6.9250002,6.9260001
0.940000000,6.9429998,6.9440002,6.9449997,6.9460001
0.960000000,6.9630003,6.9639997,6.9650002,6.9660001
0.980000000,6.9829998,6.9840002,6.9850001,6.9860001
1.000000000,6.0030003,6.0039997,6.0050001,6.006
1.020000000,6.0229998,6.0240002,6.0250001,6.026
1.040000000,6.0430002,6.0440001,6.0450001,6.046
1.060000000,6.0629997,6.0640001,6.0650001,6.066
1.080000000,6.0830002,6.0840001,6.085,6.086
1.100000000,6.1030002,6.1040001,6.105,6.1059999
1.120000000,6.1230001,6.1240001,6.125,6.1259999
1.140000000,6.1430001,6.1440001,6.145,6.1459999
1.160000000,6.1630001,6.164,6.165,6.1659999
1.180000000,6.1830001,6.184,6.1849999,6.1859999
1.200000000,6.2030001,6.204,6.2049999,6.2059999
1.220000000,6.223,6.224,6.2249999,6.2259998
1.240000000,6.243,6.244,6.2449999,6.2460003
1.260000000,6.263,6.2639999,6.2649999,6.2659998
1.280000000,6.283,6.2839999,6.2849998,6.2860003
1.300000000,6.303,6.3039999,6.3050003,6.3059998
1.320000000,6.323,6.3239999,6.3249998,6.3260002
1.340000000,6.3429999,6.3439999,6.3450003,6.3459997
1.360000000,6.3629999,6.3639998,6.3649998,6.3660002
1.380000000,6.3829999,6.3839998,6.3850002,6.3860002
1.400000000,6.4029999,6.4040003,6.4049997,6.4060001
1.420000000,6.4229999,6.4239998,6.4250002,6.4260001
1.440000000,6.4429998,6.4440002,6.4449997,6.4460001
1.460000000,6.4630003,6.4639997,6.4650002,6.4660001
1.480000000,6.4829998,6.4840002,6.4850001,6.4860001
1.500000000,6.5030003,6.5039997,6.5050001,6.506
1.520000000,6.5229998,6.5240002,6.5250001,6.526
1.540000000,6.5430002,6.5440001,6.5450001,6.546
1.560000000,6.5629997,6.5640001,6.5650001,6.566
1.580000000,6.5830002,6.5840001,6.585,6.586
1.600000000,6.6029997,6.6040001,6.605,6.6059999
1.620000000,6.6230001,6.6240001,6.625,6.6259999
1.640000000,6.6430001,6.6440001,6.645,6.6459999
1.660000000,6.6630001,6.664,6.665,6.6659999
1.680000000,6.6830001,6.684,6.6849999,6.6859999
1.700000000,6.7030001,6.704,6.7049999,6.7059999
1.720000000,6.723,6.724,6.7249999,6.7259998
1.740000000,6.743,6.744,6.7449999,6.7460003
1.760000000,6.763,6.7639999,6.7649999,6.7659998
1.780000000,6.783,6.7839999,6.7849998,6.7860003
1.800000000,6.803,6.8039999,6.8050003,6.8059998
1.820000000,6.823,6.8239999,6.8249998,6.8260002
1.840000000,6.8429999,6.8439999,6.8450003,6.8459997
1.860000000,6.8629999,6.8640003,6.8649998,6.8660002
1.880000000,6.8829999,6.8839998,6.8850002,6.8859997
1.900000000,6.9029999,6.9040003,6.9049997,6.9060001
1.920000000,6.9229999,6.9239998,6.9250002,6.9260001
1.940000000,6.9429998,6.9440002,6.9449997,6.9460001
1.960000000,6.9630003,6.9639997,6.9650002,6.9660001
1.980000000,6.9829998,6.9840002,6.9850001,6.9860001
