# Event Log definition for ccrt;*** Save with semicolon separators ***;;;;;
#;;;;;;
CLASS;ccrt;;;;;
NUM_DEVICES;1;;;;;
NUM_RECORDS;200; # Total number of record for normal and frequent events;;;;
NUM_FREQ_EVT_RECORDS;100; # If frequent events buffer not required then set to 0;;;;
FREQ_EVT_ITERATIONS;400; # Ignored if NUM_FREQ_EVT_RECORDS = 0;;;;
FILTERING_ITERATIONS;100; # Must be less than FREQ_EVT_ITERATIONS if NUM_FREQ_EVT_RECORDS > 0;;;;
CHANGED_FUNCTION;ccEvtlogChangedFunction; # Call back function taking void* and returning void: delete, set to blank or NULL if not required;;;;
LOCK_FUNCTION;ccEvtlogLockFunction; # Call back function taking void* and returning void: delete, set to blank or NULL if not required;;;;
UNLOCK_FUNCTION;ccEvtlogUnlockFunction; # Call back function taking void* and returning void: delete, set to blank or NULL if not required;;;;
LOCK_DATA;&ccrun.evtlog_mutex; # Pointer to argument for LOCK/UNLOCK_FUNCTION: delete, set to blank or NULL if not required;;;;
#;;;;;;
# PROPERTY;NAME;CHANGED_USER_DATA;SOURCE;VALUE_TYPE;FORMAT_TYPE;SYMLIST
;;;;;;
;;;;;;
;;;;;;
;;;;;;
;;;;;;
;;;;;;
;;;;;;
;;;;;;
;;;;;;
;;;;;;
;;;;;;
;;;;;;
;;;;;;
;;;;;;
;;;;;;
;;;;;;
;;;;;;
# Properties for testing libevtlog;;;;;;
#;;;;;;
PROPERTY;EVT UINT8;&evt_pars[EVT_INTEGER];&ccpars_evt.integer.u8;uint8_t;NUMERIC;
PROPERTY;EVT UINT16;NULL;&ccpars_evt.integer.u16;uint16_t;NUMERIC;
PROPERTY;EVT UINT32;;&ccpars_evt.integer.u32;uint32_t;NUMERIC;
#;;;;;;
PROPERTY;EVT ENUM1;&evt_pars[EVT_ENUM1_VALUE];&ccpars_evt.enum1;enum EVT_enum;ENUM;EVT_ENUM
PROPERTY;EVT ENUM2;&evt_pars[EVT_ENUM2];&ccpars_evt.enum2;enum EVT_enum;ENUM;EVT_ENUM
#;;;;;;
PROPERTY;EVT BITMASK1;&evt_pars[EVT_BITMASK1];&ccpars_evt.bitmask1;uint32_t;BITMASK;EVT_BITMASK
PROPERTY;EVT BITMASK2;&evt_pars[EVT_BITMASK2];&ccpars_evt.bitmask2;uint32_t;BITMASK;EVT_BITMASK
#;;;;;;
;;;;;;
;;;;;;
;;;;;;
;;;;;;
# WHERE;CHANGED_USER_DATA =;Pointer argument for CHANGED_FUNCTION: leave blank or NULL if not required;;;;
#;SOURCE =;Pointer to property variable of type VALUE_TYPE;;;;
# ;VALUE_TYPE = ;uint8_t | uint16_t | uint32_t | enum xxxx;;;;
#;FORMAT_TYPE = ;NUMERIC | ENUM | BITMASK;;;;
#;SYMLIST = ;Symlist name if FORMAT_TYPE = NUMERIC or ENUM, ignored otherwise;;;;
#;;;;;;
# Symbols for libref properties;;;;;;
#;;;;;;
;;;;;;
;;;;;;
;;;;;;
;;;;;;
;;;;;;
;;;;;;
;;;;;;
;;;;;;
;;;;;;
;;;;;;
;;;;;;
;;;;;;
#;;;;;;
# Symbols for testing libevtlog;;;;;;
#;;;;;;
SYMLIST;EVT_ENUM;;;;;
SYMBOL;ENUM0;0;;;;
SYMBOL;ENUM1;1;;;;
SYMBOL;ENUM2;2;;;;
SYMBOL;ENUM3;3;;;;
SYMBOL;ENUM4;4;;;;
SYMBOL;ENUM5;5;;;;
SYMBOL;ENUM6;6;;;;
SYMBOL;ENUM7;7;;;;
#;;;;;;
SYMLIST;EVT_BITMASK;;;;;
SYMBOL;BIT0;0x0001;;;;
SYMBOL;BIT1;0x0002;;;;
SYMBOL;BIT2;0x0004;;;;
SYMBOL;BIT3;0x0008;;;;
SYMBOL;BIT4;0x0010;;;;
SYMBOL;BIT5;0x0020;;;;
SYMBOL;BIT6;0x0040;;;;
SYMBOL;BIT7;0x0080;;;;
SYMBOL;BIT8;0x0100;;;;
SYMBOL;BIT9;0x0200;;;;
SYMBOL;BIT10;0x0400;;;;
SYMBOL;BIT11;0x0800;;;;
SYMBOL;BIT12;0x1000;;;;
SYMBOL;BIT13;0x2000;;;;
SYMBOL;BIT14;0x4000;;;;
SYMBOL;BIT15;0x8000;;;;
#;;;;;;
# EOF;;;;;;
