source:ccrt device:td_15 epoch:1673450478 timeOrigin:1.010000000 firstSampleTime:0.610000000 period:0.001000000 name:I_MEAS_MPX type:analog,I_REF_DELAYED_(A) STEP,I_ERR_(A) STEP
0.610000000,-10,1.925786
0.611000000,-10,1.9741182
0.612000000,-10,2.024127
0.613000000,-10,2.076313
0.614000000,-10,2.1293874
0.615000000,-10,2.182147
0.616000000,-10,2.2343092
0.617000000,-10,2.2859063
0.618000000,-10,2.3369741
0.619000000,-10,2.3875289
0.620000000,-10,2.437583
0.621000000,-10,2.4875965
0.622000000,-10,2.5386529
0.623000000,-10,2.5911155
0.624000000,-10,2.6440806
0.625000000,-10,2.6967034
0.626000000,-10,2.748785
0.627000000,-10,2.8003507
0.628000000,-10,2.851428
0.629000000,-10,2.9020305
0.630000000,-10,2.9521694
0.631000000,-10,3.0022516
0.632000000,-10,3.053237
0.633000000,-10,3.1054511
0.634000000,-10,3.1580939
0.635000000,-10,3.2104163
0.636000000,-10,3.2622423
0.637000000,-10,3.3135943
0.638000000,-10,3.3644953
0.639000000,-10,3.4149575
0.640000000,-10,3.4649906
0.641000000,-10,3.5149078
0.642000000,-10,3.5654507
0.643000000,-10,3.6168718
0.644000000,-10,3.6685576
0.645000000,-10,3.719934
0.646000000,-10,3.7708645
0.647000000,-10,3.8213677
0.648000000,-10,3.8714619
0.649000000,-10,3.9211574
0.650000000,-10,3.9704618
0.651000000,-10,4.0196738
0.652000000,-10,4.0694981
0.653000000,-10,4.1201768
0.654000000,-10,4.1711259
0.655000000,-10,4.2217965
0.656000000,-10,4.2720585
0.657000000,-10,4.321928
0.658000000,-10,4.3714218
0.659000000,-10,4.4205489
0.660000000,-10,4.4693155
0.661000000,-10,4.518012
0.662000000,-10,4.5673261
0.663000000,-10,4.6174927
0.664000000,-10,4.6679435
0.665000000,-10,4.718142
0.666000000,-10,4.767961
0.667000000,-10,4.8174148
0.668000000,-10,4.8665199
0.669000000,-10,4.9152832
0.670000000,-10,4.9637108
0.671000000,-10,5.0121007
0.672000000,-10,5.0611601
0.673000000,-10,5.1111369
0.674000000,-10,5.1614499
0.675000000,-10,5.2115536
0.676000000,-10,5.2613211
0.677000000,-10,5.3107724
0.678000000,-10,5.3599296
0.679000000,-10,5.4088035
0.680000000,-10,5.4574046
0.681000000,-10,5.5060053
0.682000000,-10,5.5552478
0.683000000,-10,5.6053605
0.684000000,-10,5.6558218
0.685000000,-10,5.70614
0.686000000,-10,5.7562003
0.687000000,-10,5.8060184
0.688000000,-10,5.8556132
0.689000000,-10,5.904994
0.690000000,-10,5.9541693
0.691000000,-10,6.0033236
0.692000000,-10,6.0528927
0.693000000,-10,6.103034
0.694000000,-10,6.1534004
0.695000000,-10,6.203661
0.696000000,-10,6.2537394
0.697000000,-10,6.303648
0.698000000,-10,6.3534012
0.699000000,-10,6.4030066
0.700000000,-10,6.4524708
0.701000000,-10,6.501914
0.702000000,-10,6.5516195
0.703000000,-10,6.6016903
0.704000000,-10,6.6519065
0.705000000,-10,6.7020578
0.706000000,-10,6.7520967
0.707000000,-10,6.8020334
0.708000000,-10,6.8518786
0.709000000,-10,6.9016385
0.710000000,-10,6.9513197
0.711000000,-9.9549999,6.9559851
0.712000000,-9.9099998,6.9607754
0.713000000,-9.8649998,6.9657435
0.714000000,-9.8200006,6.9707799
0.715000000,-9.7750006,6.9757757
0.716000000,-9.7300005,6.9807057
0.717000000,-9.6850004,6.9855709
0.718000000,-9.6400013,6.990375
0.719000000,-9.5950012,6.9951158
0.720000000,-9.5500011,6.999794
0.721000000,-9.500001,6.9994435
0.722000000,-9.4500008,6.9991446
0.723000000,-9.4000015,6.9989262
0.724000000,-9.3500013,6.9987221
0.725000000,-9.3000011,6.9984684
0.726000000,-9.250001,6.9981513
0.727000000,-9.2000008,6.9977703
0.728000000,-9.1500015,6.9973288
0.729000000,-9.1000013,6.9968238
0.730000000,-9.0500011,6.9962568
0.731000000,-9.000001,6.9956951
0.732000000,-8.9500008,6.9953003
0.733000000,-8.9000015,6.9951315
0.734000000,-8.8500013,6.9950542
0.735000000,-8.8000011,6.9949417
0.736000000,-8.750001,6.9947624
0.737000000,-8.7000008,6.9945183
0.738000000,-8.6500015,6.9942131
0.739000000,-8.6000013,6.993845
0.740000000,-8.5500011,6.9934149
0.741000000,-8.500001,6.9929957
0.742000000,-8.4500008,6.9927654
0.743000000,-8.4000015,6.9927888
0.744000000,-8.3500013,6.9929185
0.745000000,-8.3000011,6.9930153
0.746000000,-8.250001,6.9930449
0.747000000,-8.2000008,6.9930096
0.748000000,-8.1500015,6.9929123
0.749000000,-8.1000013,6.9927521
0.750000000,-8.0500011,6.9925289
0.751000000,-8.000001,6.9923143
0.752000000,-7.9500012,6.99228
0.753000000,-7.900001,6.992487
0.754000000,-7.8500013,6.992795
0.755000000,-7.8000011,6.9930687
0.756000000,-7.750001,6.9932747
0.757000000,-7.7000012,6.9934163
0.758000000,-7.650001,6.9934945
0.759000000,-7.6000013,6.9935102
0.760000000,-7.5500011,6.9934635
0.761000000,-7.500001,6.9934168
0.762000000,-7.4500012,6.9935226
0.763000000,-7.400001,6.993835
0.764000000,-7.3500013,6.9942307
0.765000000,-7.3000011,6.9945884
0.766000000,-7.250001,6.9948788
0.767000000,-7.2000012,6.9951048
0.768000000,-7.150001,6.9952674
0.769000000,-7.1000013,6.9953675
0.770000000,-7.0500011,6.9954052
0.771000000,-7.000001,6.9902835
0.772000000,-6.9500012,6.9676232
0.773000000,-6.900001,6.9229708
0.774000000,-6.8500013,6.8664818
0.775000000,-6.8000011,6.8079104
0.776000000,-6.750001,6.7496819
0.777000000,-6.7000012,6.6916494
0.778000000,-6.650001,6.6336403
0.779000000,-6.6000013,6.5756326
0.780000000,-6.5500011,6.517632
0.781000000,-6.500001,6.4609799
0.782000000,-6.4500012,6.4089284
0.783000000,-6.400001,6.3626461
0.784000000,-6.3500013,6.3194666
0.785000000,-6.3000011,6.2768269
0.786000000,-6.250001,6.2340903
0.787000000,-6.2000012,6.1912971
0.788000000,-6.150001,6.1484904
0.789000000,-6.1000013,6.1056776
0.790000000,-6.0500011,6.0628562
0.791000000,-6.000001,6.0192432
0.792000000,-5.9500012,5.9729385
0.793000000,-5.900001,5.9232578
0.794000000,-5.8500013,5.8717613
0.795000000,-5.8000011,5.8199449
0.796000000,-5.750001,5.7681818
0.797000000,-5.7000012,5.7164497
0.798000000,-5.650001,5.6647215
0.799000000,-5.6000013,5.6129947
0.800000000,-5.5500011,5.5612693
0.801000000,-5.500001,5.5097523
0.802000000,-5.4500012,5.4589453
0.803000000,-5.400001,5.4090276
0.804000000,-5.3500013,5.3595891
0.805000000,-5.3000011,5.3102345
0.806000000,-5.250001,5.2608652
0.807000000,-5.2000012,5.2114882
0.808000000,-5.150001,5.1621099
0.809000000,-5.1000013,5.112731
0.810000000,-5.0500011,5.0633512
0.811000000,-5.000001,5.0138283
0.812000000,-4.9500012,4.9638166
0.813000000,-4.900001,4.9131913
0.814000000,-4.8500013,4.8622365
0.815000000,-4.8000011,4.8112245
0.816000000,-4.750001,4.7602224
0.817000000,-4.7000012,4.709228
0.818000000,-4.650001,4.6582341
0.819000000,-4.6000013,4.6072421
0.820000000,-4.5500011,4.5562506
0.821000000,-4.500001,4.5053144
0.822000000,-4.4500012,4.454567
0.823000000,-4.400001,4.4040537
0.824000000,-4.3500013,4.3536682
0.825000000,-4.3000011,4.3033047
0.826000000,-4.250001,4.2529383
0.827000000,-4.2000012,4.2025709
0.828000000,-4.150001,4.1522031
0.829000000,-4.1000013,4.1018367
0.830000000,-4.0500011,4.0514703
0.831000000,-4.000001,4.0011001
0.832000000,-3.9500012,3.9507167
0.833000000,-3.900001,3.900316
0.834000000,-3.8500013,3.8499067
0.835000000,-3.8000011,3.7994959
0.836000000,-3.750001,3.7490859
0.837000000,-3.7000012,3.6986771
0.838000000,-3.650001,3.6482682
0.839000000,-3.6000013,3.5978603
0.840000000,-3.5500011,3.5474524
0.841000000,-3.500001,3.4970729
0.842000000,-3.4500012,3.4467895
0.843000000,-3.400001,3.3966258
0.844000000,-3.3500013,3.3465271
0.845000000,-3.3000011,3.2964396
0.846000000,-3.250001,3.2463503
0.847000000,-3.2000012,3.1962607
0.848000000,-3.150001,3.1461706
0.849000000,-3.1000013,3.096081
0.850000000,-3.0500011,3.0459912
0.851000000,-3.000001,2.9959116
0.852000000,-2.9500012,2.9458673
0.853000000,-2.900001,2.8958659
0.854000000,-2.8500013,2.8458886
0.855000000,-2.8000011,2.7959151
0.856000000,-2.7500007,2.7459404
0.857000000,-2.700001,2.6959662
0.858000000,-2.6500008,2.6459913
0.859000000,-2.6000011,2.5960169
0.860000000,-2.5500009,2.5460422
0.861000000,-2.5000007,2.4960761
0.862000000,-2.450001,2.446141
0.863000000,-2.4000008,2.3962438
0.864000000,-2.3500011,2.3463676
0.865000000,-2.3000009,2.2964945
0.866000000,-2.2500007,2.2466207
0.867000000,-2.200001,2.1967466
0.868000000,-2.1500008,2.146872
0.869000000,-2.1000011,2.0969977
0.870000000,-2.0500009,2.047123
0.871000000,-2.0000007,1.9972486
0.872000000,-1.950001,1.9473773
0.873000000,-1.9000008,1.8975086
0.874000000,-1.8500011,1.8476421
0.875000000,-1.8000009,1.7977751
0.876000000,-1.7500007,1.747908
0.877000000,-1.700001,1.6980411
0.878000000,-1.6500008,1.6481736
0.879000000,-1.6000011,1.5983064
0.880000000,-1.5500009,1.5484385
0.881000000,-1.5000007,1.4985687
0.882000000,-1.450001,1.4486923
0.883000000,-1.4000008,1.3988072
0.884000000,-1.3500011,1.3489178
0.885000000,-1.3000009,1.2990272
0.886000000,-1.2500007,1.2491364
0.887000000,-1.200001,1.199246
0.888000000,-1.1500008,1.1493552
0.889000000,-1.1000011,1.0994645
0.890000000,-1.0500009,1.0495734
0.891000000,-1.0000007,0.99967819
0.892000000,-0.950001,0.94977021
0.893000000,-0.90000081,0.89984518
0.894000000,-0.8500011,0.84991163
0.895000000,-0.80000091,0.79997593
0.896000000,-0.75000072,0.75004035
0.897000000,-0.70000094,0.70010531
0.898000000,-0.65000075,0.65016979
0.899000000,-0.60000104,0.60023463
0.900000000,-0.55000085,0.55029893
0.901000000,-0.50000066,0.50035965
0.902000000,-0.45000097,0.45040882
0.903000000,-0.40000075,0.4004423
0.904000000,-0.35000104,0.35046816
0.905000000,-0.30000085,0.30049208
0.906000000,-0.25000066,0.25051618
0.907000000,-0.20000091,0.20054083
0.908000000,-0.15000072,0.15056501
0.909000000,-0.10000101,0.10058963
0.910000000,-0.050000805,0.050613735
0.911000000,-0.045000706,0.045635361
0.912000000,-0.040000655,0.040648278
0.913000000,-0.035000555,0.035650164
0.914000000,-0.030000502,0.030646181
0.915000000,-0.025000403,0.025641114
0.916000000,-0.020000303,0.02063622
0.917000000,-0.015000251,0.015631469
0.918000000,-0.010000152,0.010626686
0.919000000,-0.0050000995,0.0056219511
0.920000000,0,0.00061717309
0.921000000,0,0.00061122305
0.922000000,0,0.00060089765
0.923000000,0,0.00058508024
0.924000000,0,0.00056631694
0.925000000,0,0.00054705306
0.926000000,0,0.00052789651
0.927000000,0,0.00050881034
0.928000000,0,0.00048975146
0.929000000,0,0.00047071418
0.930000000,0,0.00045170012
0.931000000,0,0.00043244063
0.932000000,0,0.00041228181
0.933000000,0,0.00039098831
0.934000000,0,0.00036909655
0.935000000,0,0.00034712176
0.936000000,0,0.00032519197
0.937000000,0,0.00030329937
0.938000000,0,0.00028143488
0.939000000,0,0.00025959723
0.940000000,0,0.00023778676
0.941000000,0,0.00021637166
0.942000000,0,0.00019624605
0.943000000,0,0.00017773155
0.944000000,0,0.0001600946
0.945000000,0,0.00014263068
0.946000000,0,0.00012516462
0.947000000,0,0.00010770699
0.948000000,0,9.0270216e-05
0.949000000,0,7.2855866e-05
0.950000000,0,5.5463457e-05
0.951000000,0,3.8705784e-05
0.952000000,0,2.4071825e-05
0.953000000,0,1.2097274e-05
0.954000000,0,1.5605449e-06
0.955000000,0,-8.7115704e-06
0.956000000,0,-1.9010811e-05
0.957000000,0,-2.9319457e-05
0.958000000,0,-3.9616836e-05
0.959000000,0,-4.99003e-05
0.960000000,0,-6.0170623e-05
0.961000000,0,-6.9844085e-05
0.962000000,0,-7.7502038e-05
0.963000000,0,-8.2634106e-05
0.964000000,0,-8.6404129e-05
0.965000000,0,-8.9929876e-05
0.966000000,0,-9.3489296e-05
0.967000000,0,-9.7065495e-05
0.968000000,0,-0.00010063876
0.969000000,0,-0.00010420657
0.970000000,0,-0.00010776964
0.971000000,0,-0.00011091895
0.972000000,0,-0.00011266026
0.973000000,0,-0.00011263584
0.974000000,0,-0.00011166136
0.975000000,0,-0.00011052021
0.976000000,0,-0.00010940717
0.977000000,0,-0.0001083104
0.978000000,0,-0.00010721608
0.979000000,0,-0.00010612243
0.980000000,0,-0.00010502996
0.981000000,0,-0.00010373586
0.982000000,0,-0.00010174704
0.983000000,0,-9.8886077e-05
0.984000000,0,-9.5557494e-05
0.985000000,0,-9.2149807e-05
0.986000000,0,-8.8759618e-05
0.987000000,0,-8.5381049e-05
0.988000000,0,-8.2007238e-05
0.989000000,0,-7.8637291e-05
0.990000000,0,-7.5271462e-05
0.991000000,0,-7.1875438e-05
0.992000000,0,-6.8365589e-05
0.993000000,0,-6.4711829e-05
0.994000000,0,-6.0982751e-05
0.995000000,0,-5.7244219e-05
0.996000000,0,-5.3512602e-05
0.997000000,0,-4.9786897e-05
0.998000000,0,-4.6065943e-05
0.999000000,0,-4.2349584e-05
1.000000000,0,-3.8637852e-05
1.001000000,0,-3.4998418e-05
1.002000000,0,-3.1595624e-05
1.003000000,0,-2.848859e-05
1.004000000,0,-2.5542482e-05
1.005000000,0,-2.2627808e-05
1.006000000,0,-1.9712368e-05
1.007000000,0,-1.6798112e-05
1.008000000,0,-1.3887322e-05
1.009000000,0,-1.0980284e-05
1.010000000,0,-8.0769114e-06
