! S LIMITS.I.MIN                     0.00000E+00
! S LIMITS.I.CLOSELOOP               0.00000E+00
! S LIMITS.I.POS              6.00000E+02
! S LIMITS.I.NEG              -6.0000E+02
! S LIMITS.I.RATE               5.00000E+00
! S LIMITS.I.ACCELERATION             1.50000E+04
! S REF.RATE.I.STARTING             1.00000E+00
! S REF.RATE.I.TO_STANDBY           5.00000E+00
! S REF.RATE.I.STOPPING             1.00000E+00
! S LOAD.HENRYS                1.70000E+00
! S LOAD.OHMS_SER              1.61000E-02
! S REF.DEFAULTS.I.ACCELERATION          2.00000E+00
! S REF.DEFAULTS.I.LINEAR_RATE           4.00000E+00
! S REF.DEFAULTS.V.ACCELERATION          1.00000E+00
! S REF.DEFAULTS.V.LINEAR_RATE           1.00000E+01
! S VS.GAIN                        1.00000E+00
! S LIMITS.V.POS                1.00000E+01
! S LIMITS.V.NEG                -1.0000E+01
! S LIMITS.I.QUADRANTS41                -6.0000E+02,-3.0000E+02
! S LIMITS.V.QUADRANTS41                5.00000E+00,1.00000E+01
! S VS.OFFSET                      0.00000E+00
! S LIMITS.I.HARDWARE           6.00000E+02
! S DCCT.A.GAIN                    6.00000E+01
! S DCCT.B.GAIN                    6.00000E+01
! S REG.I.CLBW                     1.00000E+00
! S REG.I.CLBW2                    1.00000E+00
! S REG.I.PERIOD_DIV                   100
! S MODE.OP                        SIMULATION
