! S CAL.A.DCCT.HEADERR		   0
! S CAL.A.DCCT.ERR		   0
! S CAL.A.DCCT.TC		   0
! S CAL.A.DCCT.DTC		   0
! S CAL.B.DCCT.HEADERR		   0
! S CAL.B.DCCT.ERR		   0
! S CAL.B.DCCT.TC		   0
! S CAL.B.DCCT.DTC		   0
#! S MODE.OP                        NORMAL
! S DCCT.SELECT                    AB
! S MEAS.SIM                       DISABLED
! S VS.SIM_INTLKS                  DISABLED
! S REF.FUNC.REG_MODE              I
! S ADC.EXTERNAL                   DISABLED
! S DCCT.TAU_TEMP                  5.00000E+02
! S DCCT.PRIMARY_TURNS             1
! S LIMITS.I.ERR_FAULT             1.00000E+02
! S LIMITS.I.ERR_WARNING           1.00000E+01
! S REG.I.Z                        5.00000E-01
! S LOAD.OHMS_PAR                  1.00000E+08
! S LOAD.SELECT                    0
! S MODE.RT                        DISABLED
! S LIMITS.I.MEAS_DIFF             1.00000E+00
! S LIMITS.I.ACCESS                0.00000E+00
! S SWITCH.POLARITY.TIMEOUT        0
! S LIMITS.V.RATE                  1.00000E+04
! S LIMITS.V.ERR_WARNING           1.00000E+01
! S LIMITS.V.ERR_FAULT             0.00000E+00
! S LIMITS.I.EARTH                 5.00000E-02
! S VS.VSRUN_TIMEOUT               10.0000
#! S CAL				   DAC


