HCRAKUL003,DCCT.A.GAIN,1.00E+02,
HCRAKUL003,DCCT.B.GAIN,1.60E+02,
HCRAKUL003,DCCT.TAU_TEMP,5.00E+02,
HCRPADM___,DCCT.PRIMARY_TURNS,1,
HCRPADM___,LIMITS.I.ACCESS,1.00E+06,
HCRPADM___,LIMITS.I.EARTH,1.00E+00,
HCRPADM___,LIMITS.I.MEAS_DIFF,1.00E+00,
HCRPADM___,LIMITS.I.QUADRANTS41,0.00E+00,0.00E+00
HCRPADM___,LIMITS.V.ERR_FAULT,0.00E+00,
HCRPADM___,LIMITS.V.ERR_WARNING,0.00E+00,
HCRPADM___,LIMITS.V.QUADRANTS41,0.00E+00,0.00E+00
HCRPADM___,LIMITS.V.RATE,1.00E+02,
HCRPADM___,REF.DEFAULTS.V.ACCELERATION,1.00E+02,
HCRPADM___,REF.DEFAULTS.V.LINEAR_RATE,1.00E+02,
HCRPADM___,SWITCH.POLARITY.TIMEOUT,0,
HCRPADM___,VS.BLOCKABLE,ENABLED,
HCRPADM___,VS.GAIN,3.00E+00,
HCRPADM___,VS.VSRUN_TIMEOUT,2.00E+01,
