source:ccrt device:rst-20 epoch:1673450515 timeOrigin:1.370000000 firstSampleTime:0.170000000 period:0.010000000 name:I_REG type:analog,I_MEAS_REG_(A),I_REF_USER_(A) STEP +0.009000000,I_REF_ADV_(A) STEP,I_REF_LIMITED_(A) STEP,I_REF_CLOSED_(A) STEP,V_REF_(V) STEP,V_MEAS_(V)
0.170000000,0,0,0,0,0,0,0
0.180000000,0,0,0,0,0,0,0
0.190000000,0,0,0,0,0,0,0
0.200000000,0,0,0,0,0,0,0
0.210000000,0,0,0,0,0,0,0
0.220000000,0,0,0,0,0,0,0
0.230000000,0,0,0,0,0,0,0
0.240000000,0,0,0,0,0,0,0
0.250000000,0,0,0,0,0,0,0
0.260000000,0,0,0,0,0,0,0
0.270000000,0,0.44999984,0.44999984,0.44999984,0.44999984,0.16794422,0
0.280000000,0.2099314,0.94999987,0.94999987,0.94999987,0.94999987,0.44414482,0.16794512
0.290000000,0.55518281,1.4499998,1.4499998,1.4499998,1.4499998,0.77809906,0.44414628
0.300000000,0.97262597,1.9499998,1.9499998,1.9499998,1.9499998,1.1428643,0.77810079
0.310000000,1.4285829,2.4499998,2.4499998,2.4499998,2.4499998,1.5240669,1.1428664
0.320000000,1.9050863,2.9499998,2.9499998,2.9499998,2.9499998,1.9140387,1.5240691
0.330000000,2.3925507,3.4499998,3.4499998,3.4499998,3.4499998,2.3086889,1.9140407
0.340000000,2.8858635,3.9499998,3.9499998,3.9499998,3.9499998,2.7058346,2.308691
0.350000000,3.3822961,4.4499998,4.4499998,4.4499998,4.4499998,3.1043119,2.7058368
0.360000000,3.8803926,4.9499998,4.9499998,4.9499998,4.9499998,3.5034995,3.1043141
0.370000000,4.3793774,5.4499998,5.4499998,5.4499998,5.4499998,3.9030662,3.5035017
0.380000000,4.8788357,5.9499998,5.9499998,5.9499998,5.9499998,4.302835,3.9030685
0.390000000,5.3785467,6.4499998,6.4499998,6.4499998,6.4499998,4.7027116,4.3028369
0.400000000,5.8783927,6.9499998,6.9499998,6.9499998,6.9499998,5.1026459,4.702714
0.410000000,6.3783097,7.4499998,7.4499998,7.4499998,7.4499998,5.5026107,5.1026478
0.420000000,6.8782659,7.9499998,7.9499998,7.9499998,7.9499998,5.9025922,5.5026126
0.430000000,7.378243,8.4499998,8.4499998,8.4499998,8.4499998,6.3025823,5.9025941
0.440000000,7.878231,8.9499998,8.9499998,8.9499998,8.9499998,6.7025766,6.3025846
0.450000000,8.3782234,9.4499998,9.4499998,9.4499998,9.4499998,7.1025739,6.7025785
0.460000000,8.8782206,9.9499998,9.9499998,9.9499998,9.9499998,7.5025721,7.1025758
0.470000000,9.3782187,10,10,10,10,7.7346268,7.5025744
0.480000000,9.6682854,10,10,10,10,7.8584261,7.7346282
0.490000000,9.8230333,10,10,10,10,7.9244719,7.858427
0.500000000,9.9055901,10,10,10,10,7.9597068,7.9244723
0.510000000,9.9496336,10,10,10,10,7.9785042,7.9597068
0.520000000,9.9731312,10,10,10,10,7.9885321,7.9785047
0.530000000,9.9856644,10,10,10,10,7.9938822,7.9885316
0.540000000,9.9923525,10,10,10,10,7.9967365,7.9938822
0.550000000,9.9959202,10,10,10,10,7.9982591,7.9967365
0.560000000,9.9978237,10,10,10,10,7.9990716,7.9982586
0.570000000,9.9988384,10,10,10,10,7.999505,7.9990711
0.580000000,9.9993811,10,10,10,10,7.9997363,7.999505
0.590000000,9.999671,10,10,10,10,7.9998593,7.9997368
0.600000000,9.9998245,10,10,10,10,7.9999251,7.9998593
0.610000000,9.9999065,10,10,10,10,7.9999599,7.9999251
0.620000000,9.9999504,10,10,10,10,7.9999785,7.9999599
0.630000000,9.9999733,10,10,10,10,7.9999886,7.9999785
0.640000000,9.9999857,10,10,10,10,7.9999938,7.9999886
0.650000000,9.9999924,10,10,10,10,7.9999967,7.9999943
0.660000000,9.9999962,10,10,10,10,7.9999981,7.9999967
0.670000000,9.9999981,9.1000013,9.1000013,9.1000013,9.1000013,7.6641107,7.9999981
0.680000000,9.5801353,8.1000013,8.1000013,8.1000013,8.1000013,7.1117105,7.6641088
0.690000000,8.8896351,7.1000009,7.1000009,7.1000009,7.1000009,6.4438019,7.1117077
0.700000000,8.0547476,6.1000013,6.1000013,6.1000013,6.1000013,5.714272,6.4437981
0.710000000,7.1428356,5.1000013,5.1000013,5.1000013,5.1000013,4.9518671,5.7142687
0.720000000,6.1898289,4.1000013,4.1000013,4.1000013,4.1000013,4.1719236,4.9518628
0.730000000,5.2148995,3.1000013,3.1000013,3.1000013,3.1000013,3.3826234,4.1719193
0.740000000,4.2282739,2.1000016,2.1000016,2.1000016,2.1000016,2.5883319,3.3826191
0.750000000,3.23541,1.1000016,1.1000016,1.1000016,1.1000016,1.7913772,2.5883281
0.760000000,2.2392161,0.10000161,0.10000161,0.10000161,0.10000161,0.993002,1.7913729
0.770000000,1.2412473,-0.89999831,-0.89999831,-0.89999831,-0.89999831,0.19386874,0.99299783
0.780000000,0.24233064,-1.8999982,-1.8999982,-1.8999982,-1.8999982,-0.60566878,0.19386451
0.790000000,-0.75709128,-2.8999982,-2.8999982,-2.8999982,-2.8999982,-1.4054221,-0.60567302
0.800000000,-1.7567829,-3.8999982,-3.8999982,-3.8999982,-3.8999982,-2.2052906,-1.4054264
0.810000000,-2.7566185,-4.8999982,-4.8999982,-4.8999982,-4.8999982,-3.0052204,-2.2052946
0.820000000,-3.7565308,-5.8999977,-5.8999977,-5.8999977,-5.8999977,-3.8051827,-3.0052247
0.830000000,-4.7564836,-6.8999977,-6.8999977,-6.8999977,-6.8999977,-4.6051626,-3.805187
0.840000000,-5.7564588,-7.8999977,-7.8999977,-7.8999977,-7.8999977,-5.4051518,-4.6051674
0.850000000,-6.7564449,-8.8999977,-8.8999977,-8.8999977,-8.8999977,-6.2051463,-5.4051561
0.860000000,-7.7564383,-9.8999977,-9.8999977,-9.8999977,-9.8999977,-7.0051432,-6.2051506
0.870000000,-8.7564344,-10,-10,-10,-10,-7.469254,-7.0051475
0.880000000,-9.3365707,-10,-10,-10,-10,-7.7168522,-7.4692569
0.890000000,-9.6460667,-10,-10,-10,-10,-7.8489437,-7.7168536
0.900000000,-9.8111811,-10,-10,-10,-10,-7.9194131,-7.8489447
0.910000000,-9.8992653,-10,-10,-10,-10,-7.9570084,-7.9194126
0.920000000,-9.9462614,-10,-10,-10,-10,-7.9770641,-7.9570088
0.930000000,-9.9713306,-10,-10,-10,-10,-7.9877639,-7.9770641
0.940000000,-9.984705,-10,-10,-10,-10,-7.9934721,-7.9877644
0.950000000,-9.9918404,-10,-10,-10,-10,-7.9965177,-7.9934721
0.960000000,-9.9956474,-10,-10,-10,-10,-7.9981422,-7.9965181
0.970000000,-9.9976778,-10,-10,-10,-10,-7.9990091,-7.9981422
0.980000000,-9.9987612,-10,-10,-10,-10,-7.9994717,-7.9990091
0.990000000,-9.9993401,-10,-10,-10,-10,-7.9997182,-7.9994717
1.000000000,-9.9996481,-10,-10,-10,-10,-7.9998498,-7.9997187
1.010000000,-9.9998121,-10,-10,-10,-10,-7.9999199,-7.9998498
1.020000000,-9.9998999,-10,-10,-10,-10,-7.9999576,-7.9999199
1.030000000,-9.9999475,-10,-10,-10,-10,-7.9999771,-7.999958
1.040000000,-9.9999714,-10,-10,-10,-10,-7.9999881,-7.9999771
1.050000000,-9.9999847,-10,-10,-10,-10,-7.9999938,-7.9999881
1.060000000,-9.9999924,-10,-10,-10,-10,-7.9999967,-7.9999943
1.070000000,-9.9999962,-9.5500011,-9.5500011,-9.5500011,-9.5500011,-7.8320541,-7.9999967
1.080000000,-9.7900677,-9.0500011,-9.0500011,-9.0500011,-9.0500011,-7.5558543,-7.8320537
1.090000000,-9.4448156,-8.5500002,-8.5500002,-8.5500002,-8.5500002,-7.2219009,-7.5558529
1.100000000,-9.0273743,-8.0500002,-8.0500002,-8.0500002,-8.0500002,-6.8571358,-7.2218995
1.110000000,-8.5714178,-7.5500007,-7.5500007,-7.5500007,-7.5500007,-6.4759331,-6.8571343
1.120000000,-8.0949144,-7.0500007,-7.0500007,-7.0500007,-7.0500007,-6.0859613,-6.4759316
1.130000000,-7.6074491,-6.5500007,-6.5500007,-6.5500007,-6.5500007,-5.6913118,-6.0859594
1.140000000,-7.1141367,-6.0500007,-6.0500007,-6.0500007,-6.0500007,-5.2941661,-5.6913095
1.150000000,-6.6177053,-5.5500002,-5.5500002,-5.5500002,-5.5500002,-4.8956885,-5.2941642
1.160000000,-6.1196079,-5.0500002,-5.0500002,-5.0500002,-5.0500002,-4.496501,-4.8956866
1.170000000,-5.6206236,-4.5500002,-4.5500002,-4.5500002,-4.5500002,-4.0969343,-4.4964991
1.180000000,-5.1211653,-4.0500002,-4.0500002,-4.0500002,-4.0500002,-3.6971653,-4.0969324
1.190000000,-4.6214538,-3.5500002,-3.5500002,-3.5500002,-3.5500002,-3.2972887,-3.6971631
1.200000000,-4.1216083,-3.0500002,-3.0500002,-3.0500002,-3.0500002,-2.8973544,-3.2972865
1.210000000,-3.6216905,-2.5500002,-2.5500002,-2.5500002,-2.5500002,-2.4973893,-2.8973522
1.220000000,-3.1217341,-2.0500002,-2.0500002,-2.0500002,-2.0500002,-2.0974081,-2.4973872
1.230000000,-2.6217575,-1.5500001,-1.5500001,-1.5500001,-1.5500001,-1.697418,-2.0974059
1.240000000,-2.1217699,-1.0500001,-1.0500001,-1.0500001,-1.0500001,-1.2974232,-1.6974159
1.250000000,-1.6217763,-0.55000007,-0.55000007,-0.55000007,-0.55000007,-0.89742613,-1.2974211
1.260000000,-1.1217799,-0.050000004,-0.050000004,-0.050000004,-0.050000004,-0.49742767,-0.89742398
1.270000000,-0.621782,0,0,0,0,-0.26537272,-0.49742559
1.280000000,-0.33171439,0,0,0,0,-0.14157376,-0.26537153
1.290000000,-0.1769664,0,0,0,0,-0.075528212,-0.14157312
1.300000000,-0.094409831,0,0,0,0,-0.040293563,-0.075527862
1.310000000,-0.050366726,0,0,0,0,-0.021496221,-0.040293381
1.320000000,-0.026870154,0,0,0,0,-0.011468024,-0.021496123
1.330000000,-0.014334964,0,0,0,0,-0.0061180792,-0.011467971
1.340000000,-0.0076475632,0,0,0,0,-0.0032639357,-0.0061180508
1.350000000,-0.0040799007,0,0,0,0,-0.0017412779,-0.0032639205
1.360000000,-0.0021765872,0,0,0,0,-0.0009289548,-0.0017412698
1.370000000,-0.0011611881,0,0,0,0,-0.00049558835,-0.00092895055
