--//*****************************************************************************
--// CERN TE-EPC-CC..............................................................
--// SYSTEM: 	VS RegulationDSP
--//		     XILINX: XC3S700AN-4FG484C
--//                 Flash: None
--//
--// DESCRIPTION :
--//		Definition of FGC3CVM protocol FGC3-card
--//		Converter: IGBT_34
--//               ........................................
--// AUTHOR: Gomez Costa J.L.
--//*****************************************************************************

*****************************************************************************
API-Version 200
	DATE: 19/04/2018
	AUTHOR: Gomez Costa J.L.

	Based on Revision 1

	
