! s REG.B.PERIOD 3.00000000e-003
! s REG.B.TRACK_DELAY 8.75017162e-003
! s REG.B.R 4.26079575e+001,-1.00294753e+002,8.26800821e+001,-2.32555751e+001,-8.87859050e-001,-1.81233000e-003,-2.83500000e-005,2.41000000e-006,0.00000000e+000,0.00000000e+000
! s REG.B.S 1.00000000e+000,-2.59016189e+000,2.80881479e+000,-1.82307225e+000,8.23896930e-001,-2.13244900e-001,-6.14726000e-003,-8.54100000e-005,0.00000000e+000,0.00000000e+000
! s REG.B.T 1.10992897e+002,-3.84343006e+002,5.61135151e+002,-4.43746151e+002,2.02988131e+002,-5.29726668e+001,7.14717065e+000,-3.46394670e-001,-7.08429000e-003,-3.15700000e-005
