source:ccrt device:log_03 epoch:1673449999 timeOrigin:2.211000000 firstSampleTime:0.310000000 period:0.001000000 name:FAULTS[3] type:digital,B_MEAS_FLT,B_MEAS_TRIP,B_ERR_FLT,B_RST_FLT,I_MEAS_FLT,I_MEAS_TRIP,I_ERR_FLT,I_RST_FLT,I_RMS_FLT,I_RMS_LOAD_FLT,V_MEAS_FLT,V_MEAS_TRIP,V_ERR_FLT,V_RATE_RMS_FLT,I_CAPA_FLT
0.310000000,0,0,0,0,0,0,0,0,0,0,0,0,0,0,0
0.311000000,0,0,0,0,0,0,0,0,0,0,0,0,0,0,0
0.312000000,0,0,0,0,0,0,0,0,0,0,0,0,0,0,0
0.313000000,0,0,0,0,0,0,0,0,0,0,0,0,0,0,0
0.314000000,0,0,0,0,0,0,0,0,0,0,0,0,0,0,0
0.315000000,0,0,0,0,0,0,0,0,0,0,0,0,0,0,0
0.316000000,0,0,0,0,0,0,0,0,0,0,0,0,0,0,0
0.317000000,0,0,0,0,0,0,0,0,0,0,0,0,0,0,0
0.318000000,0,0,0,0,0,0,0,0,0,0,0,0,0,0,0
0.319000000,0,0,0,0,0,0,0,0,0,0,0,0,0,0,0
0.320000000,0,0,0,0,0,0,0,0,0,0,0,0,0,0,0
0.321000000,0,0,0,0,0,0,0,0,0,0,0,0,0,0,0
0.322000000,0,0,0,0,0,0,0,0,0,0,0,0,0,0,0
0.323000000,0,0,0,0,0,0,0,0,0,0,0,0,0,0,0
0.324000000,0,0,0,0,0,0,0,0,0,0,0,0,0,0,0
0.325000000,0,0,0,0,0,0,0,0,0,0,0,0,0,0,0
0.326000000,0,0,0,0,0,0,0,0,0,0,0,0,0,0,0
0.327000000,0,0,0,0,0,0,0,0,0,0,0,0,0,0,0
0.328000000,0,0,0,0,0,0,0,0,0,0,0,0,0,0,0
0.329000000,0,0,0,0,0,0,0,0,0,0,0,0,0,0,0
0.330000000,0,0,0,0,0,0,0,0,0,0,0,0,0,0,0
0.331000000,0,0,0,0,0,0,0,0,0,0,0,0,0,0,0
0.332000000,0,0,0,0,0,0,0,0,0,0,0,0,0,0,0
0.333000000,0,0,0,0,0,0,0,0,0,0,0,0,0,0,0
0.334000000,0,0,0,0,0,0,0,0,0,0,0,0,0,0,0
0.335000000,0,0,0,0,0,0,0,0,0,0,0,0,0,0,0
0.336000000,0,0,0,0,0,0,0,0,0,0,0,0,0,0,0
0.337000000,0,0,0,0,0,0,0,0,0,0,0,0,0,0,0
0.338000000,0,0,0,0,0,0,0,0,0,0,0,0,0,0,0
0.339000000,0,0,0,0,0,0,0,0,0,0,0,0,0,0,0
0.340000000,0,0,0,0,0,0,0,0,0,0,0,0,0,0,0
0.341000000,0,0,0,0,0,0,0,0,0,0,0,0,0,0,0
0.342000000,0,0,0,0,0,0,0,0,0,0,0,0,0,0,0
0.343000000,0,0,0,0,0,0,0,0,0,0,0,0,0,0,0
0.344000000,0,0,0,0,0,0,0,0,0,0,0,0,0,0,0
0.345000000,0,0,0,0,0,0,0,0,0,0,0,0,0,0,0
0.346000000,0,0,0,0,0,0,0,0,0,0,0,0,0,0,0
0.347000000,0,0,0,0,0,0,0,0,0,0,0,0,0,0,0
0.348000000,0,0,0,0,0,0,0,0,0,0,0,0,0,0,0
0.349000000,0,0,0,0,0,0,0,0,0,0,0,0,0,0,0
0.350000000,0,0,0,0,0,0,0,0,0,0,0,0,0,0,0
0.351000000,0,0,0,0,0,0,0,0,0,0,0,0,0,0,0
0.352000000,0,0,0,0,0,0,0,0,0,0,0,0,0,0,0
0.353000000,0,0,0,0,0,0,0,0,0,0,0,0,0,0,0
0.354000000,0,0,0,0,0,0,0,0,0,0,0,0,0,0,0
0.355000000,0,0,0,0,0,0,0,0,0,0,0,0,0,0,0
0.356000000,0,0,0,0,0,0,0,0,0,0,0,0,0,0,0
0.357000000,0,0,0,0,0,0,0,0,0,0,0,0,0,0,0
0.358000000,0,0,0,0,0,0,0,0,0,0,0,0,0,0,0
0.359000000,0,0,0,0,0,0,0,0,0,0,0,0,0,0,0
0.360000000,0,0,0,0,0,0,0,0,0,0,0,0,0,0,0
0.361000000,0,0,0,0,0,0,0,0,0,0,0,0,0,0,0
0.362000000,0,0,0,0,0,0,0,0,0,0,0,0,0,0,0
0.363000000,0,0,0,0,0,0,0,0,0,0,0,0,0,0,0
0.364000000,0,0,0,0,0,0,0,0,0,0,0,0,0,0,0
0.365000000,0,0,0,0,0,0,0,0,0,0,0,0,0,0,0
0.366000000,0,0,0,0,0,0,0,0,0,0,0,0,0,0,0
0.367000000,0,0,0,0,0,0,0,0,0,0,0,0,0,0,0
0.368000000,0,0,0,0,0,0,0,0,0,0,0,0,0,0,0
0.369000000,0,0,0,0,0,0,0,0,0,0,0,0,0,0,0
0.370000000,0,0,0,0,0,0,0,0,0,0,0,0,0,0,0
0.371000000,0,0,0,0,0,0,0,0,0,0,0,0,0,0,0
0.372000000,0,0,0,0,0,0,0,0,0,0,0,0,0,0,0
0.373000000,0,0,0,0,0,0,0,0,0,0,0,0,0,0,0
0.374000000,0,0,0,0,0,0,0,0,0,0,0,0,0,0,0
0.375000000,0,0,0,0,0,0,0,0,0,0,0,0,0,0,0
0.376000000,0,0,0,0,0,0,0,0,0,0,0,0,0,0,0
0.377000000,0,0,0,0,0,0,0,0,0,0,0,0,0,0,0
0.378000000,0,0,0,0,0,0,0,0,0,0,0,0,0,0,0
0.379000000,0,0,0,0,0,0,0,0,0,0,0,0,0,0,0
0.380000000,0,0,0,0,0,0,0,0,0,0,0,0,0,0,0
0.381000000,0,0,0,0,0,0,0,0,0,0,0,0,0,0,0
0.382000000,0,0,0,0,0,0,0,0,0,0,0,0,0,0,0
0.383000000,0,0,0,0,0,0,0,0,0,0,0,0,0,0,0
0.384000000,0,0,0,0,0,0,0,0,0,0,0,0,0,0,0
0.385000000,0,0,0,0,0,0,0,0,0,0,0,0,0,0,0
0.386000000,0,0,0,0,0,0,0,0,0,0,0,0,0,0,0
0.387000000,0,0,0,0,0,0,0,0,0,0,0,0,0,0,0
0.388000000,0,0,0,0,0,0,0,0,0,0,0,0,0,0,0
0.389000000,0,0,0,0,0,0,0,0,0,0,0,0,0,0,0
0.390000000,0,0,0,0,0,0,0,0,0,0,0,0,0,0,0
0.391000000,0,0,0,0,0,0,0,0,0,0,0,0,0,0,0
0.392000000,0,0,0,0,0,0,0,0,0,0,0,0,0,0,0
0.393000000,0,0,0,0,0,0,0,0,0,0,0,0,0,0,0
0.394000000,0,0,0,0,0,0,0,0,0,0,0,0,0,0,0
0.395000000,0,0,0,0,0,0,0,0,0,0,0,0,0,0,0
0.396000000,0,0,0,0,0,0,0,0,0,0,0,0,0,0,0
0.397000000,0,0,0,0,0,0,0,0,0,0,0,0,0,0,0
0.398000000,0,0,0,0,0,0,0,0,0,0,0,0,0,0,0
0.399000000,0,0,0,0,0,0,0,0,0,0,0,0,0,0,0
0.400000000,0,0,0,0,0,0,0,0,0,0,0,0,0,0,0
0.401000000,0,0,0,0,0,0,0,0,0,0,0,0,0,0,0
0.402000000,0,0,0,0,0,0,0,0,0,0,0,0,0,0,0
0.403000000,0,0,0,0,0,0,0,0,0,0,0,0,0,0,0
0.404000000,0,0,0,0,0,0,0,0,0,0,0,0,0,0,0
0.405000000,0,0,0,0,0,0,0,0,0,0,0,0,0,0,0
0.406000000,0,0,0,0,0,0,0,0,0,0,0,0,0,0,0
0.407000000,0,0,0,0,0,0,0,0,0,0,0,0,0,0,0
0.408000000,0,0,0,0,0,0,0,0,0,0,0,0,0,0,0
0.409000000,0,0,0,0,0,0,0,0,0,0,0,0,0,0,0
0.410000000,0,0,0,0,0,0,0,0,0,0,0,0,0,0,0
0.411000000,0,0,0,0,0,0,0,0,0,0,0,0,0,0,0
0.412000000,0,0,0,0,0,0,0,0,0,0,0,0,0,0,0
0.413000000,0,0,0,0,0,0,0,0,0,0,0,0,0,0,0
0.414000000,0,0,0,0,0,0,0,0,0,0,0,0,0,0,0
0.415000000,0,0,0,0,0,0,0,0,0,0,0,0,0,0,0
0.416000000,0,0,0,0,0,0,0,0,0,0,0,0,0,0,0
0.417000000,0,0,0,0,0,0,0,0,0,0,0,0,0,0,0
0.418000000,0,0,0,0,0,0,0,0,0,0,0,0,0,0,0
0.419000000,0,0,0,0,0,0,0,0,0,0,0,0,0,0,0
0.420000000,0,0,0,0,0,0,0,0,0,0,0,0,0,0,0
0.421000000,0,0,0,0,0,0,0,0,0,0,0,0,0,0,0
0.422000000,0,0,0,0,0,0,0,0,0,0,0,0,0,0,0
0.423000000,0,0,0,0,0,0,0,0,0,0,0,0,0,0,0
0.424000000,0,0,0,0,0,0,0,0,0,0,0,0,0,0,0
0.425000000,0,0,0,0,0,0,0,0,0,0,0,0,0,0,0
0.426000000,0,0,0,0,0,0,0,0,0,0,0,0,0,0,0
0.427000000,0,0,0,0,0,0,0,0,0,0,0,0,0,0,0
0.428000000,0,0,0,0,0,0,0,0,0,0,0,0,0,0,0
0.429000000,0,0,0,0,0,0,0,0,0,0,0,0,0,0,0
0.430000000,0,0,0,0,0,0,0,0,0,0,0,0,0,0,0
0.431000000,0,0,0,0,0,0,0,0,0,0,0,0,0,0,0
0.432000000,0,0,0,0,0,0,0,0,0,0,0,0,0,0,0
0.433000000,0,0,0,0,0,0,0,0,0,0,0,0,0,0,0
0.434000000,0,0,0,0,0,0,0,0,0,0,0,0,0,0,0
0.435000000,0,0,0,0,0,0,0,0,0,0,0,0,0,0,0
0.436000000,0,0,0,0,0,0,0,0,0,0,0,0,0,0,0
0.437000000,0,0,0,0,0,0,0,0,0,0,0,0,0,0,0
0.438000000,0,0,0,0,0,0,0,0,0,0,0,0,0,0,0
0.439000000,0,0,0,0,0,0,0,0,0,0,0,0,0,0,0
0.440000000,0,0,0,0,0,0,0,0,0,0,0,0,0,0,0
0.441000000,0,0,0,0,0,0,0,0,0,0,0,0,0,0,0
0.442000000,0,0,0,0,0,0,0,0,0,0,0,0,0,0,0
0.443000000,0,0,0,0,0,0,0,0,0,0,0,0,0,0,0
0.444000000,0,0,0,0,0,0,0,0,0,0,0,0,0,0,0
0.445000000,0,0,0,0,0,0,0,0,0,0,0,0,0,0,0
0.446000000,0,0,0,0,0,0,0,0,0,0,0,0,0,0,0
0.447000000,0,0,0,0,0,0,0,0,0,0,0,0,0,0,0
0.448000000,0,0,0,0,0,0,0,0,0,0,0,0,0,0,0
0.449000000,0,0,0,0,0,0,0,0,0,0,0,0,0,0,0
0.450000000,0,0,0,0,0,0,0,0,0,0,0,0,0,0,0
0.451000000,0,0,0,0,0,0,0,0,0,0,0,0,0,0,0
0.452000000,0,0,0,0,0,0,0,0,0,0,0,0,0,0,0
0.453000000,0,0,0,0,0,0,0,0,0,0,0,0,0,0,0
0.454000000,0,0,0,0,0,0,0,0,0,0,0,0,0,0,0
0.455000000,0,0,0,0,0,0,0,0,0,0,0,0,0,0,0
0.456000000,0,0,0,0,0,0,0,0,0,0,0,0,0,0,0
0.457000000,0,0,0,0,0,0,0,0,0,0,0,0,0,0,0
0.458000000,0,0,0,0,0,0,0,0,0,0,0,0,0,0,0
0.459000000,0,0,0,0,0,0,0,0,0,0,0,0,0,0,0
0.460000000,0,0,0,0,0,0,0,0,0,0,0,0,0,0,0
0.461000000,0,0,0,0,0,0,0,0,0,0,0,0,0,0,0
0.462000000,0,0,0,0,0,0,0,0,0,0,0,0,0,0,0
0.463000000,0,0,0,0,0,0,0,0,0,0,0,0,0,0,0
0.464000000,0,0,0,0,0,0,0,0,0,0,0,0,0,0,0
0.465000000,0,0,0,0,0,0,0,0,0,0,0,0,0,0,0
0.466000000,0,0,0,0,0,0,0,0,0,0,0,0,0,0,0
0.467000000,0,0,0,0,0,0,0,0,0,0,0,0,0,0,0
0.468000000,0,0,0,0,0,0,0,0,0,0,0,0,0,0,0
0.469000000,0,0,0,0,0,0,0,0,0,0,0,0,0,0,0
0.470000000,0,0,0,0,0,0,0,0,0,0,0,0,0,0,0
0.471000000,0,0,0,0,0,0,0,0,0,0,0,0,0,0,0
0.472000000,0,0,0,0,0,0,0,0,0,0,0,0,0,0,0
0.473000000,0,0,0,0,0,0,0,0,0,0,0,0,0,0,0
0.474000000,0,0,0,0,0,0,0,0,0,0,0,0,0,0,0
0.475000000,0,0,0,0,0,0,0,0,0,0,0,0,0,0,0
0.476000000,0,0,0,0,0,0,0,0,0,0,0,0,0,0,0
0.477000000,0,0,0,0,0,0,0,0,0,0,0,0,0,0,0
0.478000000,0,0,0,0,0,0,0,0,0,0,0,0,0,0,0
0.479000000,0,0,0,0,0,0,0,0,0,0,0,0,0,0,0
0.480000000,0,0,0,0,0,0,0,0,0,0,0,0,0,0,0
0.481000000,0,0,0,0,0,0,0,0,0,0,0,0,0,0,0
0.482000000,0,0,0,0,0,0,0,0,0,0,0,0,0,0,0
0.483000000,0,0,0,0,0,0,0,0,0,0,0,0,0,0,0
0.484000000,0,0,0,0,0,0,0,0,0,0,0,0,0,0,0
0.485000000,0,0,0,0,0,0,0,0,0,0,0,0,0,0,0
0.486000000,0,0,0,0,0,0,0,0,0,0,0,0,0,0,0
0.487000000,0,0,0,0,0,0,0,0,0,0,0,0,0,0,0
0.488000000,0,0,0,0,0,0,0,0,0,0,0,0,0,0,0
0.489000000,0,0,0,0,0,0,0,0,0,0,0,0,0,0,0
0.490000000,0,0,0,0,0,0,0,0,0,0,0,0,0,0,0
0.491000000,0,0,0,0,0,0,0,0,0,0,0,0,0,0,0
0.492000000,0,0,0,0,0,0,0,0,0,0,0,0,0,0,0
0.493000000,0,0,0,0,0,0,0,0,0,0,0,0,0,0,0
0.494000000,0,0,0,0,0,0,0,0,0,0,0,0,0,0,0
0.495000000,0,0,0,0,0,0,0,0,0,0,0,0,0,0,0
0.496000000,0,0,0,0,0,0,0,0,0,0,0,0,0,0,0
0.497000000,0,0,0,0,0,0,0,0,0,0,0,0,0,0,0
0.498000000,0,0,0,0,0,0,0,0,0,0,0,0,0,0,0
0.499000000,0,0,0,0,0,0,0,0,0,0,0,0,0,0,0
0.500000000,0,0,0,0,0,0,0,0,0,0,0,0,0,0,0
0.501000000,0,0,0,0,0,0,0,0,0,0,0,0,0,0,0
0.502000000,0,0,0,0,0,0,0,0,0,0,0,0,0,0,0
0.503000000,0,0,0,0,0,0,0,0,0,0,0,0,0,0,0
0.504000000,0,0,0,0,0,0,0,0,0,0,0,0,0,0,0
0.505000000,0,0,0,0,0,0,0,0,0,0,0,0,0,0,0
0.506000000,0,0,0,0,0,0,0,0,0,0,0,0,0,0,0
0.507000000,0,0,0,0,0,0,0,0,0,0,0,0,0,0,0
0.508000000,0,0,0,0,0,0,0,0,0,0,0,0,0,0,0
0.509000000,0,0,0,0,0,0,0,0,0,0,0,0,0,0,0
0.510000000,0,0,0,0,0,0,0,0,0,0,0,0,0,0,0
0.511000000,0,0,0,0,0,0,0,0,0,0,0,0,0,0,0
0.512000000,0,0,0,0,0,0,0,0,0,0,0,0,0,0,0
0.513000000,0,0,0,0,0,0,0,0,0,0,0,0,0,0,0
0.514000000,0,0,0,0,0,0,0,0,0,0,0,0,0,0,0
0.515000000,0,0,0,0,0,0,0,0,0,0,0,0,0,0,0
0.516000000,0,0,0,0,0,0,0,0,0,0,0,0,0,0,0
0.517000000,0,0,0,0,0,0,0,0,0,0,0,0,0,0,0
0.518000000,0,0,0,0,0,0,0,0,0,0,0,0,0,0,0
0.519000000,0,0,0,0,0,0,0,0,0,0,0,0,0,0,0
0.520000000,0,0,0,0,0,0,0,0,0,0,0,0,0,0,0
0.521000000,0,0,0,0,0,0,0,0,0,0,0,0,0,0,0
0.522000000,0,0,0,0,0,0,0,0,0,0,0,0,0,0,0
0.523000000,0,0,0,0,0,0,0,0,0,0,0,0,0,0,0
0.524000000,0,0,0,0,0,0,0,0,0,0,0,0,0,0,0
0.525000000,0,0,0,0,0,0,0,0,0,0,0,0,0,0,0
0.526000000,0,0,0,0,0,0,0,0,0,0,0,0,0,0,0
0.527000000,0,0,0,0,0,0,0,0,0,0,0,0,0,0,0
0.528000000,0,0,0,0,0,0,0,0,0,0,0,0,0,0,0
0.529000000,0,0,0,0,0,0,0,0,0,0,0,0,0,0,0
0.530000000,0,0,0,0,0,0,0,0,0,0,0,0,0,0,0
0.531000000,0,0,0,0,0,0,0,0,0,0,0,0,0,0,0
0.532000000,0,0,0,0,0,0,0,0,0,0,0,0,0,0,0
0.533000000,0,0,0,0,0,0,0,0,0,0,0,0,0,0,0
0.534000000,0,0,0,0,0,0,0,0,0,0,0,0,0,0,0
0.535000000,0,0,0,0,0,0,0,0,0,0,0,0,0,0,0
0.536000000,0,0,0,0,0,0,0,0,0,0,0,0,0,0,0
0.537000000,0,0,0,0,0,0,0,0,0,0,0,0,0,0,0
0.538000000,0,0,0,0,0,0,0,0,0,0,0,0,0,0,0
0.539000000,0,0,0,0,0,0,0,0,0,0,0,0,0,0,0
0.540000000,0,0,0,0,0,0,0,0,0,0,0,0,0,0,0
0.541000000,0,0,0,0,0,0,0,0,0,0,0,0,0,0,0
0.542000000,0,0,0,0,0,0,0,0,0,0,0,0,0,0,0
0.543000000,0,0,0,0,0,0,0,0,0,0,0,0,0,0,0
0.544000000,0,0,0,0,0,0,0,0,0,0,0,0,0,0,0
0.545000000,0,0,0,0,0,0,0,0,0,0,0,0,0,0,0
0.546000000,0,0,0,0,0,0,0,0,0,0,0,0,0,0,0
0.547000000,0,0,0,0,0,0,0,0,0,0,0,0,0,0,0
0.548000000,0,0,0,0,0,0,0,0,0,0,0,0,0,0,0
0.549000000,0,0,0,0,0,0,0,0,0,0,0,0,0,0,0
0.550000000,0,0,0,0,0,0,0,0,0,0,0,0,0,0,0
0.551000000,0,0,0,0,0,0,0,0,0,0,0,0,0,0,0
0.552000000,0,0,0,0,0,0,0,0,0,0,0,0,0,0,0
0.553000000,0,0,0,0,0,0,0,0,0,0,0,0,0,0,0
0.554000000,0,0,0,0,0,0,0,0,0,0,0,0,0,0,0
0.555000000,0,0,0,0,0,0,0,0,0,0,0,0,0,0,0
0.556000000,0,0,0,0,0,0,0,0,0,0,0,0,0,0,0
0.557000000,0,0,0,0,0,0,0,0,0,0,0,0,0,0,0
0.558000000,0,0,0,0,0,0,0,0,0,0,0,0,0,0,0
0.559000000,0,0,0,0,0,0,0,0,0,0,0,0,0,0,0
0.560000000,0,0,0,0,0,0,0,0,0,0,0,0,0,0,0
0.561000000,0,0,0,0,0,0,0,0,0,0,0,0,0,0,0
0.562000000,0,0,0,0,0,0,0,0,0,0,0,0,0,0,0
0.563000000,0,0,0,0,0,0,0,0,0,0,0,0,0,0,0
0.564000000,0,0,0,0,0,0,0,0,0,0,0,0,0,0,0
0.565000000,0,0,0,0,0,0,0,0,0,0,0,0,0,0,0
0.566000000,0,0,0,0,0,0,0,0,0,0,0,0,0,0,0
0.567000000,0,0,0,0,0,0,0,0,0,0,0,0,0,0,0
0.568000000,0,0,0,0,0,0,0,0,0,0,0,0,0,0,0
0.569000000,0,0,0,0,0,0,0,0,0,0,0,0,0,0,0
0.570000000,0,0,0,0,0,0,0,0,0,0,0,0,0,0,0
0.571000000,0,0,0,0,0,0,0,0,0,0,0,0,0,0,0
0.572000000,0,0,0,0,0,0,0,0,0,0,0,0,0,0,0
0.573000000,0,0,0,0,0,0,0,0,0,0,0,0,0,0,0
0.574000000,0,0,0,0,0,0,0,0,0,0,0,0,0,0,0
0.575000000,0,0,0,0,0,0,0,0,0,0,0,0,0,0,0
0.576000000,0,0,0,0,0,0,0,0,0,0,0,0,0,0,0
0.577000000,0,0,0,0,0,0,0,0,0,0,0,0,0,0,0
0.578000000,0,0,0,0,0,0,0,0,0,0,0,0,0,0,0
0.579000000,0,0,0,0,0,0,0,0,0,0,0,0,0,0,0
0.580000000,0,0,0,0,0,0,0,0,0,0,0,0,0,0,0
0.581000000,0,0,0,0,0,0,0,0,0,0,0,0,0,0,0
0.582000000,0,0,0,0,0,0,0,0,0,0,0,0,0,0,0
0.583000000,0,0,0,0,0,0,0,0,0,0,0,0,0,0,0
0.584000000,0,0,0,0,0,0,0,0,0,0,0,0,0,0,0
0.585000000,0,0,0,0,0,0,0,0,0,0,0,0,0,0,0
0.586000000,0,0,0,0,0,0,0,0,0,0,0,0,0,0,0
0.587000000,0,0,0,0,0,0,0,0,0,0,0,0,0,0,0
0.588000000,0,0,0,0,0,0,0,0,0,0,0,0,0,0,0
0.589000000,0,0,0,0,0,0,0,0,0,0,0,0,0,0,0
0.590000000,0,0,0,0,0,0,0,0,0,0,0,0,0,0,0
0.591000000,0,0,0,0,0,0,0,0,0,0,0,0,0,0,0
0.592000000,0,0,0,0,0,0,0,0,0,0,0,0,0,0,0
0.593000000,0,0,0,0,0,0,0,0,0,0,0,0,0,0,0
0.594000000,0,0,0,0,0,0,0,0,0,0,0,0,0,0,0
0.595000000,0,0,0,0,0,0,0,0,0,0,0,0,0,0,0
0.596000000,0,0,0,0,0,0,0,0,0,0,0,0,0,0,0
0.597000000,0,0,0,0,0,0,0,0,0,0,0,0,0,0,0
0.598000000,0,0,0,0,0,0,0,0,0,0,0,0,0,0,0
0.599000000,0,0,0,0,0,0,0,0,0,0,0,0,0,0,0
0.600000000,0,0,0,0,0,0,0,0,0,0,0,0,0,0,0
0.601000000,0,0,0,0,0,0,0,0,0,0,0,0,0,0,0
0.602000000,0,0,0,0,0,0,0,0,0,0,0,0,0,0,0
0.603000000,0,0,0,0,0,0,0,0,0,0,0,0,0,0,0
0.604000000,0,0,0,0,0,0,0,0,0,0,0,0,0,0,0
0.605000000,0,0,0,0,0,0,0,0,0,0,0,0,0,0,0
0.606000000,0,0,0,0,0,0,0,0,0,0,0,0,0,0,0
0.607000000,0,0,0,0,0,0,0,0,0,0,0,0,0,0,0
0.608000000,0,0,0,0,0,0,0,0,0,0,0,0,0,0,0
0.609000000,0,0,0,0,0,0,0,0,0,0,0,0,0,0,0
0.610000000,0,0,0,0,0,0,0,0,0,0,0,0,0,0,0
0.611000000,0,0,0,0,0,0,0,0,0,0,0,0,0,0,0
0.612000000,0,0,0,0,0,0,0,0,0,0,0,0,0,0,0
0.613000000,0,0,0,0,0,0,0,0,0,0,0,0,0,0,0
0.614000000,0,0,0,0,0,0,0,0,0,0,0,0,0,0,0
0.615000000,0,0,0,0,0,0,0,0,0,0,0,0,0,0,0
0.616000000,0,0,0,0,0,0,0,0,0,0,0,0,0,0,0
0.617000000,0,0,0,0,0,0,0,0,0,0,0,0,0,0,0
0.618000000,0,0,0,0,0,0,0,0,0,0,0,0,0,0,0
0.619000000,0,0,0,0,0,0,0,0,0,0,0,0,0,0,0
0.620000000,0,0,0,0,0,0,0,0,0,0,0,0,0,0,0
0.621000000,0,0,0,0,0,0,0,0,0,0,0,0,0,0,0
0.622000000,0,0,0,0,0,0,0,0,0,0,0,0,0,0,0
0.623000000,0,0,0,0,0,0,0,0,0,0,0,0,0,0,0
0.624000000,0,0,0,0,0,0,0,0,0,0,0,0,0,0,0
0.625000000,0,0,0,0,0,0,0,0,0,0,0,0,0,0,0
0.626000000,0,0,0,0,0,0,0,0,0,0,0,0,0,0,0
0.627000000,0,0,0,0,0,0,0,0,0,0,0,0,0,0,0
0.628000000,0,0,0,0,0,0,0,0,0,0,0,0,0,0,0
0.629000000,0,0,0,0,0,0,0,0,0,0,0,0,0,0,0
0.630000000,0,0,0,0,0,0,0,0,0,0,0,0,0,0,0
0.631000000,0,0,0,0,0,0,0,0,0,0,0,0,0,0,0
0.632000000,0,0,0,0,0,0,0,0,0,0,0,0,0,0,0
0.633000000,0,0,0,0,0,0,0,0,0,0,0,0,0,0,0
0.634000000,0,0,0,0,0,0,0,0,0,0,0,0,0,0,0
0.635000000,0,0,0,0,0,0,0,0,0,0,0,0,0,0,0
0.636000000,0,0,0,0,0,0,0,0,0,0,0,0,0,0,0
0.637000000,0,0,0,0,0,0,0,0,0,0,0,0,0,0,0
0.638000000,0,0,0,0,0,0,0,0,0,0,0,0,0,0,0
0.639000000,0,0,0,0,0,0,0,0,0,0,0,0,0,0,0
0.640000000,0,0,0,0,0,0,0,0,0,0,0,0,0,0,0
0.641000000,0,0,0,0,0,0,0,0,0,0,0,0,0,0,0
0.642000000,0,0,0,0,0,0,0,0,0,0,0,0,0,0,0
0.643000000,0,0,0,0,0,0,0,0,0,0,0,0,0,0,0
0.644000000,0,0,0,0,0,0,0,0,0,0,0,0,0,0,0
0.645000000,0,0,0,0,0,0,0,0,0,0,0,0,0,0,0
0.646000000,0,0,0,0,0,0,0,0,0,0,0,0,0,0,0
0.647000000,0,0,0,0,0,0,0,0,0,0,0,0,0,0,0
0.648000000,0,0,0,0,0,0,0,0,0,0,0,0,0,0,0
0.649000000,0,0,0,0,0,0,0,0,0,0,0,0,0,0,0
0.650000000,0,0,0,0,0,0,0,0,0,0,0,0,0,0,0
0.651000000,0,0,0,0,0,0,0,0,0,0,0,0,0,0,0
0.652000000,0,0,0,0,0,0,0,0,0,0,0,0,0,0,0
0.653000000,0,0,0,0,0,0,0,0,0,0,0,0,0,0,0
0.654000000,0,0,0,0,0,0,0,0,0,0,0,0,0,0,0
0.655000000,0,0,0,0,0,0,0,0,0,0,0,0,0,0,0
0.656000000,0,0,0,0,0,0,0,0,0,0,0,0,0,0,0
0.657000000,0,0,0,0,0,0,0,0,0,0,0,0,0,0,0
0.658000000,0,0,0,0,0,0,0,0,0,0,0,0,0,0,0
0.659000000,0,0,0,0,0,0,0,0,0,0,0,0,0,0,0
0.660000000,0,0,0,0,0,0,0,0,0,0,0,0,0,0,0
0.661000000,0,0,0,0,0,0,0,0,0,0,0,0,0,0,0
0.662000000,0,0,0,0,0,0,0,0,0,0,0,0,0,0,0
0.663000000,0,0,0,0,0,0,0,0,0,0,0,0,0,0,0
0.664000000,0,0,0,0,0,0,0,0,0,0,0,0,0,0,0
0.665000000,0,0,0,0,0,0,0,0,0,0,0,0,0,0,0
0.666000000,0,0,0,0,0,0,0,0,0,0,0,0,0,0,0
0.667000000,0,0,0,0,0,0,0,0,0,0,0,0,0,0,0
0.668000000,0,0,0,0,0,0,0,0,0,0,0,0,0,0,0
0.669000000,0,0,0,0,0,0,0,0,0,0,0,0,0,0,0
0.670000000,0,0,0,0,0,0,0,0,0,0,0,0,0,0,0
0.671000000,0,0,0,0,0,0,0,0,0,0,0,0,0,0,0
0.672000000,0,0,0,0,0,0,0,0,0,0,0,0,0,0,0
0.673000000,0,0,0,0,0,0,0,0,0,0,0,0,0,0,0
0.674000000,0,0,0,0,0,0,0,0,0,0,0,0,0,0,0
0.675000000,0,0,0,0,0,0,0,0,0,0,0,0,0,0,0
0.676000000,0,0,0,0,0,0,0,0,0,0,0,0,0,0,0
0.677000000,0,0,0,0,0,0,0,0,0,0,0,0,0,0,0
0.678000000,0,0,0,0,0,0,0,0,0,0,0,0,0,0,0
0.679000000,0,0,0,0,0,0,0,0,0,0,0,0,0,0,0
0.680000000,0,0,0,0,0,0,0,0,0,0,0,0,0,0,0
0.681000000,0,0,0,0,0,0,0,0,0,0,0,0,0,0,0
0.682000000,0,0,0,0,0,0,0,0,0,0,0,0,0,0,0
0.683000000,0,0,0,0,0,0,0,0,0,0,0,0,0,0,0
0.684000000,0,0,0,0,0,0,0,0,0,0,0,0,0,0,0
0.685000000,0,0,0,0,0,0,0,0,0,0,0,0,0,0,0
0.686000000,0,0,0,0,0,0,0,0,0,0,0,0,0,0,0
0.687000000,0,0,0,0,0,0,0,0,0,0,0,0,0,0,0
0.688000000,0,0,0,0,0,0,0,0,0,0,0,0,0,0,0
0.689000000,0,0,0,0,0,0,0,0,0,0,0,0,0,0,0
0.690000000,0,0,0,0,0,0,0,0,0,0,0,0,0,0,0
0.691000000,0,0,0,0,0,0,0,0,0,0,0,0,0,0,0
0.692000000,0,0,0,0,0,0,0,0,0,0,0,0,0,0,0
0.693000000,0,0,0,0,0,0,0,0,0,0,0,0,0,0,0
0.694000000,0,0,0,0,0,0,0,0,0,0,0,0,0,0,0
0.695000000,0,0,0,0,0,0,0,0,0,0,0,0,0,0,0
0.696000000,0,0,0,0,0,0,0,0,0,0,0,0,0,0,0
0.697000000,0,0,0,0,0,0,0,0,0,0,0,0,0,0,0
0.698000000,0,0,0,0,0,0,0,0,0,0,0,0,0,0,0
0.699000000,0,0,0,0,0,0,0,0,0,0,0,0,0,0,0
0.700000000,0,0,0,0,0,0,0,0,0,0,0,0,0,0,0
0.701000000,0,0,0,0,0,0,0,0,0,0,0,0,0,0,0
0.702000000,0,0,0,0,0,0,0,0,0,0,0,0,0,0,0
0.703000000,0,0,0,0,0,0,0,0,0,0,0,0,0,0,0
0.704000000,0,0,0,0,0,0,0,0,0,0,0,0,0,0,0
0.705000000,0,0,0,0,0,0,0,0,0,0,0,0,0,0,0
0.706000000,0,0,0,0,0,0,0,0,0,0,0,0,0,0,0
0.707000000,0,0,0,0,0,0,0,0,0,0,0,0,0,0,0
0.708000000,0,0,0,0,0,0,0,0,0,0,0,0,0,0,0
0.709000000,0,0,0,0,0,0,0,0,0,0,0,0,0,0,0
0.710000000,0,0,0,0,0,0,0,0,0,0,0,0,0,0,0
0.711000000,0,0,0,0,0,0,0,0,0,0,0,0,0,0,0
0.712000000,0,0,0,0,0,0,0,0,0,0,0,0,0,0,0
0.713000000,0,0,0,0,0,0,0,0,0,0,0,0,0,0,0
0.714000000,0,0,0,0,0,0,0,0,0,0,0,0,0,0,0
0.715000000,0,0,0,0,0,0,0,0,0,0,0,0,0,0,0
0.716000000,0,0,0,0,0,0,0,0,0,0,0,0,0,0,0
0.717000000,0,0,0,0,0,0,0,0,0,0,0,0,0,0,0
0.718000000,0,0,0,0,0,0,0,0,0,0,0,0,0,0,0
0.719000000,0,0,0,0,0,0,0,0,0,0,0,0,0,0,0
0.720000000,0,0,0,0,0,0,0,0,0,0,0,0,0,0,0
0.721000000,0,0,0,0,0,0,0,0,0,0,0,0,0,0,0
0.722000000,0,0,0,0,0,0,0,0,0,0,0,0,0,0,0
0.723000000,0,0,0,0,0,0,0,0,0,0,0,0,0,0,0
0.724000000,0,0,0,0,0,0,0,0,0,0,0,0,0,0,0
0.725000000,0,0,0,0,0,0,0,0,0,0,0,0,0,0,0
0.726000000,0,0,0,0,0,0,0,0,0,0,0,0,0,0,0
0.727000000,0,0,0,0,0,0,0,0,0,0,0,0,0,0,0
0.728000000,0,0,0,0,0,0,0,0,0,0,0,0,0,0,0
0.729000000,0,0,0,0,0,0,0,0,0,0,0,0,0,0,0
0.730000000,0,0,0,0,0,0,0,0,0,0,0,0,0,0,0
0.731000000,0,0,0,0,0,0,0,0,0,0,0,0,0,0,0
0.732000000,0,0,0,0,0,0,0,0,0,0,0,0,0,0,0
0.733000000,0,0,0,0,0,0,0,0,0,0,0,0,0,0,0
0.734000000,0,0,0,0,0,0,0,0,0,0,0,0,0,0,0
0.735000000,0,0,0,0,0,0,0,0,0,0,0,0,0,0,0
0.736000000,0,0,0,0,0,0,0,0,0,0,0,0,0,0,0
0.737000000,0,0,0,0,0,0,0,0,0,0,0,0,0,0,0
0.738000000,0,0,0,0,0,0,0,0,0,0,0,0,0,0,0
0.739000000,0,0,0,0,0,0,0,0,0,0,0,0,0,0,0
0.740000000,0,0,0,0,0,0,0,0,0,0,0,0,0,0,0
0.741000000,0,0,0,0,0,0,0,0,0,0,0,0,0,0,0
0.742000000,0,0,0,0,0,0,0,0,0,0,0,0,0,0,0
0.743000000,0,0,0,0,0,0,0,0,0,0,0,0,0,0,0
0.744000000,0,0,0,0,0,0,0,0,0,0,0,0,0,0,0
0.745000000,0,0,0,0,0,0,0,0,0,0,0,0,0,0,0
0.746000000,0,0,0,0,0,0,0,0,0,0,0,0,0,0,0
0.747000000,0,0,0,0,0,0,0,0,0,0,0,0,0,0,0
0.748000000,0,0,0,0,0,0,0,0,0,0,0,0,0,0,0
0.749000000,0,0,0,0,0,0,0,0,0,0,0,0,0,0,0
0.750000000,0,0,0,0,0,0,0,0,0,0,0,0,0,0,0
0.751000000,0,0,0,0,0,0,0,0,0,0,0,0,0,0,0
0.752000000,0,0,0,0,0,0,0,0,0,0,0,0,0,0,0
0.753000000,0,0,0,0,0,0,0,0,0,0,0,0,0,0,0
0.754000000,0,0,0,0,0,0,0,0,0,0,0,0,0,0,0
0.755000000,0,0,0,0,0,0,0,0,0,0,0,0,0,0,0
0.756000000,0,0,0,0,0,0,0,0,0,0,0,0,0,0,0
0.757000000,0,0,0,0,0,0,0,0,0,0,0,0,0,0,0
0.758000000,0,0,0,0,0,0,0,0,0,0,0,0,0,0,0
0.759000000,0,0,0,0,0,0,0,0,0,0,0,0,0,0,0
0.760000000,0,0,0,0,0,0,0,0,0,0,0,0,0,0,0
0.761000000,0,0,0,0,0,0,0,0,0,0,0,0,0,0,0
0.762000000,0,0,0,0,0,0,0,0,0,0,0,0,0,0,0
0.763000000,0,0,0,0,0,0,0,0,0,0,0,0,0,0,0
0.764000000,0,0,0,0,0,0,0,0,0,0,0,0,0,0,0
0.765000000,0,0,0,0,0,0,0,0,0,0,0,0,0,0,0
0.766000000,0,0,0,0,0,0,0,0,0,0,0,0,0,0,0
0.767000000,0,0,0,0,0,0,0,0,0,0,0,0,0,0,0
0.768000000,0,0,0,0,0,0,0,0,0,0,0,0,0,0,0
0.769000000,0,0,0,0,0,0,0,0,0,0,0,0,0,0,0
0.770000000,0,0,0,0,0,0,0,0,0,0,0,0,0,0,0
0.771000000,0,0,0,0,0,0,0,0,0,0,0,0,0,0,0
0.772000000,0,0,0,0,0,0,0,0,0,0,0,0,0,0,0
0.773000000,0,0,0,0,0,0,0,0,0,0,0,0,0,0,0
0.774000000,0,0,0,0,0,0,0,0,0,0,0,0,0,0,0
0.775000000,0,0,0,0,0,0,0,0,0,0,0,0,0,0,0
0.776000000,0,0,0,0,0,0,0,0,0,0,0,0,0,0,0
0.777000000,0,0,0,0,0,0,0,0,0,0,0,0,0,0,0
0.778000000,0,0,0,0,0,0,0,0,0,0,0,0,0,0,0
0.779000000,0,0,0,0,0,0,0,0,0,0,0,0,0,0,0
0.780000000,0,0,0,0,0,0,0,0,0,0,0,0,0,0,0
0.781000000,0,0,0,0,0,0,0,0,0,0,0,0,0,0,0
0.782000000,0,0,0,0,0,0,0,0,0,0,0,0,0,0,0
0.783000000,0,0,0,0,0,0,0,0,0,0,0,0,0,0,0
0.784000000,0,0,0,0,0,0,0,0,0,0,0,0,0,0,0
0.785000000,0,0,0,0,0,0,0,0,0,0,0,0,0,0,0
0.786000000,0,0,0,0,0,0,0,0,0,0,0,0,0,0,0
0.787000000,0,0,0,0,0,0,0,0,0,0,0,0,0,0,0
0.788000000,0,0,0,0,0,0,0,0,0,0,0,0,0,0,0
0.789000000,0,0,0,0,0,0,0,0,0,0,0,0,0,0,0
0.790000000,0,0,0,0,0,0,0,0,0,0,0,0,0,0,0
0.791000000,0,0,0,0,0,0,0,0,0,0,0,0,0,0,0
0.792000000,0,0,0,0,0,0,0,0,0,0,0,0,0,0,0
0.793000000,0,0,0,0,0,0,0,0,0,0,0,0,0,0,0
0.794000000,0,0,0,0,0,0,0,0,0,0,0,0,0,0,0
0.795000000,0,0,0,0,0,0,0,0,0,0,0,0,0,0,0
0.796000000,0,0,0,0,0,0,0,0,0,0,0,0,0,0,0
0.797000000,0,0,0,0,0,0,0,0,0,0,0,0,0,0,0
0.798000000,0,0,0,0,0,0,0,0,0,0,0,0,0,0,0
0.799000000,0,0,0,0,0,0,0,0,0,0,0,0,0,0,0
0.800000000,0,0,0,0,0,0,0,0,0,0,0,0,0,0,0
0.801000000,0,0,0,0,0,0,0,0,0,0,0,0,0,0,0
0.802000000,0,0,0,0,0,0,0,0,0,0,0,0,0,0,0
0.803000000,0,0,0,0,0,0,0,0,0,0,0,0,0,0,0
0.804000000,0,0,0,0,0,0,0,0,0,0,0,0,0,0,0
0.805000000,0,0,0,0,0,0,0,0,0,0,0,0,0,0,0
0.806000000,0,0,0,0,0,0,0,0,0,0,0,0,0,0,0
0.807000000,0,0,0,0,0,0,0,0,0,0,0,0,0,0,0
0.808000000,0,0,0,0,0,0,0,0,0,0,0,0,0,0,0
0.809000000,0,0,0,0,0,0,0,0,0,0,0,0,0,0,0
0.810000000,0,0,0,0,0,0,0,0,0,0,0,0,0,0,0
0.811000000,0,0,0,0,0,0,0,0,0,0,0,0,0,0,0
0.812000000,0,0,0,0,0,0,0,0,0,0,0,0,0,0,0
0.813000000,0,0,0,0,0,0,0,0,0,0,0,0,0,0,0
0.814000000,0,0,0,0,0,0,0,0,0,0,0,0,0,0,0
0.815000000,0,0,0,0,0,0,0,0,0,0,0,0,0,0,0
0.816000000,0,0,0,0,0,0,0,0,0,0,0,0,0,0,0
0.817000000,0,0,0,0,0,0,0,0,0,0,0,0,0,0,0
0.818000000,0,0,0,0,0,0,0,0,0,0,0,0,0,0,0
0.819000000,0,0,0,0,0,0,0,0,0,0,0,0,0,0,0
0.820000000,0,0,0,0,0,0,0,0,0,0,0,0,0,0,0
0.821000000,0,0,0,0,0,0,0,0,0,0,0,0,0,0,0
0.822000000,0,0,0,0,0,0,0,0,0,0,0,0,0,0,0
0.823000000,0,0,0,0,0,0,0,0,0,0,0,0,0,0,0
0.824000000,0,0,0,0,0,0,0,0,0,0,0,0,0,0,0
0.825000000,0,0,0,0,0,0,0,0,0,0,0,0,0,0,0
0.826000000,0,0,0,0,0,0,0,0,0,0,0,0,0,0,0
0.827000000,0,0,0,0,0,0,0,0,0,0,0,0,0,0,0
0.828000000,0,0,0,0,0,0,0,0,0,0,0,0,0,0,0
0.829000000,0,0,0,0,0,0,0,0,0,0,0,0,0,0,0
0.830000000,0,0,0,0,0,0,0,0,0,0,0,0,0,0,0
0.831000000,0,0,0,0,0,0,0,0,0,0,0,0,0,0,0
0.832000000,0,0,0,0,0,0,0,0,0,0,0,0,0,0,0
0.833000000,0,0,0,0,0,0,0,0,0,0,0,0,0,0,0
0.834000000,0,0,0,0,0,0,0,0,0,0,0,0,0,0,0
0.835000000,0,0,0,0,0,0,0,0,0,0,0,0,0,0,0
0.836000000,0,0,0,0,0,0,0,0,0,0,0,0,0,0,0
0.837000000,0,0,0,0,0,0,0,0,0,0,0,0,0,0,0
0.838000000,0,0,0,0,0,0,0,0,0,0,0,0,0,0,0
0.839000000,0,0,0,0,0,0,0,0,0,0,0,0,0,0,0
0.840000000,0,0,0,0,0,0,0,0,0,0,0,0,0,0,0
0.841000000,0,0,0,0,0,0,0,0,0,0,0,0,0,0,0
0.842000000,0,0,0,0,0,0,0,0,0,0,0,0,0,0,0
0.843000000,0,0,0,0,0,0,0,0,0,0,0,0,0,0,0
0.844000000,0,0,0,0,0,0,0,0,0,0,0,0,0,0,0
0.845000000,0,0,0,0,0,0,0,0,0,0,0,0,0,0,0
0.846000000,0,0,0,0,0,0,0,0,0,0,0,0,0,0,0
0.847000000,0,0,0,0,0,0,0,0,0,0,0,0,0,0,0
0.848000000,0,0,0,0,0,0,0,0,0,0,0,0,0,0,0
0.849000000,0,0,0,0,0,0,0,0,0,0,0,0,0,0,0
0.850000000,0,0,0,0,0,0,0,0,0,0,0,0,0,0,0
0.851000000,0,0,0,0,0,0,0,0,0,0,0,0,0,0,0
0.852000000,0,0,0,0,0,0,0,0,0,0,0,0,0,0,0
0.853000000,0,0,0,0,0,0,0,0,0,0,0,0,0,0,0
0.854000000,0,0,0,0,0,0,0,0,0,0,0,0,0,0,0
0.855000000,0,0,0,0,0,0,0,0,0,0,0,0,0,0,0
0.856000000,0,0,0,0,0,0,0,0,0,0,0,0,0,0,0
0.857000000,0,0,0,0,0,0,0,0,0,0,0,0,0,0,0
0.858000000,0,0,0,0,0,0,0,0,0,0,0,0,0,0,0
0.859000000,0,0,0,0,0,0,0,0,0,0,0,0,0,0,0
0.860000000,0,0,0,0,0,0,0,0,0,0,0,0,0,0,0
0.861000000,0,0,0,0,0,0,0,0,0,0,0,0,0,0,0
0.862000000,0,0,0,0,0,0,0,0,0,0,0,0,0,0,0
0.863000000,0,0,0,0,0,0,0,0,0,0,0,0,0,0,0
0.864000000,0,0,0,0,0,0,0,0,0,0,0,0,0,0,0
0.865000000,0,0,0,0,0,0,0,0,0,0,0,0,0,0,0
0.866000000,0,0,0,0,0,0,0,0,0,0,0,0,0,0,0
0.867000000,0,0,0,0,0,0,0,0,0,0,0,0,0,0,0
0.868000000,0,0,0,0,0,0,0,0,0,0,0,0,0,0,0
0.869000000,0,0,0,0,0,0,0,0,0,0,0,0,0,0,0
0.870000000,0,0,0,0,0,0,0,0,0,0,0,0,0,0,0
0.871000000,0,0,0,0,0,0,0,0,0,0,0,0,0,0,0
0.872000000,0,0,0,0,0,0,0,0,0,0,0,0,0,0,0
0.873000000,0,0,0,0,0,0,0,0,0,0,0,0,0,0,0
0.874000000,0,0,0,0,0,0,0,0,0,0,0,0,0,0,0
0.875000000,0,0,0,0,0,0,0,0,0,0,0,0,0,0,0
0.876000000,0,0,0,0,0,0,0,0,0,0,0,0,0,0,0
0.877000000,0,0,0,0,0,0,0,0,0,0,0,0,0,0,0
0.878000000,0,0,0,0,0,0,0,0,0,0,0,0,0,0,0
0.879000000,0,0,0,0,0,0,0,0,0,0,0,0,0,0,0
0.880000000,0,0,0,0,0,0,0,0,0,0,0,0,0,0,0
0.881000000,0,0,0,0,0,0,0,0,0,0,0,0,0,0,0
0.882000000,0,0,0,0,0,0,0,0,0,0,0,0,0,0,0
0.883000000,0,0,0,0,0,0,0,0,0,0,0,0,0,0,0
0.884000000,0,0,0,0,0,0,0,0,0,0,0,0,0,0,0
0.885000000,0,0,0,0,0,0,0,0,0,0,0,0,0,0,0
0.886000000,0,0,0,0,0,0,0,0,0,0,0,0,0,0,0
0.887000000,0,0,0,0,0,0,0,0,0,0,0,0,0,0,0
0.888000000,0,0,0,0,0,0,0,0,0,0,0,0,0,0,0
0.889000000,0,0,0,0,0,0,0,0,0,0,0,0,0,0,0
0.890000000,0,0,0,0,0,0,0,0,0,0,0,0,0,0,0
0.891000000,0,0,0,0,0,0,0,0,0,0,0,0,0,0,0
0.892000000,0,0,0,0,0,0,0,0,0,0,0,0,0,0,0
0.893000000,0,0,0,0,0,0,0,0,0,0,0,0,0,0,0
0.894000000,0,0,0,0,0,0,0,0,0,0,0,0,0,0,0
0.895000000,0,0,0,0,0,0,0,0,0,0,0,0,0,0,0
0.896000000,0,0,0,0,0,0,0,0,0,0,0,0,0,0,0
0.897000000,0,0,0,0,0,0,0,0,0,0,0,0,0,0,0
0.898000000,0,0,0,0,0,0,0,0,0,0,0,0,0,0,0
0.899000000,0,0,0,0,0,0,0,0,0,0,0,0,0,0,0
0.900000000,0,0,0,0,0,0,0,0,0,0,0,0,0,0,0
0.901000000,0,0,0,0,0,0,0,0,0,0,0,0,0,0,0
0.902000000,0,0,0,0,0,0,0,0,0,0,0,0,0,0,0
0.903000000,0,0,0,0,0,0,0,0,0,0,0,0,0,0,0
0.904000000,0,0,0,0,0,0,0,0,0,0,0,0,0,0,0
0.905000000,0,0,0,0,0,0,0,0,0,0,0,0,0,0,0
0.906000000,0,0,0,0,0,0,0,0,0,0,0,0,0,0,0
0.907000000,0,0,0,0,0,0,0,0,0,0,0,0,0,0,0
0.908000000,0,0,0,0,0,0,0,0,0,0,0,0,0,0,0
0.909000000,0,0,0,0,0,0,0,0,0,0,0,0,0,0,0
0.910000000,0,0,0,0,0,0,0,0,0,0,0,0,0,0,0
0.911000000,0,0,0,0,0,0,0,0,0,0,0,0,0,0,0
0.912000000,0,0,0,0,0,0,0,0,0,0,0,0,0,0,0
0.913000000,0,0,0,0,0,0,0,0,0,0,0,0,0,0,0
0.914000000,0,0,0,0,0,0,0,0,0,0,0,0,0,0,0
0.915000000,0,0,0,0,0,0,0,0,0,0,0,0,0,0,0
0.916000000,0,0,0,0,0,0,0,0,0,0,0,0,0,0,0
0.917000000,0,0,0,0,0,0,0,0,0,0,0,0,0,0,0
0.918000000,0,0,0,0,0,0,0,0,0,0,0,0,0,0,0
0.919000000,0,0,0,0,0,0,0,0,0,0,0,0,0,0,0
0.920000000,0,0,0,0,0,0,0,0,0,0,0,0,0,0,0
0.921000000,0,0,0,0,0,0,0,0,0,0,0,0,0,0,0
0.922000000,0,0,0,0,0,0,0,0,0,0,0,0,0,0,0
0.923000000,0,0,0,0,0,0,0,0,0,0,0,0,0,0,0
0.924000000,0,0,0,0,0,0,0,0,0,0,0,0,0,0,0
0.925000000,0,0,0,0,0,0,0,0,0,0,0,0,0,0,0
0.926000000,0,0,0,0,0,0,0,0,0,0,0,0,0,0,0
0.927000000,0,0,0,0,0,0,0,0,0,0,0,0,0,0,0
0.928000000,0,0,0,0,0,0,0,0,0,0,0,0,0,0,0
0.929000000,0,0,0,0,0,0,0,0,0,0,0,0,0,0,0
0.930000000,0,0,0,0,0,0,0,0,0,0,0,0,0,0,0
0.931000000,0,0,0,0,0,0,0,0,0,0,0,0,0,0,0
0.932000000,0,0,0,0,0,0,0,0,0,0,0,0,0,0,0
0.933000000,0,0,0,0,0,0,0,0,0,0,0,0,0,0,0
0.934000000,0,0,0,0,0,0,0,0,0,0,0,0,0,0,0
0.935000000,0,0,0,0,0,0,0,0,0,0,0,0,0,0,0
0.936000000,0,0,0,0,0,0,0,0,0,0,0,0,0,0,0
0.937000000,0,0,0,0,0,0,0,0,0,0,0,0,0,0,0
0.938000000,0,0,0,0,0,0,0,0,0,0,0,0,0,0,0
0.939000000,0,0,0,0,0,0,0,0,0,0,0,0,0,0,0
0.940000000,0,0,0,0,0,0,0,0,0,0,0,0,0,0,0
0.941000000,0,0,0,0,0,0,0,0,0,0,0,0,0,0,0
0.942000000,0,0,0,0,0,0,0,0,0,0,0,0,0,0,0
0.943000000,0,0,0,0,0,0,0,0,0,0,0,0,0,0,0
0.944000000,0,0,0,0,0,0,0,0,0,0,0,0,0,0,0
0.945000000,0,0,0,0,0,0,0,0,0,0,0,0,0,0,0
0.946000000,0,0,0,0,0,0,0,0,0,0,0,0,0,0,0
0.947000000,0,0,0,0,0,0,0,0,0,0,0,0,0,0,0
0.948000000,0,0,0,0,0,0,0,0,0,0,0,0,0,0,0
0.949000000,0,0,0,0,0,0,0,0,0,0,0,0,0,0,0
0.950000000,0,0,0,0,0,0,0,0,0,0,0,0,0,0,0
0.951000000,0,0,0,0,0,0,0,0,0,0,0,0,0,0,0
0.952000000,0,0,0,0,0,0,0,0,0,0,0,0,0,0,0
0.953000000,0,0,0,0,0,0,0,0,0,0,0,0,0,0,0
0.954000000,0,0,0,0,0,0,0,0,0,0,0,0,0,0,0
0.955000000,0,0,0,0,0,0,0,0,0,0,0,0,0,0,0
0.956000000,0,0,0,0,0,0,0,0,0,0,0,0,0,0,0
0.957000000,0,0,0,0,0,0,0,0,0,0,0,0,0,0,0
0.958000000,0,0,0,0,0,0,0,0,0,0,0,0,0,0,0
0.959000000,0,0,0,0,0,0,0,0,0,0,0,0,0,0,0
0.960000000,0,0,0,0,0,0,0,0,0,0,0,0,0,0,0
0.961000000,0,0,0,0,0,0,0,0,0,0,0,0,0,0,0
0.962000000,0,0,0,0,0,0,0,0,0,0,0,0,0,0,0
0.963000000,0,0,0,0,0,0,0,0,0,0,0,0,0,0,0
0.964000000,0,0,0,0,0,0,0,0,0,0,0,0,0,0,0
0.965000000,0,0,0,0,0,0,0,0,0,0,0,0,0,0,0
0.966000000,0,0,0,0,0,0,0,0,0,0,0,0,0,0,0
0.967000000,0,0,0,0,0,0,0,0,0,0,0,0,0,0,0
0.968000000,0,0,0,0,0,0,0,0,0,0,0,0,0,0,0
0.969000000,0,0,0,0,0,0,0,0,0,0,0,0,0,0,0
0.970000000,0,0,0,0,0,0,0,0,0,0,0,0,0,0,0
0.971000000,0,0,0,0,0,0,0,0,0,0,0,0,0,0,0
0.972000000,0,0,0,0,0,0,0,0,0,0,0,0,0,0,0
0.973000000,0,0,0,0,0,0,0,0,0,0,0,0,0,0,0
0.974000000,0,0,0,0,0,0,0,0,0,0,0,0,0,0,0
0.975000000,0,0,0,0,0,0,0,0,0,0,0,0,0,0,0
0.976000000,0,0,0,0,0,0,0,0,0,0,0,0,0,0,0
0.977000000,0,0,0,0,0,0,0,0,0,0,0,0,0,0,0
0.978000000,0,0,0,0,0,0,0,0,0,0,0,0,0,0,0
0.979000000,0,0,0,0,0,0,0,0,0,0,0,0,0,0,0
0.980000000,0,0,0,0,0,0,0,0,0,0,0,0,0,0,0
0.981000000,0,0,0,0,0,0,0,0,0,0,0,0,0,0,0
0.982000000,0,0,0,0,0,0,0,0,0,0,0,0,0,0,0
0.983000000,0,0,0,0,0,0,0,0,0,0,0,0,0,0,0
0.984000000,0,0,0,0,0,0,0,0,0,0,0,0,0,0,0
0.985000000,0,0,0,0,0,0,0,0,0,0,0,0,0,0,0
0.986000000,0,0,0,0,0,0,0,0,0,0,0,0,0,0,0
0.987000000,0,0,0,0,0,0,0,0,0,0,0,0,0,0,0
0.988000000,0,0,0,0,0,0,0,0,0,0,0,0,0,0,0
0.989000000,0,0,0,0,0,0,0,0,0,0,0,0,0,0,0
0.990000000,0,0,0,0,0,0,0,0,0,0,0,0,0,0,0
0.991000000,0,0,0,0,0,0,0,0,0,0,0,0,0,0,0
0.992000000,0,0,0,0,0,0,0,0,0,0,0,0,0,0,0
0.993000000,0,0,0,0,0,0,0,0,0,0,0,0,0,0,0
0.994000000,0,0,0,0,0,0,0,0,0,0,0,0,0,0,0
0.995000000,0,0,0,0,0,0,0,0,0,0,0,0,0,0,0
0.996000000,0,0,0,0,0,0,0,0,0,0,0,0,0,0,0
0.997000000,0,0,0,0,0,0,0,0,0,0,0,0,0,0,0
0.998000000,0,0,0,0,0,0,0,0,0,0,0,0,0,0,0
0.999000000,0,0,0,0,0,0,0,0,0,0,0,0,0,0,0
1.000000000,0,0,0,0,0,0,0,0,0,0,0,0,0,0,0
1.001000000,0,0,0,0,0,0,0,0,0,0,0,0,0,0,0
1.002000000,0,0,0,0,0,0,0,0,0,0,0,0,0,0,0
1.003000000,0,0,0,0,0,0,0,0,0,0,0,0,0,0,0
1.004000000,0,0,0,0,0,0,0,0,0,0,0,0,0,0,0
1.005000000,0,0,0,0,0,0,0,0,0,0,0,0,0,0,0
1.006000000,0,0,0,0,0,0,0,0,0,0,0,0,0,0,0
1.007000000,0,0,0,0,0,0,0,0,0,0,0,0,0,0,0
1.008000000,0,0,0,0,0,0,0,0,0,0,0,0,0,0,0
1.009000000,0,0,0,0,0,0,0,0,0,0,0,0,0,0,0
1.010000000,0,0,0,0,0,0,0,0,0,0,0,0,0,0,0
1.011000000,0,0,0,0,0,0,0,0,0,0,0,0,0,0,0
1.012000000,0,0,0,0,0,0,0,0,0,0,0,0,0,0,0
1.013000000,0,0,0,0,0,0,0,0,0,0,0,0,0,0,0
1.014000000,0,0,0,0,0,0,0,0,0,0,0,0,0,0,0
1.015000000,0,0,0,0,0,0,0,0,0,0,0,0,0,0,0
1.016000000,0,0,0,0,0,0,0,0,0,0,0,0,0,0,0
1.017000000,0,0,0,0,0,0,0,0,0,0,0,0,0,0,0
1.018000000,0,0,0,0,0,0,0,0,0,0,0,0,0,0,0
1.019000000,0,0,0,0,0,0,0,0,0,0,0,0,0,0,0
1.020000000,0,0,0,0,0,0,0,0,0,0,0,0,0,0,0
1.021000000,0,0,0,0,0,0,0,0,0,0,0,0,0,0,0
1.022000000,0,0,0,0,0,0,0,0,0,0,0,0,0,0,0
1.023000000,0,0,0,0,0,0,0,0,0,0,0,0,0,0,0
1.024000000,0,0,0,0,0,0,0,0,0,0,0,0,0,0,0
1.025000000,0,0,0,0,0,0,0,0,0,0,0,0,0,0,0
1.026000000,0,0,0,0,0,0,0,0,0,0,0,0,0,0,0
1.027000000,0,0,0,0,0,0,0,0,0,0,0,0,0,0,0
1.028000000,0,0,0,0,0,0,0,0,0,0,0,0,0,0,0
1.029000000,0,0,0,0,0,0,0,0,0,0,0,0,0,0,0
1.030000000,0,0,0,0,0,0,0,0,0,0,0,0,0,0,0
1.031000000,0,0,0,0,0,0,0,0,0,0,0,0,0,0,0
1.032000000,0,0,0,0,0,0,0,0,0,0,0,0,0,0,0
1.033000000,0,0,0,0,0,0,0,0,0,0,0,0,0,0,0
1.034000000,0,0,0,0,0,0,0,0,0,0,0,0,0,0,0
1.035000000,0,0,0,0,0,0,0,0,0,0,0,0,0,0,0
1.036000000,0,0,0,0,0,0,0,0,0,0,0,0,0,0,0
1.037000000,0,0,0,0,0,0,0,0,0,0,0,0,0,0,0
1.038000000,0,0,0,0,0,0,0,0,0,0,0,0,0,0,0
1.039000000,0,0,0,0,0,0,0,0,0,0,0,0,0,0,0
1.040000000,0,0,0,0,0,0,0,0,0,0,0,0,0,0,0
1.041000000,0,0,0,0,0,0,0,0,0,0,0,0,0,0,0
1.042000000,0,0,0,0,0,0,0,0,0,0,0,0,0,0,0
1.043000000,0,0,0,0,0,0,0,0,0,0,0,0,0,0,0
1.044000000,0,0,0,0,0,0,0,0,0,0,0,0,0,0,0
1.045000000,0,0,0,0,0,0,0,0,0,0,0,0,0,0,0
1.046000000,0,0,0,0,0,0,0,0,0,0,0,0,0,0,0
1.047000000,0,0,0,0,0,0,0,0,0,0,0,0,0,0,0
1.048000000,0,0,0,0,0,0,0,0,0,0,0,0,0,0,0
1.049000000,0,0,0,0,0,0,0,0,0,0,0,0,0,0,0
1.050000000,0,0,0,0,0,0,0,0,0,0,0,0,0,0,0
1.051000000,0,0,0,0,0,0,0,0,0,0,0,0,0,0,0
1.052000000,0,0,0,0,0,0,0,0,0,0,0,0,0,0,0
1.053000000,0,0,0,0,0,0,0,0,0,0,0,0,0,0,0
1.054000000,0,0,0,0,0,0,0,0,0,0,0,0,0,0,0
1.055000000,0,0,0,0,0,0,0,0,0,0,0,0,0,0,0
1.056000000,0,0,0,0,0,0,0,0,0,0,0,0,0,0,0
1.057000000,0,0,0,0,0,0,0,0,0,0,0,0,0,0,0
1.058000000,0,0,0,0,0,0,0,0,0,0,0,0,0,0,0
1.059000000,0,0,0,0,0,0,0,0,0,0,0,0,0,0,0
1.060000000,0,0,0,0,0,0,0,0,0,0,0,0,0,0,0
1.061000000,0,0,0,0,0,0,0,0,0,0,0,0,0,0,0
1.062000000,0,0,0,0,0,0,0,0,0,0,0,0,0,0,0
1.063000000,0,0,0,0,0,0,0,0,0,0,0,0,0,0,0
1.064000000,0,0,0,0,0,0,0,0,0,0,0,0,0,0,0
1.065000000,0,0,0,0,0,0,0,0,0,0,0,0,0,0,0
1.066000000,0,0,0,0,0,0,0,0,0,0,0,0,0,0,0
1.067000000,0,0,0,0,0,0,0,0,0,0,0,0,0,0,0
1.068000000,0,0,0,0,0,0,0,0,0,0,0,0,0,0,0
1.069000000,0,0,0,0,0,0,0,0,0,0,0,0,0,0,0
1.070000000,0,0,0,0,0,0,0,0,0,0,0,0,0,0,0
1.071000000,0,0,0,0,0,0,0,0,0,0,0,0,0,0,0
1.072000000,0,0,0,0,0,0,0,0,0,0,0,0,0,0,0
1.073000000,0,0,0,0,0,0,0,0,0,0,0,0,0,0,0
1.074000000,0,0,0,0,0,0,0,0,0,0,0,0,0,0,0
1.075000000,0,0,0,0,0,0,0,0,0,0,0,0,0,0,0
1.076000000,0,0,0,0,0,0,0,0,0,0,0,0,0,0,0
1.077000000,0,0,0,0,0,0,0,0,0,0,0,0,0,0,0
1.078000000,0,0,0,0,0,0,0,0,0,0,0,0,0,0,0
1.079000000,0,0,0,0,0,0,0,0,0,0,0,0,0,0,0
1.080000000,0,0,0,0,0,0,0,0,0,0,0,0,0,0,0
1.081000000,0,0,0,0,0,0,0,0,0,0,0,0,0,0,0
1.082000000,0,0,0,0,0,0,0,0,0,0,0,0,0,0,0
1.083000000,0,0,0,0,0,0,0,0,0,0,0,0,0,0,0
1.084000000,0,0,0,0,0,0,0,0,0,0,0,0,0,0,0
1.085000000,0,0,0,0,0,0,0,0,0,0,0,0,0,0,0
1.086000000,0,0,0,0,0,0,0,0,0,0,0,0,0,0,0
1.087000000,0,0,0,0,0,0,0,0,0,0,0,0,0,0,0
1.088000000,0,0,0,0,0,0,0,0,0,0,0,0,0,0,0
1.089000000,0,0,0,0,0,0,0,0,0,0,0,0,0,0,0
1.090000000,0,0,0,0,0,0,0,0,0,0,0,0,0,0,0
1.091000000,0,0,0,0,0,0,0,0,0,0,0,0,0,0,0
1.092000000,0,0,0,0,0,0,0,0,0,0,0,0,0,0,0
1.093000000,0,0,0,0,0,0,0,0,0,0,0,0,0,0,0
1.094000000,0,0,0,0,0,0,0,0,0,0,0,0,0,0,0
1.095000000,0,0,0,0,0,0,0,0,0,0,0,0,0,0,0
1.096000000,0,0,0,0,0,0,0,0,0,0,0,0,0,0,0
1.097000000,0,0,0,0,0,0,0,0,0,0,0,0,0,0,0
1.098000000,0,0,0,0,0,0,0,0,0,0,0,0,0,0,0
1.099000000,0,0,0,0,0,0,0,0,0,0,0,0,0,0,0
1.100000000,0,0,0,0,0,0,0,0,0,0,0,0,0,0,0
1.101000000,0,0,0,0,0,0,0,0,0,0,0,0,0,0,0
1.102000000,0,0,0,0,0,0,0,0,0,0,0,0,0,0,0
1.103000000,0,0,0,0,0,0,0,0,0,0,0,0,0,0,0
1.104000000,0,0,0,0,0,0,0,0,0,0,0,0,0,0,0
1.105000000,0,0,0,0,0,0,0,0,0,0,0,0,0,0,0
1.106000000,0,0,0,0,0,0,0,0,0,0,0,0,0,0,0
1.107000000,0,0,0,0,0,0,0,0,0,0,0,0,0,0,0
1.108000000,0,0,0,0,0,0,0,0,0,0,0,0,0,0,0
1.109000000,0,0,0,0,0,0,0,0,0,0,0,0,0,0,0
1.110000000,0,0,0,0,0,0,0,0,0,0,0,0,0,0,0
1.111000000,0,0,0,0,0,0,0,0,0,0,0,0,0,0,0
1.112000000,0,0,0,0,0,0,0,0,0,0,0,0,0,0,0
1.113000000,0,0,0,0,0,0,0,0,0,0,0,0,0,0,0
1.114000000,0,0,0,0,0,0,0,0,0,0,0,0,0,0,0
1.115000000,0,0,0,0,0,0,0,0,0,0,0,0,0,0,0
1.116000000,0,0,0,0,0,0,0,0,0,0,0,0,0,0,0
1.117000000,0,0,0,0,0,0,0,0,0,0,0,0,0,0,0
1.118000000,0,0,0,0,0,0,0,0,0,0,0,0,0,0,0
1.119000000,0,0,0,0,0,0,0,0,0,0,0,0,0,0,0
1.120000000,0,0,0,0,0,0,0,0,0,0,0,0,0,0,0
1.121000000,0,0,0,0,0,0,0,0,0,0,0,0,0,0,0
1.122000000,0,0,0,0,0,0,0,0,0,0,0,0,0,0,0
1.123000000,0,0,0,0,0,0,0,0,0,0,0,0,0,0,0
1.124000000,0,0,0,0,0,0,0,0,0,0,0,0,0,0,0
1.125000000,0,0,0,0,0,0,0,0,0,0,0,0,0,0,0
1.126000000,0,0,0,0,0,0,0,0,0,0,0,0,0,0,0
1.127000000,0,0,0,0,0,0,0,0,0,0,0,0,0,0,0
1.128000000,0,0,0,0,0,0,0,0,0,0,0,0,0,0,0
1.129000000,0,0,0,0,0,0,0,0,0,0,0,0,0,0,0
1.130000000,0,0,0,0,0,0,0,0,0,0,0,0,0,0,0
1.131000000,0,0,0,0,0,0,0,0,0,0,0,0,0,0,0
1.132000000,0,0,0,0,0,0,0,0,0,0,0,0,0,0,0
1.133000000,0,0,0,0,0,0,0,0,0,0,0,0,0,0,0
1.134000000,0,0,0,0,0,0,0,0,0,0,0,0,0,0,0
1.135000000,0,0,0,0,0,0,0,0,0,0,0,0,0,0,0
1.136000000,0,0,0,0,0,0,0,0,0,0,0,0,0,0,0
1.137000000,0,0,0,0,0,0,0,0,0,0,0,0,0,0,0
1.138000000,0,0,0,0,0,0,0,0,0,0,0,0,0,0,0
1.139000000,0,0,0,0,0,0,0,0,0,0,0,0,0,0,0
1.140000000,0,0,0,0,0,0,0,0,0,0,0,0,0,0,0
1.141000000,0,0,0,0,0,0,0,0,0,0,0,0,0,0,0
1.142000000,0,0,0,0,0,0,0,0,0,0,0,0,0,0,0
1.143000000,0,0,0,0,0,0,0,0,0,0,0,0,0,0,0
1.144000000,0,0,0,0,0,0,0,0,0,0,0,0,0,0,0
1.145000000,0,0,0,0,0,0,0,0,0,0,0,0,0,0,0
1.146000000,0,0,0,0,0,0,0,0,0,0,0,0,0,0,0
1.147000000,0,0,0,0,0,0,0,0,0,0,0,0,0,0,0
1.148000000,0,0,0,0,0,0,0,0,0,0,0,0,0,0,0
1.149000000,0,0,0,0,0,0,0,0,0,0,0,0,0,0,0
1.150000000,0,0,0,0,0,0,0,0,0,0,0,0,0,0,0
1.151000000,0,0,0,0,0,0,0,0,0,0,0,0,0,0,0
1.152000000,0,0,0,0,0,0,0,0,0,0,0,0,0,0,0
1.153000000,0,0,0,0,0,0,0,0,0,0,0,0,0,0,0
1.154000000,0,0,0,0,0,0,0,0,0,0,0,0,0,0,0
1.155000000,0,0,0,0,0,0,0,0,0,0,0,0,0,0,0
1.156000000,0,0,0,0,0,0,0,0,0,0,0,0,0,0,0
1.157000000,0,0,0,0,0,0,0,0,0,0,0,0,0,0,0
1.158000000,0,0,0,0,0,0,0,0,0,0,0,0,0,0,0
1.159000000,0,0,0,0,0,0,0,0,0,0,0,0,0,0,0
1.160000000,0,0,0,0,0,0,0,0,0,0,0,0,0,0,0
1.161000000,0,0,0,0,0,0,0,0,0,0,0,0,0,0,0
1.162000000,0,0,0,0,0,0,0,0,0,0,0,0,0,0,0
1.163000000,0,0,0,0,0,0,0,0,0,0,0,0,0,0,0
1.164000000,0,0,0,0,0,0,0,0,0,0,0,0,0,0,0
1.165000000,0,0,0,0,0,0,0,0,0,0,0,0,0,0,0
1.166000000,0,0,0,0,0,0,0,0,0,0,0,0,0,0,0
1.167000000,0,0,0,0,0,0,0,0,0,0,0,0,0,0,0
1.168000000,0,0,0,0,0,0,0,0,0,0,0,0,0,0,0
1.169000000,0,0,0,0,0,0,0,0,0,0,0,0,0,0,0
1.170000000,0,0,0,0,0,0,0,0,0,0,0,0,0,0,0
1.171000000,0,0,0,0,0,0,0,0,0,0,0,0,0,0,0
1.172000000,0,0,0,0,0,0,0,0,0,0,0,0,0,0,0
1.173000000,0,0,0,0,0,0,0,0,0,0,0,0,0,0,0
1.174000000,0,0,0,0,0,0,0,0,0,0,0,0,0,0,0
1.175000000,0,0,0,0,0,0,0,0,0,0,0,0,0,0,0
1.176000000,0,0,0,0,0,0,0,0,0,0,0,0,0,0,0
1.177000000,0,0,0,0,0,0,0,0,0,0,0,0,0,0,0
1.178000000,0,0,0,0,0,0,0,0,0,0,0,0,0,0,0
1.179000000,0,0,0,0,0,0,0,0,0,0,0,0,0,0,0
1.180000000,0,0,0,0,0,0,0,0,0,0,0,0,0,0,0
1.181000000,0,0,0,0,0,0,0,0,0,0,0,0,0,0,0
1.182000000,0,0,0,0,0,0,0,0,0,0,0,0,0,0,0
1.183000000,0,0,0,0,0,0,0,0,0,0,0,0,0,0,0
1.184000000,0,0,0,0,0,0,0,0,0,0,0,0,0,0,0
1.185000000,0,0,0,0,0,0,0,0,0,0,0,0,0,0,0
1.186000000,0,0,0,0,0,0,0,0,0,0,0,0,0,0,0
1.187000000,0,0,0,0,0,0,0,0,0,0,0,0,0,0,0
1.188000000,0,0,0,0,0,0,0,0,0,0,0,0,0,0,0
1.189000000,0,0,0,0,0,0,0,0,0,0,0,0,0,0,0
1.190000000,0,0,0,0,0,0,0,0,0,0,0,0,0,0,0
1.191000000,0,0,0,0,0,0,0,0,0,0,0,0,0,0,0
1.192000000,0,0,0,0,0,0,0,0,0,0,0,0,0,0,0
1.193000000,0,0,0,0,0,0,0,0,0,0,0,0,0,0,0
1.194000000,0,0,0,0,0,0,0,0,0,0,0,0,0,0,0
1.195000000,0,0,0,0,0,0,0,0,0,0,0,0,0,0,0
1.196000000,0,0,0,0,0,0,0,0,0,0,0,0,0,0,0
1.197000000,0,0,0,0,0,0,0,0,0,0,0,0,0,0,0
1.198000000,0,0,0,0,0,0,0,0,0,0,0,0,0,0,0
1.199000000,0,0,0,0,0,0,0,0,0,0,0,0,0,0,0
1.200000000,0,0,0,0,0,0,0,0,0,0,0,0,0,0,0
1.201000000,0,0,0,0,0,0,0,0,0,0,0,0,0,0,0
1.202000000,0,0,0,0,0,0,0,0,0,0,0,0,0,0,0
1.203000000,0,0,0,0,0,0,0,0,0,0,0,0,0,0,0
1.204000000,0,0,0,0,0,0,0,0,0,0,0,0,0,0,0
1.205000000,0,0,0,0,0,0,0,0,0,0,0,0,0,0,0
1.206000000,0,0,0,0,0,0,0,0,0,0,0,0,0,0,0
1.207000000,0,0,0,0,0,0,0,0,0,0,0,0,0,0,0
1.208000000,0,0,0,0,0,0,0,0,0,0,0,0,0,0,0
1.209000000,0,0,0,0,0,0,0,0,0,0,0,0,0,0,0
1.210000000,0,0,0,0,0,0,0,0,0,0,0,0,0,0,0
1.211000000,0,0,0,0,0,0,0,0,0,0,0,0,0,0,0
1.212000000,0,0,0,0,0,0,0,0,0,0,0,0,0,0,0
1.213000000,0,0,0,0,0,0,0,0,0,0,0,0,0,0,0
1.214000000,0,0,0,0,0,0,0,0,0,0,0,0,0,0,0
1.215000000,0,0,0,0,0,0,0,0,0,0,0,0,0,0,0
1.216000000,0,0,0,0,0,0,0,0,0,0,0,0,0,0,0
1.217000000,0,0,0,0,0,0,0,0,0,0,0,0,0,0,0
1.218000000,0,0,0,0,0,0,0,0,0,0,0,0,0,0,0
1.219000000,0,0,0,0,0,0,0,0,0,0,0,0,0,0,0
1.220000000,0,0,0,0,0,0,0,0,0,0,0,0,0,0,0
1.221000000,0,0,0,0,0,0,0,0,0,0,0,0,0,0,0
1.222000000,0,0,0,0,0,0,0,0,0,0,0,0,0,0,0
1.223000000,0,0,0,0,0,0,0,0,0,0,0,0,0,0,0
1.224000000,0,0,0,0,0,0,0,0,0,0,0,0,0,0,0
1.225000000,0,0,0,0,0,0,0,0,0,0,0,0,0,0,0
1.226000000,0,0,0,0,0,0,0,0,0,0,0,0,0,0,0
1.227000000,0,0,0,0,0,0,0,0,0,0,0,0,0,0,0
1.228000000,0,0,0,0,0,0,0,0,0,0,0,0,0,0,0
1.229000000,0,0,0,0,0,0,0,0,0,0,0,0,0,0,0
1.230000000,0,0,0,0,0,0,0,0,0,0,0,0,0,0,0
1.231000000,0,0,0,0,0,0,0,0,0,0,0,0,0,0,0
1.232000000,0,0,0,0,0,0,0,0,0,0,0,0,0,0,0
1.233000000,0,0,0,0,0,0,0,0,0,0,0,0,0,0,0
1.234000000,0,0,0,0,0,0,0,0,0,0,0,0,0,0,0
1.235000000,0,0,0,0,0,0,0,0,0,0,0,0,0,0,0
1.236000000,0,0,0,0,0,0,0,0,0,0,0,0,0,0,0
1.237000000,0,0,0,0,0,0,0,0,0,0,0,0,0,0,0
1.238000000,0,0,0,0,0,0,0,0,0,0,0,0,0,0,0
1.239000000,0,0,0,0,0,0,0,0,0,0,0,0,0,0,0
1.240000000,0,0,0,0,0,0,0,0,0,0,0,0,0,0,0
1.241000000,0,0,0,0,0,0,0,0,0,0,0,0,0,0,0
1.242000000,0,0,0,0,0,0,0,0,0,0,0,0,0,0,0
1.243000000,0,0,0,0,0,0,0,0,0,0,0,0,0,0,0
1.244000000,0,0,0,0,0,0,0,0,0,0,0,0,0,0,0
1.245000000,0,0,0,0,0,0,0,0,0,0,0,0,0,0,0
1.246000000,0,0,0,0,0,0,0,0,0,0,0,0,0,0,0
1.247000000,0,0,0,0,0,0,0,0,0,0,0,0,0,0,0
1.248000000,0,0,0,0,0,0,0,0,0,0,0,0,0,0,0
1.249000000,0,0,0,0,0,0,0,0,0,0,0,0,0,0,0
1.250000000,0,0,0,0,0,0,0,0,0,0,0,0,0,0,0
1.251000000,0,0,0,0,0,0,0,0,0,0,0,0,0,0,0
1.252000000,0,0,0,0,0,0,0,0,0,0,0,0,0,0,0
1.253000000,0,0,0,0,0,0,0,0,0,0,0,0,0,0,0
1.254000000,0,0,0,0,0,0,0,0,0,0,0,0,0,0,0
1.255000000,0,0,0,0,0,0,0,0,0,0,0,0,0,0,0
1.256000000,0,0,0,0,0,0,0,0,0,0,0,0,0,0,0
1.257000000,0,0,0,0,0,0,0,0,0,0,0,0,0,0,0
1.258000000,0,0,0,0,0,0,0,0,0,0,0,0,0,0,0
1.259000000,0,0,0,0,0,0,0,0,0,0,0,0,0,0,0
1.260000000,0,0,0,0,0,0,0,0,0,0,0,0,0,0,0
1.261000000,0,0,0,0,0,0,0,0,0,0,0,0,0,0,0
1.262000000,0,0,0,0,0,0,0,0,0,0,0,0,0,0,0
1.263000000,0,0,0,0,0,0,0,0,0,0,0,0,0,0,0
1.264000000,0,0,0,0,0,0,0,0,0,0,0,0,0,0,0
1.265000000,0,0,0,0,0,0,0,0,0,0,0,0,0,0,0
1.266000000,0,0,0,0,0,0,0,0,0,0,0,0,0,0,0
1.267000000,0,0,0,0,0,0,0,0,0,0,0,0,0,0,0
1.268000000,0,0,0,0,0,0,0,0,0,0,0,0,0,0,0
1.269000000,0,0,0,0,0,0,0,0,0,0,0,0,0,0,0
1.270000000,0,0,0,0,0,0,0,0,0,0,0,0,0,0,0
1.271000000,0,0,0,0,0,0,0,0,0,0,0,0,0,0,0
1.272000000,0,0,0,0,0,0,0,0,0,0,0,0,0,0,0
1.273000000,0,0,0,0,0,0,0,0,0,0,0,0,0,0,0
1.274000000,0,0,0,0,0,0,0,0,0,0,0,0,0,0,0
1.275000000,0,0,0,0,0,0,0,0,0,0,0,0,0,0,0
1.276000000,0,0,0,0,0,0,0,0,0,0,0,0,0,0,0
1.277000000,0,0,0,0,0,0,0,0,0,0,0,0,0,0,0
1.278000000,0,0,0,0,0,0,0,0,0,0,0,0,0,0,0
1.279000000,0,0,0,0,0,0,0,0,0,0,0,0,0,0,0
1.280000000,0,0,0,0,0,0,0,0,0,0,0,0,0,0,0
1.281000000,0,0,0,0,0,0,0,0,0,0,0,0,0,0,0
1.282000000,0,0,0,0,0,0,0,0,0,0,0,0,0,0,0
1.283000000,0,0,0,0,0,0,0,0,0,0,0,0,0,0,0
1.284000000,0,0,0,0,0,0,0,0,0,0,0,0,0,0,0
1.285000000,0,0,0,0,0,0,0,0,0,0,0,0,0,0,0
1.286000000,0,0,0,0,0,0,0,0,0,0,0,0,0,0,0
1.287000000,0,0,0,0,0,0,0,0,0,0,0,0,0,0,0
1.288000000,0,0,0,0,0,0,0,0,0,0,0,0,0,0,0
1.289000000,0,0,0,0,0,0,0,0,0,0,0,0,0,0,0
1.290000000,0,0,0,0,0,0,0,0,0,0,0,0,0,0,0
1.291000000,0,0,0,0,0,0,0,0,0,0,0,0,0,0,0
1.292000000,0,0,0,0,0,0,0,0,0,0,0,0,0,0,0
1.293000000,0,0,0,0,0,0,0,0,0,0,0,0,0,0,0
1.294000000,0,0,0,0,0,0,0,0,0,0,0,0,0,0,0
1.295000000,0,0,0,0,0,0,0,0,0,0,0,0,0,0,0
1.296000000,0,0,0,0,0,0,0,0,0,0,0,0,0,0,0
1.297000000,0,0,0,0,0,0,0,0,0,0,0,0,0,0,0
1.298000000,0,0,0,0,0,0,0,0,0,0,0,0,0,0,0
1.299000000,0,0,0,0,0,0,0,0,0,0,0,0,0,0,0
1.300000000,0,0,0,0,0,0,0,0,0,0,0,0,0,0,0
1.301000000,0,0,0,0,0,0,0,0,0,0,0,0,0,0,0
1.302000000,0,0,0,0,0,0,0,0,0,0,0,0,0,0,0
1.303000000,0,0,0,0,0,0,0,0,0,0,0,0,0,0,0
1.304000000,0,0,0,0,0,0,0,0,0,0,0,0,0,0,0
1.305000000,0,0,0,0,0,0,0,0,0,0,0,0,0,0,0
1.306000000,0,0,0,0,0,0,0,0,0,0,0,0,0,0,0
1.307000000,0,0,0,0,0,0,0,0,0,0,0,0,0,0,0
1.308000000,0,0,0,0,0,0,0,0,0,0,0,0,0,0,0
1.309000000,0,0,0,0,0,0,0,0,0,0,0,0,0,0,0
1.310000000,0,0,0,0,0,0,0,0,0,0,0,0,0,0,0
1.311000000,0,0,0,0,0,0,0,0,0,0,0,0,0,0,0
1.312000000,0,0,0,0,0,0,0,0,0,0,0,0,0,0,0
1.313000000,0,0,0,0,0,0,0,0,0,0,0,0,0,0,0
1.314000000,0,0,0,0,0,0,0,0,0,0,0,0,0,0,0
1.315000000,0,0,0,0,0,0,0,0,0,0,0,0,0,0,0
1.316000000,0,0,0,0,0,0,0,0,0,0,0,0,0,0,0
1.317000000,0,0,0,0,0,0,0,0,0,0,0,0,0,0,0
1.318000000,0,0,0,0,0,0,0,0,0,0,0,0,0,0,0
1.319000000,0,0,0,0,0,0,0,0,0,0,0,0,0,0,0
1.320000000,0,0,0,0,0,0,0,0,0,0,0,0,0,0,0
1.321000000,0,0,0,0,0,0,0,0,0,0,0,0,0,0,0
1.322000000,0,0,0,0,0,0,0,0,0,0,0,0,0,0,0
1.323000000,0,0,0,0,0,0,0,0,0,0,0,0,0,0,0
1.324000000,0,0,0,0,0,0,0,0,0,0,0,0,0,0,0
1.325000000,0,0,0,0,0,0,0,0,0,0,0,0,0,0,0
1.326000000,0,0,0,0,0,0,0,0,0,0,0,0,0,0,0
1.327000000,0,0,0,0,0,0,0,0,0,0,0,0,0,0,0
1.328000000,0,0,0,0,0,0,0,0,0,0,0,0,0,0,0
1.329000000,0,0,0,0,0,0,0,0,0,0,0,0,0,0,0
1.330000000,0,0,0,0,0,0,0,0,0,0,0,0,0,0,0
1.331000000,0,0,0,0,0,0,0,0,0,0,0,0,0,0,0
1.332000000,0,0,0,0,0,0,0,0,0,0,0,0,0,0,0
1.333000000,0,0,0,0,0,0,0,0,0,0,0,0,0,0,0
1.334000000,0,0,0,0,0,0,0,0,0,0,0,0,0,0,0
1.335000000,0,0,0,0,0,0,0,0,0,0,0,0,0,0,0
1.336000000,0,0,0,0,0,0,0,0,0,0,0,0,0,0,0
1.337000000,0,0,0,0,0,0,0,0,0,0,0,0,0,0,0
1.338000000,0,0,0,0,0,0,0,0,0,0,0,0,0,0,0
1.339000000,0,0,0,0,0,0,0,0,0,0,0,0,0,0,0
1.340000000,0,0,0,0,0,0,0,0,0,0,0,0,0,0,0
1.341000000,0,0,0,0,0,0,0,0,0,0,0,0,0,0,0
1.342000000,0,0,0,0,0,0,0,0,0,0,0,0,0,0,0
1.343000000,0,0,0,0,0,0,0,0,0,0,0,0,0,0,0
1.344000000,0,0,0,0,0,0,0,0,0,0,0,0,0,0,0
1.345000000,0,0,0,0,0,0,0,0,0,0,0,0,0,0,0
1.346000000,0,0,0,0,0,0,0,0,0,0,0,0,0,0,0
1.347000000,0,0,0,0,0,0,0,0,0,0,0,0,0,0,0
1.348000000,0,0,0,0,0,0,0,0,0,0,0,0,0,0,0
1.349000000,0,0,0,0,0,0,0,0,0,0,0,0,0,0,0
1.350000000,0,0,0,0,0,0,0,0,0,0,0,0,0,0,0
1.351000000,0,0,0,0,0,0,0,0,0,0,0,0,0,0,0
1.352000000,0,0,0,0,0,0,0,0,0,0,0,0,0,0,0
1.353000000,0,0,0,0,0,0,0,0,0,0,0,0,0,0,0
1.354000000,0,0,0,0,0,0,0,0,0,0,0,0,0,0,0
1.355000000,0,0,0,0,0,0,0,0,0,0,0,0,0,0,0
1.356000000,0,0,0,0,0,0,0,0,0,0,0,0,0,0,0
1.357000000,0,0,0,0,0,0,0,0,0,0,0,0,0,0,0
1.358000000,0,0,0,0,0,0,0,0,0,0,0,0,0,0,0
1.359000000,0,0,0,0,0,0,0,0,0,0,0,0,0,0,0
1.360000000,0,0,0,0,0,0,0,0,0,0,0,0,0,0,0
1.361000000,0,0,0,0,0,0,0,0,0,0,0,0,0,0,0
1.362000000,0,0,0,0,0,0,0,0,0,0,0,0,0,0,0
1.363000000,0,0,0,0,0,0,0,0,0,0,0,0,0,0,0
1.364000000,0,0,0,0,0,0,0,0,0,0,0,0,0,0,0
1.365000000,0,0,0,0,0,0,0,0,0,0,0,0,0,0,0
1.366000000,0,0,0,0,0,0,0,0,0,0,0,0,0,0,0
1.367000000,0,0,0,0,0,0,0,0,0,0,0,0,0,0,0
1.368000000,0,0,0,0,0,0,0,0,0,0,0,0,0,0,0
1.369000000,0,0,0,0,0,0,0,0,0,0,0,0,0,0,0
1.370000000,0,0,0,0,0,0,0,0,0,0,0,0,0,0,0
1.371000000,0,0,0,0,0,0,0,0,0,0,0,0,0,0,0
1.372000000,0,0,0,0,0,0,0,0,0,0,0,0,0,0,0
1.373000000,0,0,0,0,0,0,0,0,0,0,0,0,0,0,0
1.374000000,0,0,0,0,0,0,0,0,0,0,0,0,0,0,0
1.375000000,0,0,0,0,0,0,0,0,0,0,0,0,0,0,0
1.376000000,0,0,0,0,0,0,0,0,0,0,0,0,0,0,0
1.377000000,0,0,0,0,0,0,0,0,0,0,0,0,0,0,0
1.378000000,0,0,0,0,0,0,0,0,0,0,0,0,0,0,0
1.379000000,0,0,0,0,0,0,0,0,0,0,0,0,0,0,0
1.380000000,0,0,0,0,0,0,0,0,0,0,0,0,0,0,0
1.381000000,0,0,0,0,0,0,0,0,0,0,0,0,0,0,0
1.382000000,0,0,0,0,0,0,0,0,0,0,0,0,0,0,0
1.383000000,0,0,0,0,0,0,0,0,0,0,0,0,0,0,0
1.384000000,0,0,0,0,0,0,0,0,0,0,0,0,0,0,0
1.385000000,0,0,0,0,0,0,0,0,0,0,0,0,0,0,0
1.386000000,0,0,0,0,0,0,0,0,0,0,0,0,0,0,0
1.387000000,0,0,0,0,0,0,0,0,0,0,0,0,0,0,0
1.388000000,0,0,0,0,0,0,0,0,0,0,0,0,0,0,0
1.389000000,0,0,0,0,0,0,0,0,0,0,0,0,0,0,0
1.390000000,0,0,0,0,0,0,0,0,0,0,0,0,0,0,0
1.391000000,0,0,0,0,0,0,0,0,0,0,0,0,0,0,0
1.392000000,0,0,0,0,0,0,0,0,0,0,0,0,0,0,0
1.393000000,0,0,0,0,0,0,0,0,0,0,0,0,0,0,0
1.394000000,0,0,0,0,0,0,0,0,0,0,0,0,0,0,0
1.395000000,0,0,0,0,0,0,0,0,0,0,0,0,0,0,0
1.396000000,0,0,0,0,0,0,0,0,0,0,0,0,0,0,0
1.397000000,0,0,0,0,0,0,0,0,0,0,0,0,0,0,0
1.398000000,0,0,0,0,0,0,0,0,0,0,0,0,0,0,0
1.399000000,0,0,0,0,0,0,0,0,0,0,0,0,0,0,0
1.400000000,0,0,0,0,0,0,0,0,0,0,0,0,0,0,0
1.401000000,0,0,0,0,0,0,0,0,0,0,0,0,0,0,0
1.402000000,0,0,0,0,0,0,0,0,0,0,0,0,0,0,0
1.403000000,0,0,0,0,0,0,0,0,0,0,0,0,0,0,0
1.404000000,0,0,0,0,0,0,0,0,0,0,0,0,0,0,0
1.405000000,0,0,0,0,0,0,0,0,0,0,0,0,0,0,0
1.406000000,0,0,0,0,0,0,0,0,0,0,0,0,0,0,0
1.407000000,0,0,0,0,0,0,0,0,0,0,0,0,0,0,0
1.408000000,0,0,0,0,0,0,0,0,0,0,0,0,0,0,0
1.409000000,0,0,0,0,0,0,0,0,0,0,0,0,0,0,0
1.410000000,0,0,0,0,0,0,0,0,0,0,0,0,0,0,0
1.411000000,0,0,0,0,0,0,0,0,0,0,0,0,0,0,0
1.412000000,0,0,0,0,0,0,0,0,0,0,0,0,0,0,0
1.413000000,0,0,0,0,0,0,0,0,0,0,0,0,0,0,0
1.414000000,0,0,0,0,0,0,0,0,0,0,0,0,0,0,0
1.415000000,0,0,0,0,0,0,0,0,0,0,0,0,0,0,0
1.416000000,0,0,0,0,0,0,0,0,0,0,0,0,0,0,0
1.417000000,0,0,0,0,0,0,0,0,0,0,0,0,0,0,0
1.418000000,0,0,0,0,0,0,0,0,0,0,0,0,0,0,0
1.419000000,0,0,0,0,0,0,0,0,0,0,0,0,0,0,0
1.420000000,0,0,0,0,0,0,0,0,0,0,0,0,0,0,0
1.421000000,0,0,0,0,0,0,0,0,0,0,0,0,0,0,0
1.422000000,0,0,0,0,0,0,0,0,0,0,0,0,0,0,0
1.423000000,0,0,0,0,0,0,0,0,0,0,0,0,0,0,0
1.424000000,0,0,0,0,0,0,0,0,0,0,0,0,0,0,0
1.425000000,0,0,0,0,0,0,0,0,0,0,0,0,0,0,0
1.426000000,0,0,0,0,0,0,0,0,0,0,0,0,0,0,0
1.427000000,0,0,0,0,0,0,0,0,0,0,0,0,0,0,0
1.428000000,0,0,0,0,0,0,0,0,0,0,0,0,0,0,0
1.429000000,0,0,0,0,0,0,0,0,0,0,0,0,0,0,0
1.430000000,0,0,0,0,0,0,0,0,0,0,0,0,0,0,0
1.431000000,0,0,0,0,0,0,0,0,0,0,0,0,0,0,0
1.432000000,0,0,0,0,0,0,0,0,0,0,0,0,0,0,0
1.433000000,0,0,0,0,0,0,0,0,0,0,0,0,0,0,0
1.434000000,0,0,0,0,0,0,0,0,0,0,0,0,0,0,0
1.435000000,0,0,0,0,0,0,0,0,0,0,0,0,0,0,0
1.436000000,0,0,0,0,0,0,0,0,0,0,0,0,0,0,0
1.437000000,0,0,0,0,0,0,0,0,0,0,0,0,0,0,0
1.438000000,0,0,0,0,0,0,0,0,0,0,0,0,0,0,0
1.439000000,0,0,0,0,0,0,0,0,0,0,0,0,0,0,0
1.440000000,0,0,0,0,0,0,0,0,0,0,0,0,0,0,0
1.441000000,0,0,0,0,0,0,0,0,0,0,0,0,0,0,0
1.442000000,0,0,0,0,0,0,0,0,0,0,0,0,0,0,0
1.443000000,0,0,0,0,0,0,0,0,0,0,0,0,0,0,0
1.444000000,0,0,0,0,0,0,0,0,0,0,0,0,0,0,0
1.445000000,0,0,0,0,0,0,0,0,0,0,0,0,0,0,0
1.446000000,0,0,0,0,0,0,0,0,0,0,0,0,0,0,0
1.447000000,0,0,0,0,0,0,0,0,0,0,0,0,0,0,0
1.448000000,0,0,0,0,0,0,0,0,0,0,0,0,0,0,0
1.449000000,0,0,0,0,0,0,0,0,0,0,0,0,0,0,0
1.450000000,0,0,0,0,0,0,0,0,0,0,0,0,0,0,0
1.451000000,0,0,0,0,0,0,0,0,0,0,0,0,0,0,0
1.452000000,0,0,0,0,0,0,0,0,0,0,0,0,0,0,0
1.453000000,0,0,0,0,0,0,0,0,0,0,0,0,0,0,0
1.454000000,0,0,0,0,0,0,0,0,0,0,0,0,0,0,0
1.455000000,0,0,0,0,0,0,0,0,0,0,0,0,0,0,0
1.456000000,0,0,0,0,0,0,0,0,0,0,0,0,0,0,0
1.457000000,0,0,0,0,0,0,0,0,0,0,0,0,0,0,0
1.458000000,0,0,0,0,0,0,0,0,0,0,0,0,0,0,0
1.459000000,0,0,0,0,0,0,0,0,0,0,0,0,0,0,0
1.460000000,0,0,0,0,0,0,0,0,0,0,0,0,0,0,0
1.461000000,0,0,0,0,0,0,0,0,0,0,0,0,0,0,0
1.462000000,0,0,0,0,0,0,0,0,0,0,0,0,0,0,0
1.463000000,0,0,0,0,0,0,0,0,0,0,0,0,0,0,0
1.464000000,0,0,0,0,0,0,0,0,0,0,0,0,0,0,0
1.465000000,0,0,0,0,0,0,0,0,0,0,0,0,0,0,0
1.466000000,0,0,0,0,0,0,0,0,0,0,0,0,0,0,0
1.467000000,0,0,0,0,0,0,0,0,0,0,0,0,0,0,0
1.468000000,0,0,0,0,0,0,0,0,0,0,0,0,0,0,0
1.469000000,0,0,0,0,0,0,0,0,0,0,0,0,0,0,0
1.470000000,0,0,0,0,0,0,0,0,0,0,0,0,0,0,0
1.471000000,0,0,0,0,0,0,0,0,0,0,0,0,0,0,0
1.472000000,0,0,0,0,0,0,0,0,0,0,0,0,0,0,0
1.473000000,0,0,0,0,0,0,0,0,0,0,0,0,0,0,0
1.474000000,0,0,0,0,0,0,0,0,0,0,0,0,0,0,0
1.475000000,0,0,0,0,0,0,0,0,0,0,0,0,0,0,0
1.476000000,0,0,0,0,0,0,0,0,0,0,0,0,0,0,0
1.477000000,0,0,0,0,0,0,0,0,0,0,0,0,0,0,0
1.478000000,0,0,0,0,0,0,0,0,0,0,0,0,0,0,0
1.479000000,0,0,0,0,0,0,0,0,0,0,0,0,0,0,0
1.480000000,0,0,0,0,0,0,0,0,0,0,0,0,0,0,0
1.481000000,0,0,0,0,0,0,0,0,0,0,0,0,0,0,0
1.482000000,0,0,0,0,0,0,0,0,0,0,0,0,0,0,0
1.483000000,0,0,0,0,0,0,0,0,0,0,0,0,0,0,0
1.484000000,0,0,0,0,0,0,0,0,0,0,0,0,0,0,0
1.485000000,0,0,0,0,0,0,0,0,0,0,0,0,0,0,0
1.486000000,0,0,0,0,0,0,0,0,0,0,0,0,0,0,0
1.487000000,0,0,0,0,0,0,0,0,0,0,0,0,0,0,0
1.488000000,0,0,0,0,0,0,0,0,0,0,0,0,0,0,0
1.489000000,0,0,0,0,0,0,0,0,0,0,0,0,0,0,0
1.490000000,0,0,0,0,0,0,0,0,0,0,0,0,0,0,0
1.491000000,0,0,0,0,0,0,0,0,0,0,0,0,0,0,0
1.492000000,0,0,0,0,0,0,0,0,0,0,0,0,0,0,0
1.493000000,0,0,0,0,0,0,0,0,0,0,0,0,0,0,0
1.494000000,0,0,0,0,0,0,0,0,0,0,0,0,0,0,0
1.495000000,0,0,0,0,0,0,0,0,0,0,0,0,0,0,0
1.496000000,0,0,0,0,0,0,0,0,0,0,0,0,0,0,0
1.497000000,0,0,0,0,0,0,0,0,0,0,0,0,0,0,0
1.498000000,0,0,0,0,0,0,0,0,0,0,0,0,0,0,0
1.499000000,0,0,0,0,0,0,0,0,0,0,0,0,0,0,0
1.500000000,0,0,0,0,0,0,0,0,0,0,0,0,0,0,0
1.501000000,0,0,0,0,0,0,0,0,0,0,0,0,0,0,0
1.502000000,0,0,0,0,0,0,0,0,0,0,0,0,0,0,0
1.503000000,0,0,0,0,0,0,0,0,0,0,0,0,0,0,0
1.504000000,0,0,0,0,0,0,0,0,0,0,0,0,0,0,0
1.505000000,0,0,0,0,0,0,0,0,0,0,0,0,0,0,0
1.506000000,0,0,0,0,0,0,0,0,0,0,0,0,0,0,0
1.507000000,0,0,0,0,0,0,0,0,0,0,0,0,0,0,0
1.508000000,0,0,0,0,0,0,0,0,0,0,0,0,0,0,0
1.509000000,0,0,0,0,0,0,0,0,0,0,0,0,0,0,0
1.510000000,0,0,0,0,0,0,0,0,0,0,0,0,0,0,0
1.511000000,0,0,0,0,0,0,0,0,0,0,0,0,0,0,0
1.512000000,0,0,0,0,0,0,0,0,0,0,0,0,0,0,0
1.513000000,0,0,0,0,0,0,0,0,0,0,0,0,0,0,0
1.514000000,0,0,0,0,0,0,0,0,0,0,0,0,0,0,0
1.515000000,0,0,0,0,0,0,0,0,0,0,0,0,0,0,0
1.516000000,0,0,0,0,0,0,0,0,0,0,0,0,0,0,0
1.517000000,0,0,0,0,0,0,0,0,0,0,0,0,0,0,0
1.518000000,0,0,0,0,0,0,0,0,0,0,0,0,0,0,0
1.519000000,0,0,0,0,0,0,0,0,0,0,0,0,0,0,0
1.520000000,0,0,0,0,0,0,0,0,0,0,0,0,0,0,0
1.521000000,0,0,0,0,0,0,0,0,0,0,0,0,0,0,0
1.522000000,0,0,0,0,0,0,0,0,0,0,0,0,0,0,0
1.523000000,0,0,0,0,0,0,0,0,0,0,0,0,0,0,0
1.524000000,0,0,0,0,0,0,0,0,0,0,0,0,0,0,0
1.525000000,0,0,0,0,0,0,0,0,0,0,0,0,0,0,0
1.526000000,0,0,0,0,0,0,0,0,0,0,0,0,0,0,0
1.527000000,0,0,0,0,0,0,0,0,0,0,0,0,0,0,0
1.528000000,0,0,0,0,0,0,0,0,0,0,0,0,0,0,0
1.529000000,0,0,0,0,0,0,0,0,0,0,0,0,0,0,0
1.530000000,0,0,0,0,0,0,0,0,0,0,0,0,0,0,0
1.531000000,0,0,0,0,0,0,0,0,0,0,0,0,0,0,0
1.532000000,0,0,0,0,0,0,0,0,0,0,0,0,0,0,0
1.533000000,0,0,0,0,0,0,0,0,0,0,0,0,0,0,0
1.534000000,0,0,0,0,0,0,0,0,0,0,0,0,0,0,0
1.535000000,0,0,0,0,0,0,0,0,0,0,0,0,0,0,0
1.536000000,0,0,0,0,0,0,0,0,0,0,0,0,0,0,0
1.537000000,0,0,0,0,0,0,0,0,0,0,0,0,0,0,0
1.538000000,0,0,0,0,0,0,0,0,0,0,0,0,0,0,0
1.539000000,0,0,0,0,0,0,0,0,0,0,0,0,0,0,0
1.540000000,0,0,0,0,0,0,0,0,0,0,0,0,0,0,0
1.541000000,0,0,0,0,0,0,0,0,0,0,0,0,0,0,0
1.542000000,0,0,0,0,0,0,0,0,0,0,0,0,0,0,0
1.543000000,0,0,0,0,0,0,0,0,0,0,0,0,0,0,0
1.544000000,0,0,0,0,0,0,0,0,0,0,0,0,0,0,0
1.545000000,0,0,0,0,0,0,0,0,0,0,0,0,0,0,0
1.546000000,0,0,0,0,0,0,0,0,0,0,0,0,0,0,0
1.547000000,0,0,0,0,0,0,0,0,0,0,0,0,0,0,0
1.548000000,0,0,0,0,0,0,0,0,0,0,0,0,0,0,0
1.549000000,0,0,0,0,0,0,0,0,0,0,0,0,0,0,0
1.550000000,0,0,0,0,0,0,0,0,0,0,0,0,0,0,0
1.551000000,0,0,0,0,0,0,0,0,0,0,0,0,0,0,0
1.552000000,0,0,0,0,0,0,0,0,0,0,0,0,0,0,0
1.553000000,0,0,0,0,0,0,0,0,0,0,0,0,0,0,0
1.554000000,0,0,0,0,0,0,0,0,0,0,0,0,0,0,0
1.555000000,0,0,0,0,0,0,0,0,0,0,0,0,0,0,0
1.556000000,0,0,0,0,0,0,0,0,0,0,0,0,0,0,0
1.557000000,0,0,0,0,0,0,0,0,0,0,0,0,0,0,0
1.558000000,0,0,0,0,0,0,0,0,0,0,0,0,0,0,0
1.559000000,0,0,0,0,0,0,0,0,0,0,0,0,0,0,0
1.560000000,0,0,0,0,0,0,0,0,0,0,0,0,0,0,0
1.561000000,0,0,0,0,0,0,0,0,0,0,0,0,0,0,0
1.562000000,0,0,0,0,0,0,0,0,0,0,0,0,0,0,0
1.563000000,0,0,0,0,0,0,0,0,0,0,0,0,0,0,0
1.564000000,0,0,0,0,0,0,0,0,0,0,0,0,0,0,0
1.565000000,0,0,0,0,0,0,0,0,0,0,0,0,0,0,0
1.566000000,0,0,0,0,0,0,0,0,0,0,0,0,0,0,0
1.567000000,0,0,0,0,0,0,0,0,0,0,0,0,0,0,0
1.568000000,0,0,0,0,0,0,0,0,0,0,0,0,0,0,0
1.569000000,0,0,0,0,0,0,0,0,0,0,0,0,0,0,0
1.570000000,0,0,0,0,0,0,0,0,0,0,0,0,0,0,0
1.571000000,0,0,0,0,0,0,0,0,0,0,0,0,0,0,0
1.572000000,0,0,0,0,0,0,0,0,0,0,0,0,0,0,0
1.573000000,0,0,0,0,0,0,0,0,0,0,0,0,0,0,0
1.574000000,0,0,0,0,0,0,0,0,0,0,0,0,0,0,0
1.575000000,0,0,0,0,0,0,0,0,0,0,0,0,0,0,0
1.576000000,0,0,0,0,0,0,0,0,0,0,0,0,0,0,0
1.577000000,0,0,0,0,0,0,0,0,0,0,0,0,0,0,0
1.578000000,0,0,0,0,0,0,0,0,0,0,0,0,0,0,0
1.579000000,0,0,0,0,0,0,0,0,0,0,0,0,0,0,0
1.580000000,0,0,0,0,0,0,0,0,0,0,0,0,0,0,0
1.581000000,0,0,0,0,0,0,0,0,0,0,0,0,0,0,0
1.582000000,0,0,0,0,0,0,0,0,0,0,0,0,0,0,0
1.583000000,0,0,0,0,0,0,0,0,0,0,0,0,0,0,0
1.584000000,0,0,0,0,0,0,0,0,0,0,0,0,0,0,0
1.585000000,0,0,0,0,0,0,0,0,0,0,0,0,0,0,0
1.586000000,0,0,0,0,0,0,0,0,0,0,0,0,0,0,0
1.587000000,0,0,0,0,0,0,0,0,0,0,0,0,0,0,0
1.588000000,0,0,0,0,0,0,0,0,0,0,0,0,0,0,0
1.589000000,0,0,0,0,0,0,0,0,0,0,0,0,0,0,0
1.590000000,0,0,0,0,0,0,0,0,0,0,0,0,0,0,0
1.591000000,0,0,0,0,0,0,0,0,0,0,0,0,0,0,0
1.592000000,0,0,0,0,0,0,0,0,0,0,0,0,0,0,0
1.593000000,0,0,0,0,0,0,0,0,0,0,0,0,0,0,0
1.594000000,0,0,0,0,0,0,0,0,0,0,0,0,0,0,0
1.595000000,0,0,0,0,0,0,0,0,0,0,0,0,0,0,0
1.596000000,0,0,0,0,0,0,0,0,0,0,0,0,0,0,0
1.597000000,0,0,0,0,0,0,0,0,0,0,0,0,0,0,0
1.598000000,0,0,0,0,0,0,0,0,0,0,0,0,0,0,0
1.599000000,0,0,0,0,0,0,0,0,0,0,0,0,0,0,0
1.600000000,0,0,0,0,0,0,0,0,0,0,0,0,0,0,0
1.601000000,0,0,0,0,0,0,0,0,0,0,0,0,0,0,0
1.602000000,0,0,0,0,0,0,0,0,0,0,0,0,0,0,0
1.603000000,0,0,0,0,0,0,0,0,0,0,0,0,0,0,0
1.604000000,0,0,0,0,0,0,0,0,0,0,0,0,0,0,0
1.605000000,0,0,0,0,0,0,0,0,0,0,0,0,0,0,0
1.606000000,0,0,0,0,0,0,0,0,0,0,0,0,0,0,0
1.607000000,0,0,0,0,0,0,0,0,0,0,0,0,0,0,0
1.608000000,0,0,0,0,0,0,0,0,0,0,0,0,0,0,0
1.609000000,0,0,0,0,0,0,0,0,0,0,0,0,0,0,0
1.610000000,0,0,0,0,0,0,0,0,0,0,0,0,0,0,0
1.611000000,0,0,0,0,0,0,0,0,0,0,0,0,0,0,0
1.612000000,0,0,0,0,0,0,0,0,0,0,0,0,0,0,0
1.613000000,0,0,0,0,0,0,0,0,0,0,0,0,0,0,0
1.614000000,0,0,0,0,0,0,0,0,0,0,0,0,0,0,0
1.615000000,0,0,0,0,0,0,0,0,0,0,0,0,0,0,0
1.616000000,0,0,0,0,0,0,0,0,0,0,0,0,0,0,0
1.617000000,0,0,0,0,0,0,0,0,0,0,0,0,0,0,0
1.618000000,0,0,0,0,0,0,0,0,0,0,0,0,0,0,0
1.619000000,0,0,0,0,0,0,0,0,0,0,0,0,0,0,0
1.620000000,0,0,0,0,0,0,0,0,0,0,0,0,0,0,0
1.621000000,0,0,0,0,0,0,0,0,0,0,0,0,0,0,0
1.622000000,0,0,0,0,0,0,0,0,0,0,0,0,0,0,0
1.623000000,0,0,0,0,0,0,0,0,0,0,0,0,0,0,0
1.624000000,0,0,0,0,0,0,0,0,0,0,0,0,0,0,0
1.625000000,0,0,0,0,0,0,0,0,0,0,0,0,0,0,0
1.626000000,0,0,0,0,0,0,0,0,0,0,0,0,0,0,0
1.627000000,0,0,0,0,0,0,0,0,0,0,0,0,0,0,0
1.628000000,0,0,0,0,0,0,0,0,0,0,0,0,0,0,0
1.629000000,0,0,0,0,0,0,0,0,0,0,0,0,0,0,0
1.630000000,0,0,0,0,0,0,0,0,0,0,0,0,0,0,0
1.631000000,0,0,0,0,0,0,0,0,0,0,0,0,0,0,0
1.632000000,0,0,0,0,0,0,0,0,0,0,0,0,0,0,0
1.633000000,0,0,0,0,0,0,0,0,0,0,0,0,0,0,0
1.634000000,0,0,0,0,0,0,0,0,0,0,0,0,0,0,0
1.635000000,0,0,0,0,0,0,0,0,0,0,0,0,0,0,0
1.636000000,0,0,0,0,0,0,0,0,0,0,0,0,0,0,0
1.637000000,0,0,0,0,0,0,0,0,0,0,0,0,0,0,0
1.638000000,0,0,0,0,0,0,0,0,0,0,0,0,0,0,0
1.639000000,0,0,0,0,0,0,0,0,0,0,0,0,0,0,0
1.640000000,0,0,0,0,0,0,0,0,0,0,0,0,0,0,0
1.641000000,0,0,0,0,0,0,0,0,0,0,0,0,0,0,0
1.642000000,0,0,0,0,0,0,0,0,0,0,0,0,0,0,0
1.643000000,0,0,0,0,0,0,0,0,0,0,0,0,0,0,0
1.644000000,0,0,0,0,0,0,0,0,0,0,0,0,0,0,0
1.645000000,0,0,0,0,0,0,0,0,0,0,0,0,0,0,0
1.646000000,0,0,0,0,0,0,0,0,0,0,0,0,0,0,0
1.647000000,0,0,0,0,0,0,0,0,0,0,0,0,0,0,0
1.648000000,0,0,0,0,0,0,0,0,0,0,0,0,0,0,0
1.649000000,0,0,0,0,0,0,0,0,0,0,0,0,0,0,0
1.650000000,0,0,0,0,0,0,0,0,0,0,0,0,0,0,0
1.651000000,0,0,0,0,0,0,0,0,0,0,0,0,0,0,0
1.652000000,0,0,0,0,0,0,0,0,0,0,0,0,0,0,0
1.653000000,0,0,0,0,0,0,0,0,0,0,0,0,0,0,0
1.654000000,0,0,0,0,0,0,0,0,0,0,0,0,0,0,0
1.655000000,0,0,0,0,0,0,0,0,0,0,0,0,0,0,0
1.656000000,0,0,0,0,0,0,0,0,0,0,0,0,0,0,0
1.657000000,0,0,0,0,0,0,0,0,0,0,0,0,0,0,0
1.658000000,0,0,0,0,0,0,0,0,0,0,0,0,0,0,0
1.659000000,0,0,0,0,0,0,0,0,0,0,0,0,0,0,0
1.660000000,0,0,0,0,0,0,0,0,0,0,0,0,0,0,0
1.661000000,0,0,0,0,0,0,0,0,0,0,0,0,0,0,0
1.662000000,0,0,0,0,0,0,0,0,0,0,0,0,0,0,0
1.663000000,0,0,0,0,0,0,0,0,0,0,0,0,0,0,0
1.664000000,0,0,0,0,0,0,0,0,0,0,0,0,0,0,0
1.665000000,0,0,0,0,0,0,0,0,0,0,0,0,0,0,0
1.666000000,0,0,0,0,0,0,0,0,0,0,0,0,0,0,0
1.667000000,0,0,0,0,0,0,0,0,0,0,0,0,0,0,0
1.668000000,0,0,0,0,0,0,0,0,0,0,0,0,0,0,0
1.669000000,0,0,0,0,0,0,0,0,0,0,0,0,0,0,0
1.670000000,0,0,0,0,0,0,0,0,0,0,0,0,0,0,0
1.671000000,0,0,0,0,0,0,0,0,0,0,0,0,0,0,0
1.672000000,0,0,0,0,0,0,0,0,0,0,0,0,0,0,0
1.673000000,0,0,0,0,0,0,0,0,0,0,0,0,0,0,0
1.674000000,0,0,0,0,0,0,0,0,0,0,0,0,0,0,0
1.675000000,0,0,0,0,0,0,0,0,0,0,0,0,0,0,0
1.676000000,0,0,0,0,0,0,0,0,0,0,0,0,0,0,0
1.677000000,0,0,0,0,0,0,0,0,0,0,0,0,0,0,0
1.678000000,0,0,0,0,0,0,0,0,0,0,0,0,0,0,0
1.679000000,0,0,0,0,0,0,0,0,0,0,0,0,0,0,0
1.680000000,0,0,0,0,0,0,0,0,0,0,0,0,0,0,0
1.681000000,0,0,0,0,0,0,0,0,0,0,0,0,0,0,0
1.682000000,0,0,0,0,0,0,0,0,0,0,0,0,0,0,0
1.683000000,0,0,0,0,0,0,0,0,0,0,0,0,0,0,0
1.684000000,0,0,0,0,0,0,0,0,0,0,0,0,0,0,0
1.685000000,0,0,0,0,0,0,0,0,0,0,0,0,0,0,0
1.686000000,0,0,0,0,0,0,0,0,0,0,0,0,0,0,0
1.687000000,0,0,0,0,0,0,0,0,0,0,0,0,0,0,0
1.688000000,0,0,0,0,0,0,0,0,0,0,0,0,0,0,0
1.689000000,0,0,0,0,0,0,0,0,0,0,0,0,0,0,0
1.690000000,0,0,0,0,0,0,0,0,0,0,0,0,0,0,0
1.691000000,0,0,0,0,0,0,0,0,0,0,0,0,0,0,0
1.692000000,0,0,0,0,0,0,0,0,0,0,0,0,0,0,0
1.693000000,0,0,0,0,0,0,0,0,0,0,0,0,0,0,0
1.694000000,0,0,0,0,0,0,0,0,0,0,0,0,0,0,0
1.695000000,0,0,0,0,0,0,0,0,0,0,0,0,0,0,0
1.696000000,0,0,0,0,0,0,0,0,0,0,0,0,0,0,0
1.697000000,0,0,0,0,0,0,0,0,0,0,0,0,0,0,0
1.698000000,0,0,0,0,0,0,0,0,0,0,0,0,0,0,0
1.699000000,0,0,0,0,0,0,0,0,0,0,0,0,0,0,0
1.700000000,0,0,0,0,0,0,0,0,0,0,0,0,0,0,0
1.701000000,0,0,0,0,0,0,0,0,0,0,0,0,0,0,0
1.702000000,0,0,0,0,0,0,0,0,0,0,0,0,0,0,0
1.703000000,0,0,0,0,0,0,0,0,0,0,0,0,0,0,0
1.704000000,0,0,0,0,0,0,0,0,0,0,0,0,0,0,0
1.705000000,0,0,0,0,0,0,0,0,0,0,0,0,0,0,0
1.706000000,0,0,0,0,0,0,0,0,0,0,0,0,0,0,0
1.707000000,0,0,0,0,0,0,0,0,0,0,0,0,0,0,0
1.708000000,0,0,0,0,0,0,0,0,0,0,0,0,0,0,0
1.709000000,0,0,0,0,0,0,0,0,0,0,0,0,0,0,0
1.710000000,0,0,0,0,0,0,0,0,0,0,0,0,0,0,0
1.711000000,0,0,0,0,0,0,0,0,0,0,0,0,0,0,0
1.712000000,0,0,0,0,0,0,0,0,0,0,0,0,0,0,0
1.713000000,0,0,0,0,0,0,0,0,0,0,0,0,0,0,0
1.714000000,0,0,0,0,0,0,0,0,0,0,0,0,0,0,0
1.715000000,0,0,0,0,0,0,0,0,0,0,0,0,0,0,0
1.716000000,0,0,0,0,0,0,0,0,0,0,0,0,0,0,0
1.717000000,0,0,0,0,0,0,0,0,0,0,0,0,0,0,0
1.718000000,0,0,0,0,0,0,0,0,0,0,0,0,0,0,0
1.719000000,0,0,0,0,0,0,0,0,0,0,0,0,0,0,0
1.720000000,0,0,0,0,0,0,0,0,0,0,0,0,0,0,0
1.721000000,0,0,0,0,0,0,0,0,0,0,0,0,0,0,0
1.722000000,0,0,0,0,0,0,0,0,0,0,0,0,0,0,0
1.723000000,0,0,0,0,0,0,0,0,0,0,0,0,0,0,0
1.724000000,0,0,0,0,0,0,0,0,0,0,0,0,0,0,0
1.725000000,0,0,0,0,0,0,0,0,0,0,0,0,0,0,0
1.726000000,0,0,0,0,0,0,0,0,0,0,0,0,0,0,0
1.727000000,0,0,0,0,0,0,0,0,0,0,0,0,0,0,0
1.728000000,0,0,0,0,0,0,0,0,0,0,0,0,0,0,0
1.729000000,0,0,0,0,0,0,0,0,0,0,0,0,0,0,0
1.730000000,0,0,0,0,0,0,0,0,0,0,0,0,0,0,0
1.731000000,0,0,0,0,0,0,0,0,0,0,0,0,0,0,0
1.732000000,0,0,0,0,0,0,0,0,0,0,0,0,0,0,0
1.733000000,0,0,0,0,0,0,0,0,0,0,0,0,0,0,0
1.734000000,0,0,0,0,0,0,0,0,0,0,0,0,0,0,0
1.735000000,0,0,0,0,0,0,0,0,0,0,0,0,0,0,0
1.736000000,0,0,0,0,0,0,0,0,0,0,0,0,0,0,0
1.737000000,0,0,0,0,0,0,0,0,0,0,0,0,0,0,0
1.738000000,0,0,0,0,0,0,0,0,0,0,0,0,0,0,0
1.739000000,0,0,0,0,0,0,0,0,0,0,0,0,0,0,0
1.740000000,0,0,0,0,0,0,0,0,0,0,0,0,0,0,0
1.741000000,0,0,0,0,0,0,0,0,0,0,0,0,0,0,0
1.742000000,0,0,0,0,0,0,0,0,0,0,0,0,0,0,0
1.743000000,0,0,0,0,0,0,0,0,0,0,0,0,0,0,0
1.744000000,0,0,0,0,0,0,0,0,0,0,0,0,0,0,0
1.745000000,0,0,0,0,0,0,0,0,0,0,0,0,0,0,0
1.746000000,0,0,0,0,0,0,0,0,0,0,0,0,0,0,0
1.747000000,0,0,0,0,0,0,0,0,0,0,0,0,0,0,0
1.748000000,0,0,0,0,0,0,0,0,0,0,0,0,0,0,0
1.749000000,0,0,0,0,0,0,0,0,0,0,0,0,0,0,0
1.750000000,0,0,0,0,0,0,0,0,0,0,0,0,0,0,0
1.751000000,0,0,0,0,0,0,0,0,0,0,0,0,0,0,0
1.752000000,0,0,0,0,0,0,0,0,0,0,0,0,0,0,0
1.753000000,0,0,0,0,0,0,0,0,0,0,0,0,0,0,0
1.754000000,0,0,0,0,0,0,0,0,0,0,0,0,0,0,0
1.755000000,0,0,0,0,0,0,0,0,0,0,0,0,0,0,0
1.756000000,0,0,0,0,0,0,0,0,0,0,0,0,0,0,0
1.757000000,0,0,0,0,0,0,0,0,0,0,0,0,0,0,0
1.758000000,0,0,0,0,0,0,0,0,0,0,0,0,0,0,0
1.759000000,0,0,0,0,0,0,0,0,0,0,0,0,0,0,0
1.760000000,0,0,0,0,0,0,0,0,0,0,0,0,0,0,0
1.761000000,0,0,0,0,0,0,0,0,0,0,0,0,0,0,0
1.762000000,0,0,0,0,0,0,0,0,0,0,0,0,0,0,0
1.763000000,0,0,0,0,0,0,0,0,0,0,0,0,0,0,0
1.764000000,0,0,0,0,0,0,0,0,0,0,0,0,0,0,0
1.765000000,0,0,0,0,0,0,0,0,0,0,0,0,0,0,0
1.766000000,0,0,0,0,0,0,0,0,0,0,0,0,0,0,0
1.767000000,0,0,0,0,0,0,0,0,0,0,0,0,0,0,0
1.768000000,0,0,0,0,0,0,0,0,0,0,0,0,0,0,0
1.769000000,0,0,0,0,0,0,0,0,0,0,0,0,0,0,0
1.770000000,0,0,0,0,0,0,0,0,0,0,0,0,0,0,0
1.771000000,0,0,0,0,0,0,0,0,0,0,0,0,0,0,0
1.772000000,0,0,0,0,0,0,0,0,0,0,0,0,0,0,0
1.773000000,0,0,0,0,0,0,0,0,0,0,0,0,0,0,0
1.774000000,0,0,0,0,0,0,0,0,0,0,0,0,0,0,0
1.775000000,0,0,0,0,0,0,0,0,0,0,0,0,0,0,0
1.776000000,0,0,0,0,0,0,0,0,0,0,0,0,0,0,0
1.777000000,0,0,0,0,0,0,0,0,0,0,0,0,0,0,0
1.778000000,0,0,0,0,0,0,0,0,0,0,0,0,0,0,0
1.779000000,0,0,0,0,0,0,0,0,0,0,0,0,0,0,0
1.780000000,0,0,0,0,0,0,0,0,0,0,0,0,0,0,0
1.781000000,0,0,0,0,0,0,0,0,0,0,0,0,0,0,0
1.782000000,0,0,0,0,0,0,0,0,0,0,0,0,0,0,0
1.783000000,0,0,0,0,0,0,0,0,0,0,0,0,0,0,0
1.784000000,0,0,0,0,0,0,0,0,0,0,0,0,0,0,0
1.785000000,0,0,0,0,0,0,0,0,0,0,0,0,0,0,0
1.786000000,0,0,0,0,0,0,0,0,0,0,0,0,0,0,0
1.787000000,0,0,0,0,0,0,0,0,0,0,0,0,0,0,0
1.788000000,0,0,0,0,0,0,0,0,0,0,0,0,0,0,0
1.789000000,0,0,0,0,0,0,0,0,0,0,0,0,0,0,0
1.790000000,0,0,0,0,0,0,0,0,0,0,0,0,0,0,0
1.791000000,0,0,0,0,0,0,0,0,0,0,0,0,0,0,0
1.792000000,0,0,0,0,0,0,0,0,0,0,0,0,0,0,0
1.793000000,0,0,0,0,0,0,0,0,0,0,0,0,0,0,0
1.794000000,0,0,0,0,0,0,0,0,0,0,0,0,0,0,0
1.795000000,0,0,0,0,0,0,0,0,0,0,0,0,0,0,0
1.796000000,0,0,0,0,0,0,0,0,0,0,0,0,0,0,0
1.797000000,0,0,0,0,0,0,0,0,0,0,0,0,0,0,0
1.798000000,0,0,0,0,0,0,0,0,0,0,0,0,0,0,0
1.799000000,0,0,0,0,0,0,0,0,0,0,0,0,0,0,0
1.800000000,0,0,0,0,0,0,0,0,0,0,0,0,0,0,0
1.801000000,0,0,0,0,0,0,0,0,0,0,0,0,0,0,0
1.802000000,0,0,0,0,0,0,0,0,0,0,0,0,0,0,0
1.803000000,0,0,0,0,0,0,0,0,0,0,0,0,0,0,0
1.804000000,0,0,0,0,0,0,0,0,0,0,0,0,0,0,0
1.805000000,0,0,0,0,0,0,0,0,0,0,0,0,0,0,0
1.806000000,0,0,0,0,0,0,0,0,0,0,0,0,0,0,0
1.807000000,0,0,0,0,0,0,0,0,0,0,0,0,0,0,0
1.808000000,0,0,0,0,0,0,0,0,0,0,0,0,0,0,0
1.809000000,0,0,0,0,0,0,0,0,0,0,0,0,0,0,0
1.810000000,0,0,0,0,0,0,0,0,0,0,0,0,0,0,0
1.811000000,0,0,0,0,0,0,0,0,0,0,0,0,0,0,0
1.812000000,0,0,0,0,0,0,0,0,0,0,0,0,0,0,0
1.813000000,0,0,0,0,0,0,0,0,0,0,0,0,0,0,0
1.814000000,0,0,0,0,0,0,0,0,0,0,0,0,0,0,0
1.815000000,0,0,0,0,0,0,0,0,0,0,0,0,0,0,0
1.816000000,0,0,0,0,0,0,0,0,0,0,0,0,0,0,0
1.817000000,0,0,0,0,0,0,0,0,0,0,0,0,0,0,0
1.818000000,0,0,0,0,0,0,0,0,0,0,0,0,0,0,0
1.819000000,0,0,0,0,0,0,0,0,0,0,0,0,0,0,0
1.820000000,0,0,0,0,0,0,0,0,0,0,0,0,0,0,0
1.821000000,0,0,0,0,0,0,0,0,0,0,0,0,0,0,0
1.822000000,0,0,0,0,0,0,0,0,0,0,0,0,0,0,0
1.823000000,0,0,0,0,0,0,0,0,0,0,0,0,0,0,0
1.824000000,0,0,0,0,0,0,0,0,0,0,0,0,0,0,0
1.825000000,0,0,0,0,0,0,0,0,0,0,0,0,0,0,0
1.826000000,0,0,0,0,0,0,0,0,0,0,0,0,0,0,0
1.827000000,0,0,0,0,0,0,0,0,0,0,0,0,0,0,0
1.828000000,0,0,0,0,0,0,0,0,0,0,0,0,0,0,0
1.829000000,0,0,0,0,0,0,0,0,0,0,0,0,0,0,0
1.830000000,0,0,0,0,0,0,0,0,0,0,0,0,0,0,0
1.831000000,0,0,0,0,0,0,0,0,0,0,0,0,0,0,0
1.832000000,0,0,0,0,0,0,0,0,0,0,0,0,0,0,0
1.833000000,0,0,0,0,0,0,0,0,0,0,0,0,0,0,0
1.834000000,0,0,0,0,0,0,0,0,0,0,0,0,0,0,0
1.835000000,0,0,0,0,0,0,0,0,0,0,0,0,0,0,0
1.836000000,0,0,0,0,0,0,0,0,0,0,0,0,0,0,0
1.837000000,0,0,0,0,0,0,0,0,0,0,0,0,0,0,0
1.838000000,0,0,0,0,0,0,0,0,0,0,0,0,0,0,0
1.839000000,0,0,0,0,0,0,0,0,0,0,0,0,0,0,0
1.840000000,0,0,0,0,0,0,0,0,0,0,0,0,0,0,0
1.841000000,0,0,0,0,0,0,0,0,0,0,0,0,0,0,0
1.842000000,0,0,0,0,0,0,0,0,0,0,0,0,0,0,0
1.843000000,0,0,0,0,0,0,0,0,0,0,0,0,0,0,0
1.844000000,0,0,0,0,0,0,0,0,0,0,0,0,0,0,0
1.845000000,0,0,0,0,0,0,0,0,0,0,0,0,0,0,0
1.846000000,0,0,0,0,0,0,0,0,0,0,0,0,0,0,0
1.847000000,0,0,0,0,0,0,0,0,0,0,0,0,0,0,0
1.848000000,0,0,0,0,0,0,0,0,0,0,0,0,0,0,0
1.849000000,0,0,0,0,0,0,0,0,0,0,0,0,0,0,0
1.850000000,0,0,0,0,0,0,0,0,0,0,0,0,0,0,0
1.851000000,0,0,0,0,0,0,0,0,0,0,0,0,0,0,0
1.852000000,0,0,0,0,0,0,0,0,0,0,0,0,0,0,0
1.853000000,0,0,0,0,0,0,0,0,0,0,0,0,0,0,0
1.854000000,0,0,0,0,0,0,0,0,0,0,0,0,0,0,0
1.855000000,0,0,0,0,0,0,0,0,0,0,0,0,0,0,0
1.856000000,0,0,0,0,0,0,0,0,0,0,0,0,0,0,0
1.857000000,0,0,0,0,0,0,0,0,0,0,0,0,0,0,0
1.858000000,0,0,0,0,0,0,0,0,0,0,0,0,0,0,0
1.859000000,0,0,0,0,0,0,0,0,0,0,0,0,0,0,0
1.860000000,0,0,0,0,0,0,0,0,0,0,0,0,0,0,0
1.861000000,0,0,0,0,0,0,0,0,0,0,0,0,0,0,0
1.862000000,0,0,0,0,0,0,0,0,0,0,0,0,0,0,0
1.863000000,0,0,0,0,0,0,0,0,0,0,0,0,0,0,0
1.864000000,0,0,0,0,0,0,0,0,0,0,0,0,0,0,0
1.865000000,0,0,0,0,0,0,0,0,0,0,0,0,0,0,0
1.866000000,0,0,0,0,0,0,0,0,0,0,0,0,0,0,0
1.867000000,0,0,0,0,0,0,0,0,0,0,0,0,0,0,0
1.868000000,0,0,0,0,0,0,0,0,0,0,0,0,0,0,0
1.869000000,0,0,0,0,0,0,0,0,0,0,0,0,0,0,0
1.870000000,0,0,0,0,0,0,0,0,0,0,0,0,0,0,0
1.871000000,0,0,0,0,0,0,0,0,0,0,0,0,0,0,0
1.872000000,0,0,0,0,0,0,0,0,0,0,0,0,0,0,0
1.873000000,0,0,0,0,0,0,0,0,0,0,0,0,0,0,0
1.874000000,0,0,0,0,0,0,0,0,0,0,0,0,0,0,0
1.875000000,0,0,0,0,0,0,0,0,0,0,0,0,0,0,0
1.876000000,0,0,0,0,0,0,0,0,0,0,0,0,0,0,0
1.877000000,0,0,0,0,0,0,0,0,0,0,0,0,0,0,0
1.878000000,0,0,0,0,0,0,0,0,0,0,0,0,0,0,0
1.879000000,0,0,0,0,0,0,0,0,0,0,0,0,0,0,0
1.880000000,0,0,0,0,0,0,0,0,0,0,0,0,0,0,0
1.881000000,0,0,0,0,0,0,0,0,0,0,0,0,0,0,0
1.882000000,0,0,0,0,0,0,0,0,0,0,0,0,0,0,0
1.883000000,0,0,0,0,0,0,0,0,0,0,0,0,0,0,0
1.884000000,0,0,0,0,0,0,0,0,0,0,0,0,0,0,0
1.885000000,0,0,0,0,0,0,0,0,0,0,0,0,0,0,0
1.886000000,0,0,0,0,0,0,0,0,0,0,0,0,0,0,0
1.887000000,0,0,0,0,0,0,0,0,0,0,0,0,0,0,0
1.888000000,0,0,0,0,0,0,0,0,0,0,0,0,0,0,0
1.889000000,0,0,0,0,0,0,0,0,0,0,0,0,0,0,0
1.890000000,0,0,0,0,0,0,0,0,0,0,0,0,0,0,0
1.891000000,0,0,0,0,0,0,0,0,0,0,0,0,0,0,0
1.892000000,0,0,0,0,0,0,0,0,0,0,0,0,0,0,0
1.893000000,0,0,0,0,0,0,0,0,0,0,0,0,0,0,0
1.894000000,0,0,0,0,0,0,0,0,0,0,0,0,0,0,0
1.895000000,0,0,0,0,0,0,0,0,0,0,0,0,0,0,0
1.896000000,0,0,0,0,0,0,0,0,0,0,0,0,0,0,0
1.897000000,0,0,0,0,0,0,0,0,0,0,0,0,0,0,0
1.898000000,0,0,0,0,0,0,0,0,0,0,0,0,0,0,0
1.899000000,0,0,0,0,0,0,0,0,0,0,0,0,0,0,0
1.900000000,0,0,0,0,0,0,0,0,0,0,0,0,0,0,0
1.901000000,0,0,0,0,0,0,0,0,0,0,0,0,0,0,0
1.902000000,0,0,0,0,0,0,0,0,0,0,0,0,0,0,0
1.903000000,0,0,0,0,0,0,0,0,0,0,0,0,0,0,0
1.904000000,0,0,0,0,0,0,0,0,0,0,0,0,0,0,0
1.905000000,0,0,0,0,0,0,0,0,0,0,0,0,0,0,0
1.906000000,0,0,0,0,0,0,0,0,0,0,0,0,0,0,0
1.907000000,0,0,0,0,0,0,0,0,0,0,0,0,0,0,0
1.908000000,0,0,0,0,0,0,0,0,0,0,0,0,0,0,0
1.909000000,0,0,0,0,0,0,0,0,0,0,0,0,0,0,0
1.910000000,0,0,0,0,0,0,0,0,0,0,0,0,0,0,0
1.911000000,0,0,0,0,0,0,0,0,0,0,0,0,0,0,0
1.912000000,0,0,0,0,0,0,0,0,0,0,0,0,0,0,0
1.913000000,0,0,0,0,0,0,0,0,0,0,0,0,0,0,0
1.914000000,0,0,0,0,0,0,0,0,0,0,0,0,0,0,0
1.915000000,0,0,0,0,0,0,0,0,0,0,0,0,0,0,0
1.916000000,0,0,0,0,0,0,0,0,0,0,0,0,0,0,0
1.917000000,0,0,0,0,0,0,0,0,0,0,0,0,0,0,0
1.918000000,0,0,0,0,0,0,0,0,0,0,0,0,0,0,0
1.919000000,0,0,0,0,0,0,0,0,0,0,0,0,0,0,0
1.920000000,0,0,0,0,0,0,0,0,0,0,0,0,0,0,0
1.921000000,0,0,0,0,0,0,0,0,0,0,0,0,0,0,0
1.922000000,0,0,0,0,0,0,0,0,0,0,0,0,0,0,0
1.923000000,0,0,0,0,0,0,0,0,0,0,0,0,0,0,0
1.924000000,0,0,0,0,0,0,0,0,0,0,0,0,0,0,0
1.925000000,0,0,0,0,0,0,0,0,0,0,0,0,0,0,0
1.926000000,0,0,0,0,0,0,0,0,0,0,0,0,0,0,0
1.927000000,0,0,0,0,0,0,0,0,0,0,0,0,0,0,0
1.928000000,0,0,0,0,0,0,0,0,0,0,0,0,0,0,0
1.929000000,0,0,0,0,0,0,0,0,0,0,0,0,0,0,0
1.930000000,0,0,0,0,0,0,0,0,0,0,0,0,0,0,0
1.931000000,0,0,0,0,0,0,0,0,0,0,0,0,0,0,0
1.932000000,0,0,0,0,0,0,0,0,0,0,0,0,0,0,0
1.933000000,0,0,0,0,0,0,0,0,0,0,0,0,0,0,0
1.934000000,0,0,0,0,0,0,0,0,0,0,0,0,0,0,0
1.935000000,0,0,0,0,0,0,0,0,0,0,0,0,0,0,0
1.936000000,0,0,0,0,0,0,0,0,0,0,0,0,0,0,0
1.937000000,0,0,0,0,0,0,0,0,0,0,0,0,0,0,0
1.938000000,0,0,0,0,0,0,0,0,0,0,0,0,0,0,0
1.939000000,0,0,0,0,0,0,0,0,0,0,0,0,0,0,0
1.940000000,0,0,0,0,0,0,0,0,0,0,0,0,0,0,0
1.941000000,0,0,0,0,0,0,0,0,0,0,0,0,0,0,0
1.942000000,0,0,0,0,0,0,0,0,0,0,0,0,0,0,0
1.943000000,0,0,0,0,0,0,0,0,0,0,0,0,0,0,0
1.944000000,0,0,0,0,0,0,0,0,0,0,0,0,0,0,0
1.945000000,0,0,0,0,0,0,0,0,0,0,0,0,0,0,0
1.946000000,0,0,0,0,0,0,0,0,0,0,0,0,0,0,0
1.947000000,0,0,0,0,0,0,0,0,0,0,0,0,0,0,0
1.948000000,0,0,0,0,0,0,0,0,0,0,0,0,0,0,0
1.949000000,0,0,0,0,0,0,0,0,0,0,0,0,0,0,0
1.950000000,0,0,0,0,0,0,0,0,0,0,0,0,0,0,0
1.951000000,0,0,0,0,0,0,0,0,0,0,0,0,0,0,0
1.952000000,0,0,0,0,0,0,0,0,0,0,0,0,0,0,0
1.953000000,0,0,0,0,0,0,0,0,0,0,0,0,0,0,0
1.954000000,0,0,0,0,0,0,0,0,0,0,0,0,0,0,0
1.955000000,0,0,0,0,0,0,0,0,0,0,0,0,0,0,0
1.956000000,0,0,0,0,0,0,0,0,0,0,0,0,0,0,0
1.957000000,0,0,0,0,0,0,0,0,0,0,0,0,0,0,0
1.958000000,0,0,0,0,0,0,0,0,0,0,0,0,0,0,0
1.959000000,0,0,0,0,0,0,0,0,0,0,0,0,0,0,0
1.960000000,0,0,0,0,0,0,0,0,0,0,0,0,0,0,0
1.961000000,0,0,0,0,0,0,0,0,0,0,0,0,0,0,0
1.962000000,0,0,0,0,0,0,0,0,0,0,0,0,0,0,0
1.963000000,0,0,0,0,0,0,0,0,0,0,0,0,0,0,0
1.964000000,0,0,0,0,0,0,0,0,0,0,0,0,0,0,0
1.965000000,0,0,0,0,0,0,0,0,0,0,0,0,0,0,0
1.966000000,0,0,0,0,0,0,0,0,0,0,0,0,0,0,0
1.967000000,0,0,0,0,0,0,0,0,0,0,0,0,0,0,0
1.968000000,0,0,0,0,0,0,0,0,0,0,0,0,0,0,0
1.969000000,0,0,0,0,0,0,0,0,0,0,0,0,0,0,0
1.970000000,0,0,0,0,0,0,0,0,0,0,0,0,0,0,0
1.971000000,0,0,0,0,0,0,0,0,0,0,0,0,0,0,0
1.972000000,0,0,0,0,0,0,0,0,0,0,0,0,0,0,0
1.973000000,0,0,0,0,0,0,0,0,0,0,0,0,0,0,0
1.974000000,0,0,0,0,0,0,0,0,0,0,0,0,0,0,0
1.975000000,0,0,0,0,0,0,0,0,0,0,0,0,0,0,0
1.976000000,0,0,0,0,0,0,0,0,0,0,0,0,0,0,0
1.977000000,0,0,0,0,0,0,0,0,0,0,0,0,0,0,0
1.978000000,0,0,0,0,0,0,0,0,0,0,0,0,0,0,0
1.979000000,0,0,0,0,0,0,0,0,0,0,0,0,0,0,0
1.980000000,0,0,0,0,0,0,0,0,0,0,0,0,0,0,0
1.981000000,0,0,0,0,0,0,0,0,0,0,0,0,0,0,0
1.982000000,0,0,0,0,0,0,0,0,0,0,0,0,0,0,0
1.983000000,0,0,0,0,0,0,0,0,0,0,0,0,0,0,0
1.984000000,0,0,0,0,0,0,0,0,0,0,0,0,0,0,0
1.985000000,0,0,0,0,0,0,0,0,0,0,0,0,0,0,0
1.986000000,0,0,0,0,0,0,0,0,0,0,0,0,0,0,0
1.987000000,0,0,0,0,0,0,0,0,0,0,0,0,0,0,0
1.988000000,0,0,0,0,0,0,0,0,0,0,0,0,0,0,0
1.989000000,0,0,0,0,0,0,0,0,0,0,0,0,0,0,0
1.990000000,0,0,0,0,0,0,0,0,0,0,0,0,0,0,0
1.991000000,0,0,0,0,0,0,0,0,0,0,0,0,0,0,0
1.992000000,0,0,0,0,0,0,0,0,0,0,0,0,0,0,0
1.993000000,0,0,0,0,0,0,0,0,0,0,0,0,0,0,0
1.994000000,0,0,0,0,0,0,0,0,0,0,0,0,0,0,0
1.995000000,0,0,0,0,0,0,0,0,0,0,0,0,0,0,0
1.996000000,0,0,0,0,0,0,0,0,0,0,0,0,0,0,0
1.997000000,0,0,0,0,0,0,0,0,0,0,0,0,0,0,0
1.998000000,0,0,0,0,0,0,0,0,0,0,0,0,0,0,0
1.999000000,0,0,0,0,0,0,0,0,0,0,0,0,0,0,0
2.000000000,0,0,0,0,0,0,0,0,0,0,0,0,0,0,0
2.001000000,0,0,0,0,0,0,0,0,0,0,0,0,0,0,0
2.002000000,0,0,0,0,0,0,0,0,0,0,0,0,0,0,0
2.003000000,0,0,0,0,0,0,0,0,0,0,0,0,0,0,0
2.004000000,0,0,0,0,0,0,0,0,0,0,0,0,0,0,0
2.005000000,0,0,0,0,0,0,0,0,0,0,0,0,0,0,0
2.006000000,0,0,0,0,0,0,0,0,0,0,0,0,0,0,0
2.007000000,0,0,0,0,0,0,0,0,0,0,0,0,0,0,0
2.008000000,0,0,0,0,0,0,0,0,0,0,0,0,0,0,0
2.009000000,0,0,0,0,0,0,0,0,0,0,0,0,0,0,0
2.010000000,0,0,0,0,0,0,0,0,0,0,0,0,0,0,0
2.011000000,0,0,0,0,0,0,0,0,0,0,0,0,0,0,0
2.012000000,0,0,0,0,0,0,0,0,0,0,0,0,0,0,0
2.013000000,0,0,0,0,0,0,0,0,0,0,0,0,0,0,0
2.014000000,0,0,0,0,0,0,0,0,0,0,0,0,0,0,0
2.015000000,0,0,0,0,0,0,0,0,0,0,0,0,0,0,0
2.016000000,0,0,0,0,0,0,0,0,0,0,0,0,0,0,0
2.017000000,0,0,0,0,0,0,0,0,0,0,0,0,0,0,0
2.018000000,0,0,0,0,0,0,0,0,0,0,0,0,0,0,0
2.019000000,0,0,0,0,0,0,0,0,0,0,0,0,0,0,0
2.020000000,0,0,0,0,0,0,0,0,0,0,0,0,0,0,0
2.021000000,0,0,0,0,0,0,0,0,0,0,0,0,0,0,0
2.022000000,0,0,0,0,0,0,0,0,0,0,0,0,0,0,0
2.023000000,0,0,0,0,0,0,0,0,0,0,0,0,0,0,0
2.024000000,0,0,0,0,0,0,0,0,0,0,0,0,0,0,0
2.025000000,0,0,0,0,0,0,0,0,0,0,0,0,0,0,0
2.026000000,0,0,0,0,0,0,0,0,0,0,0,0,0,0,0
2.027000000,0,0,0,0,0,0,0,0,0,0,0,0,0,0,0
2.028000000,0,0,0,0,0,0,0,0,0,0,0,0,0,0,0
2.029000000,0,0,0,0,0,0,0,0,0,0,0,0,0,0,0
2.030000000,0,0,0,0,0,0,0,0,0,0,0,0,0,0,0
2.031000000,0,0,0,0,0,0,0,0,0,0,0,0,0,0,0
2.032000000,0,0,0,0,0,0,0,0,0,0,0,0,0,0,0
2.033000000,0,0,0,0,0,0,0,0,0,0,0,0,0,0,0
2.034000000,0,0,0,0,0,0,0,0,0,0,0,0,0,0,0
2.035000000,0,0,0,0,0,0,0,0,0,0,0,0,0,0,0
2.036000000,0,0,0,0,0,0,0,0,0,0,0,0,0,0,0
2.037000000,0,0,0,0,0,0,0,0,0,0,0,0,0,0,0
2.038000000,0,0,0,0,0,0,0,0,0,0,0,0,0,0,0
2.039000000,0,0,0,0,0,0,0,0,0,0,0,0,0,0,0
2.040000000,0,0,0,0,0,0,0,0,0,0,0,0,0,0,0
2.041000000,0,0,0,0,0,0,0,0,0,0,0,0,0,0,0
2.042000000,0,0,0,0,0,0,0,0,0,0,0,0,0,0,0
2.043000000,0,0,0,0,0,0,0,0,0,0,0,0,0,0,0
2.044000000,0,0,0,0,0,0,0,0,0,0,0,0,0,0,0
2.045000000,0,0,0,0,0,0,0,0,0,0,0,0,0,0,0
2.046000000,0,0,0,0,0,0,0,0,0,0,0,0,0,0,0
2.047000000,0,0,0,0,0,0,0,0,0,0,0,0,0,0,0
2.048000000,0,0,0,0,0,0,0,0,0,0,0,0,0,0,0
2.049000000,0,0,0,0,0,0,0,0,0,0,0,0,0,0,0
2.050000000,0,0,0,0,0,0,0,0,0,0,0,0,0,0,0
2.051000000,0,0,0,0,0,0,0,0,0,0,0,0,0,0,0
2.052000000,0,0,0,0,0,0,0,0,0,0,0,0,0,0,0
2.053000000,0,0,0,0,0,0,0,0,0,0,0,0,0,0,0
2.054000000,0,0,0,0,0,0,0,0,0,0,0,0,0,0,0
2.055000000,0,0,0,0,0,0,0,0,0,0,0,0,0,0,0
2.056000000,0,0,0,0,0,0,0,0,0,0,0,0,0,0,0
2.057000000,0,0,0,0,0,0,0,0,0,0,0,0,0,0,0
2.058000000,0,0,0,0,0,0,0,0,0,0,0,0,0,0,0
2.059000000,0,0,0,0,0,0,0,0,0,0,0,0,0,0,0
2.060000000,0,0,0,0,0,0,0,0,0,0,0,0,0,0,0
2.061000000,0,0,0,0,0,0,0,0,0,0,0,0,0,0,0
2.062000000,0,0,0,0,0,0,0,0,0,0,0,0,0,0,0
2.063000000,0,0,0,0,0,0,0,0,0,0,0,0,0,0,0
2.064000000,0,0,0,0,0,0,0,0,0,0,0,0,0,0,0
2.065000000,0,0,0,0,0,0,0,0,0,0,0,0,0,0,0
2.066000000,0,0,0,0,0,0,0,0,0,0,0,0,0,0,0
2.067000000,0,0,0,0,0,0,0,0,0,0,0,0,0,0,0
2.068000000,0,0,0,0,0,0,0,0,0,0,0,0,0,0,0
2.069000000,0,0,0,0,0,0,0,0,0,0,0,0,0,0,0
2.070000000,0,0,0,0,0,0,0,0,0,0,0,0,0,0,0
2.071000000,0,0,0,0,0,0,0,0,0,0,0,0,0,0,0
2.072000000,0,0,0,0,0,0,0,0,0,0,0,0,0,0,0
2.073000000,0,0,0,0,0,0,0,0,0,0,0,0,0,0,0
2.074000000,0,0,0,0,0,0,0,0,0,0,0,0,0,0,0
2.075000000,0,0,0,0,0,0,0,0,0,0,0,0,0,0,0
2.076000000,0,0,0,0,0,0,0,0,0,0,0,0,0,0,0
2.077000000,0,0,0,0,0,0,0,0,0,0,0,0,0,0,0
2.078000000,0,0,0,0,0,0,0,0,0,0,0,0,0,0,0
2.079000000,0,0,0,0,0,0,0,0,0,0,0,0,0,0,0
2.080000000,0,0,0,0,0,0,0,0,0,0,0,0,0,0,0
2.081000000,0,0,0,0,0,0,0,0,0,0,0,0,0,0,0
2.082000000,0,0,0,0,0,0,0,0,0,0,0,0,0,0,0
2.083000000,0,0,0,0,0,0,0,0,0,0,0,0,0,0,0
2.084000000,0,0,0,0,0,0,0,0,0,0,0,0,0,0,0
2.085000000,0,0,0,0,0,0,0,0,0,0,0,0,0,0,0
2.086000000,0,0,0,0,0,0,0,0,0,0,0,0,0,0,0
2.087000000,0,0,0,0,0,0,0,0,0,0,0,0,0,0,0
2.088000000,0,0,0,0,0,0,0,0,0,0,0,0,0,0,0
2.089000000,0,0,0,0,0,0,0,0,0,0,0,0,0,0,0
2.090000000,0,0,0,0,0,0,0,0,0,0,0,0,0,0,0
2.091000000,0,0,0,0,0,0,0,0,0,0,0,0,0,0,0
2.092000000,0,0,0,0,0,0,0,0,0,0,0,0,0,0,0
2.093000000,0,0,0,0,0,0,0,0,0,0,0,0,0,0,0
2.094000000,0,0,0,0,0,0,0,0,0,0,0,0,0,0,0
2.095000000,0,0,0,0,0,0,0,0,0,0,0,0,0,0,0
2.096000000,0,0,0,0,0,0,0,0,0,0,0,0,0,0,0
2.097000000,0,0,0,0,0,0,0,0,0,0,0,0,0,0,0
2.098000000,0,0,0,0,0,0,0,0,0,0,0,0,0,0,0
2.099000000,0,0,0,0,0,0,0,0,0,0,0,0,0,0,0
2.100000000,0,0,0,0,0,0,0,0,0,0,0,0,0,0,0
2.101000000,0,0,0,0,0,0,0,0,0,0,0,0,0,0,0
2.102000000,0,0,0,0,0,0,0,0,0,0,0,0,0,0,0
2.103000000,0,0,0,0,0,0,0,0,0,0,0,0,0,0,0
2.104000000,0,0,0,0,0,0,0,0,0,0,0,0,0,0,0
2.105000000,0,0,0,0,0,0,0,0,0,0,0,0,0,0,0
2.106000000,0,0,0,0,0,0,0,0,0,0,0,0,0,0,0
2.107000000,0,0,0,0,0,0,0,0,0,0,0,0,0,0,0
2.108000000,0,0,0,0,0,0,0,0,0,0,0,0,0,0,0
2.109000000,0,0,0,0,0,0,0,0,0,0,0,0,0,0,0
2.110000000,0,0,0,0,0,0,0,0,0,0,0,0,0,0,0
2.111000000,0,0,0,0,0,0,0,0,0,0,0,0,0,0,0
2.112000000,0,0,0,0,0,0,0,0,0,0,0,0,0,0,0
2.113000000,0,0,0,0,0,0,0,0,0,0,0,0,0,0,0
2.114000000,0,0,0,0,0,0,0,0,0,0,0,0,0,0,0
2.115000000,0,0,0,0,0,0,0,0,0,0,0,0,0,0,0
2.116000000,0,0,0,0,0,0,0,0,0,0,0,0,0,0,0
2.117000000,0,0,0,0,0,0,0,0,0,0,0,0,0,0,0
2.118000000,0,0,0,0,0,0,0,0,0,0,0,0,0,0,0
2.119000000,0,0,0,0,0,0,0,0,0,0,0,0,0,0,0
2.120000000,0,0,0,0,0,0,0,0,0,0,0,0,0,0,0
2.121000000,0,0,0,0,0,0,0,0,0,0,0,0,0,0,0
2.122000000,0,0,0,0,0,0,0,0,0,0,0,0,0,0,0
2.123000000,0,0,0,0,0,0,0,0,0,0,0,0,0,0,0
2.124000000,0,0,0,0,0,0,0,0,0,0,0,0,0,0,0
2.125000000,0,0,0,0,0,0,0,0,0,0,0,0,0,0,0
2.126000000,0,0,0,0,0,0,0,0,0,0,0,0,0,0,0
2.127000000,0,0,0,0,0,0,0,0,0,0,0,0,0,0,0
2.128000000,0,0,0,0,0,0,0,0,0,0,0,0,0,0,0
2.129000000,0,0,0,0,0,0,0,0,0,0,0,0,0,0,0
2.130000000,0,0,0,0,0,0,0,0,0,0,0,0,0,0,0
2.131000000,0,0,0,0,0,0,0,0,0,0,0,0,0,0,0
2.132000000,0,0,0,0,0,0,0,0,0,0,0,0,0,0,0
2.133000000,0,0,0,0,0,0,0,0,0,0,0,0,0,0,0
2.134000000,0,0,0,0,0,0,0,0,0,0,0,0,0,0,0
2.135000000,0,0,0,0,0,0,0,0,0,0,0,0,0,0,0
2.136000000,0,0,0,0,0,0,0,0,0,0,0,0,0,0,0
2.137000000,0,0,0,0,0,0,0,0,0,0,0,0,0,0,0
2.138000000,0,0,0,0,0,0,0,0,0,0,0,0,0,0,0
2.139000000,0,0,0,0,0,0,0,0,0,0,0,0,0,0,0
2.140000000,0,0,0,0,0,0,0,0,0,0,0,0,0,0,0
2.141000000,0,0,0,0,0,0,0,0,0,0,0,0,0,0,0
2.142000000,0,0,0,0,0,0,0,0,0,0,0,0,0,0,0
2.143000000,0,0,0,0,0,0,0,0,0,0,0,0,0,0,0
2.144000000,0,0,0,0,0,0,0,0,0,0,0,0,0,0,0
2.145000000,0,0,0,0,0,0,0,0,0,0,0,0,0,0,0
2.146000000,0,0,0,0,0,0,0,0,0,0,0,0,0,0,0
2.147000000,0,0,0,0,0,0,0,0,0,0,0,0,0,0,0
2.148000000,0,0,0,0,0,0,0,0,0,0,0,0,0,0,0
2.149000000,0,0,0,0,0,0,0,0,0,0,0,0,0,0,0
2.150000000,0,0,0,0,0,0,0,0,0,0,0,0,0,0,0
2.151000000,0,0,0,0,0,0,0,0,0,0,0,0,0,0,0
2.152000000,0,0,0,0,0,0,0,0,0,0,0,0,0,0,0
2.153000000,0,0,0,0,0,0,0,0,0,0,0,0,0,0,0
2.154000000,0,0,0,0,0,0,0,0,0,0,0,0,0,0,0
2.155000000,0,0,0,0,0,0,0,0,0,0,0,0,0,0,0
2.156000000,0,0,0,0,0,0,0,0,0,0,0,0,0,0,0
2.157000000,0,0,0,0,0,0,0,0,0,0,0,0,0,0,0
2.158000000,0,0,0,0,0,0,0,0,0,0,0,0,0,0,0
2.159000000,0,0,0,0,0,0,0,0,0,0,0,0,0,0,0
2.160000000,0,0,0,0,0,0,0,0,0,0,0,0,0,0,0
2.161000000,0,0,0,0,0,0,0,0,0,0,0,0,0,0,0
2.162000000,0,0,0,0,0,0,0,0,0,0,0,0,0,0,0
2.163000000,0,0,0,0,0,0,0,0,0,0,0,0,0,0,0
2.164000000,0,0,0,0,0,0,0,0,0,0,0,0,0,0,0
2.165000000,0,0,0,0,0,0,0,0,0,0,0,0,0,0,0
2.166000000,0,0,0,0,0,0,0,0,0,0,0,0,0,0,0
2.167000000,0,0,0,0,0,0,0,0,0,0,0,0,0,0,0
2.168000000,0,0,0,0,0,0,0,0,0,0,0,0,0,0,0
2.169000000,0,0,0,0,0,0,0,0,0,0,0,0,0,0,0
2.170000000,0,0,0,0,0,0,0,0,0,0,0,0,0,0,0
2.171000000,0,0,0,0,0,0,0,0,0,0,0,0,0,0,0
2.172000000,0,0,0,0,0,0,0,0,0,0,0,0,0,0,0
2.173000000,0,0,0,0,0,0,0,0,0,0,0,0,0,0,0
2.174000000,0,0,0,0,0,0,0,0,0,0,0,0,0,0,0
2.175000000,0,0,0,0,0,0,0,0,0,0,0,0,0,0,0
2.176000000,0,0,0,0,0,0,0,0,0,0,0,0,0,0,0
2.177000000,0,0,0,0,0,0,0,0,0,0,0,0,0,0,0
2.178000000,0,0,0,0,0,0,0,0,0,0,0,0,0,0,0
2.179000000,0,0,0,0,0,0,0,0,0,0,0,0,0,0,0
2.180000000,0,0,0,0,0,0,0,0,0,0,0,0,0,0,0
2.181000000,0,0,0,0,0,0,0,0,0,0,0,0,0,0,0
2.182000000,0,0,0,0,0,0,0,0,0,0,0,0,0,0,0
2.183000000,0,0,0,0,0,0,0,0,0,0,0,0,0,0,0
2.184000000,0,0,0,0,0,0,0,0,0,0,0,0,0,0,0
2.185000000,0,0,0,0,0,0,0,0,0,0,0,0,0,0,0
2.186000000,0,0,0,0,0,0,0,0,0,0,0,0,0,0,0
2.187000000,0,0,0,0,0,0,0,0,0,0,0,0,0,0,0
2.188000000,0,0,0,0,0,0,0,0,0,0,0,0,0,0,0
2.189000000,0,0,0,0,0,0,0,0,0,0,0,0,0,0,0
2.190000000,0,0,0,0,0,0,0,0,0,0,0,0,0,0,0
2.191000000,0,0,0,0,0,0,0,0,0,0,0,0,0,0,0
2.192000000,0,0,0,0,0,0,0,0,0,0,0,0,0,0,0
2.193000000,0,0,0,0,0,0,0,0,0,0,0,0,0,0,0
2.194000000,0,0,0,0,0,0,0,0,0,0,0,0,0,0,0
2.195000000,0,0,0,0,0,0,0,0,0,0,0,0,0,0,0
2.196000000,0,0,0,0,0,0,0,0,0,0,0,0,0,0,0
2.197000000,0,0,0,0,0,0,0,0,0,0,0,0,0,0,0
2.198000000,0,0,0,0,0,0,0,0,0,0,0,0,0,0,0
2.199000000,0,0,0,0,0,0,0,0,0,0,0,0,0,0,0
2.200000000,0,0,0,0,0,0,0,0,0,0,0,0,0,0,0
2.201000000,0,0,0,0,0,0,0,0,0,0,0,0,0,0,0
2.202000000,0,0,0,0,0,0,0,0,0,0,0,0,0,0,0
2.203000000,0,0,0,0,0,0,0,0,0,0,0,0,0,0,0
2.204000000,0,0,0,0,0,0,1,0,0,0,0,0,0,0,0
2.205000000,0,0,0,0,0,0,1,0,0,0,0,0,0,0,0
2.206000000,0,0,0,0,0,0,1,0,0,0,0,0,0,0,0
2.207000000,0,0,0,0,0,0,1,0,0,0,0,0,0,0,0
2.208000000,0,0,0,0,0,0,1,0,0,0,0,0,0,0,0
2.209000000,0,0,0,0,0,0,1,0,0,0,0,0,0,0,0
2.210000000,0,0,0,0,0,0,1,0,0,0,0,0,0,0,0
2.211000000,0,0,0,0,0,0,1,0,0,0,0,0,0,0,0
2.212000000,0,0,0,0,0,0,1,0,0,0,0,0,0,0,0
2.213000000,0,0,0,0,0,0,1,0,0,0,0,0,0,0,0
2.214000000,0,0,0,0,0,0,1,0,0,0,0,0,0,0,0
2.215000000,0,0,0,0,0,0,1,0,0,0,0,0,0,0,0
2.216000000,0,0,0,0,0,0,1,0,0,0,0,0,0,0,0
2.217000000,0,0,0,0,0,0,1,0,0,0,0,0,0,0,0
2.218000000,0,0,0,0,0,0,1,0,0,0,0,0,0,0,0
2.219000000,0,0,0,0,0,0,1,0,0,0,0,0,0,0,0
2.220000000,0,0,0,0,0,0,1,0,0,0,0,0,0,0,0
2.221000000,0,0,0,0,0,0,1,0,0,0,0,0,0,0,0
2.222000000,0,0,0,0,0,0,1,0,0,0,0,0,0,0,0
2.223000000,0,0,0,0,0,0,1,0,0,0,0,0,0,0,0
2.224000000,0,0,0,0,0,0,1,0,0,0,0,0,0,0,0
2.225000000,0,0,0,0,0,0,1,0,0,0,0,0,0,0,0
2.226000000,0,0,0,0,0,0,1,0,0,0,0,0,0,0,0
2.227000000,0,0,0,0,0,0,1,0,0,0,0,0,0,0,0
2.228000000,0,0,0,0,0,0,1,0,0,0,0,0,0,0,0
2.229000000,0,0,0,0,0,0,1,0,0,0,0,0,0,0,0
2.230000000,0,0,0,0,0,0,1,0,0,0,0,0,0,0,0
2.231000000,0,0,0,0,0,0,1,0,0,0,0,0,0,0,0
2.232000000,0,0,0,0,0,0,1,0,0,0,0,0,0,0,0
2.233000000,0,0,0,0,0,0,1,0,0,0,0,0,0,0,0
2.234000000,0,0,0,0,0,0,1,0,0,0,0,0,0,0,0
2.235000000,0,0,0,0,0,0,1,0,0,0,0,0,0,0,0
2.236000000,0,0,0,0,0,0,1,0,0,0,0,0,0,0,0
2.237000000,0,0,0,0,0,0,1,0,0,0,0,0,0,0,0
2.238000000,0,0,0,0,0,0,1,0,0,0,0,0,0,0,0
2.239000000,0,0,0,0,0,0,1,0,0,0,0,0,0,0,0
2.240000000,0,0,0,0,0,0,1,0,0,0,0,0,0,0,0
2.241000000,0,0,0,0,0,0,1,0,0,0,0,0,0,0,0
2.242000000,0,0,0,0,0,0,1,0,0,0,0,0,0,0,0
2.243000000,0,0,0,0,0,0,1,0,0,0,0,0,0,0,0
2.244000000,0,0,0,0,0,0,1,0,0,0,0,0,0,0,0
2.245000000,0,0,0,0,0,0,1,0,0,0,0,0,0,0,0
2.246000000,0,0,0,0,0,0,1,0,0,0,0,0,0,0,0
2.247000000,0,0,0,0,0,0,1,0,0,0,0,0,0,0,0
2.248000000,0,0,0,0,0,0,1,0,0,0,0,0,0,0,0
2.249000000,0,0,0,0,0,0,1,0,0,0,0,0,0,0,0
2.250000000,0,0,0,0,0,0,1,0,0,0,0,0,0,0,0
2.251000000,0,0,0,0,0,0,1,0,0,0,0,0,0,0,0
2.252000000,0,0,0,0,0,0,1,0,0,0,0,0,0,0,0
2.253000000,0,0,0,0,0,0,1,0,0,0,0,0,0,0,0
2.254000000,0,0,0,0,0,0,1,0,0,0,0,0,0,0,0
2.255000000,0,0,0,0,0,0,1,0,0,0,0,0,0,0,0
2.256000000,0,0,0,0,0,0,1,0,0,0,0,0,0,0,0
2.257000000,0,0,0,0,0,0,1,0,0,0,0,0,0,0,0
2.258000000,0,0,0,0,0,0,1,0,0,0,0,0,0,0,0
2.259000000,0,0,0,0,0,0,1,0,0,0,0,0,0,0,0
2.260000000,0,0,0,0,0,0,1,0,0,0,0,0,0,0,0
2.261000000,0,0,0,0,0,0,1,0,0,0,0,0,0,0,0
2.262000000,0,0,0,0,0,0,1,0,0,0,0,0,0,0,0
2.263000000,0,0,0,0,0,0,1,0,0,0,0,0,0,0,0
2.264000000,0,0,0,0,0,0,1,0,0,0,0,0,0,0,0
2.265000000,0,0,0,0,0,0,1,0,0,0,0,0,0,0,0
2.266000000,0,0,0,0,0,0,1,0,0,0,0,0,0,0,0
2.267000000,0,0,0,0,0,0,1,0,0,0,0,0,0,0,0
2.268000000,0,0,0,0,0,0,1,0,0,0,0,0,0,0,0
2.269000000,0,0,0,0,0,0,1,0,0,0,0,0,0,0,0
2.270000000,0,0,0,0,0,0,1,0,0,0,0,0,0,0,0
2.271000000,0,0,0,0,0,0,1,0,0,0,0,0,0,0,0
2.272000000,0,0,0,0,0,0,1,0,0,0,0,0,0,0,0
2.273000000,0,0,0,0,0,0,1,0,0,0,0,0,0,0,0
2.274000000,0,0,0,0,0,0,1,0,0,0,0,0,0,0,0
2.275000000,0,0,0,0,0,0,1,0,0,0,0,0,0,0,0
2.276000000,0,0,0,0,0,0,1,0,0,0,0,0,0,0,0
2.277000000,0,0,0,0,0,0,1,0,0,0,0,0,0,0,0
2.278000000,0,0,0,0,0,0,1,0,0,0,0,0,0,0,0
2.279000000,0,0,0,0,0,0,1,0,0,0,0,0,0,0,0
2.280000000,0,0,0,0,0,0,1,0,0,0,0,0,0,0,0
2.281000000,0,0,0,0,0,0,1,0,0,0,0,0,0,0,0
2.282000000,0,0,0,0,0,0,1,0,0,0,0,0,0,0,0
2.283000000,0,0,0,0,0,0,1,0,0,0,0,0,0,0,0
2.284000000,0,0,0,0,0,0,1,0,0,0,0,0,0,0,0
2.285000000,0,0,0,0,0,0,1,0,0,0,0,0,0,0,0
2.286000000,0,0,0,0,0,0,1,0,0,0,0,0,0,0,0
2.287000000,0,0,0,0,0,0,1,0,0,0,0,0,0,0,0
2.288000000,0,0,0,0,0,0,1,0,0,0,0,0,0,0,0
2.289000000,0,0,0,0,0,0,1,0,0,0,0,0,0,0,0
2.290000000,0,0,0,0,0,0,1,0,0,0,0,0,0,0,0
2.291000000,0,0,0,0,0,0,1,0,0,0,0,0,0,0,0
2.292000000,0,0,0,0,0,0,1,0,0,0,0,0,0,0,0
2.293000000,0,0,0,0,0,0,1,0,0,0,0,0,0,0,0
2.294000000,0,0,0,0,0,0,1,0,0,0,0,0,0,0,0
2.295000000,0,0,0,0,0,0,1,0,0,0,0,0,0,0,0
2.296000000,0,0,0,0,0,0,1,0,0,0,0,0,0,0,0
2.297000000,0,0,0,0,0,0,1,0,0,0,0,0,0,0,0
2.298000000,0,0,0,0,0,0,1,0,0,0,0,0,0,0,0
2.299000000,0,0,0,0,0,0,1,0,0,0,0,0,0,0,0
2.300000000,0,0,0,0,0,0,1,0,0,0,0,0,0,0,0
2.301000000,0,0,0,0,0,0,1,0,0,0,0,0,0,0,0
2.302000000,0,0,0,0,0,0,1,0,0,0,0,0,0,0,0
2.303000000,0,0,0,0,0,0,1,0,0,0,0,0,0,0,0
2.304000000,0,0,0,0,0,0,1,0,0,0,0,0,0,0,0
2.305000000,0,0,0,0,0,0,1,0,0,0,0,0,0,0,0
2.306000000,0,0,0,0,0,0,1,0,0,0,0,0,0,0,0
2.307000000,0,0,0,0,0,0,1,0,0,0,0,0,0,0,0
2.308000000,0,0,0,0,0,0,1,0,0,0,0,0,0,0,0
2.309000000,0,0,0,0,0,0,1,0,0,0,0,0,0,0,0
