source:ccrt device:log_01 epoch:1673450018 timeOrigin:3.000000000 firstSampleTime:0.000000000 period:0.020000000 name:DCDIM1 type:analog,DCDIM1_ANA_1 +0.003000000,DCDIM1_ANA_2 +0.004000000,DCDIM1_ANA_3 +0.005000000,DCDIM1_ANA_4 +0.006000000
0.000000000,3.003,3.0039999,3.0050001,3.006
0.020000000,3.023,3.0240002,3.0250001,3.026
0.040000000,3.043,3.0440001,3.0450001,3.046
0.060000000,3.063,3.0640001,3.0650001,3.066
0.080000000,3.0829999,3.0840001,3.085,3.086
0.100000000,3.1030002,3.1040001,3.105,3.1059999
0.120000000,3.1230001,3.1240001,3.125,3.1259999
0.140000000,3.1430001,3.1440001,3.145,3.1459999
0.160000000,3.1630001,3.164,3.165,3.1659999
0.180000000,3.1830001,3.184,3.1849999,3.1859999
0.200000000,3.2030001,3.204,3.2049999,3.2059999
0.220000000,3.223,3.224,3.2249999,3.2259998
0.240000000,3.243,3.244,3.2449999,3.2460001
0.260000000,3.263,3.2639999,3.2649999,3.266
0.280000000,3.283,3.2839999,3.2849998,3.286
0.300000000,3.303,3.3039999,3.3050001,3.306
0.320000000,3.323,3.3239999,3.325,3.326
0.340000000,3.3429999,3.3439999,3.345,3.346
0.360000000,3.3629999,3.3639998,3.365,3.3659999
0.380000000,3.3829999,3.3840001,3.385,3.3860002
0.400000000,3.4029999,3.404,3.405,3.4060001
0.420000000,3.4229999,3.424,3.425,3.4260001
0.440000000,3.4429998,3.444,3.4449999,3.4460001
0.460000000,3.4630001,3.464,3.4650002,3.4660001
0.480000000,3.483,3.484,3.4850001,3.4860001
0.500000000,3.503,3.5039999,3.5050001,3.506
0.520000000,3.523,3.5239999,3.5250001,3.526
0.540000000,3.543,3.5440001,3.5450001,3.546
0.560000000,3.563,3.5640001,3.5650001,3.566
0.580000000,3.5829999,3.5840001,3.585,3.586
0.600000000,3.6029999,3.6040001,3.605,3.6059999
0.620000000,3.6230001,3.6240001,3.625,3.6259999
0.640000000,3.6430001,3.6440001,3.645,3.6459999
0.660000000,3.6630001,3.664,3.665,3.6659999
0.680000000,3.6830001,3.684,3.6849999,3.6859999
0.700000000,3.7030001,3.704,3.7049999,3.7059999
0.720000000,3.723,3.724,3.7249999,3.7260001
0.740000000,3.743,3.744,3.7449999,3.7460001
0.760000000,3.763,3.7639999,3.7649999,3.766
0.780000000,3.783,3.7839999,3.7850001,3.786
0.800000000,3.803,3.8039999,3.8050001,3.806
0.820000000,3.823,3.8239999,3.825,3.826
0.840000000,3.8429999,3.8439999,3.845,3.846
0.860000000,3.8629999,3.8640001,3.865,3.8659999
0.880000000,3.8829999,3.8840001,3.885,3.8859999
0.900000000,3.9029999,3.904,3.905,3.9060001
0.920000000,3.9229999,3.924,3.925,3.9260001
0.940000000,3.9430001,3.944,3.9449999,3.9460001
0.960000000,3.9630001,3.964,3.9649999,3.9660001
0.980000000,3.983,3.984,3.9850001,3.9860001
1.000000000,3.003,3.0039999,3.0050001,3.006
1.020000000,3.023,3.0240002,3.0250001,3.026
1.040000000,3.043,3.0440001,3.0450001,3.046
1.060000000,3.063,3.0640001,3.0650001,3.066
1.080000000,3.0829999,3.0840001,3.085,3.086
1.100000000,3.1030002,3.1040001,3.105,3.1059999
1.120000000,3.1230001,3.1240001,3.125,3.1259999
1.140000000,3.1430001,3.1440001,3.145,3.1459999
1.160000000,3.1630001,3.164,3.165,3.1659999
1.180000000,3.1830001,3.184,3.1849999,3.1859999
1.200000000,3.2030001,3.204,3.2049999,3.2059999
1.220000000,3.223,3.224,3.2249999,3.2259998
1.240000000,3.243,3.244,3.2449999,3.2460001
1.260000000,3.263,3.2639999,3.2649999,3.266
1.280000000,3.283,3.2839999,3.2849998,3.286
1.300000000,3.303,3.3039999,3.3050001,3.306
1.320000000,3.323,3.3239999,3.325,3.326
1.340000000,3.3429999,3.3439999,3.345,3.346
1.360000000,3.3629999,3.3639998,3.365,3.3659999
1.380000000,3.3829999,3.3840001,3.385,3.3860002
1.400000000,3.4029999,3.404,3.405,3.4060001
1.420000000,3.4229999,3.424,3.425,3.4260001
1.440000000,3.4429998,3.444,3.4449999,3.4460001
1.460000000,3.4630001,3.464,3.4650002,3.4660001
1.480000000,3.483,3.484,3.4850001,3.4860001
1.500000000,3.503,3.5039999,3.5050001,3.506
1.520000000,3.523,3.5239999,3.5250001,3.526
1.540000000,3.543,3.5440001,3.5450001,3.546
1.560000000,3.563,3.5640001,3.5650001,3.566
1.580000000,3.5829999,3.5840001,3.585,3.586
1.600000000,3.6029999,3.6040001,3.605,3.6059999
1.620000000,3.6230001,3.6240001,3.625,3.6259999
1.640000000,3.6430001,3.6440001,3.645,3.6459999
1.660000000,3.6630001,3.664,3.665,3.6659999
1.680000000,3.6830001,3.684,3.6849999,3.6859999
1.700000000,3.7030001,3.704,3.7049999,3.7059999
1.720000000,3.723,3.724,3.7249999,3.7260001
1.740000000,3.743,3.744,3.7449999,3.7460001
1.760000000,3.763,3.7639999,3.7649999,3.766
1.780000000,3.783,3.7839999,3.7850001,3.786
1.800000000,3.803,3.8039999,3.8050001,3.806
1.820000000,3.823,3.8239999,3.825,3.826
1.840000000,3.8429999,3.8439999,3.845,3.846
1.860000000,3.8629999,3.8640001,3.865,3.8659999
1.880000000,3.8829999,3.8840001,3.885,3.8859999
1.900000000,3.9029999,3.904,3.905,3.9060001
1.920000000,3.9229999,3.924,3.925,3.9260001
1.940000000,3.9430001,3.944,3.9449999,3.9460001
1.960000000,3.9630001,3.964,3.9649999,3.9660001
1.980000000,3.983,3.984,3.9850001,3.9860001
